Axis,KeyFrame,Value,InterpolationType
X,0,0.0,eInterpolationCubic
X,0*,0.0,eInterpolationCubic
X,1,0.0,eInterpolationCubic
X,1*,0.0,eInterpolationCubic
X,2,0.0,eInterpolationCubic
X,2*,0.0,eInterpolationCubic
X,3,0.0,eInterpolationCubic
X,3*,0.0,eInterpolationCubic
X,4,0.0,eInterpolationCubic
X,4*,0.0,eInterpolationCubic
X,5,0.0,eInterpolationCubic
X,5*,0.0,eInterpolationCubic
X,6,0.0,eInterpolationCubic
X,6*,0.0,eInterpolationCubic
X,7,0.0,eInterpolationCubic
X,7*,0.0,eInterpolationCubic
X,8,0.0,eInterpolationCubic
X,8*,0.0,eInterpolationCubic
X,9,0.0,eInterpolationCubic
X,9*,0.0,eInterpolationCubic
X,10,0.0,eInterpolationCubic
X,10*,0.0,eInterpolationCubic
X,11,0.0,eInterpolationCubic
X,11*,0.0,eInterpolationCubic
X,12,0.0,eInterpolationCubic
X,12*,0.0,eInterpolationCubic
X,13,0.0,eInterpolationCubic
X,13*,0.0,eInterpolationCubic
X,14,0.0,eInterpolationCubic
X,14*,0.0,eInterpolationCubic
X,15,0.0,eInterpolationCubic
X,15*,0.0,eInterpolationCubic
X,16,0.0,eInterpolationCubic
X,16*,0.0,eInterpolationCubic
X,17,0.0,eInterpolationCubic
X,17*,0.0,eInterpolationCubic
X,18,0.0,eInterpolationCubic
X,18*,0.0,eInterpolationCubic
X,19,0.0,eInterpolationCubic
X,19*,0.0,eInterpolationCubic
X,20,0.0,eInterpolationCubic
X,20*,0.0,eInterpolationCubic
X,21,0.0,eInterpolationCubic
X,21*,0.0,eInterpolationCubic
X,22,0.0,eInterpolationCubic
X,22*,0.0,eInterpolationCubic
X,23,0.0,eInterpolationCubic
X,23*,0.0,eInterpolationCubic
X,24,0.0,eInterpolationCubic
X,24*,0.0,eInterpolationCubic
X,25,0.0,eInterpolationCubic
X,25*,0.0,eInterpolationCubic
X,26,0.0,eInterpolationCubic
X,26*,0.0,eInterpolationCubic
X,27,0.0,eInterpolationCubic
X,27*,0.0,eInterpolationCubic
X,28,0.0,eInterpolationCubic
X,28*,0.0,eInterpolationCubic
X,29,0.0,eInterpolationCubic
X,29*,0.0,eInterpolationCubic
X,30,0.0,eInterpolationCubic
X,30*,0.0,eInterpolationCubic
X,31,0.0,eInterpolationCubic
X,31*,0.0,eInterpolationCubic
X,32,0.0,eInterpolationCubic
X,32*,0.0,eInterpolationCubic
X,33,0.0,eInterpolationCubic
X,33*,0.0,eInterpolationConstant
Y,0,-0.0,eInterpolationCubic
Y,0*,-5.836722373962402,eInterpolationCubic
Y,1,-20.040081024169922,eInterpolationCubic
Y,1*,-37.64985656738281,eInterpolationCubic
Y,2,-57.60847854614258,eInterpolationCubic
Y,2*,-80.37718963623047,eInterpolationCubic
Y,3,-103.2740478515625,eInterpolationCubic
Y,3*,-123.61709594726562,eInterpolationCubic
Y,4,-141.76625061035156,eInterpolationCubic
Y,4*,-159.84423828125,eInterpolationCubic
Y,5,-177.8133087158203,eInterpolationCubic
Y,5*,-195.6356964111328,eInterpolationCubic
Y,6,-213.27366638183594,eInterpolationCubic
Y,6*,-230.689453125,eInterpolationCubic
Y,7,-247.84532165527344,eInterpolationCubic
Y,7*,-264.7034912109375,eInterpolationCubic
Y,8,-281.22625732421875,eInterpolationCubic
Y,8*,-297.3758239746094,eInterpolationCubic
Y,9,-313.11444091796875,eInterpolationCubic
Y,9*,-328.4043884277344,eInterpolationCubic
Y,10,-342.892822265625,eInterpolationCubic
Y,10*,-356.1669921875,eInterpolationCubic
Y,11,-368.0994567871094,eInterpolationCubic
Y,11*,-378.5627136230469,eInterpolationCubic
Y,12,-387.4291687011719,eInterpolationCubic
Y,12*,-394.5714111328125,eInterpolationCubic
Y,13,-400.7678527832031,eInterpolationCubic
Y,13*,-406.8390808105469,eInterpolationCubic
Y,14,-412.7205810546875,eInterpolationCubic
Y,14*,-418.347900390625,eInterpolationCubic
Y,15,-423.6565856933594,eInterpolationCubic
Y,15*,-428.5821533203125,eInterpolationCubic
Y,16,-433.06011962890625,eInterpolationCubic
Y,16*,-437.02606201171875,eInterpolationCubic
Y,17,-440.41546630859375,eInterpolationCubic
Y,17*,-443.16387939453125,eInterpolationCubic
Y,18,-445.2068786621094,eInterpolationCubic
Y,18*,-446.4799499511719,eInterpolationCubic
Y,19,-446.91864013671875,eInterpolationCubic
Y,19*,-446.91864013671875,eInterpolationCubic
Y,20,-446.9183044433594,eInterpolationCubic
Y,20*,-446.91754150390625,eInterpolationCubic
Y,21,-446.91607666015625,eInterpolationCubic
Y,21*,-446.91363525390625,eInterpolationCubic
Y,22,-446.90997314453125,eInterpolationCubic
Y,22*,-446.9049072265625,eInterpolationCubic
Y,23,-446.8981628417969,eInterpolationCubic
Y,23*,-446.88946533203125,eInterpolationCubic
Y,24,-446.8786315917969,eInterpolationCubic
Y,24*,-446.8653869628906,eInterpolationCubic
Y,25,-446.8494873046875,eInterpolationCubic
Y,25*,-446.83074951171875,eInterpolationCubic
Y,26,-446.8088684082031,eInterpolationCubic
Y,26*,-446.7835998535156,eInterpolationCubic
Y,27,-446.7547607421875,eInterpolationCubic
Y,27*,-446.7220764160156,eInterpolationCubic
Y,28,-446.685302734375,eInterpolationCubic
Y,28*,-446.64422607421875,eInterpolationCubic
Y,29,-446.5985412597656,eInterpolationCubic
Y,29*,-446.548095703125,eInterpolationCubic
Y,30,-446.49261474609375,eInterpolationCubic
Y,30*,-446.4318542480469,eInterpolationCubic
Y,31,-446.36553955078125,eInterpolationCubic
Y,31*,-446.2934875488281,eInterpolationCubic
Y,32,-446.2154235839844,eInterpolationCubic
Y,32*,-446.1311340332031,eInterpolationCubic
Y,33,-446.1311340332031,eInterpolationCubic
Y,33*,-446.1311340332031,eInterpolationConstant
Z,0,0.0,eInterpolationCubic
Z,0*,0.0,eInterpolationCubic
Z,1,0.0,eInterpolationCubic
Z,1*,0.0,eInterpolationCubic
Z,2,0.0,eInterpolationCubic
Z,2*,0.0,eInterpolationCubic
Z,3,0.0,eInterpolationCubic
Z,3*,0.0,eInterpolationCubic
Z,4,0.0,eInterpolationCubic
Z,4*,0.0,eInterpolationCubic
Z,5,0.0,eInterpolationCubic
Z,5*,0.0,eInterpolationCubic
Z,6,0.0,eInterpolationCubic
Z,6*,0.0,eInterpolationCubic
Z,7,0.0,eInterpolationCubic
Z,7*,0.0,eInterpolationCubic
Z,8,0.0,eInterpolationCubic
Z,8*,0.0,eInterpolationCubic
Z,9,0.0,eInterpolationCubic
Z,9*,0.0,eInterpolationCubic
Z,10,0.0,eInterpolationCubic
Z,10*,0.0,eInterpolationCubic
Z,11,0.0,eInterpolationCubic
Z,11*,0.0,eInterpolationCubic
Z,12,0.0,eInterpolationCubic
Z,12*,0.0,eInterpolationCubic
Z,13,0.0,eInterpolationCubic
Z,13*,0.0,eInterpolationCubic
Z,14,0.0,eInterpolationCubic
Z,14*,0.0,eInterpolationCubic
Z,15,0.0,eInterpolationCubic
Z,15*,0.0,eInterpolationCubic
Z,16,0.0,eInterpolationCubic
Z,16*,0.0,eInterpolationCubic
Z,17,0.0,eInterpolationCubic
Z,17*,0.0,eInterpolationCubic
Z,18,0.0,eInterpolationCubic
Z,18*,0.0,eInterpolationCubic
Z,19,0.0,eInterpolationCubic
Z,19*,0.0,eInterpolationCubic
Z,20,0.0,eInterpolationCubic
Z,20*,0.0,eInterpolationCubic
Z,21,0.0,eInterpolationCubic
Z,21*,0.0,eInterpolationCubic
Z,22,0.0,eInterpolationCubic
Z,22*,0.0,eInterpolationCubic
Z,23,0.0,eInterpolationCubic
Z,23*,0.0,eInterpolationCubic
Z,24,0.0,eInterpolationCubic
Z,24*,0.0,eInterpolationCubic
Z,25,0.0,eInterpolationCubic
Z,25*,0.0,eInterpolationCubic
Z,26,0.0,eInterpolationCubic
Z,26*,0.0,eInterpolationCubic
Z,27,0.0,eInterpolationCubic
Z,27*,0.0,eInterpolationCubic
Z,28,0.0,eInterpolationCubic
Z,28*,0.0,eInterpolationCubic
Z,29,0.0,eInterpolationCubic
Z,29*,0.0,eInterpolationCubic
Z,30,0.0,eInterpolationCubic
Z,30*,0.0,eInterpolationCubic
Z,31,0.0,eInterpolationCubic
Z,31*,0.0,eInterpolationCubic
Z,32,0.0,eInterpolationCubic
Z,32*,0.0,eInterpolationCubic
Z,33,0.0,eInterpolationCubic
Z,33*,0.0,eInterpolationConstant
