Axis,KeyFrame,Value,InterpolationType
X,0,0.0,eInterpolationCubic
X,0*,-4.329818248748779,eInterpolationCubic
X,1,-9.215760231018066,eInterpolationCubic
X,1*,-14.419487953186035,eInterpolationCubic
X,2,-19.702659606933594,eInterpolationCubic
X,2*,-24.826940536499023,eInterpolationCubic
X,3,-29.553991317749023,eInterpolationCubic
X,3*,-33.645469665527344,eInterpolationCubic
X,4,-36.863040924072266,eInterpolationCubic
X,4*,-38.96836853027344,eInterpolationCubic
X,5,-39.723106384277344,eInterpolationCubic
X,5*,-39.723106384277344,eInterpolationCubic
X,6,-39.723106384277344,eInterpolationCubic
X,6*,-39.723106384277344,eInterpolationCubic
X,7,-39.723106384277344,eInterpolationCubic
X,7*,-39.723106384277344,eInterpolationCubic
X,8,-39.723106384277344,eInterpolationCubic
X,8*,-39.723106384277344,eInterpolationCubic
X,9,-39.723106384277344,eInterpolationCubic
X,9*,-39.723106384277344,eInterpolationCubic
X,10,-39.723106384277344,eInterpolationCubic
X,10*,-39.723106384277344,eInterpolationCubic
X,11,-39.723106384277344,eInterpolationCubic
X,11*,-39.723106384277344,eInterpolationCubic
X,12,-39.723106384277344,eInterpolationCubic
X,12*,-39.723106384277344,eInterpolationCubic
X,13,-39.723106384277344,eInterpolationCubic
X,13*,-39.723106384277344,eInterpolationCubic
X,14,-39.723106384277344,eInterpolationCubic
X,14*,-39.723106384277344,eInterpolationCubic
X,15,-39.723106384277344,eInterpolationCubic
X,15*,-39.723106384277344,eInterpolationCubic
X,16,-39.723106384277344,eInterpolationCubic
X,16*,-39.723106384277344,eInterpolationCubic
X,17,-39.723106384277344,eInterpolationCubic
X,17*,-39.723106384277344,eInterpolationCubic
X,18,-39.723106384277344,eInterpolationCubic
X,18*,-39.723106384277344,eInterpolationCubic
X,19,-39.723106384277344,eInterpolationCubic
X,19*,-39.723106384277344,eInterpolationCubic
X,20,-39.723106384277344,eInterpolationCubic
X,20*,-39.723106384277344,eInterpolationCubic
X,21,-39.723106384277344,eInterpolationCubic
X,21*,-39.723106384277344,eInterpolationCubic
X,22,-39.723106384277344,eInterpolationCubic
X,22*,-39.723106384277344,eInterpolationCubic
X,23,-39.723106384277344,eInterpolationCubic
X,23*,-39.723106384277344,eInterpolationCubic
X,24,-39.723106384277344,eInterpolationCubic
X,24*,-39.723106384277344,eInterpolationCubic
X,25,-39.723106384277344,eInterpolationCubic
X,25*,-39.723106384277344,eInterpolationCubic
X,26,-39.723106384277344,eInterpolationCubic
X,26*,-39.723106384277344,eInterpolationCubic
X,27,-39.723106384277344,eInterpolationCubic
X,27*,-39.723106384277344,eInterpolationCubic
X,28,-39.723106384277344,eInterpolationCubic
X,28*,-39.723106384277344,eInterpolationCubic
X,29,-39.723106384277344,eInterpolationCubic
X,29*,-39.723106384277344,eInterpolationCubic
X,30,-39.723106384277344,eInterpolationCubic
X,30*,-39.723106384277344,eInterpolationConstant
Y,0,-0.0,eInterpolationCubic
Y,0*,-0.0,eInterpolationCubic
Y,1,-0.0,eInterpolationCubic
Y,1*,-0.0,eInterpolationCubic
Y,2,-0.0,eInterpolationCubic
Y,2*,-0.0,eInterpolationCubic
Y,3,-0.0,eInterpolationCubic
Y,3*,-0.0,eInterpolationCubic
Y,4,-0.0,eInterpolationCubic
Y,4*,-0.0,eInterpolationCubic
Y,5,-0.0,eInterpolationCubic
Y,5*,-0.0,eInterpolationCubic
Y,6,-0.0,eInterpolationCubic
Y,6*,-0.0,eInterpolationCubic
Y,7,-0.0,eInterpolationCubic
Y,7*,-0.0,eInterpolationCubic
Y,8,-0.0,eInterpolationCubic
Y,8*,-0.0,eInterpolationCubic
Y,9,-0.0,eInterpolationCubic
Y,9*,-0.0,eInterpolationCubic
Y,10,-0.0,eInterpolationCubic
Y,10*,-0.0,eInterpolationCubic
Y,11,-0.0,eInterpolationCubic
Y,11*,-0.0,eInterpolationCubic
Y,12,-0.0,eInterpolationCubic
Y,12*,-0.0,eInterpolationCubic
Y,13,-0.0,eInterpolationCubic
Y,13*,-0.0,eInterpolationCubic
Y,14,-0.0,eInterpolationCubic
Y,14*,-0.0,eInterpolationCubic
Y,15,-0.0,eInterpolationCubic
Y,15*,-0.0,eInterpolationCubic
Y,16,-0.0,eInterpolationCubic
Y,16*,-0.0,eInterpolationCubic
Y,17,-0.0,eInterpolationCubic
Y,17*,-0.0,eInterpolationCubic
Y,18,-0.0,eInterpolationCubic
Y,18*,-0.0,eInterpolationCubic
Y,19,-0.0,eInterpolationCubic
Y,19*,-0.0,eInterpolationCubic
Y,20,-0.0,eInterpolationCubic
Y,20*,-0.0,eInterpolationCubic
Y,21,-0.0,eInterpolationCubic
Y,21*,-0.0,eInterpolationCubic
Y,22,-0.0,eInterpolationCubic
Y,22*,-0.0,eInterpolationCubic
Y,23,-0.0,eInterpolationCubic
Y,23*,-0.0,eInterpolationCubic
Y,24,-0.0,eInterpolationCubic
Y,24*,-0.0,eInterpolationCubic
Y,25,-0.0,eInterpolationCubic
Y,25*,-0.0,eInterpolationCubic
Y,26,-0.0,eInterpolationCubic
Y,26*,-0.0,eInterpolationCubic
Y,27,-0.0,eInterpolationCubic
Y,27*,-0.0,eInterpolationCubic
Y,28,-0.0,eInterpolationCubic
Y,28*,-0.0,eInterpolationCubic
Y,29,-0.0,eInterpolationCubic
Y,29*,-0.0,eInterpolationCubic
Y,30,-0.0,eInterpolationCubic
Y,30*,-0.0,eInterpolationConstant
Z,0,0.0,eInterpolationCubic
Z,0*,0.0,eInterpolationCubic
Z,1,0.0,eInterpolationCubic
Z,1*,0.0,eInterpolationCubic
Z,2,0.0,eInterpolationCubic
Z,2*,0.0,eInterpolationCubic
Z,3,0.0,eInterpolationCubic
Z,3*,0.0,eInterpolationCubic
Z,4,0.0,eInterpolationCubic
Z,4*,0.0,eInterpolationCubic
Z,5,0.0,eInterpolationCubic
Z,5*,0.0,eInterpolationCubic
Z,6,0.0,eInterpolationCubic
Z,6*,0.0,eInterpolationCubic
Z,7,0.0,eInterpolationCubic
Z,7*,0.0,eInterpolationCubic
Z,8,0.0,eInterpolationCubic
Z,8*,0.0,eInterpolationCubic
Z,9,0.0,eInterpolationCubic
Z,9*,0.0,eInterpolationCubic
Z,10,0.0,eInterpolationCubic
Z,10*,0.0,eInterpolationCubic
Z,11,0.0,eInterpolationCubic
Z,11*,0.0,eInterpolationCubic
Z,12,0.0,eInterpolationCubic
Z,12*,0.0,eInterpolationCubic
Z,13,0.0,eInterpolationCubic
Z,13*,0.0,eInterpolationCubic
Z,14,0.0,eInterpolationCubic
Z,14*,0.0,eInterpolationCubic
Z,15,0.0,eInterpolationCubic
Z,15*,0.0,eInterpolationCubic
Z,16,0.0,eInterpolationCubic
Z,16*,0.0,eInterpolationCubic
Z,17,0.0,eInterpolationCubic
Z,17*,0.0,eInterpolationCubic
Z,18,0.0,eInterpolationCubic
Z,18*,0.0,eInterpolationCubic
Z,19,0.0,eInterpolationCubic
Z,19*,0.0,eInterpolationCubic
Z,20,0.0,eInterpolationCubic
Z,20*,0.0,eInterpolationCubic
Z,21,0.0,eInterpolationCubic
Z,21*,0.0,eInterpolationCubic
Z,22,0.0,eInterpolationCubic
Z,22*,0.0,eInterpolationCubic
Z,23,0.0,eInterpolationCubic
Z,23*,0.0,eInterpolationCubic
Z,24,0.0,eInterpolationCubic
Z,24*,0.0,eInterpolationCubic
Z,25,0.0,eInterpolationCubic
Z,25*,0.0,eInterpolationCubic
Z,26,0.0,eInterpolationCubic
Z,26*,0.0,eInterpolationCubic
Z,27,0.0,eInterpolationCubic
Z,27*,0.0,eInterpolationCubic
Z,28,0.0,eInterpolationCubic
Z,28*,0.0,eInterpolationCubic
Z,29,0.0,eInterpolationCubic
Z,29*,0.0,eInterpolationCubic
Z,30,0.0,eInterpolationCubic
Z,30*,0.0,eInterpolationConstant
