Axis,KeyFrame,Value,InterpolationType
X,0,0.0,eInterpolationCubic
X,0*,0.0,eInterpolationCubic
X,1,0.0,eInterpolationCubic
X,1*,0.0,eInterpolationCubic
X,2,0.0,eInterpolationCubic
X,2*,0.0,eInterpolationCubic
X,3,0.0,eInterpolationCubic
X,3*,0.0,eInterpolationCubic
X,4,0.0,eInterpolationCubic
X,4*,0.0,eInterpolationCubic
X,5,0.0,eInterpolationCubic
X,5*,0.0,eInterpolationCubic
X,6,0.0,eInterpolationCubic
X,6*,0.0,eInterpolationCubic
X,7,0.0,eInterpolationCubic
X,7*,0.0,eInterpolationCubic
X,8,0.0,eInterpolationCubic
X,8*,0.0,eInterpolationCubic
X,9,0.0,eInterpolationCubic
X,9*,0.0,eInterpolationCubic
X,10,0.0,eInterpolationCubic
X,10*,0.0,eInterpolationCubic
X,11,0.0,eInterpolationCubic
X,11*,0.0,eInterpolationCubic
X,12,0.0,eInterpolationCubic
X,12*,0.0,eInterpolationCubic
X,13,0.0,eInterpolationCubic
X,13*,0.0,eInterpolationCubic
X,14,0.0,eInterpolationCubic
X,14*,0.0,eInterpolationCubic
X,15,0.0,eInterpolationCubic
X,15*,0.0,eInterpolationCubic
X,16,0.0,eInterpolationCubic
X,16*,0.0,eInterpolationCubic
X,17,0.0,eInterpolationCubic
X,17*,0.0,eInterpolationCubic
X,18,0.0,eInterpolationCubic
X,18*,0.0,eInterpolationCubic
X,19,0.0,eInterpolationCubic
X,19*,0.0,eInterpolationCubic
X,20,0.0,eInterpolationCubic
X,20*,0.0,eInterpolationCubic
X,21,0.0,eInterpolationCubic
X,21*,0.0,eInterpolationCubic
X,22,0.0,eInterpolationCubic
X,22*,0.0,eInterpolationCubic
X,23,0.0,eInterpolationCubic
X,23*,0.0,eInterpolationCubic
X,24,0.0,eInterpolationCubic
X,24*,0.0,eInterpolationCubic
X,25,0.0,eInterpolationCubic
X,25*,0.0,eInterpolationCubic
X,26,0.0,eInterpolationCubic
X,26*,0.0,eInterpolationCubic
X,27,0.0,eInterpolationCubic
X,27*,0.0,eInterpolationCubic
X,28,0.0,eInterpolationCubic
X,28*,0.0,eInterpolationCubic
X,29,0.0,eInterpolationCubic
X,29*,0.0,eInterpolationCubic
X,30,0.0,eInterpolationCubic
X,30*,0.0,eInterpolationCubic
X,31,0.0,eInterpolationCubic
X,31*,0.0,eInterpolationCubic
X,32,0.0,eInterpolationCubic
X,32*,0.0,eInterpolationCubic
X,33,0.0,eInterpolationCubic
X,33*,0.0,eInterpolationCubic
X,34,0.0,eInterpolationCubic
X,34*,0.0,eInterpolationCubic
X,35,0.0,eInterpolationCubic
X,35*,0.0,eInterpolationCubic
X,36,0.0,eInterpolationCubic
X,36*,0.0,eInterpolationCubic
X,37,0.0,eInterpolationCubic
X,37*,0.0,eInterpolationCubic
X,38,0.0,eInterpolationCubic
X,38*,0.0,eInterpolationCubic
X,39,0.0,eInterpolationCubic
X,39*,0.0,eInterpolationCubic
X,40,0.0,eInterpolationCubic
X,40*,0.0,eInterpolationCubic
X,41,0.0,eInterpolationCubic
X,41*,0.0,eInterpolationCubic
X,42,0.0,eInterpolationCubic
X,42*,0.0,eInterpolationCubic
X,43,0.0,eInterpolationCubic
X,43*,0.0,eInterpolationCubic
X,44,0.0,eInterpolationCubic
X,44*,0.0,eInterpolationCubic
X,45,0.0,eInterpolationCubic
X,45*,0.0,eInterpolationCubic
X,46,0.0,eInterpolationCubic
X,46*,0.0,eInterpolationCubic
X,47,0.0,eInterpolationCubic
X,47*,0.0,eInterpolationCubic
X,48,0.0,eInterpolationCubic
X,48*,0.0,eInterpolationCubic
X,49,0.0,eInterpolationCubic
X,49*,0.0,eInterpolationCubic
X,50,0.0,eInterpolationCubic
X,50*,0.0,eInterpolationCubic
X,51,0.0,eInterpolationCubic
X,51*,0.0,eInterpolationCubic
X,52,0.0,eInterpolationCubic
X,52*,0.0,eInterpolationCubic
X,53,0.0,eInterpolationCubic
X,53*,0.0,eInterpolationCubic
X,54,0.0,eInterpolationCubic
X,54*,0.0,eInterpolationCubic
X,55,0.0,eInterpolationCubic
X,55*,0.0,eInterpolationCubic
X,56,0.0,eInterpolationCubic
X,56*,0.0,eInterpolationCubic
X,57,0.0,eInterpolationCubic
X,57*,0.0,eInterpolationCubic
X,58,0.0,eInterpolationCubic
X,58*,0.0,eInterpolationCubic
X,59,0.0,eInterpolationCubic
X,59*,0.0,eInterpolationCubic
X,60,0.0,eInterpolationCubic
X,60*,0.0,eInterpolationConstant
Y,0,-0.0,eInterpolationCubic
Y,0*,-0.9178471565246582,eInterpolationCubic
Y,1,-3.1794345378875732,eInterpolationCubic
Y,1*,-6.046830654144287,eInterpolationCubic
Y,2,-8.7821044921875,eInterpolationCubic
Y,2*,-11.007927894592285,eInterpolationCubic
Y,3,-13.178045272827148,eInterpolationCubic
Y,3*,-15.80113697052002,eInterpolationCubic
Y,4,-19.38588523864746,eInterpolationCubic
Y,4*,-24.12575912475586,eInterpolationCubic
Y,5,-29.62384033203125,eInterpolationCubic
Y,5*,-35.503231048583984,eInterpolationCubic
Y,6,-41.387027740478516,eInterpolationCubic
Y,6*,-46.89833068847656,eInterpolationCubic
Y,7,-52.222938537597656,eInterpolationCubic
Y,7*,-57.61213302612305,eInterpolationCubic
Y,8,-62.787193298339844,eInterpolationCubic
Y,8*,-67.46942138671875,eInterpolationCubic
Y,9,-71.38009643554688,eInterpolationCubic
Y,9*,-74.72618865966797,eInterpolationCubic
Y,10,-77.90609741210938,eInterpolationCubic
Y,10*,-80.92829895019531,eInterpolationCubic
Y,11,-83.80123138427734,eInterpolationCubic
Y,11*,-86.53337860107422,eInterpolationCubic
Y,12,-89.13318634033203,eInterpolationCubic
Y,12*,-91.60913848876953,eInterpolationCubic
Y,13,-93.96966552734375,eInterpolationCubic
Y,13*,-96.22325134277344,eInterpolationCubic
Y,14,-98.37835693359375,eInterpolationCubic
Y,14*,-100.43482208251953,eInterpolationCubic
Y,15,-102.38380432128906,eInterpolationCubic
Y,15*,-104.22068786621094,eInterpolationCubic
Y,16,-105.94088745117188,eInterpolationCubic
Y,16*,-107.53978729248047,eInterpolationCubic
Y,17,-109.01277923583984,eInterpolationCubic
Y,17*,-110.35526275634766,eInterpolationCubic
Y,18,-111.5626449584961,eInterpolationCubic
Y,18*,-112.63030242919922,eInterpolationCubic
Y,19,-113.55364227294922,eInterpolationCubic
Y,19*,-114.40889739990234,eInterpolationCubic
Y,20,-115.27357482910156,eInterpolationCubic
Y,20*,-116.14498138427734,eInterpolationCubic
Y,21,-117.0204086303711,eInterpolationCubic
Y,21*,-117.89717864990234,eInterpolationCubic
Y,22,-118.77259063720703,eInterpolationCubic
Y,22*,-119.64393615722656,eInterpolationCubic
Y,23,-120.50852966308594,eInterpolationCubic
Y,23*,-121.3636703491211,eInterpolationCubic
Y,24,-122.2066650390625,eInterpolationCubic
Y,24*,-123.03482055664062,eInterpolationCubic
Y,25,-123.8454360961914,eInterpolationCubic
Y,25*,-124.63581848144531,eInterpolationCubic
Y,26,-125.40327453613281,eInterpolationCubic
Y,26*,-126.14509582519531,eInterpolationCubic
Y,27,-126.85861206054688,eInterpolationCubic
Y,27*,-127.54109954833984,eInterpolationCubic
Y,28,-128.18988037109375,eInterpolationCubic
Y,28*,-128.80224609375,eInterpolationCubic
Y,29,-129.37550354003906,eInterpolationCubic
Y,29*,-129.90696716308594,eInterpolationCubic
Y,30,-130.3939208984375,eInterpolationCubic
Y,30*,-130.8336944580078,eInterpolationCubic
Y,31,-131.22357177734375,eInterpolationCubic
Y,31*,-131.5608673095703,eInterpolationCubic
Y,32,-131.84288024902344,eInterpolationCubic
Y,32*,-132.06692504882812,eInterpolationCubic
Y,33,-132.23028564453125,eInterpolationCubic
Y,33*,-132.3302764892578,eInterpolationCubic
Y,34,-132.3642120361328,eInterpolationCubic
Y,34*,-132.3642120361328,eInterpolationCubic
Y,35,-132.3642120361328,eInterpolationCubic
Y,35*,-132.3642120361328,eInterpolationCubic
Y,36,-132.3642120361328,eInterpolationCubic
Y,36*,-132.3642120361328,eInterpolationCubic
Y,37,-132.3642120361328,eInterpolationCubic
Y,37*,-132.3642120361328,eInterpolationCubic
Y,38,-132.3642120361328,eInterpolationCubic
Y,38*,-132.3642120361328,eInterpolationCubic
Y,39,-132.3642120361328,eInterpolationCubic
Y,39*,-132.3642120361328,eInterpolationCubic
Y,40,-132.3642120361328,eInterpolationCubic
Y,40*,-132.3642120361328,eInterpolationCubic
Y,41,-132.3642120361328,eInterpolationCubic
Y,41*,-132.3642120361328,eInterpolationCubic
Y,42,-132.3642120361328,eInterpolationCubic
Y,42*,-132.3642120361328,eInterpolationCubic
Y,43,-132.3642120361328,eInterpolationCubic
Y,43*,-132.3642120361328,eInterpolationCubic
Y,44,-132.3642120361328,eInterpolationCubic
Y,44*,-132.3642120361328,eInterpolationCubic
Y,45,-132.3642120361328,eInterpolationCubic
Y,45*,-132.3642120361328,eInterpolationCubic
Y,46,-132.3642120361328,eInterpolationCubic
Y,46*,-132.3642120361328,eInterpolationCubic
Y,47,-132.3642120361328,eInterpolationCubic
Y,47*,-132.3642120361328,eInterpolationCubic
Y,48,-132.3642120361328,eInterpolationCubic
Y,48*,-132.3642120361328,eInterpolationCubic
Y,49,-132.3642120361328,eInterpolationCubic
Y,49*,-132.3642120361328,eInterpolationCubic
Y,50,-132.3642120361328,eInterpolationCubic
Y,50*,-132.3642120361328,eInterpolationCubic
Y,51,-132.3642120361328,eInterpolationCubic
Y,51*,-132.3642120361328,eInterpolationCubic
Y,52,-132.3642120361328,eInterpolationCubic
Y,52*,-132.3642120361328,eInterpolationCubic
Y,53,-132.3642120361328,eInterpolationCubic
Y,53*,-132.3642120361328,eInterpolationCubic
Y,54,-132.3642120361328,eInterpolationCubic
Y,54*,-132.3642120361328,eInterpolationCubic
Y,55,-132.3642120361328,eInterpolationCubic
Y,55*,-132.3642120361328,eInterpolationCubic
Y,56,-132.3642120361328,eInterpolationCubic
Y,56*,-132.3642120361328,eInterpolationCubic
Y,57,-132.3642120361328,eInterpolationCubic
Y,57*,-132.3642120361328,eInterpolationCubic
Y,58,-132.3642120361328,eInterpolationCubic
Y,58*,-132.3642120361328,eInterpolationCubic
Y,59,-132.3642120361328,eInterpolationCubic
Y,59*,-132.3642120361328,eInterpolationCubic
Y,60,-132.3642120361328,eInterpolationCubic
Y,60*,-132.3642120361328,eInterpolationConstant
Z,0,0.0,eInterpolationCubic
Z,0*,0.0,eInterpolationCubic
Z,1,0.0,eInterpolationCubic
Z,1*,0.0,eInterpolationCubic
Z,2,0.0,eInterpolationCubic
Z,2*,0.0,eInterpolationCubic
Z,3,0.0,eInterpolationCubic
Z,3*,0.0,eInterpolationCubic
Z,4,0.0,eInterpolationCubic
Z,4*,0.0,eInterpolationCubic
Z,5,0.0,eInterpolationCubic
Z,5*,0.0,eInterpolationCubic
Z,6,0.0,eInterpolationCubic
Z,6*,0.0,eInterpolationCubic
Z,7,0.0,eInterpolationCubic
Z,7*,0.0,eInterpolationCubic
Z,8,0.0,eInterpolationCubic
Z,8*,0.0,eInterpolationCubic
Z,9,0.0,eInterpolationCubic
Z,9*,0.0,eInterpolationCubic
Z,10,0.0,eInterpolationCubic
Z,10*,0.0,eInterpolationCubic
Z,11,0.0,eInterpolationCubic
Z,11*,0.0,eInterpolationCubic
Z,12,0.0,eInterpolationCubic
Z,12*,0.0,eInterpolationCubic
Z,13,0.0,eInterpolationCubic
Z,13*,0.0,eInterpolationCubic
Z,14,0.0,eInterpolationCubic
Z,14*,0.0,eInterpolationCubic
Z,15,0.0,eInterpolationCubic
Z,15*,0.0,eInterpolationCubic
Z,16,0.0,eInterpolationCubic
Z,16*,0.0,eInterpolationCubic
Z,17,0.0,eInterpolationCubic
Z,17*,0.0,eInterpolationCubic
Z,18,0.0,eInterpolationCubic
Z,18*,0.0,eInterpolationCubic
Z,19,0.0,eInterpolationCubic
Z,19*,0.0,eInterpolationCubic
Z,20,0.0,eInterpolationCubic
Z,20*,0.0,eInterpolationCubic
Z,21,0.0,eInterpolationCubic
Z,21*,0.0,eInterpolationCubic
Z,22,0.0,eInterpolationCubic
Z,22*,0.0,eInterpolationCubic
Z,23,0.0,eInterpolationCubic
Z,23*,0.0,eInterpolationCubic
Z,24,0.0,eInterpolationCubic
Z,24*,0.0,eInterpolationCubic
Z,25,0.0,eInterpolationCubic
Z,25*,0.0,eInterpolationCubic
Z,26,0.0,eInterpolationCubic
Z,26*,0.0,eInterpolationCubic
Z,27,0.0,eInterpolationCubic
Z,27*,0.0,eInterpolationCubic
Z,28,0.0,eInterpolationCubic
Z,28*,0.0,eInterpolationCubic
Z,29,0.0,eInterpolationCubic
Z,29*,0.0,eInterpolationCubic
Z,30,0.0,eInterpolationCubic
Z,30*,0.0,eInterpolationCubic
Z,31,0.0,eInterpolationCubic
Z,31*,0.0,eInterpolationCubic
Z,32,0.0,eInterpolationCubic
Z,32*,0.0,eInterpolationCubic
Z,33,0.0,eInterpolationCubic
Z,33*,0.0,eInterpolationCubic
Z,34,0.0,eInterpolationCubic
Z,34*,0.0,eInterpolationCubic
Z,35,0.0,eInterpolationCubic
Z,35*,0.0,eInterpolationCubic
Z,36,0.0,eInterpolationCubic
Z,36*,0.0,eInterpolationCubic
Z,37,0.0,eInterpolationCubic
Z,37*,0.0,eInterpolationCubic
Z,38,0.0,eInterpolationCubic
Z,38*,0.0,eInterpolationCubic
Z,39,0.0,eInterpolationCubic
Z,39*,0.0,eInterpolationCubic
Z,40,0.0,eInterpolationCubic
Z,40*,0.0,eInterpolationCubic
Z,41,0.0,eInterpolationCubic
Z,41*,0.0,eInterpolationCubic
Z,42,0.0,eInterpolationCubic
Z,42*,0.0,eInterpolationCubic
Z,43,0.0,eInterpolationCubic
Z,43*,0.0,eInterpolationCubic
Z,44,0.0,eInterpolationCubic
Z,44*,0.0,eInterpolationCubic
Z,45,0.0,eInterpolationCubic
Z,45*,0.0,eInterpolationCubic
Z,46,0.0,eInterpolationCubic
Z,46*,0.0,eInterpolationCubic
Z,47,0.0,eInterpolationCubic
Z,47*,0.0,eInterpolationCubic
Z,48,0.0,eInterpolationCubic
Z,48*,0.0,eInterpolationCubic
Z,49,0.0,eInterpolationCubic
Z,49*,0.0,eInterpolationCubic
Z,50,0.0,eInterpolationCubic
Z,50*,0.0,eInterpolationCubic
Z,51,0.0,eInterpolationCubic
Z,51*,0.0,eInterpolationCubic
Z,52,0.0,eInterpolationCubic
Z,52*,0.0,eInterpolationCubic
Z,53,0.0,eInterpolationCubic
Z,53*,0.0,eInterpolationCubic
Z,54,0.0,eInterpolationCubic
Z,54*,0.0,eInterpolationCubic
Z,55,0.0,eInterpolationCubic
Z,55*,0.0,eInterpolationCubic
Z,56,0.0,eInterpolationCubic
Z,56*,0.0,eInterpolationCubic
Z,57,0.0,eInterpolationCubic
Z,57*,0.0,eInterpolationCubic
Z,58,0.0,eInterpolationCubic
Z,58*,0.0,eInterpolationCubic
Z,59,0.0,eInterpolationCubic
Z,59*,0.0,eInterpolationCubic
Z,60,0.0,eInterpolationCubic
Z,60*,0.0,eInterpolationConstant
