Axis,KeyFrame,Value,InterpolationType
X,0,0.0,eInterpolationCubic
X,0*,0.0,eInterpolationCubic
X,1,0.0,eInterpolationCubic
X,1*,0.0,eInterpolationCubic
X,2,0.0,eInterpolationCubic
X,2*,0.0,eInterpolationCubic
X,3,0.0,eInterpolationCubic
X,3*,0.0,eInterpolationCubic
X,4,0.0,eInterpolationCubic
X,4*,0.0,eInterpolationCubic
X,5,0.0,eInterpolationCubic
X,5*,0.0,eInterpolationCubic
X,6,0.0,eInterpolationCubic
X,6*,0.0,eInterpolationCubic
X,7,0.0,eInterpolationCubic
X,7*,0.0,eInterpolationCubic
X,8,0.0,eInterpolationCubic
X,8*,0.0,eInterpolationCubic
X,9,0.0,eInterpolationCubic
X,9*,0.0,eInterpolationCubic
X,10,0.0,eInterpolationCubic
X,10*,0.0,eInterpolationCubic
X,11,0.0,eInterpolationCubic
X,11*,0.0,eInterpolationCubic
X,12,0.0,eInterpolationCubic
X,12*,0.0,eInterpolationCubic
X,13,0.0,eInterpolationCubic
X,13*,0.0,eInterpolationCubic
X,14,0.0,eInterpolationCubic
X,14*,0.0,eInterpolationCubic
X,15,0.0,eInterpolationCubic
X,15*,0.0,eInterpolationCubic
X,16,0.0,eInterpolationCubic
X,16*,0.0,eInterpolationCubic
X,17,0.0,eInterpolationCubic
X,17*,0.0,eInterpolationCubic
X,18,0.0,eInterpolationCubic
X,18*,0.0,eInterpolationCubic
X,19,0.0,eInterpolationCubic
X,19*,0.0,eInterpolationCubic
X,20,0.0,eInterpolationCubic
X,20*,0.0,eInterpolationCubic
X,21,0.0,eInterpolationCubic
X,21*,0.0,eInterpolationCubic
X,22,0.0,eInterpolationCubic
X,22*,0.0,eInterpolationCubic
X,23,0.0,eInterpolationCubic
X,23*,0.0,eInterpolationCubic
X,24,0.0,eInterpolationCubic
X,24*,0.0,eInterpolationCubic
X,25,0.0,eInterpolationCubic
X,25*,0.0,eInterpolationCubic
X,26,0.0,eInterpolationCubic
X,26*,0.0,eInterpolationCubic
X,27,0.0,eInterpolationCubic
X,27*,0.0,eInterpolationCubic
X,28,0.0,eInterpolationCubic
X,28*,0.0,eInterpolationCubic
X,29,0.0,eInterpolationCubic
X,29*,0.0,eInterpolationCubic
X,30,0.0,eInterpolationCubic
X,30*,0.0,eInterpolationCubic
X,31,0.0,eInterpolationCubic
X,31*,0.0,eInterpolationCubic
X,32,0.0,eInterpolationCubic
X,32*,0.0,eInterpolationCubic
X,33,0.0,eInterpolationCubic
X,33*,0.0,eInterpolationCubic
X,34,0.0,eInterpolationCubic
X,34*,0.0,eInterpolationCubic
X,35,0.0,eInterpolationCubic
X,35*,0.0,eInterpolationCubic
X,36,0.0,eInterpolationCubic
X,36*,0.0,eInterpolationCubic
X,37,0.0,eInterpolationCubic
X,37*,0.0,eInterpolationCubic
X,38,0.0,eInterpolationCubic
X,38*,0.0,eInterpolationCubic
X,39,0.0,eInterpolationCubic
X,39*,0.0,eInterpolationCubic
X,40,0.0,eInterpolationCubic
X,40*,0.0,eInterpolationCubic
X,41,0.0,eInterpolationCubic
X,41*,0.0,eInterpolationCubic
X,42,0.0,eInterpolationCubic
X,42*,0.0,eInterpolationCubic
X,43,0.0,eInterpolationCubic
X,43*,0.0,eInterpolationCubic
X,44,0.0,eInterpolationCubic
X,44*,0.0,eInterpolationCubic
X,45,0.0,eInterpolationCubic
X,45*,0.0,eInterpolationCubic
X,46,0.0,eInterpolationCubic
X,46*,0.0,eInterpolationCubic
X,47,0.0,eInterpolationCubic
X,47*,0.0,eInterpolationCubic
X,48,0.0,eInterpolationCubic
X,48*,0.0,eInterpolationCubic
X,49,0.0,eInterpolationCubic
X,49*,0.0,eInterpolationCubic
X,50,0.0,eInterpolationCubic
X,50*,0.0,eInterpolationCubic
X,51,0.0,eInterpolationCubic
X,51*,0.0,eInterpolationCubic
X,52,0.0,eInterpolationCubic
X,52*,0.0,eInterpolationCubic
X,53,0.0,eInterpolationCubic
X,53*,0.0,eInterpolationCubic
X,54,0.0,eInterpolationCubic
X,54*,0.0,eInterpolationCubic
X,55,0.0,eInterpolationCubic
X,55*,0.0,eInterpolationConstant
Y,0,-104.32447052001953,eInterpolationCubic
Y,0*,-103.28614044189453,eInterpolationCubic
Y,1,-100.81013488769531,eInterpolationCubic
Y,1*,-97.85489654541016,eInterpolationCubic
Y,2,-95.3788833618164,eInterpolationCubic
Y,2*,-94.34056091308594,eInterpolationCubic
Y,3,-95.07296752929688,eInterpolationCubic
Y,3*,-97.15908813476562,eInterpolationCubic
Y,4,-100.43226623535156,eInterpolationCubic
Y,4*,-104.72586059570312,eInterpolationCubic
Y,5,-109.87322235107422,eInterpolationCubic
Y,5*,-115.70770263671875,eInterpolationCubic
Y,6,-122.06266021728516,eInterpolationCubic
Y,6*,-128.77145385742188,eInterpolationCubic
Y,7,-135.66741943359375,eInterpolationCubic
Y,7*,-142.5839080810547,eInterpolationCubic
Y,8,-149.3542938232422,eInterpolationCubic
Y,8*,-155.81190490722656,eInterpolationCubic
Y,9,-161.79010009765625,eInterpolationCubic
Y,9*,-167.12225341796875,eInterpolationCubic
Y,10,-171.77149963378906,eInterpolationCubic
Y,10*,-175.96826171875,eInterpolationCubic
Y,11,-179.9468536376953,eInterpolationCubic
Y,11*,-183.94158935546875,eInterpolationCubic
Y,12,-188.1867218017578,eInterpolationCubic
Y,12*,-192.91661071777344,eInterpolationCubic
Y,13,-198.36553955078125,eInterpolationCubic
Y,13*,-206.4687957763672,eInterpolationCubic
Y,14,-216.7859344482422,eInterpolationCubic
Y,14*,-225.9876708984375,eInterpolationCubic
Y,15,-233.56675720214844,eInterpolationCubic
Y,15*,-241.08811950683594,eInterpolationCubic
Y,16,-248.3306121826172,eInterpolationCubic
Y,16*,-255.07315063476562,eInterpolationCubic
Y,17,-261.0946044921875,eInterpolationCubic
Y,17*,-266.17388916015625,eInterpolationCubic
Y,18,-270.8305969238281,eInterpolationCubic
Y,18*,-275.6934814453125,eInterpolationCubic
Y,19,-280.705322265625,eInterpolationCubic
Y,19*,-285.808837890625,eInterpolationCubic
Y,20,-290.9467468261719,eInterpolationCubic
Y,20*,-296.0617980957031,eInterpolationCubic
Y,21,-301.09674072265625,eInterpolationCubic
Y,21*,-305.9942932128906,eInterpolationCubic
Y,22,-310.6972351074219,eInterpolationCubic
Y,22*,-315.14825439453125,eInterpolationCubic
Y,23,-319.2900390625,eInterpolationCubic
Y,23*,-323.0654296875,eInterpolationCubic
Y,24,-326.4170837402344,eInterpolationCubic
Y,24*,-329.2877502441406,eInterpolationCubic
Y,25,-331.62017822265625,eInterpolationCubic
Y,25*,-333.35711669921875,eInterpolationCubic
Y,26,-334.4412536621094,eInterpolationCubic
Y,26*,-334.8153381347656,eInterpolationCubic
Y,27,-334.8153381347656,eInterpolationCubic
Y,27*,-334.8153381347656,eInterpolationCubic
Y,28,-334.8153381347656,eInterpolationCubic
Y,28*,-334.8153381347656,eInterpolationCubic
Y,29,-334.8153381347656,eInterpolationCubic
Y,29*,-334.8153381347656,eInterpolationCubic
Y,30,-334.8153381347656,eInterpolationCubic
Y,30*,-334.8153381347656,eInterpolationCubic
Y,31,-334.8153381347656,eInterpolationCubic
Y,31*,-334.8153381347656,eInterpolationCubic
Y,32,-334.8153381347656,eInterpolationCubic
Y,32*,-334.8153381347656,eInterpolationCubic
Y,33,-334.8153381347656,eInterpolationCubic
Y,33*,-334.8153381347656,eInterpolationCubic
Y,34,-334.8153381347656,eInterpolationCubic
Y,34*,-334.8153381347656,eInterpolationCubic
Y,35,-334.8153381347656,eInterpolationCubic
Y,35*,-334.8153381347656,eInterpolationCubic
Y,36,-334.8153381347656,eInterpolationCubic
Y,36*,-334.8153381347656,eInterpolationCubic
Y,37,-334.8153381347656,eInterpolationCubic
Y,37*,-334.8153381347656,eInterpolationCubic
Y,38,-334.8153381347656,eInterpolationCubic
Y,38*,-334.8153381347656,eInterpolationCubic
Y,39,-334.8153381347656,eInterpolationCubic
Y,39*,-334.8153381347656,eInterpolationCubic
Y,40,-334.8153381347656,eInterpolationCubic
Y,40*,-334.8153381347656,eInterpolationCubic
Y,41,-334.8153381347656,eInterpolationCubic
Y,41*,-334.8153381347656,eInterpolationCubic
Y,42,-334.8153381347656,eInterpolationCubic
Y,42*,-334.8153381347656,eInterpolationCubic
Y,43,-334.8153381347656,eInterpolationCubic
Y,43*,-334.8153381347656,eInterpolationCubic
Y,44,-334.8153381347656,eInterpolationCubic
Y,44*,-334.8153381347656,eInterpolationCubic
Y,45,-334.8153381347656,eInterpolationCubic
Y,45*,-334.8153381347656,eInterpolationCubic
Y,46,-334.8153381347656,eInterpolationCubic
Y,46*,-334.8153381347656,eInterpolationCubic
Y,47,-334.8153381347656,eInterpolationCubic
Y,47*,-334.8153381347656,eInterpolationCubic
Y,48,-334.8153381347656,eInterpolationCubic
Y,48*,-334.8153381347656,eInterpolationCubic
Y,49,-334.8153381347656,eInterpolationCubic
Y,49*,-334.8153381347656,eInterpolationCubic
Y,50,-334.8153381347656,eInterpolationCubic
Y,50*,-334.8153381347656,eInterpolationCubic
Y,51,-334.8153381347656,eInterpolationCubic
Y,51*,-334.8153381347656,eInterpolationCubic
Y,52,-334.8153381347656,eInterpolationCubic
Y,52*,-334.8153381347656,eInterpolationCubic
Y,53,-334.8153381347656,eInterpolationCubic
Y,53*,-334.8153381347656,eInterpolationCubic
Y,54,-334.8153381347656,eInterpolationCubic
Y,54*,-334.8153381347656,eInterpolationCubic
Y,55,-334.8153381347656,eInterpolationCubic
Y,55*,-334.8153381347656,eInterpolationConstant
Z,0,-2.3164685840630812e-14,eInterpolationCubic
Z,0*,-2.3164685840630812e-14,eInterpolationCubic
Z,1,-2.3164685840630812e-14,eInterpolationCubic
Z,1*,-2.3164685840630812e-14,eInterpolationCubic
Z,2,-2.3164685840630812e-14,eInterpolationCubic
Z,2*,-2.3164685840630812e-14,eInterpolationCubic
Z,3,-2.3164685840630812e-14,eInterpolationCubic
Z,3*,-2.3164685840630812e-14,eInterpolationCubic
Z,4,-2.3164685840630812e-14,eInterpolationCubic
Z,4*,-2.3164685840630812e-14,eInterpolationCubic
Z,5,-2.3164685840630812e-14,eInterpolationCubic
Z,5*,-2.3164685840630812e-14,eInterpolationCubic
Z,6,-2.3164685840630812e-14,eInterpolationCubic
Z,6*,-2.3164685840630812e-14,eInterpolationCubic
Z,7,-2.3164685840630812e-14,eInterpolationCubic
Z,7*,-2.3164685840630812e-14,eInterpolationCubic
Z,8,-2.3164685840630812e-14,eInterpolationCubic
Z,8*,-2.3164685840630812e-14,eInterpolationCubic
Z,9,-2.3164685840630812e-14,eInterpolationCubic
Z,9*,-2.3164685840630812e-14,eInterpolationCubic
Z,10,-2.3164685840630812e-14,eInterpolationCubic
Z,10*,-2.3164685840630812e-14,eInterpolationCubic
Z,11,-2.3164685840630812e-14,eInterpolationCubic
Z,11*,-2.3164685840630812e-14,eInterpolationCubic
Z,12,-2.3164685840630812e-14,eInterpolationCubic
Z,12*,-2.3164685840630812e-14,eInterpolationCubic
Z,13,-2.3164685840630812e-14,eInterpolationCubic
Z,13*,-2.3164685840630812e-14,eInterpolationCubic
Z,14,-2.3164685840630812e-14,eInterpolationCubic
Z,14*,-2.3164685840630812e-14,eInterpolationCubic
Z,15,-2.3164685840630812e-14,eInterpolationCubic
Z,15*,-2.3164685840630812e-14,eInterpolationCubic
Z,16,-2.3164685840630812e-14,eInterpolationCubic
Z,16*,-2.3164685840630812e-14,eInterpolationCubic
Z,17,-2.3164685840630812e-14,eInterpolationCubic
Z,17*,-2.3164685840630812e-14,eInterpolationCubic
Z,18,-2.3164685840630812e-14,eInterpolationCubic
Z,18*,-2.3164685840630812e-14,eInterpolationCubic
Z,19,-2.3164685840630812e-14,eInterpolationCubic
Z,19*,-2.3164685840630812e-14,eInterpolationCubic
Z,20,-2.3164685840630812e-14,eInterpolationCubic
Z,20*,-2.3164685840630812e-14,eInterpolationCubic
Z,21,-2.3164685840630812e-14,eInterpolationCubic
Z,21*,-2.3164685840630812e-14,eInterpolationCubic
Z,22,-2.3164685840630812e-14,eInterpolationCubic
Z,22*,-2.3164685840630812e-14,eInterpolationCubic
Z,23,-2.3164685840630812e-14,eInterpolationCubic
Z,23*,-2.3164685840630812e-14,eInterpolationCubic
Z,24,-2.3164685840630812e-14,eInterpolationCubic
Z,24*,-2.3164685840630812e-14,eInterpolationCubic
Z,25,-2.3164685840630812e-14,eInterpolationCubic
Z,25*,-2.3164685840630812e-14,eInterpolationCubic
Z,26,-2.3164685840630812e-14,eInterpolationCubic
Z,26*,-2.3164685840630812e-14,eInterpolationCubic
Z,27,-2.3164685840630812e-14,eInterpolationCubic
Z,27*,-2.3164685840630812e-14,eInterpolationCubic
Z,28,-2.3164685840630812e-14,eInterpolationCubic
Z,28*,-2.3164685840630812e-14,eInterpolationCubic
Z,29,-2.3164685840630812e-14,eInterpolationCubic
Z,29*,-2.3164685840630812e-14,eInterpolationCubic
Z,30,-2.3164685840630812e-14,eInterpolationCubic
Z,30*,-2.3164685840630812e-14,eInterpolationCubic
Z,31,-2.3164685840630812e-14,eInterpolationCubic
Z,31*,-2.3164685840630812e-14,eInterpolationCubic
Z,32,-2.3164685840630812e-14,eInterpolationCubic
Z,32*,-2.3164685840630812e-14,eInterpolationCubic
Z,33,-2.3164685840630812e-14,eInterpolationCubic
Z,33*,-2.3164685840630812e-14,eInterpolationCubic
Z,34,-2.3164685840630812e-14,eInterpolationCubic
Z,34*,-2.3164685840630812e-14,eInterpolationCubic
Z,35,-2.3164685840630812e-14,eInterpolationCubic
Z,35*,-2.3164685840630812e-14,eInterpolationCubic
Z,36,-2.3164685840630812e-14,eInterpolationCubic
Z,36*,-2.3164685840630812e-14,eInterpolationCubic
Z,37,-2.3164685840630812e-14,eInterpolationCubic
Z,37*,-2.3164685840630812e-14,eInterpolationCubic
Z,38,-2.3164685840630812e-14,eInterpolationCubic
Z,38*,-2.3164685840630812e-14,eInterpolationCubic
Z,39,-2.3164685840630812e-14,eInterpolationCubic
Z,39*,-2.3164685840630812e-14,eInterpolationCubic
Z,40,-2.3164685840630812e-14,eInterpolationCubic
Z,40*,-2.3164685840630812e-14,eInterpolationCubic
Z,41,-2.3164685840630812e-14,eInterpolationCubic
Z,41*,-2.3164685840630812e-14,eInterpolationCubic
Z,42,-2.3164685840630812e-14,eInterpolationCubic
Z,42*,-2.3164685840630812e-14,eInterpolationCubic
Z,43,-2.3164685840630812e-14,eInterpolationCubic
Z,43*,-2.3164685840630812e-14,eInterpolationCubic
Z,44,-2.3164685840630812e-14,eInterpolationCubic
Z,44*,-2.3164685840630812e-14,eInterpolationCubic
Z,45,-2.3164685840630812e-14,eInterpolationCubic
Z,45*,-2.3164685840630812e-14,eInterpolationCubic
Z,46,-2.3164685840630812e-14,eInterpolationCubic
Z,46*,-2.3164685840630812e-14,eInterpolationCubic
Z,47,-2.3164685840630812e-14,eInterpolationCubic
Z,47*,-2.3164685840630812e-14,eInterpolationCubic
Z,48,-2.3164685840630812e-14,eInterpolationCubic
Z,48*,-2.3164685840630812e-14,eInterpolationCubic
Z,49,-2.3164685840630812e-14,eInterpolationCubic
Z,49*,-2.3164685840630812e-14,eInterpolationCubic
Z,50,-2.3164685840630812e-14,eInterpolationCubic
Z,50*,-2.3164685840630812e-14,eInterpolationCubic
Z,51,-2.3164685840630812e-14,eInterpolationCubic
Z,51*,-2.3164685840630812e-14,eInterpolationCubic
Z,52,-2.3164685840630812e-14,eInterpolationCubic
Z,52*,-2.3164685840630812e-14,eInterpolationCubic
Z,53,-2.3164685840630812e-14,eInterpolationCubic
Z,53*,-2.3164685840630812e-14,eInterpolationCubic
Z,54,-2.3164685840630812e-14,eInterpolationCubic
Z,54*,-2.3164685840630812e-14,eInterpolationCubic
Z,55,-2.3164685840630812e-14,eInterpolationCubic
Z,55*,-2.3164685840630812e-14,eInterpolationConstant
