Axis,KeyFrame,Value,InterpolationType
X,0,0.0,eInterpolationCubic
X,0*,0.0,eInterpolationCubic
X,1,0.0,eInterpolationCubic
X,1*,0.0,eInterpolationCubic
X,2,0.0,eInterpolationCubic
X,2*,0.0,eInterpolationCubic
X,3,0.0,eInterpolationCubic
X,3*,0.0,eInterpolationCubic
X,4,0.0,eInterpolationCubic
X,4*,0.0,eInterpolationCubic
X,5,0.0,eInterpolationCubic
X,5*,0.0,eInterpolationCubic
X,6,0.0,eInterpolationCubic
X,6*,0.0,eInterpolationCubic
X,7,0.0,eInterpolationCubic
X,7*,0.0,eInterpolationCubic
X,8,0.0,eInterpolationCubic
X,8*,0.0,eInterpolationCubic
X,9,0.0,eInterpolationCubic
X,9*,0.0,eInterpolationCubic
X,10,0.0,eInterpolationCubic
X,10*,0.0,eInterpolationCubic
X,11,0.0,eInterpolationCubic
X,11*,0.0,eInterpolationCubic
X,12,0.0,eInterpolationCubic
X,12*,0.0,eInterpolationCubic
X,13,0.0,eInterpolationCubic
X,13*,0.0,eInterpolationCubic
X,14,0.0,eInterpolationCubic
X,14*,0.0,eInterpolationCubic
X,15,0.0,eInterpolationCubic
X,15*,0.0,eInterpolationCubic
X,16,0.0,eInterpolationCubic
X,16*,0.0,eInterpolationCubic
X,17,0.0,eInterpolationCubic
X,17*,0.0,eInterpolationCubic
X,18,0.0,eInterpolationCubic
X,18*,0.0,eInterpolationCubic
X,19,0.0,eInterpolationCubic
X,19*,0.0,eInterpolationCubic
X,20,0.0,eInterpolationCubic
X,20*,0.0,eInterpolationCubic
X,21,0.0,eInterpolationCubic
X,21*,0.0,eInterpolationCubic
X,22,0.0,eInterpolationCubic
X,22*,0.0,eInterpolationCubic
X,23,0.0,eInterpolationCubic
X,23*,0.0,eInterpolationCubic
X,24,0.0,eInterpolationCubic
X,24*,0.0,eInterpolationCubic
X,25,0.0,eInterpolationCubic
X,25*,0.0,eInterpolationCubic
X,26,0.0,eInterpolationCubic
X,26*,0.0,eInterpolationCubic
X,27,0.0,eInterpolationCubic
X,27*,0.0,eInterpolationCubic
X,28,0.0,eInterpolationCubic
X,28*,0.0,eInterpolationCubic
X,29,0.0,eInterpolationCubic
X,29*,0.0,eInterpolationCubic
X,30,0.0,eInterpolationCubic
X,30*,0.0,eInterpolationConstant
Y,0,-0.0,eInterpolationCubic
Y,0*,-10.287846565246582,eInterpolationCubic
Y,1,-21.34612464904785,eInterpolationCubic
Y,1*,-33.03887939453125,eInterpolationCubic
Y,2,-45.23014450073242,eInterpolationCubic
Y,2*,-57.78396987915039,eInterpolationCubic
Y,3,-70.56439971923828,eInterpolationCubic
Y,3*,-83.43546295166016,eInterpolationCubic
Y,4,-96.26119995117188,eInterpolationCubic
Y,4*,-108.90567016601562,eInterpolationCubic
Y,5,-121.23289489746094,eInterpolationCubic
Y,5*,-133.10693359375,eInterpolationCubic
Y,6,-144.3917999267578,eInterpolationCubic
Y,6*,-154.95156860351562,eInterpolationCubic
Y,7,-164.65025329589844,eInterpolationCubic
Y,7*,-173.3519287109375,eInterpolationCubic
Y,8,-180.9205780029297,eInterpolationCubic
Y,8*,-187.22030639648438,eInterpolationCubic
Y,9,-192.11512756347656,eInterpolationCubic
Y,9*,-195.46908569335938,eInterpolationCubic
Y,10,-197.1461944580078,eInterpolationCubic
Y,10*,-197.91993713378906,eInterpolationCubic
Y,11,-198.65496826171875,eInterpolationCubic
Y,11*,-199.3523406982422,eInterpolationCubic
Y,12,-200.0129852294922,eInterpolationCubic
Y,12*,-200.63796997070312,eInterpolationCubic
Y,13,-201.22821044921875,eInterpolationCubic
Y,13*,-201.7847442626953,eInterpolationCubic
Y,14,-202.3085479736328,eInterpolationCubic
Y,14*,-202.80062866210938,eInterpolationCubic
Y,15,-203.26194763183594,eInterpolationCubic
Y,15*,-203.69351196289062,eInterpolationCubic
Y,16,-204.09632873535156,eInterpolationCubic
Y,16*,-204.47137451171875,eInterpolationCubic
Y,17,-204.81964111328125,eInterpolationCubic
Y,17*,-205.14210510253906,eInterpolationCubic
Y,18,-205.43980407714844,eInterpolationCubic
Y,18*,-205.7136993408203,eInterpolationCubic
Y,19,-205.9647674560547,eInterpolationCubic
Y,19*,-206.19403076171875,eInterpolationCubic
Y,20,-206.40245056152344,eInterpolationCubic
Y,20*,-206.59104919433594,eInterpolationCubic
Y,21,-206.76080322265625,eInterpolationCubic
Y,21*,-206.91270446777344,eInterpolationCubic
Y,22,-207.04776000976562,eInterpolationCubic
Y,22*,-207.16693115234375,eInterpolationCubic
Y,23,-207.27122497558594,eInterpolationCubic
Y,23*,-207.36163330078125,eInterpolationCubic
Y,24,-207.4391632080078,eInterpolationCubic
Y,24*,-207.50477600097656,eInterpolationCubic
Y,25,-207.5594940185547,eInterpolationCubic
Y,25*,-207.6042938232422,eInterpolationCubic
Y,26,-207.64015197753906,eInterpolationCubic
Y,26*,-207.6680908203125,eInterpolationCubic
Y,27,-207.68907165527344,eInterpolationCubic
Y,27*,-207.70411682128906,eInterpolationCubic
Y,28,-207.71420288085938,eInterpolationCubic
Y,28*,-207.72032165527344,eInterpolationCubic
Y,29,-207.72344970703125,eInterpolationCubic
Y,29*,-207.72462463378906,eInterpolationCubic
Y,30,-207.7247772216797,eInterpolationCubic
Y,30*,-207.7247772216797,eInterpolationConstant
Z,0,0.0,eInterpolationCubic
Z,0*,0.0,eInterpolationCubic
Z,1,0.0,eInterpolationCubic
Z,1*,0.0,eInterpolationCubic
Z,2,0.0,eInterpolationCubic
Z,2*,0.0,eInterpolationCubic
Z,3,0.0,eInterpolationCubic
Z,3*,0.0,eInterpolationCubic
Z,4,0.0,eInterpolationCubic
Z,4*,0.0,eInterpolationCubic
Z,5,0.0,eInterpolationCubic
Z,5*,0.0,eInterpolationCubic
Z,6,0.0,eInterpolationCubic
Z,6*,0.0,eInterpolationCubic
Z,7,0.0,eInterpolationCubic
Z,7*,0.0,eInterpolationCubic
Z,8,0.0,eInterpolationCubic
Z,8*,0.0,eInterpolationCubic
Z,9,0.0,eInterpolationCubic
Z,9*,0.0,eInterpolationCubic
Z,10,0.0,eInterpolationCubic
Z,10*,0.0,eInterpolationCubic
Z,11,0.0,eInterpolationCubic
Z,11*,0.0,eInterpolationCubic
Z,12,0.0,eInterpolationCubic
Z,12*,0.0,eInterpolationCubic
Z,13,0.0,eInterpolationCubic
Z,13*,0.0,eInterpolationCubic
Z,14,0.0,eInterpolationCubic
Z,14*,0.0,eInterpolationCubic
Z,15,0.0,eInterpolationCubic
Z,15*,0.0,eInterpolationCubic
Z,16,0.0,eInterpolationCubic
Z,16*,0.0,eInterpolationCubic
Z,17,0.0,eInterpolationCubic
Z,17*,0.0,eInterpolationCubic
Z,18,0.0,eInterpolationCubic
Z,18*,0.0,eInterpolationCubic
Z,19,0.0,eInterpolationCubic
Z,19*,0.0,eInterpolationCubic
Z,20,0.0,eInterpolationCubic
Z,20*,0.0,eInterpolationCubic
Z,21,0.0,eInterpolationCubic
Z,21*,0.0,eInterpolationCubic
Z,22,0.0,eInterpolationCubic
Z,22*,0.0,eInterpolationCubic
Z,23,0.0,eInterpolationCubic
Z,23*,0.0,eInterpolationCubic
Z,24,0.0,eInterpolationCubic
Z,24*,0.0,eInterpolationCubic
Z,25,0.0,eInterpolationCubic
Z,25*,0.0,eInterpolationCubic
Z,26,0.0,eInterpolationCubic
Z,26*,0.0,eInterpolationCubic
Z,27,0.0,eInterpolationCubic
Z,27*,0.0,eInterpolationCubic
Z,28,0.0,eInterpolationCubic
Z,28*,0.0,eInterpolationCubic
Z,29,0.0,eInterpolationCubic
Z,29*,0.0,eInterpolationCubic
Z,30,0.0,eInterpolationCubic
Z,30*,0.0,eInterpolationConstant
