Axis,KeyFrame,Value,InterpolationType
X,0,0.0,eInterpolationCubic
X,0*,0.0,eInterpolationCubic
X,1,0.0,eInterpolationCubic
X,1*,0.0,eInterpolationCubic
X,2,0.0,eInterpolationCubic
X,2*,0.0,eInterpolationCubic
X,3,0.0,eInterpolationCubic
X,3*,0.0,eInterpolationCubic
X,4,0.0,eInterpolationCubic
X,4*,0.0,eInterpolationCubic
X,5,0.0,eInterpolationCubic
X,5*,0.0,eInterpolationCubic
X,6,0.0,eInterpolationCubic
X,6*,0.0,eInterpolationCubic
X,7,0.0,eInterpolationCubic
X,7*,0.0,eInterpolationCubic
X,8,0.0,eInterpolationCubic
X,8*,0.0,eInterpolationCubic
X,9,0.0,eInterpolationCubic
X,9*,0.0,eInterpolationCubic
X,10,0.0,eInterpolationCubic
X,10*,0.0,eInterpolationCubic
X,11,0.0,eInterpolationCubic
X,11*,0.0,eInterpolationCubic
X,12,0.0,eInterpolationCubic
X,12*,0.0,eInterpolationCubic
X,13,0.0,eInterpolationCubic
X,13*,0.0,eInterpolationConstant
Y,0,0.0017624387983232737,eInterpolationCubic
Y,0*,5.3357696533203125,eInterpolationCubic
Y,1,12.845101356506348,eInterpolationCubic
Y,1*,20.27903175354004,eInterpolationCubic
Y,2,25.3868408203125,eInterpolationCubic
Y,2*,28.577312469482422,eInterpolationCubic
Y,3,31.729352951049805,eInterpolationCubic
Y,3*,34.79740524291992,eInterpolationCubic
Y,4,37.73591995239258,eInterpolationCubic
Y,4*,40.499332427978516,eInterpolationCubic
Y,5,43.04208755493164,eInterpolationCubic
Y,5*,45.318641662597656,eInterpolationCubic
Y,6,47.28342819213867,eInterpolationCubic
Y,6*,48.89089584350586,eInterpolationCubic
Y,7,50.09548568725586,eInterpolationCubic
Y,7*,50.85165023803711,eInterpolationCubic
Y,8,51.113826751708984,eInterpolationCubic
Y,8*,51.10555648803711,eInterpolationCubic
Y,9,51.0858268737793,eInterpolationCubic
Y,9*,51.062278747558594,eInterpolationCubic
Y,10,51.04254913330078,eInterpolationCubic
Y,10*,51.03427505493164,eInterpolationCubic
Y,11,51.03427505493164,eInterpolationCubic
Y,11*,51.03427505493164,eInterpolationCubic
Y,12,51.03427505493164,eInterpolationCubic
Y,12*,51.03427505493164,eInterpolationCubic
Y,13,51.03427505493164,eInterpolationCubic
Y,13*,51.03427505493164,eInterpolationConstant
Z,0,3.9134002667823823e-19,eInterpolationCubic
Z,0*,3.9134002667823823e-19,eInterpolationCubic
Z,1,3.9134002667823823e-19,eInterpolationCubic
Z,1*,3.9134002667823823e-19,eInterpolationCubic
Z,2,3.9134002667823823e-19,eInterpolationCubic
Z,2*,3.9134002667823823e-19,eInterpolationCubic
Z,3,3.9134002667823823e-19,eInterpolationCubic
Z,3*,3.9134002667823823e-19,eInterpolationCubic
Z,4,3.9134002667823823e-19,eInterpolationCubic
Z,4*,3.9134002667823823e-19,eInterpolationCubic
Z,5,3.9134002667823823e-19,eInterpolationCubic
Z,5*,3.9134002667823823e-19,eInterpolationCubic
Z,6,3.9134002667823823e-19,eInterpolationCubic
Z,6*,3.9134002667823823e-19,eInterpolationCubic
Z,7,3.9134002667823823e-19,eInterpolationCubic
Z,7*,3.9134002667823823e-19,eInterpolationCubic
Z,8,3.9134002667823823e-19,eInterpolationCubic
Z,8*,3.9134002667823823e-19,eInterpolationCubic
Z,9,3.9134002667823823e-19,eInterpolationCubic
Z,9*,3.9134002667823823e-19,eInterpolationCubic
Z,10,3.9134002667823823e-19,eInterpolationCubic
Z,10*,3.9134002667823823e-19,eInterpolationCubic
Z,11,3.9134002667823823e-19,eInterpolationCubic
Z,11*,3.9134002667823823e-19,eInterpolationCubic
Z,12,3.9134002667823823e-19,eInterpolationCubic
Z,12*,3.9134002667823823e-19,eInterpolationCubic
Z,13,3.9134002667823823e-19,eInterpolationCubic
Z,13*,3.9134002667823823e-19,eInterpolationConstant
