Axis,KeyFrame,Value,InterpolationType
X,0,0.0,eInterpolationCubic
X,0*,0.0,eInterpolationCubic
X,1,0.0,eInterpolationCubic
X,1*,0.0,eInterpolationCubic
X,2,0.0,eInterpolationCubic
X,2*,0.0,eInterpolationCubic
X,3,0.0,eInterpolationCubic
X,3*,0.0,eInterpolationCubic
X,4,0.0,eInterpolationCubic
X,4*,0.0,eInterpolationCubic
X,5,0.0,eInterpolationCubic
X,5*,0.0,eInterpolationCubic
X,6,0.0,eInterpolationCubic
X,6*,0.0,eInterpolationCubic
X,7,0.0,eInterpolationCubic
X,7*,0.0,eInterpolationCubic
X,8,0.0,eInterpolationCubic
X,8*,0.0,eInterpolationCubic
X,9,0.0,eInterpolationCubic
X,9*,0.0,eInterpolationCubic
X,10,0.0,eInterpolationCubic
X,10*,0.0,eInterpolationCubic
X,11,0.0,eInterpolationCubic
X,11*,0.0,eInterpolationCubic
X,12,0.0,eInterpolationCubic
X,12*,0.0,eInterpolationCubic
X,13,0.0,eInterpolationCubic
X,13*,0.0,eInterpolationCubic
X,14,0.0,eInterpolationCubic
X,14*,0.0,eInterpolationCubic
X,15,0.0,eInterpolationCubic
X,15*,0.0,eInterpolationCubic
X,16,0.0,eInterpolationCubic
X,16*,0.0,eInterpolationCubic
X,17,0.0,eInterpolationCubic
X,17*,0.0,eInterpolationCubic
X,18,0.0,eInterpolationCubic
X,18*,0.0,eInterpolationCubic
X,19,0.0,eInterpolationCubic
X,19*,0.0,eInterpolationCubic
X,20,0.0,eInterpolationCubic
X,20*,0.0,eInterpolationCubic
X,21,0.0,eInterpolationCubic
X,21*,0.0,eInterpolationCubic
X,22,0.0,eInterpolationCubic
X,22*,0.0,eInterpolationCubic
X,23,0.0,eInterpolationCubic
X,23*,0.0,eInterpolationCubic
X,24,0.0,eInterpolationCubic
X,24*,0.0,eInterpolationCubic
X,25,0.0,eInterpolationCubic
X,25*,0.0,eInterpolationCubic
X,26,0.0,eInterpolationCubic
X,26*,0.0,eInterpolationCubic
X,27,0.0,eInterpolationCubic
X,27*,0.0,eInterpolationCubic
X,28,0.0,eInterpolationCubic
X,28*,0.0,eInterpolationCubic
X,29,0.0,eInterpolationCubic
X,29*,0.0,eInterpolationCubic
X,30,0.0,eInterpolationCubic
X,30*,0.0,eInterpolationCubic
X,31,0.0,eInterpolationCubic
X,31*,0.0,eInterpolationCubic
X,32,0.0,eInterpolationCubic
X,32*,0.0,eInterpolationCubic
X,33,0.0,eInterpolationCubic
X,33*,0.0,eInterpolationCubic
X,34,0.0,eInterpolationCubic
X,34*,0.0,eInterpolationCubic
X,35,0.0,eInterpolationCubic
X,35*,0.0,eInterpolationCubic
X,36,0.0,eInterpolationCubic
X,36*,0.0,eInterpolationCubic
X,37,0.0,eInterpolationCubic
X,37*,0.0,eInterpolationCubic
X,38,0.0,eInterpolationCubic
X,38*,0.0,eInterpolationCubic
X,39,0.0,eInterpolationCubic
X,39*,0.0,eInterpolationCubic
X,40,0.0,eInterpolationCubic
X,40*,0.0,eInterpolationCubic
X,41,0.0,eInterpolationCubic
X,41*,0.0,eInterpolationCubic
X,42,0.0,eInterpolationCubic
X,42*,0.0,eInterpolationCubic
X,43,0.0,eInterpolationCubic
X,43*,0.0,eInterpolationCubic
X,44,0.0,eInterpolationCubic
X,44*,0.0,eInterpolationCubic
X,45,0.0,eInterpolationCubic
X,45*,0.0,eInterpolationCubic
X,46,0.0,eInterpolationCubic
X,46*,0.0,eInterpolationCubic
X,47,0.0,eInterpolationCubic
X,47*,0.0,eInterpolationCubic
X,48,0.0,eInterpolationCubic
X,48*,0.0,eInterpolationCubic
X,49,0.0,eInterpolationCubic
X,49*,0.0,eInterpolationCubic
X,50,0.0,eInterpolationCubic
X,50*,0.0,eInterpolationConstant
Y,0,-0.0,eInterpolationCubic
Y,0*,-0.09695396572351456,eInterpolationCubic
Y,1,-0.38442397117614746,eInterpolationCubic
Y,1*,-0.857322096824646,eInterpolationCubic
Y,2,-1.5105605125427246,eInterpolationCubic
Y,2*,-2.3390514850616455,eInterpolationCubic
Y,3,-3.3377068042755127,eInterpolationCubic
Y,3*,-4.501439094543457,eInterpolationCubic
Y,4,-5.825160026550293,eInterpolationCubic
Y,4*,-7.303781986236572,eInterpolationCubic
Y,5,-8.93221664428711,eInterpolationCubic
Y,5*,-10.705377578735352,eInterpolationCubic
Y,6,-12.618175506591797,eInterpolationCubic
Y,6*,-14.665522575378418,eInterpolationCubic
Y,7,-16.84233283996582,eInterpolationCubic
Y,7*,-19.14351463317871,eInterpolationCubic
Y,8,-21.563983917236328,eInterpolationCubic
Y,8*,-24.098649978637695,eInterpolationCubic
Y,9,-26.742427825927734,eInterpolationCubic
Y,9*,-29.49022674560547,eInterpolationCubic
Y,10,-32.33695983886719,eInterpolationCubic
Y,10*,-37.52630615234375,eInterpolationCubic
Y,11,-46.03730392456055,eInterpolationCubic
Y,11*,-55.967926025390625,eInterpolationCubic
Y,12,-65.41613006591797,eInterpolationCubic
Y,12*,-72.47987365722656,eInterpolationCubic
Y,13,-75.25713348388672,eInterpolationCubic
Y,13*,-75.25759887695312,eInterpolationCubic
Y,14,-75.25896453857422,eInterpolationCubic
Y,14*,-75.26121520996094,eInterpolationCubic
Y,15,-75.26432800292969,eInterpolationCubic
Y,15*,-75.26825714111328,eInterpolationCubic
Y,16,-75.27301025390625,eInterpolationCubic
Y,16*,-75.27853393554688,eInterpolationCubic
Y,17,-75.2848129272461,eInterpolationCubic
Y,17*,-75.29183197021484,eInterpolationCubic
Y,18,-75.29955291748047,eInterpolationCubic
Y,18*,-75.30794525146484,eInterpolationCubic
Y,19,-75.3169937133789,eInterpolationCubic
Y,19*,-75.3266830444336,eInterpolationCubic
Y,20,-75.33696746826172,eInterpolationCubic
Y,20*,-75.34783935546875,eInterpolationCubic
Y,21,-75.35926055908203,eInterpolationCubic
Y,21*,-75.37120819091797,eInterpolationCubic
Y,22,-75.3836669921875,eInterpolationCubic
Y,22*,-75.39659881591797,eInterpolationCubic
Y,23,-75.40998840332031,eInterpolationCubic
Y,23*,-75.4238052368164,eInterpolationCubic
Y,24,-75.43801879882812,eInterpolationCubic
Y,24*,-75.45262145996094,eInterpolationCubic
Y,25,-75.46756744384766,eInterpolationCubic
Y,25*,-75.48284912109375,eInterpolationCubic
Y,26,-75.49842834472656,eInterpolationCubic
Y,26*,-75.5142822265625,eInterpolationCubic
Y,27,-75.53038787841797,eInterpolationCubic
Y,27*,-75.54672241210938,eInterpolationCubic
Y,28,-75.56326293945312,eInterpolationCubic
Y,28*,-75.57997131347656,eInterpolationCubic
Y,29,-75.59683990478516,eInterpolationCubic
Y,29*,-75.61383056640625,eInterpolationCubic
Y,30,-75.63092041015625,eInterpolationCubic
Y,30*,-75.64808654785156,eInterpolationCubic
Y,31,-75.6653060913086,eInterpolationCubic
Y,31*,-75.68254852294922,eInterpolationCubic
Y,32,-75.69979095458984,eInterpolationCubic
Y,32*,-75.71701049804688,eInterpolationCubic
Y,33,-75.73416900634766,eInterpolationCubic
Y,33*,-75.75126647949219,eInterpolationCubic
Y,34,-75.76825714111328,eInterpolationCubic
Y,34*,-75.78511810302734,eInterpolationCubic
Y,35,-75.80183410644531,eInterpolationCubic
Y,35*,-75.81836700439453,eInterpolationCubic
Y,36,-75.83470153808594,eInterpolationCubic
Y,36*,-75.8508071899414,eInterpolationCubic
Y,37,-75.86666870117188,eInterpolationCubic
Y,37*,-75.88224792480469,eInterpolationCubic
Y,38,-75.89752197265625,eInterpolationCubic
Y,38*,-75.91246795654297,eInterpolationCubic
Y,39,-75.92706298828125,eInterpolationCubic
Y,39*,-75.94129180908203,eInterpolationCubic
Y,40,-75.95510864257812,eInterpolationCubic
Y,40*,-75.96849060058594,eInterpolationCubic
Y,41,-75.9814224243164,eInterpolationCubic
Y,41*,-75.9938735961914,eInterpolationCubic
Y,42,-76.00582885742188,eInterpolationCubic
Y,42*,-76.01725006103516,eInterpolationCubic
Y,43,-76.02811431884766,eInterpolationCubic
Y,43*,-76.03840637207031,eInterpolationCubic
Y,44,-76.04808807373047,eInterpolationCubic
Y,44*,-76.0571517944336,eInterpolationCubic
Y,45,-76.06554412841797,eInterpolationCubic
Y,45*,-76.0732650756836,eInterpolationCubic
Y,46,-76.08027648925781,eInterpolationCubic
Y,46*,-76.08655548095703,eInterpolationCubic
Y,47,-76.09208679199219,eInterpolationCubic
Y,47*,-76.0968246459961,eInterpolationCubic
Y,48,-76.10076904296875,eInterpolationCubic
Y,48*,-76.10387420654297,eInterpolationCubic
Y,49,-76.10612487792969,eInterpolationCubic
Y,49*,-76.10749816894531,eInterpolationCubic
Y,50,-76.10795593261719,eInterpolationCubic
Y,50*,-76.10795593261719,eInterpolationConstant
Z,0,0.0,eInterpolationCubic
Z,0*,0.0,eInterpolationCubic
Z,1,0.0,eInterpolationCubic
Z,1*,0.0,eInterpolationCubic
Z,2,0.0,eInterpolationCubic
Z,2*,0.0,eInterpolationCubic
Z,3,0.0,eInterpolationCubic
Z,3*,0.0,eInterpolationCubic
Z,4,0.0,eInterpolationCubic
Z,4*,0.0,eInterpolationCubic
Z,5,0.0,eInterpolationCubic
Z,5*,0.0,eInterpolationCubic
Z,6,0.0,eInterpolationCubic
Z,6*,0.0,eInterpolationCubic
Z,7,0.0,eInterpolationCubic
Z,7*,0.0,eInterpolationCubic
Z,8,0.0,eInterpolationCubic
Z,8*,0.0,eInterpolationCubic
Z,9,0.0,eInterpolationCubic
Z,9*,0.0,eInterpolationCubic
Z,10,0.0,eInterpolationCubic
Z,10*,0.0,eInterpolationCubic
Z,11,0.0,eInterpolationCubic
Z,11*,0.0,eInterpolationCubic
Z,12,0.0,eInterpolationCubic
Z,12*,0.0,eInterpolationCubic
Z,13,0.0,eInterpolationCubic
Z,13*,0.0,eInterpolationCubic
Z,14,0.0,eInterpolationCubic
Z,14*,0.0,eInterpolationCubic
Z,15,0.0,eInterpolationCubic
Z,15*,0.0,eInterpolationCubic
Z,16,0.0,eInterpolationCubic
Z,16*,0.0,eInterpolationCubic
Z,17,0.0,eInterpolationCubic
Z,17*,0.0,eInterpolationCubic
Z,18,0.0,eInterpolationCubic
Z,18*,0.0,eInterpolationCubic
Z,19,0.0,eInterpolationCubic
Z,19*,0.0,eInterpolationCubic
Z,20,0.0,eInterpolationCubic
Z,20*,0.0,eInterpolationCubic
Z,21,0.0,eInterpolationCubic
Z,21*,0.0,eInterpolationCubic
Z,22,0.0,eInterpolationCubic
Z,22*,0.0,eInterpolationCubic
Z,23,0.0,eInterpolationCubic
Z,23*,0.0,eInterpolationCubic
Z,24,0.0,eInterpolationCubic
Z,24*,0.0,eInterpolationCubic
Z,25,0.0,eInterpolationCubic
Z,25*,0.0,eInterpolationCubic
Z,26,0.0,eInterpolationCubic
Z,26*,0.0,eInterpolationCubic
Z,27,0.0,eInterpolationCubic
Z,27*,0.0,eInterpolationCubic
Z,28,0.0,eInterpolationCubic
Z,28*,0.0,eInterpolationCubic
Z,29,0.0,eInterpolationCubic
Z,29*,0.0,eInterpolationCubic
Z,30,0.0,eInterpolationCubic
Z,30*,0.0,eInterpolationCubic
Z,31,0.0,eInterpolationCubic
Z,31*,0.0,eInterpolationCubic
Z,32,0.0,eInterpolationCubic
Z,32*,0.0,eInterpolationCubic
Z,33,0.0,eInterpolationCubic
Z,33*,0.0,eInterpolationCubic
Z,34,0.0,eInterpolationCubic
Z,34*,0.0,eInterpolationCubic
Z,35,0.0,eInterpolationCubic
Z,35*,0.0,eInterpolationCubic
Z,36,0.0,eInterpolationCubic
Z,36*,0.0,eInterpolationCubic
Z,37,0.0,eInterpolationCubic
Z,37*,0.0,eInterpolationCubic
Z,38,0.0,eInterpolationCubic
Z,38*,0.0,eInterpolationCubic
Z,39,0.0,eInterpolationCubic
Z,39*,0.0,eInterpolationCubic
Z,40,0.0,eInterpolationCubic
Z,40*,0.0,eInterpolationCubic
Z,41,0.0,eInterpolationCubic
Z,41*,0.0,eInterpolationCubic
Z,42,0.0,eInterpolationCubic
Z,42*,0.0,eInterpolationCubic
Z,43,0.0,eInterpolationCubic
Z,43*,0.0,eInterpolationCubic
Z,44,0.0,eInterpolationCubic
Z,44*,0.0,eInterpolationCubic
Z,45,0.0,eInterpolationCubic
Z,45*,0.0,eInterpolationCubic
Z,46,0.0,eInterpolationCubic
Z,46*,0.0,eInterpolationCubic
Z,47,0.0,eInterpolationCubic
Z,47*,0.0,eInterpolationCubic
Z,48,0.0,eInterpolationCubic
Z,48*,0.0,eInterpolationCubic
Z,49,0.0,eInterpolationCubic
Z,49*,0.0,eInterpolationCubic
Z,50,0.0,eInterpolationCubic
Z,50*,0.0,eInterpolationConstant
