Axis,KeyFrame,Value,InterpolationType
X,0,0.0,eInterpolationCubic
X,0*,0.0,eInterpolationCubic
X,1,0.0,eInterpolationCubic
X,1*,0.0,eInterpolationCubic
X,2,0.0,eInterpolationCubic
X,2*,0.0,eInterpolationCubic
X,3,0.0,eInterpolationCubic
X,3*,0.0,eInterpolationCubic
X,4,0.0,eInterpolationCubic
X,4*,0.0,eInterpolationCubic
X,5,0.0,eInterpolationCubic
X,5*,0.0,eInterpolationCubic
X,6,0.0,eInterpolationCubic
X,6*,0.0,eInterpolationCubic
X,7,0.0,eInterpolationCubic
X,7*,0.0,eInterpolationCubic
X,8,0.0,eInterpolationCubic
X,8*,0.0,eInterpolationCubic
X,9,0.0,eInterpolationCubic
X,9*,0.0,eInterpolationCubic
X,10,0.0,eInterpolationCubic
X,10*,0.0,eInterpolationCubic
X,11,0.0,eInterpolationCubic
X,11*,0.0,eInterpolationCubic
X,12,0.0,eInterpolationCubic
X,12*,0.0,eInterpolationCubic
X,13,0.0,eInterpolationCubic
X,13*,0.0,eInterpolationCubic
X,14,0.0,eInterpolationCubic
X,14*,0.0,eInterpolationCubic
X,15,0.0,eInterpolationCubic
X,15*,0.0,eInterpolationCubic
X,16,0.0,eInterpolationCubic
X,16*,0.0,eInterpolationCubic
X,17,0.0,eInterpolationCubic
X,17*,0.0,eInterpolationCubic
X,18,0.0,eInterpolationCubic
X,18*,0.0,eInterpolationCubic
X,19,0.0,eInterpolationCubic
X,19*,0.0,eInterpolationCubic
X,20,0.0,eInterpolationCubic
X,20*,0.0,eInterpolationCubic
X,21,0.0,eInterpolationCubic
X,21*,0.0,eInterpolationCubic
X,22,0.0,eInterpolationCubic
X,22*,0.0,eInterpolationCubic
X,23,0.0,eInterpolationCubic
X,23*,0.0,eInterpolationCubic
X,24,0.0,eInterpolationCubic
X,24*,0.0,eInterpolationCubic
X,25,0.0,eInterpolationCubic
X,25*,0.0,eInterpolationCubic
X,26,0.0,eInterpolationCubic
X,26*,0.0,eInterpolationCubic
X,27,0.0,eInterpolationCubic
X,27*,0.0,eInterpolationCubic
X,28,0.0,eInterpolationCubic
X,28*,0.0,eInterpolationCubic
X,29,0.0,eInterpolationCubic
X,29*,0.0,eInterpolationCubic
X,30,0.0,eInterpolationCubic
X,30*,0.0,eInterpolationCubic
X,31,0.0,eInterpolationCubic
X,31*,0.0,eInterpolationCubic
X,32,0.0,eInterpolationCubic
X,32*,0.0,eInterpolationCubic
X,33,0.0,eInterpolationCubic
X,33*,0.0,eInterpolationCubic
X,34,0.0,eInterpolationCubic
X,34*,0.0,eInterpolationCubic
X,35,0.0,eInterpolationCubic
X,35*,0.0,eInterpolationCubic
X,36,0.0,eInterpolationCubic
X,36*,0.0,eInterpolationCubic
X,37,0.0,eInterpolationCubic
X,37*,0.0,eInterpolationCubic
X,38,0.0,eInterpolationCubic
X,38*,0.0,eInterpolationCubic
X,39,0.0,eInterpolationCubic
X,39*,0.0,eInterpolationCubic
X,40,0.0,eInterpolationCubic
X,40*,0.0,eInterpolationCubic
X,41,0.0,eInterpolationCubic
X,41*,0.0,eInterpolationCubic
X,42,0.0,eInterpolationCubic
X,42*,0.0,eInterpolationCubic
X,43,0.0,eInterpolationCubic
X,43*,0.0,eInterpolationCubic
X,44,0.0,eInterpolationCubic
X,44*,0.0,eInterpolationCubic
X,45,0.0,eInterpolationCubic
X,45*,0.0,eInterpolationCubic
X,46,0.0,eInterpolationCubic
X,46*,0.0,eInterpolationCubic
X,47,0.0,eInterpolationCubic
X,47*,0.0,eInterpolationCubic
X,48,0.0,eInterpolationCubic
X,48*,0.0,eInterpolationCubic
X,49,0.0,eInterpolationCubic
X,49*,0.0,eInterpolationCubic
X,50,0.0,eInterpolationCubic
X,50*,0.0,eInterpolationCubic
X,51,0.0,eInterpolationCubic
X,51*,0.0,eInterpolationCubic
X,52,0.0,eInterpolationCubic
X,52*,0.0,eInterpolationCubic
X,53,0.0,eInterpolationCubic
X,53*,0.0,eInterpolationCubic
X,54,0.0,eInterpolationCubic
X,54*,0.0,eInterpolationCubic
X,55,0.0,eInterpolationCubic
X,55*,0.0,eInterpolationCubic
X,56,0.0,eInterpolationCubic
X,56*,0.0,eInterpolationCubic
X,57,0.0,eInterpolationCubic
X,57*,0.0,eInterpolationCubic
X,58,0.0,eInterpolationCubic
X,58*,0.0,eInterpolationCubic
X,59,0.0,eInterpolationCubic
X,59*,0.0,eInterpolationCubic
X,60,0.0,eInterpolationCubic
X,60*,0.0,eInterpolationConstant
Y,0,0.0004197805537842214,eInterpolationCubic
Y,0*,-0.30239546298980713,eInterpolationCubic
Y,1,-1.1717244386672974,eInterpolationCubic
Y,1*,-2.54889178276062,eInterpolationCubic
Y,2,-4.375222206115723,eInterpolationCubic
Y,2*,-6.592041015625,eInterpolationCubic
Y,3,-9.14067268371582,eInterpolationCubic
Y,3*,-11.962441444396973,eInterpolationCubic
Y,4,-14.998672485351562,eInterpolationCubic
Y,4*,-18.190690994262695,eInterpolationCubic
Y,5,-21.479822158813477,eInterpolationCubic
Y,5*,-24.807388305664062,eInterpolationCubic
Y,6,-28.114717483520508,eInterpolationCubic
Y,6*,-31.34313201904297,eInterpolationCubic
Y,7,-34.4339599609375,eInterpolationCubic
Y,7*,-37.328521728515625,eInterpolationCubic
Y,8,-39.9681396484375,eInterpolationCubic
Y,8*,-42.5217170715332,eInterpolationCubic
Y,9,-45.17486572265625,eInterpolationCubic
Y,9*,-47.89399719238281,eInterpolationCubic
Y,10,-50.645503997802734,eInterpolationCubic
Y,10*,-53.395809173583984,eInterpolationCubic
Y,11,-56.11130905151367,eInterpolationCubic
Y,11*,-58.7584114074707,eInterpolationCubic
Y,12,-61.303524017333984,eInterpolationCubic
Y,12*,-63.71305465698242,eInterpolationCubic
Y,13,-65.95340728759766,eInterpolationCubic
Y,13*,-67.9909896850586,eInterpolationCubic
Y,14,-69.7922134399414,eInterpolationCubic
Y,14*,-71.46472930908203,eInterpolationCubic
Y,15,-73.13135528564453,eInterpolationCubic
Y,15*,-74.7812271118164,eInterpolationCubic
Y,16,-76.4034423828125,eInterpolationCubic
Y,16*,-77.9871597290039,eInterpolationCubic
Y,17,-79.521484375,eInterpolationCubic
Y,17*,-80.99555206298828,eInterpolationCubic
Y,18,-82.39849090576172,eInterpolationCubic
Y,18*,-83.71941375732422,eInterpolationCubic
Y,19,-84.94746398925781,eInterpolationCubic
Y,19*,-86.07176208496094,eInterpolationCubic
Y,20,-87.08143615722656,eInterpolationCubic
Y,20*,-87.9655990600586,eInterpolationCubic
Y,21,-88.71339416503906,eInterpolationCubic
Y,21*,-89.31393432617188,eInterpolationCubic
Y,22,-89.75636291503906,eInterpolationCubic
Y,22*,-90.02978515625,eInterpolationCubic
Y,23,-90.12335205078125,eInterpolationCubic
Y,23*,-90.12335205078125,eInterpolationCubic
Y,24,-90.12335205078125,eInterpolationCubic
Y,24*,-90.12335205078125,eInterpolationCubic
Y,25,-90.12335205078125,eInterpolationCubic
Y,25*,-90.12335205078125,eInterpolationCubic
Y,26,-90.12335205078125,eInterpolationCubic
Y,26*,-90.12335205078125,eInterpolationCubic
Y,27,-90.12335205078125,eInterpolationCubic
Y,27*,-90.12335205078125,eInterpolationCubic
Y,28,-90.12335205078125,eInterpolationCubic
Y,28*,-90.12335205078125,eInterpolationCubic
Y,29,-90.12335205078125,eInterpolationCubic
Y,29*,-90.12335205078125,eInterpolationCubic
Y,30,-90.12335205078125,eInterpolationCubic
Y,30*,-90.12335205078125,eInterpolationCubic
Y,31,-90.12335205078125,eInterpolationCubic
Y,31*,-90.12335205078125,eInterpolationCubic
Y,32,-90.12335205078125,eInterpolationCubic
Y,32*,-90.12335205078125,eInterpolationCubic
Y,33,-90.12335205078125,eInterpolationCubic
Y,33*,-90.12335205078125,eInterpolationCubic
Y,34,-90.12335205078125,eInterpolationCubic
Y,34*,-90.12335205078125,eInterpolationCubic
Y,35,-90.12335205078125,eInterpolationCubic
Y,35*,-90.12335205078125,eInterpolationCubic
Y,36,-90.12335205078125,eInterpolationCubic
Y,36*,-90.12335205078125,eInterpolationCubic
Y,37,-90.12335205078125,eInterpolationCubic
Y,37*,-90.12335205078125,eInterpolationCubic
Y,38,-90.12335205078125,eInterpolationCubic
Y,38*,-90.12335205078125,eInterpolationCubic
Y,39,-90.12335205078125,eInterpolationCubic
Y,39*,-90.12335205078125,eInterpolationCubic
Y,40,-90.12335205078125,eInterpolationCubic
Y,40*,-90.12335205078125,eInterpolationCubic
Y,41,-90.12335205078125,eInterpolationCubic
Y,41*,-90.12335205078125,eInterpolationCubic
Y,42,-90.12335205078125,eInterpolationCubic
Y,42*,-90.12335205078125,eInterpolationCubic
Y,43,-90.12335205078125,eInterpolationCubic
Y,43*,-90.12335205078125,eInterpolationCubic
Y,44,-90.12335205078125,eInterpolationCubic
Y,44*,-90.12335205078125,eInterpolationCubic
Y,45,-90.12335205078125,eInterpolationCubic
Y,45*,-90.12335205078125,eInterpolationCubic
Y,46,-90.12335205078125,eInterpolationCubic
Y,46*,-90.12335205078125,eInterpolationCubic
Y,47,-90.12335205078125,eInterpolationCubic
Y,47*,-90.12335205078125,eInterpolationCubic
Y,48,-90.12335205078125,eInterpolationCubic
Y,48*,-90.12335205078125,eInterpolationCubic
Y,49,-90.12335205078125,eInterpolationCubic
Y,49*,-90.12335205078125,eInterpolationCubic
Y,50,-90.12335205078125,eInterpolationCubic
Y,50*,-90.12335205078125,eInterpolationCubic
Y,51,-90.12335205078125,eInterpolationCubic
Y,51*,-90.12335205078125,eInterpolationCubic
Y,52,-90.12335205078125,eInterpolationCubic
Y,52*,-90.12335205078125,eInterpolationCubic
Y,53,-90.12335205078125,eInterpolationCubic
Y,53*,-90.12335205078125,eInterpolationCubic
Y,54,-90.12335205078125,eInterpolationCubic
Y,54*,-90.12335205078125,eInterpolationCubic
Y,55,-90.12335205078125,eInterpolationCubic
Y,55*,-90.12335205078125,eInterpolationCubic
Y,56,-90.12335205078125,eInterpolationCubic
Y,56*,-90.12335205078125,eInterpolationCubic
Y,57,-90.12335205078125,eInterpolationCubic
Y,57*,-90.12335205078125,eInterpolationCubic
Y,58,-90.12335205078125,eInterpolationCubic
Y,58*,-90.12335205078125,eInterpolationCubic
Y,59,-90.12335205078125,eInterpolationCubic
Y,59*,-90.12335205078125,eInterpolationCubic
Y,60,-90.12335205078125,eInterpolationCubic
Y,60*,-90.12335205078125,eInterpolationConstant
Z,0,9.32100072202283e-20,eInterpolationCubic
Z,0*,9.32100072202283e-20,eInterpolationCubic
Z,1,9.32100072202283e-20,eInterpolationCubic
Z,1*,9.32100072202283e-20,eInterpolationCubic
Z,2,9.32100072202283e-20,eInterpolationCubic
Z,2*,9.32100072202283e-20,eInterpolationCubic
Z,3,9.32100072202283e-20,eInterpolationCubic
Z,3*,9.32100072202283e-20,eInterpolationCubic
Z,4,9.32100072202283e-20,eInterpolationCubic
Z,4*,9.32100072202283e-20,eInterpolationCubic
Z,5,9.32100072202283e-20,eInterpolationCubic
Z,5*,9.32100072202283e-20,eInterpolationCubic
Z,6,9.32100072202283e-20,eInterpolationCubic
Z,6*,9.32100072202283e-20,eInterpolationCubic
Z,7,9.32100072202283e-20,eInterpolationCubic
Z,7*,9.32100072202283e-20,eInterpolationCubic
Z,8,9.32100072202283e-20,eInterpolationCubic
Z,8*,9.32100072202283e-20,eInterpolationCubic
Z,9,9.32100072202283e-20,eInterpolationCubic
Z,9*,9.32100072202283e-20,eInterpolationCubic
Z,10,9.32100072202283e-20,eInterpolationCubic
Z,10*,9.32100072202283e-20,eInterpolationCubic
Z,11,9.32100072202283e-20,eInterpolationCubic
Z,11*,9.32100072202283e-20,eInterpolationCubic
Z,12,9.32100072202283e-20,eInterpolationCubic
Z,12*,9.32100072202283e-20,eInterpolationCubic
Z,13,9.32100072202283e-20,eInterpolationCubic
Z,13*,9.32100072202283e-20,eInterpolationCubic
Z,14,9.32100072202283e-20,eInterpolationCubic
Z,14*,9.32100072202283e-20,eInterpolationCubic
Z,15,9.32100072202283e-20,eInterpolationCubic
Z,15*,9.32100072202283e-20,eInterpolationCubic
Z,16,9.32100072202283e-20,eInterpolationCubic
Z,16*,9.32100072202283e-20,eInterpolationCubic
Z,17,9.32100072202283e-20,eInterpolationCubic
Z,17*,9.32100072202283e-20,eInterpolationCubic
Z,18,9.32100072202283e-20,eInterpolationCubic
Z,18*,9.32100072202283e-20,eInterpolationCubic
Z,19,9.32100072202283e-20,eInterpolationCubic
Z,19*,9.32100072202283e-20,eInterpolationCubic
Z,20,9.32100072202283e-20,eInterpolationCubic
Z,20*,9.32100072202283e-20,eInterpolationCubic
Z,21,9.32100072202283e-20,eInterpolationCubic
Z,21*,9.32100072202283e-20,eInterpolationCubic
Z,22,9.32100072202283e-20,eInterpolationCubic
Z,22*,9.32100072202283e-20,eInterpolationCubic
Z,23,9.32100072202283e-20,eInterpolationCubic
Z,23*,9.32100072202283e-20,eInterpolationCubic
Z,24,9.32100072202283e-20,eInterpolationCubic
Z,24*,9.32100072202283e-20,eInterpolationCubic
Z,25,9.32100072202283e-20,eInterpolationCubic
Z,25*,9.32100072202283e-20,eInterpolationCubic
Z,26,9.32100072202283e-20,eInterpolationCubic
Z,26*,9.32100072202283e-20,eInterpolationCubic
Z,27,9.32100072202283e-20,eInterpolationCubic
Z,27*,9.32100072202283e-20,eInterpolationCubic
Z,28,9.32100072202283e-20,eInterpolationCubic
Z,28*,9.32100072202283e-20,eInterpolationCubic
Z,29,9.32100072202283e-20,eInterpolationCubic
Z,29*,9.32100072202283e-20,eInterpolationCubic
Z,30,9.32100072202283e-20,eInterpolationCubic
Z,30*,9.32100072202283e-20,eInterpolationCubic
Z,31,9.32100072202283e-20,eInterpolationCubic
Z,31*,9.32100072202283e-20,eInterpolationCubic
Z,32,9.32100072202283e-20,eInterpolationCubic
Z,32*,9.32100072202283e-20,eInterpolationCubic
Z,33,9.32100072202283e-20,eInterpolationCubic
Z,33*,9.32100072202283e-20,eInterpolationCubic
Z,34,9.32100072202283e-20,eInterpolationCubic
Z,34*,9.32100072202283e-20,eInterpolationCubic
Z,35,9.32100072202283e-20,eInterpolationCubic
Z,35*,9.32100072202283e-20,eInterpolationCubic
Z,36,9.32100072202283e-20,eInterpolationCubic
Z,36*,9.32100072202283e-20,eInterpolationCubic
Z,37,9.32100072202283e-20,eInterpolationCubic
Z,37*,9.32100072202283e-20,eInterpolationCubic
Z,38,9.32100072202283e-20,eInterpolationCubic
Z,38*,9.32100072202283e-20,eInterpolationCubic
Z,39,9.32100072202283e-20,eInterpolationCubic
Z,39*,9.32100072202283e-20,eInterpolationCubic
Z,40,9.32100072202283e-20,eInterpolationCubic
Z,40*,9.32100072202283e-20,eInterpolationCubic
Z,41,9.32100072202283e-20,eInterpolationCubic
Z,41*,9.32100072202283e-20,eInterpolationCubic
Z,42,9.32100072202283e-20,eInterpolationCubic
Z,42*,9.32100072202283e-20,eInterpolationCubic
Z,43,9.32100072202283e-20,eInterpolationCubic
Z,43*,9.32100072202283e-20,eInterpolationCubic
Z,44,9.32100072202283e-20,eInterpolationCubic
Z,44*,9.32100072202283e-20,eInterpolationCubic
Z,45,9.32100072202283e-20,eInterpolationCubic
Z,45*,9.32100072202283e-20,eInterpolationCubic
Z,46,9.32100072202283e-20,eInterpolationCubic
Z,46*,9.32100072202283e-20,eInterpolationCubic
Z,47,9.32100072202283e-20,eInterpolationCubic
Z,47*,9.32100072202283e-20,eInterpolationCubic
Z,48,9.32100072202283e-20,eInterpolationCubic
Z,48*,9.32100072202283e-20,eInterpolationCubic
Z,49,9.32100072202283e-20,eInterpolationCubic
Z,49*,9.32100072202283e-20,eInterpolationCubic
Z,50,9.32100072202283e-20,eInterpolationCubic
Z,50*,9.32100072202283e-20,eInterpolationCubic
Z,51,9.32100072202283e-20,eInterpolationCubic
Z,51*,9.32100072202283e-20,eInterpolationCubic
Z,52,9.32100072202283e-20,eInterpolationCubic
Z,52*,9.32100072202283e-20,eInterpolationCubic
Z,53,9.32100072202283e-20,eInterpolationCubic
Z,53*,9.32100072202283e-20,eInterpolationCubic
Z,54,9.32100072202283e-20,eInterpolationCubic
Z,54*,9.32100072202283e-20,eInterpolationCubic
Z,55,9.32100072202283e-20,eInterpolationCubic
Z,55*,9.32100072202283e-20,eInterpolationCubic
Z,56,9.32100072202283e-20,eInterpolationCubic
Z,56*,9.32100072202283e-20,eInterpolationCubic
Z,57,9.32100072202283e-20,eInterpolationCubic
Z,57*,9.32100072202283e-20,eInterpolationCubic
Z,58,9.32100072202283e-20,eInterpolationCubic
Z,58*,9.32100072202283e-20,eInterpolationCubic
Z,59,9.32100072202283e-20,eInterpolationCubic
Z,59*,9.32100072202283e-20,eInterpolationCubic
Z,60,9.32100072202283e-20,eInterpolationCubic
Z,60*,9.32100072202283e-20,eInterpolationConstant
