Axis,KeyFrame,Value,InterpolationType
X,0,0.0,eInterpolationCubic
X,0*,-3.0183145999908447,eInterpolationCubic
X,1,-10.510526657104492,eInterpolationCubic
X,1*,-20.13253402709961,eInterpolationCubic
X,2,-29.540241241455078,eInterpolationCubic
X,2*,-38.786991119384766,eInterpolationCubic
X,3,-48.89683151245117,eInterpolationCubic
X,3*,-58.981693267822266,eInterpolationCubic
X,4,-68.15351104736328,eInterpolationCubic
X,4*,-76.13897705078125,eInterpolationCubic
X,5,-83.42387390136719,eInterpolationCubic
X,5*,-90.25883483886719,eInterpolationCubic
X,6,-96.89447784423828,eInterpolationCubic
X,6*,-103.29145812988281,eInterpolationCubic
X,7,-109.35150909423828,eInterpolationCubic
X,7*,-115.23683166503906,eInterpolationCubic
X,8,-121.10961151123047,eInterpolationCubic
X,8*,-127.05906677246094,eInterpolationCubic
X,9,-132.9833526611328,eInterpolationCubic
X,9*,-138.75814819335938,eInterpolationCubic
X,10,-144.2591094970703,eInterpolationCubic
X,10*,-149.58242797851562,eInterpolationCubic
X,11,-154.75128173828125,eInterpolationCubic
X,11*,-159.5318603515625,eInterpolationCubic
X,12,-163.69036865234375,eInterpolationCubic
X,12*,-167.43528747558594,eInterpolationCubic
X,13,-170.80105590820312,eInterpolationCubic
X,13*,-173.292724609375,eInterpolationCubic
X,14,-174.41534423828125,eInterpolationCubic
X,14*,-174.68280029296875,eInterpolationCubic
X,15,-174.9391326904297,eInterpolationCubic
X,15*,-175.1845245361328,eInterpolationCubic
X,16,-175.41928100585938,eInterpolationCubic
X,16*,-175.6436004638672,eInterpolationCubic
X,17,-175.8577117919922,eInterpolationCubic
X,17*,-176.06187438964844,eInterpolationCubic
X,18,-176.25631713867188,eInterpolationCubic
X,18*,-176.44126892089844,eInterpolationCubic
X,19,-176.6169891357422,eInterpolationCubic
X,19*,-176.78369140625,eInterpolationCubic
X,20,-176.94161987304688,eInterpolationCubic
X,20*,-177.0910186767578,eInterpolationCubic
X,21,-177.23211669921875,eInterpolationCubic
X,21*,-177.3651580810547,eInterpolationCubic
X,22,-177.49037170410156,eInterpolationCubic
X,22*,-177.60800170898438,eInterpolationCubic
X,23,-177.71827697753906,eInterpolationCubic
X,23*,-177.8214569091797,eInterpolationCubic
X,24,-177.91773986816406,eInterpolationCubic
X,24*,-178.00738525390625,eInterpolationCubic
X,25,-178.0906524658203,eInterpolationCubic
X,25*,-178.16773986816406,eInterpolationCubic
X,26,-178.2388916015625,eInterpolationCubic
X,26*,-178.3043670654297,eInterpolationCubic
X,27,-178.36439514160156,eInterpolationCubic
X,27*,-178.419189453125,eInterpolationCubic
X,28,-178.46902465820312,eInterpolationCubic
X,28*,-178.5141143798828,eInterpolationCubic
X,29,-178.5546875,eInterpolationCubic
X,29*,-178.59100341796875,eInterpolationCubic
X,30,-178.62327575683594,eInterpolationCubic
X,30*,-178.65176391601562,eInterpolationCubic
X,31,-178.67669677734375,eInterpolationCubic
X,31*,-178.69830322265625,eInterpolationCubic
X,32,-178.7168426513672,eInterpolationCubic
X,32*,-178.73252868652344,eInterpolationCubic
X,33,-178.74562072753906,eInterpolationCubic
X,33*,-178.75631713867188,eInterpolationCubic
X,34,-178.76487731933594,eInterpolationCubic
X,34*,-178.7715606689453,eInterpolationCubic
X,35,-178.77658081054688,eInterpolationCubic
X,35*,-178.78018188476562,eInterpolationCubic
X,36,-178.7825927734375,eInterpolationCubic
X,36*,-178.7840576171875,eInterpolationCubic
X,37,-178.78480529785156,eInterpolationCubic
X,37*,-178.78506469726562,eInterpolationCubic
X,38,-178.78506469726562,eInterpolationCubic
X,38*,-178.78506469726562,eInterpolationCubic
X,39,-178.78506469726562,eInterpolationCubic
X,39*,-178.78506469726562,eInterpolationCubic
X,40,-178.78506469726562,eInterpolationCubic
X,40*,-178.78506469726562,eInterpolationCubic
X,41,-178.78506469726562,eInterpolationCubic
X,41*,-178.78506469726562,eInterpolationCubic
X,42,-178.78506469726562,eInterpolationCubic
X,42*,-178.78506469726562,eInterpolationCubic
X,43,-178.78506469726562,eInterpolationCubic
X,43*,-178.78506469726562,eInterpolationCubic
X,44,-178.78506469726562,eInterpolationCubic
X,44*,-178.78506469726562,eInterpolationCubic
X,45,-178.78506469726562,eInterpolationCubic
X,45*,-178.78506469726562,eInterpolationCubic
X,46,-178.78506469726562,eInterpolationCubic
X,46*,-178.78506469726562,eInterpolationCubic
X,47,-178.78506469726562,eInterpolationCubic
X,47*,-178.78506469726562,eInterpolationCubic
X,48,-178.78506469726562,eInterpolationCubic
X,48*,-178.78506469726562,eInterpolationCubic
X,49,-178.78506469726562,eInterpolationCubic
X,49*,-178.78506469726562,eInterpolationCubic
X,50,-178.78506469726562,eInterpolationCubic
X,50*,-178.78506469726562,eInterpolationConstant
Y,0,-0.0,eInterpolationCubic
Y,0*,-0.0,eInterpolationCubic
Y,1,-0.0,eInterpolationCubic
Y,1*,-0.0,eInterpolationCubic
Y,2,-0.0,eInterpolationCubic
Y,2*,-0.0,eInterpolationCubic
Y,3,-0.0,eInterpolationCubic
Y,3*,-0.0,eInterpolationCubic
Y,4,-0.0,eInterpolationCubic
Y,4*,-0.0,eInterpolationCubic
Y,5,-0.0,eInterpolationCubic
Y,5*,-0.0,eInterpolationCubic
Y,6,-0.0,eInterpolationCubic
Y,6*,-0.0,eInterpolationCubic
Y,7,-0.0,eInterpolationCubic
Y,7*,-0.0,eInterpolationCubic
Y,8,-0.0,eInterpolationCubic
Y,8*,-0.0,eInterpolationCubic
Y,9,-0.0,eInterpolationCubic
Y,9*,-0.0,eInterpolationCubic
Y,10,-0.0,eInterpolationCubic
Y,10*,-0.0,eInterpolationCubic
Y,11,-0.0,eInterpolationCubic
Y,11*,-0.0,eInterpolationCubic
Y,12,-0.0,eInterpolationCubic
Y,12*,-0.0,eInterpolationCubic
Y,13,-0.0,eInterpolationCubic
Y,13*,-0.0,eInterpolationCubic
Y,14,-0.0,eInterpolationCubic
Y,14*,-0.0,eInterpolationCubic
Y,15,-0.0,eInterpolationCubic
Y,15*,-0.0,eInterpolationCubic
Y,16,-0.0,eInterpolationCubic
Y,16*,-0.0,eInterpolationCubic
Y,17,-0.0,eInterpolationCubic
Y,17*,-0.0,eInterpolationCubic
Y,18,-0.0,eInterpolationCubic
Y,18*,-0.0,eInterpolationCubic
Y,19,-0.0,eInterpolationCubic
Y,19*,-0.0,eInterpolationCubic
Y,20,-0.0,eInterpolationCubic
Y,20*,-0.0,eInterpolationCubic
Y,21,-0.0,eInterpolationCubic
Y,21*,-0.0,eInterpolationCubic
Y,22,-0.0,eInterpolationCubic
Y,22*,-0.0,eInterpolationCubic
Y,23,-0.0,eInterpolationCubic
Y,23*,-0.0,eInterpolationCubic
Y,24,-0.0,eInterpolationCubic
Y,24*,-0.0,eInterpolationCubic
Y,25,-0.0,eInterpolationCubic
Y,25*,-0.0,eInterpolationCubic
Y,26,-0.0,eInterpolationCubic
Y,26*,-0.0,eInterpolationCubic
Y,27,-0.0,eInterpolationCubic
Y,27*,-0.0,eInterpolationCubic
Y,28,-0.0,eInterpolationCubic
Y,28*,-0.0,eInterpolationCubic
Y,29,-0.0,eInterpolationCubic
Y,29*,-0.0,eInterpolationCubic
Y,30,-0.0,eInterpolationCubic
Y,30*,-0.0,eInterpolationCubic
Y,31,-0.0,eInterpolationCubic
Y,31*,-0.0,eInterpolationCubic
Y,32,-0.0,eInterpolationCubic
Y,32*,-0.0,eInterpolationCubic
Y,33,-0.0,eInterpolationCubic
Y,33*,-0.0,eInterpolationCubic
Y,34,-0.0,eInterpolationCubic
Y,34*,-0.0,eInterpolationCubic
Y,35,-0.0,eInterpolationCubic
Y,35*,-0.0,eInterpolationCubic
Y,36,-0.0,eInterpolationCubic
Y,36*,-0.0,eInterpolationCubic
Y,37,-0.0,eInterpolationCubic
Y,37*,-0.0,eInterpolationCubic
Y,38,-0.0,eInterpolationCubic
Y,38*,-0.0,eInterpolationCubic
Y,39,-0.0,eInterpolationCubic
Y,39*,-0.0,eInterpolationCubic
Y,40,-0.0,eInterpolationCubic
Y,40*,-0.0,eInterpolationCubic
Y,41,-0.0,eInterpolationCubic
Y,41*,-0.0,eInterpolationCubic
Y,42,-0.0,eInterpolationCubic
Y,42*,-0.0,eInterpolationCubic
Y,43,-0.0,eInterpolationCubic
Y,43*,-0.0,eInterpolationCubic
Y,44,-0.0,eInterpolationCubic
Y,44*,-0.0,eInterpolationCubic
Y,45,-0.0,eInterpolationCubic
Y,45*,-0.0,eInterpolationCubic
Y,46,-0.0,eInterpolationCubic
Y,46*,-0.0,eInterpolationCubic
Y,47,-0.0,eInterpolationCubic
Y,47*,-0.0,eInterpolationCubic
Y,48,-0.0,eInterpolationCubic
Y,48*,-0.0,eInterpolationCubic
Y,49,-0.0,eInterpolationCubic
Y,49*,-0.0,eInterpolationCubic
Y,50,-0.0,eInterpolationCubic
Y,50*,-0.0,eInterpolationConstant
Z,0,0.0,eInterpolationCubic
Z,0*,0.0,eInterpolationCubic
Z,1,0.0,eInterpolationCubic
Z,1*,0.0,eInterpolationCubic
Z,2,0.0,eInterpolationCubic
Z,2*,0.0,eInterpolationCubic
Z,3,0.0,eInterpolationCubic
Z,3*,0.0,eInterpolationCubic
Z,4,0.0,eInterpolationCubic
Z,4*,0.0,eInterpolationCubic
Z,5,0.0,eInterpolationCubic
Z,5*,0.0,eInterpolationCubic
Z,6,0.0,eInterpolationCubic
Z,6*,0.0,eInterpolationCubic
Z,7,0.0,eInterpolationCubic
Z,7*,0.0,eInterpolationCubic
Z,8,0.0,eInterpolationCubic
Z,8*,0.0,eInterpolationCubic
Z,9,0.0,eInterpolationCubic
Z,9*,0.0,eInterpolationCubic
Z,10,0.0,eInterpolationCubic
Z,10*,0.0,eInterpolationCubic
Z,11,0.0,eInterpolationCubic
Z,11*,0.0,eInterpolationCubic
Z,12,0.0,eInterpolationCubic
Z,12*,0.0,eInterpolationCubic
Z,13,0.0,eInterpolationCubic
Z,13*,0.0,eInterpolationCubic
Z,14,0.0,eInterpolationCubic
Z,14*,0.0,eInterpolationCubic
Z,15,0.0,eInterpolationCubic
Z,15*,0.0,eInterpolationCubic
Z,16,0.0,eInterpolationCubic
Z,16*,0.0,eInterpolationCubic
Z,17,0.0,eInterpolationCubic
Z,17*,0.0,eInterpolationCubic
Z,18,0.0,eInterpolationCubic
Z,18*,0.0,eInterpolationCubic
Z,19,0.0,eInterpolationCubic
Z,19*,0.0,eInterpolationCubic
Z,20,0.0,eInterpolationCubic
Z,20*,0.0,eInterpolationCubic
Z,21,0.0,eInterpolationCubic
Z,21*,0.0,eInterpolationCubic
Z,22,0.0,eInterpolationCubic
Z,22*,0.0,eInterpolationCubic
Z,23,0.0,eInterpolationCubic
Z,23*,0.0,eInterpolationCubic
Z,24,0.0,eInterpolationCubic
Z,24*,0.0,eInterpolationCubic
Z,25,0.0,eInterpolationCubic
Z,25*,0.0,eInterpolationCubic
Z,26,0.0,eInterpolationCubic
Z,26*,0.0,eInterpolationCubic
Z,27,0.0,eInterpolationCubic
Z,27*,0.0,eInterpolationCubic
Z,28,0.0,eInterpolationCubic
Z,28*,0.0,eInterpolationCubic
Z,29,0.0,eInterpolationCubic
Z,29*,0.0,eInterpolationCubic
Z,30,0.0,eInterpolationCubic
Z,30*,0.0,eInterpolationCubic
Z,31,0.0,eInterpolationCubic
Z,31*,0.0,eInterpolationCubic
Z,32,0.0,eInterpolationCubic
Z,32*,0.0,eInterpolationCubic
Z,33,0.0,eInterpolationCubic
Z,33*,0.0,eInterpolationCubic
Z,34,0.0,eInterpolationCubic
Z,34*,0.0,eInterpolationCubic
Z,35,0.0,eInterpolationCubic
Z,35*,0.0,eInterpolationCubic
Z,36,0.0,eInterpolationCubic
Z,36*,0.0,eInterpolationCubic
Z,37,0.0,eInterpolationCubic
Z,37*,0.0,eInterpolationCubic
Z,38,0.0,eInterpolationCubic
Z,38*,0.0,eInterpolationCubic
Z,39,0.0,eInterpolationCubic
Z,39*,0.0,eInterpolationCubic
Z,40,0.0,eInterpolationCubic
Z,40*,0.0,eInterpolationCubic
Z,41,0.0,eInterpolationCubic
Z,41*,0.0,eInterpolationCubic
Z,42,0.0,eInterpolationCubic
Z,42*,0.0,eInterpolationCubic
Z,43,0.0,eInterpolationCubic
Z,43*,0.0,eInterpolationCubic
Z,44,0.0,eInterpolationCubic
Z,44*,0.0,eInterpolationCubic
Z,45,0.0,eInterpolationCubic
Z,45*,0.0,eInterpolationCubic
Z,46,0.0,eInterpolationCubic
Z,46*,0.0,eInterpolationCubic
Z,47,0.0,eInterpolationCubic
Z,47*,0.0,eInterpolationCubic
Z,48,0.0,eInterpolationCubic
Z,48*,0.0,eInterpolationCubic
Z,49,0.0,eInterpolationCubic
Z,49*,0.0,eInterpolationCubic
Z,50,0.0,eInterpolationCubic
Z,50*,0.0,eInterpolationConstant
