Axis,KeyFrame,Value,InterpolationType
X,0,0.0,eInterpolationCubic
X,0*,0.0,eInterpolationCubic
X,1,0.0,eInterpolationCubic
X,1*,0.0,eInterpolationCubic
X,2,0.0,eInterpolationCubic
X,2*,0.0,eInterpolationCubic
X,3,0.0,eInterpolationCubic
X,3*,0.0,eInterpolationCubic
X,4,0.0,eInterpolationCubic
X,4*,0.0,eInterpolationCubic
X,5,0.0,eInterpolationCubic
X,5*,0.0,eInterpolationCubic
X,6,0.0,eInterpolationCubic
X,6*,0.0,eInterpolationCubic
X,7,0.0,eInterpolationCubic
X,7*,0.0,eInterpolationCubic
X,8,0.0,eInterpolationCubic
X,8*,0.0,eInterpolationCubic
X,9,0.0,eInterpolationCubic
X,9*,0.0,eInterpolationCubic
X,10,0.0,eInterpolationCubic
X,10*,0.0,eInterpolationCubic
X,11,0.0,eInterpolationCubic
X,11*,0.0,eInterpolationCubic
X,12,0.0,eInterpolationCubic
X,12*,0.0,eInterpolationCubic
X,13,0.0,eInterpolationCubic
X,13*,0.0,eInterpolationCubic
X,14,0.0,eInterpolationCubic
X,14*,0.0,eInterpolationCubic
X,15,0.0,eInterpolationCubic
X,15*,0.0,eInterpolationCubic
X,16,0.0,eInterpolationCubic
X,16*,0.0,eInterpolationCubic
X,17,0.0,eInterpolationCubic
X,17*,0.0,eInterpolationCubic
X,18,0.0,eInterpolationCubic
X,18*,0.0,eInterpolationCubic
X,19,0.0,eInterpolationCubic
X,19*,0.0,eInterpolationCubic
X,20,0.0,eInterpolationCubic
X,20*,0.0,eInterpolationCubic
X,21,0.0,eInterpolationCubic
X,21*,0.0,eInterpolationCubic
X,22,0.0,eInterpolationCubic
X,22*,0.0,eInterpolationCubic
X,23,0.0,eInterpolationCubic
X,23*,0.0,eInterpolationCubic
X,24,0.0,eInterpolationCubic
X,24*,0.0,eInterpolationCubic
X,25,0.0,eInterpolationCubic
X,25*,0.0,eInterpolationCubic
X,26,0.0,eInterpolationCubic
X,26*,0.0,eInterpolationCubic
X,27,0.0,eInterpolationCubic
X,27*,0.0,eInterpolationCubic
X,28,0.0,eInterpolationCubic
X,28*,0.0,eInterpolationCubic
X,29,0.0,eInterpolationCubic
X,29*,0.0,eInterpolationCubic
X,30,0.0,eInterpolationCubic
X,30*,0.0,eInterpolationCubic
X,31,0.0,eInterpolationCubic
X,31*,0.0,eInterpolationCubic
X,32,0.0,eInterpolationCubic
X,32*,0.0,eInterpolationCubic
X,33,0.0,eInterpolationCubic
X,33*,0.0,eInterpolationCubic
X,34,0.0,eInterpolationCubic
X,34*,0.0,eInterpolationCubic
X,35,0.0,eInterpolationCubic
X,35*,0.0,eInterpolationCubic
X,36,0.0,eInterpolationCubic
X,36*,0.0,eInterpolationCubic
X,37,0.0,eInterpolationCubic
X,37*,0.0,eInterpolationCubic
X,38,0.0,eInterpolationCubic
X,38*,0.0,eInterpolationCubic
X,39,0.0,eInterpolationCubic
X,39*,0.0,eInterpolationCubic
X,40,0.0,eInterpolationCubic
X,40*,0.0,eInterpolationCubic
X,41,0.0,eInterpolationCubic
X,41*,0.0,eInterpolationCubic
X,42,0.0,eInterpolationCubic
X,42*,0.0,eInterpolationCubic
X,43,0.0,eInterpolationCubic
X,43*,0.0,eInterpolationCubic
X,44,0.0,eInterpolationCubic
X,44*,0.0,eInterpolationCubic
X,45,0.0,eInterpolationCubic
X,45*,0.0,eInterpolationCubic
X,46,0.0,eInterpolationCubic
X,46*,0.0,eInterpolationCubic
X,47,0.0,eInterpolationCubic
X,47*,0.0,eInterpolationCubic
X,48,0.0,eInterpolationCubic
X,48*,0.0,eInterpolationCubic
X,49,0.0,eInterpolationCubic
X,49*,0.0,eInterpolationCubic
X,50,0.0,eInterpolationCubic
X,50*,0.0,eInterpolationCubic
X,51,0.0,eInterpolationCubic
X,51*,0.0,eInterpolationCubic
X,52,0.0,eInterpolationCubic
X,52*,0.0,eInterpolationCubic
X,53,0.0,eInterpolationCubic
X,53*,0.0,eInterpolationCubic
X,54,0.0,eInterpolationCubic
X,54*,0.0,eInterpolationCubic
X,55,0.0,eInterpolationCubic
X,55*,0.0,eInterpolationCubic
X,56,0.0,eInterpolationCubic
X,56*,0.0,eInterpolationCubic
X,57,0.0,eInterpolationCubic
X,57*,0.0,eInterpolationCubic
X,58,0.0,eInterpolationCubic
X,58*,0.0,eInterpolationCubic
X,59,0.0,eInterpolationCubic
X,59*,0.0,eInterpolationCubic
X,60,0.0,eInterpolationCubic
X,60*,0.0,eInterpolationConstant
Y,0,-0.0,eInterpolationCubic
Y,0*,-0.6076140403747559,eInterpolationCubic
Y,1,-2.3339295387268066,eInterpolationCubic
Y,1*,-5.034156322479248,eInterpolationCubic
Y,2,-8.563505172729492,eInterpolationCubic
Y,2*,-12.777185440063477,eInterpolationCubic
Y,3,-17.53040885925293,eInterpolationCubic
Y,3*,-22.678380966186523,eInterpolationCubic
Y,4,-28.07631492614746,eInterpolationCubic
Y,4*,-33.57942199707031,eInterpolationCubic
Y,5,-39.042911529541016,eInterpolationCubic
Y,5*,-44.321990966796875,eInterpolationCubic
Y,6,-49.27187728881836,eInterpolationCubic
Y,6*,-53.74776840209961,eInterpolationCubic
Y,7,-57.604881286621094,eInterpolationCubic
Y,7*,-60.786258697509766,eInterpolationCubic
Y,8,-63.43631362915039,eInterpolationCubic
Y,8*,-65.71236419677734,eInterpolationCubic
Y,9,-67.77171325683594,eInterpolationCubic
Y,9*,-69.77165985107422,eInterpolationCubic
Y,10,-71.8695297241211,eInterpolationCubic
Y,10*,-74.22261047363281,eInterpolationCubic
Y,11,-76.98820495605469,eInterpolationCubic
Y,11*,-81.00202941894531,eInterpolationCubic
Y,12,-86.07645416259766,eInterpolationCubic
Y,12*,-90.83380889892578,eInterpolationCubic
Y,13,-93.89644622802734,eInterpolationCubic
Y,13*,-95.59214782714844,eInterpolationCubic
Y,14,-97.16416931152344,eInterpolationCubic
Y,14*,-98.60796356201172,eInterpolationCubic
Y,15,-99.91901397705078,eInterpolationCubic
Y,15*,-101.0927734375,eInterpolationCubic
Y,16,-102.1247329711914,eInterpolationCubic
Y,16*,-103.0103530883789,eInterpolationCubic
Y,17,-103.74510955810547,eInterpolationCubic
Y,17*,-104.32447052001953,eInterpolationCubic
Y,18,-104.74391174316406,eInterpolationCubic
Y,18*,-104.99888610839844,eInterpolationCubic
Y,19,-105.08489227294922,eInterpolationCubic
Y,19*,-105.08489227294922,eInterpolationCubic
Y,20,-105.08489227294922,eInterpolationCubic
Y,20*,-105.08489227294922,eInterpolationCubic
Y,21,-105.08489227294922,eInterpolationCubic
Y,21*,-105.08489227294922,eInterpolationCubic
Y,22,-105.08489227294922,eInterpolationCubic
Y,22*,-105.08489227294922,eInterpolationCubic
Y,23,-105.08489227294922,eInterpolationCubic
Y,23*,-105.08489227294922,eInterpolationCubic
Y,24,-105.08489227294922,eInterpolationCubic
Y,24*,-105.08489227294922,eInterpolationCubic
Y,25,-105.08489227294922,eInterpolationCubic
Y,25*,-105.08489227294922,eInterpolationCubic
Y,26,-105.08489227294922,eInterpolationCubic
Y,26*,-105.08489227294922,eInterpolationCubic
Y,27,-105.08489227294922,eInterpolationCubic
Y,27*,-105.08489227294922,eInterpolationCubic
Y,28,-105.08489227294922,eInterpolationCubic
Y,28*,-105.1161880493164,eInterpolationCubic
Y,29,-105.2081527709961,eInterpolationCubic
Y,29*,-105.35790252685547,eInterpolationCubic
Y,30,-105.56253814697266,eInterpolationCubic
Y,30*,-105.81918334960938,eInterpolationCubic
Y,31,-106.12493896484375,eInterpolationCubic
Y,31*,-106.47691345214844,eInterpolationCubic
Y,32,-106.87223052978516,eInterpolationCubic
Y,32*,-107.3079833984375,eInterpolationCubic
Y,33,-107.78130340576172,eInterpolationCubic
Y,33*,-108.28929138183594,eInterpolationCubic
Y,34,-108.82905578613281,eInterpolationCubic
Y,34*,-109.397705078125,eInterpolationCubic
Y,35,-109.99236297607422,eInterpolationCubic
Y,35*,-110.6101303100586,eInterpolationCubic
Y,36,-111.24812316894531,eInterpolationCubic
Y,36*,-111.9034423828125,eInterpolationCubic
Y,37,-112.57321166992188,eInterpolationCubic
Y,37*,-113.2545394897461,eInterpolationCubic
Y,38,-113.94453430175781,eInterpolationCubic
Y,38*,-114.64030456542969,eInterpolationCubic
Y,39,-115.3389663696289,eInterpolationCubic
Y,39*,-116.0376205444336,eInterpolationCubic
Y,40,-116.7333984375,eInterpolationCubic
Y,40*,-117.42339324951172,eInterpolationCubic
Y,41,-118.1047134399414,eInterpolationCubic
Y,41*,-118.77448272705078,eInterpolationCubic
Y,42,-119.4298095703125,eInterpolationCubic
Y,42*,-120.06780242919922,eInterpolationCubic
Y,43,-120.6855697631836,eInterpolationCubic
Y,43*,-121.28022766113281,eInterpolationCubic
Y,44,-121.848876953125,eInterpolationCubic
Y,44*,-122.38864135742188,eInterpolationCubic
Y,45,-122.8966293334961,eInterpolationCubic
Y,45*,-123.36994171142578,eInterpolationCubic
Y,46,-123.80570983886719,eInterpolationCubic
Y,46*,-124.20101928710938,eInterpolationCubic
Y,47,-124.55299377441406,eInterpolationCubic
Y,47*,-124.85875701904297,eInterpolationCubic
Y,48,-125.11539459228516,eInterpolationCubic
Y,48*,-125.32003021240234,eInterpolationCubic
Y,49,-125.46977996826172,eInterpolationCubic
Y,49*,-125.5617446899414,eInterpolationCubic
Y,50,-125.59304809570312,eInterpolationCubic
Y,50*,-125.59304809570312,eInterpolationCubic
Y,51,-125.59304809570312,eInterpolationCubic
Y,51*,-125.59304809570312,eInterpolationCubic
Y,52,-125.59304809570312,eInterpolationCubic
Y,52*,-125.59304809570312,eInterpolationCubic
Y,53,-125.59304809570312,eInterpolationCubic
Y,53*,-125.59304809570312,eInterpolationCubic
Y,54,-125.59304809570312,eInterpolationCubic
Y,54*,-125.59304809570312,eInterpolationCubic
Y,55,-125.59304809570312,eInterpolationCubic
Y,55*,-125.59304809570312,eInterpolationCubic
Y,56,-125.59304809570312,eInterpolationCubic
Y,56*,-125.59304809570312,eInterpolationCubic
Y,57,-125.59304809570312,eInterpolationCubic
Y,57*,-125.59304809570312,eInterpolationCubic
Y,58,-125.59304809570312,eInterpolationCubic
Y,58*,-125.59304809570312,eInterpolationCubic
Y,59,-125.59304809570312,eInterpolationCubic
Y,59*,-125.59304809570312,eInterpolationCubic
Y,60,-125.59304809570312,eInterpolationCubic
Y,60*,-125.59304809570312,eInterpolationConstant
Z,0,0.0,eInterpolationCubic
Z,0*,0.0,eInterpolationCubic
Z,1,0.0,eInterpolationCubic
Z,1*,0.0,eInterpolationCubic
Z,2,0.0,eInterpolationCubic
Z,2*,0.0,eInterpolationCubic
Z,3,0.0,eInterpolationCubic
Z,3*,0.0,eInterpolationCubic
Z,4,0.0,eInterpolationCubic
Z,4*,0.0,eInterpolationCubic
Z,5,0.0,eInterpolationCubic
Z,5*,0.0,eInterpolationCubic
Z,6,0.0,eInterpolationCubic
Z,6*,0.0,eInterpolationCubic
Z,7,0.0,eInterpolationCubic
Z,7*,0.0,eInterpolationCubic
Z,8,0.0,eInterpolationCubic
Z,8*,0.0,eInterpolationCubic
Z,9,0.0,eInterpolationCubic
Z,9*,0.0,eInterpolationCubic
Z,10,0.0,eInterpolationCubic
Z,10*,0.0,eInterpolationCubic
Z,11,0.0,eInterpolationCubic
Z,11*,0.0,eInterpolationCubic
Z,12,0.0,eInterpolationCubic
Z,12*,0.0,eInterpolationCubic
Z,13,0.0,eInterpolationCubic
Z,13*,0.0,eInterpolationCubic
Z,14,0.0,eInterpolationCubic
Z,14*,0.0,eInterpolationCubic
Z,15,0.0,eInterpolationCubic
Z,15*,0.0,eInterpolationCubic
Z,16,0.0,eInterpolationCubic
Z,16*,0.0,eInterpolationCubic
Z,17,0.0,eInterpolationCubic
Z,17*,0.0,eInterpolationCubic
Z,18,0.0,eInterpolationCubic
Z,18*,0.0,eInterpolationCubic
Z,19,0.0,eInterpolationCubic
Z,19*,0.0,eInterpolationCubic
Z,20,0.0,eInterpolationCubic
Z,20*,0.0,eInterpolationCubic
Z,21,0.0,eInterpolationCubic
Z,21*,0.0,eInterpolationCubic
Z,22,0.0,eInterpolationCubic
Z,22*,0.0,eInterpolationCubic
Z,23,0.0,eInterpolationCubic
Z,23*,0.0,eInterpolationCubic
Z,24,0.0,eInterpolationCubic
Z,24*,0.0,eInterpolationCubic
Z,25,0.0,eInterpolationCubic
Z,25*,0.0,eInterpolationCubic
Z,26,0.0,eInterpolationCubic
Z,26*,0.0,eInterpolationCubic
Z,27,0.0,eInterpolationCubic
Z,27*,0.0,eInterpolationCubic
Z,28,0.0,eInterpolationCubic
Z,28*,0.0,eInterpolationCubic
Z,29,0.0,eInterpolationCubic
Z,29*,0.0,eInterpolationCubic
Z,30,0.0,eInterpolationCubic
Z,30*,0.0,eInterpolationCubic
Z,31,0.0,eInterpolationCubic
Z,31*,0.0,eInterpolationCubic
Z,32,0.0,eInterpolationCubic
Z,32*,0.0,eInterpolationCubic
Z,33,0.0,eInterpolationCubic
Z,33*,0.0,eInterpolationCubic
Z,34,0.0,eInterpolationCubic
Z,34*,0.0,eInterpolationCubic
Z,35,0.0,eInterpolationCubic
Z,35*,0.0,eInterpolationCubic
Z,36,0.0,eInterpolationCubic
Z,36*,0.0,eInterpolationCubic
Z,37,0.0,eInterpolationCubic
Z,37*,0.0,eInterpolationCubic
Z,38,0.0,eInterpolationCubic
Z,38*,0.0,eInterpolationCubic
Z,39,0.0,eInterpolationCubic
Z,39*,0.0,eInterpolationCubic
Z,40,0.0,eInterpolationCubic
Z,40*,0.0,eInterpolationCubic
Z,41,0.0,eInterpolationCubic
Z,41*,0.0,eInterpolationCubic
Z,42,0.0,eInterpolationCubic
Z,42*,0.0,eInterpolationCubic
Z,43,0.0,eInterpolationCubic
Z,43*,0.0,eInterpolationCubic
Z,44,0.0,eInterpolationCubic
Z,44*,0.0,eInterpolationCubic
Z,45,0.0,eInterpolationCubic
Z,45*,0.0,eInterpolationCubic
Z,46,0.0,eInterpolationCubic
Z,46*,0.0,eInterpolationCubic
Z,47,0.0,eInterpolationCubic
Z,47*,0.0,eInterpolationCubic
Z,48,0.0,eInterpolationCubic
Z,48*,0.0,eInterpolationCubic
Z,49,0.0,eInterpolationCubic
Z,49*,0.0,eInterpolationCubic
Z,50,0.0,eInterpolationCubic
Z,50*,0.0,eInterpolationCubic
Z,51,0.0,eInterpolationCubic
Z,51*,0.0,eInterpolationCubic
Z,52,0.0,eInterpolationCubic
Z,52*,0.0,eInterpolationCubic
Z,53,0.0,eInterpolationCubic
Z,53*,0.0,eInterpolationCubic
Z,54,0.0,eInterpolationCubic
Z,54*,0.0,eInterpolationCubic
Z,55,0.0,eInterpolationCubic
Z,55*,0.0,eInterpolationCubic
Z,56,0.0,eInterpolationCubic
Z,56*,0.0,eInterpolationCubic
Z,57,0.0,eInterpolationCubic
Z,57*,0.0,eInterpolationCubic
Z,58,0.0,eInterpolationCubic
Z,58*,0.0,eInterpolationCubic
Z,59,0.0,eInterpolationCubic
Z,59*,0.0,eInterpolationCubic
Z,60,0.0,eInterpolationCubic
Z,60*,0.0,eInterpolationConstant
