Axis,KeyFrame,Value,InterpolationType
X,0,0.0,eInterpolationCubic
X,0*,0.0,eInterpolationCubic
X,1,0.0,eInterpolationCubic
X,1*,0.0,eInterpolationCubic
X,2,0.0,eInterpolationCubic
X,2*,0.0,eInterpolationCubic
X,3,0.0,eInterpolationCubic
X,3*,0.0,eInterpolationCubic
X,4,0.0,eInterpolationCubic
X,4*,0.0,eInterpolationCubic
X,5,0.0,eInterpolationCubic
X,5*,0.0,eInterpolationCubic
X,6,0.0,eInterpolationCubic
X,6*,0.0,eInterpolationCubic
X,7,0.0,eInterpolationCubic
X,7*,0.0,eInterpolationCubic
X,8,0.0,eInterpolationCubic
X,8*,0.0,eInterpolationCubic
X,9,0.0,eInterpolationCubic
X,9*,0.0,eInterpolationCubic
X,10,0.0,eInterpolationCubic
X,10*,0.0,eInterpolationCubic
X,11,0.0,eInterpolationCubic
X,11*,0.0,eInterpolationCubic
X,12,0.0,eInterpolationCubic
X,12*,0.0,eInterpolationCubic
X,13,0.0,eInterpolationCubic
X,13*,0.0,eInterpolationCubic
X,14,0.0,eInterpolationCubic
X,14*,0.0,eInterpolationCubic
X,15,0.0,eInterpolationCubic
X,15*,0.0,eInterpolationCubic
X,16,0.0,eInterpolationCubic
X,16*,0.0,eInterpolationCubic
X,17,0.0,eInterpolationCubic
X,17*,0.0,eInterpolationCubic
X,18,0.0,eInterpolationCubic
X,18*,0.0,eInterpolationCubic
X,19,0.0,eInterpolationCubic
X,19*,0.0,eInterpolationCubic
X,20,0.0,eInterpolationCubic
X,20*,0.0,eInterpolationCubic
X,21,0.0,eInterpolationCubic
X,21*,0.0,eInterpolationCubic
X,22,0.0,eInterpolationCubic
X,22*,0.0,eInterpolationCubic
X,23,0.0,eInterpolationCubic
X,23*,0.0,eInterpolationCubic
X,24,0.0,eInterpolationCubic
X,24*,0.0,eInterpolationCubic
X,25,0.0,eInterpolationCubic
X,25*,0.0,eInterpolationCubic
X,26,0.0,eInterpolationCubic
X,26*,0.0,eInterpolationCubic
X,27,0.0,eInterpolationCubic
X,27*,0.0,eInterpolationCubic
X,28,0.0,eInterpolationCubic
X,28*,0.0,eInterpolationCubic
X,29,0.0,eInterpolationCubic
X,29*,0.0,eInterpolationCubic
X,30,0.0,eInterpolationCubic
X,30*,0.0,eInterpolationCubic
X,31,0.0,eInterpolationCubic
X,31*,0.0,eInterpolationCubic
X,32,0.0,eInterpolationCubic
X,32*,0.0,eInterpolationCubic
X,33,0.0,eInterpolationCubic
X,33*,0.0,eInterpolationCubic
X,34,0.0,eInterpolationCubic
X,34*,0.0,eInterpolationCubic
X,35,0.0,eInterpolationCubic
X,35*,0.0,eInterpolationCubic
X,36,0.0,eInterpolationCubic
X,36*,0.0,eInterpolationCubic
X,37,0.0,eInterpolationCubic
X,37*,0.0,eInterpolationCubic
X,38,0.0,eInterpolationCubic
X,38*,0.0,eInterpolationCubic
X,39,0.0,eInterpolationCubic
X,39*,0.0,eInterpolationCubic
X,40,0.0,eInterpolationCubic
X,40*,0.0,eInterpolationCubic
X,41,0.0,eInterpolationCubic
X,41*,0.0,eInterpolationCubic
X,42,0.0,eInterpolationCubic
X,42*,0.0,eInterpolationCubic
X,43,0.0,eInterpolationCubic
X,43*,0.0,eInterpolationCubic
X,44,0.0,eInterpolationCubic
X,44*,0.0,eInterpolationCubic
X,45,0.0,eInterpolationCubic
X,45*,0.0,eInterpolationCubic
X,46,0.0,eInterpolationCubic
X,46*,0.0,eInterpolationCubic
X,47,0.0,eInterpolationCubic
X,47*,0.0,eInterpolationCubic
X,48,0.0,eInterpolationCubic
X,48*,0.0,eInterpolationCubic
X,49,0.0,eInterpolationCubic
X,49*,0.0,eInterpolationCubic
X,50,0.0,eInterpolationCubic
X,50*,0.0,eInterpolationConstant
Y,0,-0.0,eInterpolationCubic
Y,0*,-1.5211422443389893,eInterpolationCubic
Y,1,-5.4461188316345215,eInterpolationCubic
Y,1*,-10.817255020141602,eInterpolationCubic
Y,2,-16.6768741607666,eInterpolationCubic
Y,2*,-22.067302703857422,eInterpolationCubic
Y,3,-26.030866622924805,eInterpolationCubic
Y,3*,-28.8008975982666,eInterpolationCubic
Y,4,-31.277484893798828,eInterpolationCubic
Y,4*,-33.503082275390625,eInterpolationCubic
Y,5,-35.5201530456543,eInterpolationCubic
Y,5*,-37.37115478515625,eInterpolationCubic
Y,6,-39.09853744506836,eInterpolationCubic
Y,6*,-40.74476623535156,eInterpolationCubic
Y,7,-42.352291107177734,eInterpolationCubic
Y,7*,-43.96357345581055,eInterpolationCubic
Y,8,-45.56041717529297,eInterpolationCubic
Y,8*,-47.084388732910156,eInterpolationCubic
Y,9,-48.51758575439453,eInterpolationCubic
Y,9*,-49.842098236083984,eInterpolationCubic
Y,10,-51.04001998901367,eInterpolationCubic
Y,10*,-52.093448638916016,eInterpolationCubic
Y,11,-52.98447799682617,eInterpolationCubic
Y,11*,-53.69520568847656,eInterpolationCubic
Y,12,-54.2874755859375,eInterpolationCubic
Y,12*,-54.83647537231445,eInterpolationCubic
Y,13,-55.34434127807617,eInterpolationCubic
Y,13*,-55.81320571899414,eInterpolationCubic
Y,14,-56.24519729614258,eInterpolationCubic
Y,14*,-56.64244842529297,eInterpolationCubic
Y,15,-57.0070915222168,eInterpolationCubic
Y,15*,-57.34125518798828,eInterpolationCubic
Y,16,-57.64706802368164,eInterpolationCubic
Y,16*,-57.926666259765625,eInterpolationCubic
Y,17,-58.18218231201172,eInterpolationCubic
Y,17*,-58.415740966796875,eInterpolationCubic
Y,18,-58.62947463989258,eInterpolationCubic
Y,18*,-58.82551574707031,eInterpolationCubic
Y,19,-59.00599670410156,eInterpolationCubic
Y,19*,-59.17304611206055,eInterpolationCubic
Y,20,-59.328800201416016,eInterpolationCubic
Y,20*,-59.476707458496094,eInterpolationCubic
Y,21,-59.61887741088867,eInterpolationCubic
Y,21*,-59.755393981933594,eInterpolationCubic
Y,22,-59.886348724365234,eInterpolationCubic
Y,22*,-60.011837005615234,eInterpolationCubic
Y,23,-60.13195037841797,eInterpolationCubic
Y,23*,-60.24678039550781,eInterpolationCubic
Y,24,-60.35641098022461,eInterpolationCubic
Y,24*,-60.460941314697266,eInterpolationCubic
Y,25,-60.560462951660156,eInterpolationCubic
Y,25*,-60.655059814453125,eInterpolationCubic
Y,26,-60.74483108520508,eInterpolationCubic
Y,26*,-60.82986068725586,eInterpolationCubic
Y,27,-60.910247802734375,eInterpolationCubic
Y,27*,-60.986080169677734,eInterpolationCubic
Y,28,-61.05744934082031,eInterpolationCubic
Y,28*,-61.12444305419922,eInterpolationCubic
Y,29,-61.187164306640625,eInterpolationCubic
Y,29*,-61.245689392089844,eInterpolationCubic
Y,30,-61.30011749267578,eInterpolationCubic
Y,30*,-61.35054397583008,eInterpolationCubic
Y,31,-61.39704895019531,eInterpolationCubic
Y,31*,-61.439735412597656,eInterpolationCubic
Y,32,-61.47868728637695,eInterpolationCubic
Y,32*,-61.51399230957031,eInterpolationCubic
Y,33,-61.545753479003906,eInterpolationCubic
Y,33*,-61.574058532714844,eInterpolationCubic
Y,34,-61.598995208740234,eInterpolationCubic
Y,34*,-61.62065124511719,eInterpolationCubic
Y,35,-61.63912582397461,eInterpolationCubic
Y,35*,-61.654510498046875,eInterpolationCubic
Y,36,-61.66688919067383,eInterpolationCubic
Y,36*,-61.676361083984375,eInterpolationCubic
Y,37,-61.683013916015625,eInterpolationCubic
Y,37*,-61.68693923950195,eInterpolationCubic
Y,38,-61.68822479248047,eInterpolationCubic
Y,38*,-61.68822479248047,eInterpolationCubic
Y,39,-61.68822479248047,eInterpolationCubic
Y,39*,-61.68822479248047,eInterpolationCubic
Y,40,-61.68822479248047,eInterpolationCubic
Y,40*,-61.68822479248047,eInterpolationCubic
Y,41,-61.68822479248047,eInterpolationCubic
Y,41*,-61.68822479248047,eInterpolationCubic
Y,42,-61.68822479248047,eInterpolationCubic
Y,42*,-61.68822479248047,eInterpolationCubic
Y,43,-61.68822479248047,eInterpolationCubic
Y,43*,-61.68822479248047,eInterpolationCubic
Y,44,-61.68822479248047,eInterpolationCubic
Y,44*,-61.68822479248047,eInterpolationCubic
Y,45,-61.68822479248047,eInterpolationCubic
Y,45*,-61.68822479248047,eInterpolationCubic
Y,46,-61.68822479248047,eInterpolationCubic
Y,46*,-61.68822479248047,eInterpolationCubic
Y,47,-61.68822479248047,eInterpolationCubic
Y,47*,-61.68822479248047,eInterpolationCubic
Y,48,-61.68822479248047,eInterpolationCubic
Y,48*,-61.68822479248047,eInterpolationCubic
Y,49,-61.68822479248047,eInterpolationCubic
Y,49*,-61.68822479248047,eInterpolationCubic
Y,50,-61.68822479248047,eInterpolationCubic
Y,50*,-61.68822479248047,eInterpolationConstant
Z,0,0.0,eInterpolationCubic
Z,0*,0.0,eInterpolationCubic
Z,1,0.0,eInterpolationCubic
Z,1*,0.0,eInterpolationCubic
Z,2,0.0,eInterpolationCubic
Z,2*,0.0,eInterpolationCubic
Z,3,0.0,eInterpolationCubic
Z,3*,0.0,eInterpolationCubic
Z,4,0.0,eInterpolationCubic
Z,4*,0.0,eInterpolationCubic
Z,5,0.0,eInterpolationCubic
Z,5*,0.0,eInterpolationCubic
Z,6,0.0,eInterpolationCubic
Z,6*,0.0,eInterpolationCubic
Z,7,0.0,eInterpolationCubic
Z,7*,0.0,eInterpolationCubic
Z,8,0.0,eInterpolationCubic
Z,8*,0.0,eInterpolationCubic
Z,9,0.0,eInterpolationCubic
Z,9*,0.0,eInterpolationCubic
Z,10,0.0,eInterpolationCubic
Z,10*,0.0,eInterpolationCubic
Z,11,0.0,eInterpolationCubic
Z,11*,0.0,eInterpolationCubic
Z,12,0.0,eInterpolationCubic
Z,12*,0.0,eInterpolationCubic
Z,13,0.0,eInterpolationCubic
Z,13*,0.0,eInterpolationCubic
Z,14,0.0,eInterpolationCubic
Z,14*,0.0,eInterpolationCubic
Z,15,0.0,eInterpolationCubic
Z,15*,0.0,eInterpolationCubic
Z,16,0.0,eInterpolationCubic
Z,16*,0.0,eInterpolationCubic
Z,17,0.0,eInterpolationCubic
Z,17*,0.0,eInterpolationCubic
Z,18,0.0,eInterpolationCubic
Z,18*,0.0,eInterpolationCubic
Z,19,0.0,eInterpolationCubic
Z,19*,0.0,eInterpolationCubic
Z,20,0.0,eInterpolationCubic
Z,20*,0.0,eInterpolationCubic
Z,21,0.0,eInterpolationCubic
Z,21*,0.0,eInterpolationCubic
Z,22,0.0,eInterpolationCubic
Z,22*,0.0,eInterpolationCubic
Z,23,0.0,eInterpolationCubic
Z,23*,0.0,eInterpolationCubic
Z,24,0.0,eInterpolationCubic
Z,24*,0.0,eInterpolationCubic
Z,25,0.0,eInterpolationCubic
Z,25*,0.0,eInterpolationCubic
Z,26,0.0,eInterpolationCubic
Z,26*,0.0,eInterpolationCubic
Z,27,0.0,eInterpolationCubic
Z,27*,0.0,eInterpolationCubic
Z,28,0.0,eInterpolationCubic
Z,28*,0.0,eInterpolationCubic
Z,29,0.0,eInterpolationCubic
Z,29*,0.0,eInterpolationCubic
Z,30,0.0,eInterpolationCubic
Z,30*,0.0,eInterpolationCubic
Z,31,0.0,eInterpolationCubic
Z,31*,0.0,eInterpolationCubic
Z,32,0.0,eInterpolationCubic
Z,32*,0.0,eInterpolationCubic
Z,33,0.0,eInterpolationCubic
Z,33*,0.0,eInterpolationCubic
Z,34,0.0,eInterpolationCubic
Z,34*,0.0,eInterpolationCubic
Z,35,0.0,eInterpolationCubic
Z,35*,0.0,eInterpolationCubic
Z,36,0.0,eInterpolationCubic
Z,36*,0.0,eInterpolationCubic
Z,37,0.0,eInterpolationCubic
Z,37*,0.0,eInterpolationCubic
Z,38,0.0,eInterpolationCubic
Z,38*,0.0,eInterpolationCubic
Z,39,0.0,eInterpolationCubic
Z,39*,0.0,eInterpolationCubic
Z,40,0.0,eInterpolationCubic
Z,40*,0.0,eInterpolationCubic
Z,41,0.0,eInterpolationCubic
Z,41*,0.0,eInterpolationCubic
Z,42,0.0,eInterpolationCubic
Z,42*,0.0,eInterpolationCubic
Z,43,0.0,eInterpolationCubic
Z,43*,0.0,eInterpolationCubic
Z,44,0.0,eInterpolationCubic
Z,44*,0.0,eInterpolationCubic
Z,45,0.0,eInterpolationCubic
Z,45*,0.0,eInterpolationCubic
Z,46,0.0,eInterpolationCubic
Z,46*,0.0,eInterpolationCubic
Z,47,0.0,eInterpolationCubic
Z,47*,0.0,eInterpolationCubic
Z,48,0.0,eInterpolationCubic
Z,48*,0.0,eInterpolationCubic
Z,49,0.0,eInterpolationCubic
Z,49*,0.0,eInterpolationCubic
Z,50,0.0,eInterpolationCubic
Z,50*,0.0,eInterpolationConstant
