Axis,KeyFrame,Value,InterpolationType
X,0,0.0,eInterpolationCubic
X,0*,0.0,eInterpolationCubic
X,1,0.0,eInterpolationCubic
X,1*,0.0,eInterpolationCubic
X,2,0.0,eInterpolationCubic
X,2*,0.0,eInterpolationCubic
X,3,0.0,eInterpolationCubic
X,3*,0.0,eInterpolationCubic
X,4,0.0,eInterpolationCubic
X,4*,0.0,eInterpolationCubic
X,5,0.0,eInterpolationCubic
X,5*,0.0,eInterpolationCubic
X,6,0.0,eInterpolationCubic
X,6*,0.0,eInterpolationCubic
X,7,0.0,eInterpolationCubic
X,7*,0.0,eInterpolationCubic
X,8,0.0,eInterpolationCubic
X,8*,0.0,eInterpolationCubic
X,9,0.0,eInterpolationCubic
X,9*,0.0,eInterpolationCubic
X,10,0.0,eInterpolationCubic
X,10*,0.0,eInterpolationCubic
X,11,0.0,eInterpolationCubic
X,11*,0.0,eInterpolationCubic
X,12,0.0,eInterpolationCubic
X,12*,0.0,eInterpolationCubic
X,13,0.0,eInterpolationCubic
X,13*,0.0,eInterpolationCubic
X,14,0.0,eInterpolationCubic
X,14*,0.0,eInterpolationCubic
X,15,0.0,eInterpolationCubic
X,15*,0.0,eInterpolationCubic
X,16,0.0,eInterpolationCubic
X,16*,0.0,eInterpolationCubic
X,17,0.0,eInterpolationCubic
X,17*,0.0,eInterpolationCubic
X,18,0.0,eInterpolationCubic
X,18*,0.0,eInterpolationCubic
X,19,0.0,eInterpolationCubic
X,19*,0.0,eInterpolationCubic
X,20,0.0,eInterpolationCubic
X,20*,0.0,eInterpolationCubic
X,21,0.0,eInterpolationCubic
X,21*,0.0,eInterpolationCubic
X,22,0.0,eInterpolationCubic
X,22*,0.0,eInterpolationCubic
X,23,0.0,eInterpolationCubic
X,23*,0.0,eInterpolationCubic
X,24,0.0,eInterpolationCubic
X,24*,0.0,eInterpolationCubic
X,25,0.0,eInterpolationCubic
X,25*,0.0,eInterpolationCubic
X,26,0.0,eInterpolationCubic
X,26*,0.0,eInterpolationCubic
X,27,0.0,eInterpolationCubic
X,27*,0.0,eInterpolationCubic
X,28,0.0,eInterpolationCubic
X,28*,0.0,eInterpolationCubic
X,29,0.0,eInterpolationCubic
X,29*,0.0,eInterpolationCubic
X,30,0.0,eInterpolationCubic
X,30*,0.0,eInterpolationConstant
Y,0,-0.0,eInterpolationCubic
Y,0*,10.158390045166016,eInterpolationCubic
Y,1,21.0775203704834,eInterpolationCubic
Y,1*,32.623138427734375,eInterpolationCubic
Y,2,44.66100311279297,eInterpolationCubic
Y,2*,57.05685806274414,eInterpolationCubic
Y,3,69.67646026611328,eInterpolationCubic
Y,3*,82.38555908203125,eInterpolationCubic
Y,4,95.04991149902344,eInterpolationCubic
Y,4*,107.53527069091797,eInterpolationCubic
Y,5,119.70738220214844,eInterpolationCubic
Y,5*,131.43199157714844,eInterpolationCubic
Y,6,142.5748748779297,eInterpolationCubic
Y,6*,153.0017547607422,eInterpolationCubic
Y,7,162.57839965820312,eInterpolationCubic
Y,7*,171.1705780029297,eInterpolationCubic
Y,8,178.64401245117188,eInterpolationCubic
Y,8*,184.8644561767578,eInterpolationCubic
Y,9,189.6976776123047,eInterpolationCubic
Y,9*,193.00941467285156,eInterpolationCubic
Y,10,194.6654510498047,eInterpolationCubic
Y,10*,195.42942810058594,eInterpolationCubic
Y,11,196.1552276611328,eInterpolationCubic
Y,11*,196.84381103515625,eInterpolationCubic
Y,12,197.4961700439453,eInterpolationCubic
Y,12*,198.11326599121094,eInterpolationCubic
Y,13,198.6960906982422,eInterpolationCubic
Y,13*,199.24560546875,eInterpolationCubic
Y,14,199.7628173828125,eInterpolationCubic
Y,14*,200.2487030029297,eInterpolationCubic
Y,15,200.7042236328125,eInterpolationCubic
Y,15*,201.13035583496094,eInterpolationCubic
Y,16,201.52810668945312,eInterpolationCubic
Y,16*,201.8984375,eInterpolationCubic
Y,17,202.24232482910156,eInterpolationCubic
Y,17*,202.5607452392578,eInterpolationCubic
Y,18,202.85467529296875,eInterpolationCubic
Y,18*,203.1251220703125,eInterpolationCubic
Y,19,203.373046875,eInterpolationCubic
Y,19*,203.59942626953125,eInterpolationCubic
Y,20,203.80523681640625,eInterpolationCubic
Y,20*,203.99143981933594,eInterpolationCubic
Y,21,204.1590576171875,eInterpolationCubic
Y,21*,204.30906677246094,eInterpolationCubic
Y,22,204.44239807128906,eInterpolationCubic
Y,22*,204.56007385253906,eInterpolationCubic
Y,23,204.66305541992188,eInterpolationCubic
Y,23*,204.75233459472656,eInterpolationCubic
Y,24,204.82887268066406,eInterpolationCubic
Y,24*,204.89366149902344,eInterpolationCubic
Y,25,204.94769287109375,eInterpolationCubic
Y,25*,204.99192810058594,eInterpolationCubic
Y,26,205.02732849121094,eInterpolationCubic
Y,26*,205.05491638183594,eInterpolationCubic
Y,27,205.07565307617188,eInterpolationCubic
Y,27*,205.09051513671875,eInterpolationCubic
Y,28,205.1004638671875,eInterpolationCubic
Y,28*,205.1064910888672,eInterpolationCubic
Y,29,205.10958862304688,eInterpolationCubic
Y,29*,205.11074829101562,eInterpolationCubic
Y,30,205.1109161376953,eInterpolationCubic
Y,30*,205.1109161376953,eInterpolationConstant
Z,0,0.0,eInterpolationCubic
Z,0*,0.0,eInterpolationCubic
Z,1,0.0,eInterpolationCubic
Z,1*,0.0,eInterpolationCubic
Z,2,0.0,eInterpolationCubic
Z,2*,0.0,eInterpolationCubic
Z,3,0.0,eInterpolationCubic
Z,3*,0.0,eInterpolationCubic
Z,4,0.0,eInterpolationCubic
Z,4*,0.0,eInterpolationCubic
Z,5,0.0,eInterpolationCubic
Z,5*,0.0,eInterpolationCubic
Z,6,0.0,eInterpolationCubic
Z,6*,0.0,eInterpolationCubic
Z,7,0.0,eInterpolationCubic
Z,7*,0.0,eInterpolationCubic
Z,8,0.0,eInterpolationCubic
Z,8*,0.0,eInterpolationCubic
Z,9,0.0,eInterpolationCubic
Z,9*,0.0,eInterpolationCubic
Z,10,0.0,eInterpolationCubic
Z,10*,0.0,eInterpolationCubic
Z,11,0.0,eInterpolationCubic
Z,11*,0.0,eInterpolationCubic
Z,12,0.0,eInterpolationCubic
Z,12*,0.0,eInterpolationCubic
Z,13,0.0,eInterpolationCubic
Z,13*,0.0,eInterpolationCubic
Z,14,0.0,eInterpolationCubic
Z,14*,0.0,eInterpolationCubic
Z,15,0.0,eInterpolationCubic
Z,15*,0.0,eInterpolationCubic
Z,16,0.0,eInterpolationCubic
Z,16*,0.0,eInterpolationCubic
Z,17,0.0,eInterpolationCubic
Z,17*,0.0,eInterpolationCubic
Z,18,0.0,eInterpolationCubic
Z,18*,0.0,eInterpolationCubic
Z,19,0.0,eInterpolationCubic
Z,19*,0.0,eInterpolationCubic
Z,20,0.0,eInterpolationCubic
Z,20*,0.0,eInterpolationCubic
Z,21,0.0,eInterpolationCubic
Z,21*,0.0,eInterpolationCubic
Z,22,0.0,eInterpolationCubic
Z,22*,0.0,eInterpolationCubic
Z,23,0.0,eInterpolationCubic
Z,23*,0.0,eInterpolationCubic
Z,24,0.0,eInterpolationCubic
Z,24*,0.0,eInterpolationCubic
Z,25,0.0,eInterpolationCubic
Z,25*,0.0,eInterpolationCubic
Z,26,0.0,eInterpolationCubic
Z,26*,0.0,eInterpolationCubic
Z,27,0.0,eInterpolationCubic
Z,27*,0.0,eInterpolationCubic
Z,28,0.0,eInterpolationCubic
Z,28*,0.0,eInterpolationCubic
Z,29,0.0,eInterpolationCubic
Z,29*,0.0,eInterpolationCubic
Z,30,0.0,eInterpolationCubic
Z,30*,0.0,eInterpolationConstant
