Axis,KeyFrame,Value,InterpolationType
X,0,0.0,eInterpolationCubic
X,0*,0.0,eInterpolationCubic
X,1,0.0,eInterpolationCubic
X,1*,0.0,eInterpolationCubic
X,2,0.0,eInterpolationCubic
X,2*,0.0,eInterpolationCubic
X,3,0.0,eInterpolationCubic
X,3*,0.0,eInterpolationCubic
X,4,0.0,eInterpolationCubic
X,4*,0.0,eInterpolationCubic
X,5,0.0,eInterpolationCubic
X,5*,0.0,eInterpolationCubic
X,6,0.0,eInterpolationCubic
X,6*,0.0,eInterpolationCubic
X,7,0.0,eInterpolationCubic
X,7*,0.0,eInterpolationCubic
X,8,0.0,eInterpolationCubic
X,8*,0.0,eInterpolationCubic
X,9,0.0,eInterpolationCubic
X,9*,0.0,eInterpolationCubic
X,10,0.0,eInterpolationCubic
X,10*,0.0,eInterpolationCubic
X,11,0.0,eInterpolationCubic
X,11*,0.0,eInterpolationCubic
X,12,0.0,eInterpolationCubic
X,12*,0.0,eInterpolationCubic
X,13,0.0,eInterpolationCubic
X,13*,0.0,eInterpolationCubic
X,14,0.0,eInterpolationCubic
X,14*,0.0,eInterpolationCubic
X,15,0.0,eInterpolationCubic
X,15*,0.0,eInterpolationCubic
X,16,0.0,eInterpolationCubic
X,16*,0.0,eInterpolationCubic
X,17,0.0,eInterpolationCubic
X,17*,0.0,eInterpolationCubic
X,18,0.0,eInterpolationCubic
X,18*,0.0,eInterpolationCubic
X,19,0.0,eInterpolationCubic
X,19*,0.0,eInterpolationCubic
X,20,0.0,eInterpolationCubic
X,20*,0.0,eInterpolationCubic
X,21,0.0,eInterpolationCubic
X,21*,0.0,eInterpolationCubic
X,22,0.0,eInterpolationCubic
X,22*,0.0,eInterpolationCubic
X,23,0.0,eInterpolationCubic
X,23*,0.0,eInterpolationCubic
X,24,0.0,eInterpolationCubic
X,24*,0.0,eInterpolationCubic
X,25,0.0,eInterpolationCubic
X,25*,0.0,eInterpolationCubic
X,26,0.0,eInterpolationCubic
X,26*,0.0,eInterpolationCubic
X,27,0.0,eInterpolationCubic
X,27*,0.0,eInterpolationCubic
X,28,0.0,eInterpolationCubic
X,28*,0.0,eInterpolationCubic
X,29,0.0,eInterpolationCubic
X,29*,0.0,eInterpolationCubic
X,30,0.0,eInterpolationCubic
X,30*,0.0,eInterpolationCubic
X,31,0.0,eInterpolationCubic
X,31*,0.0,eInterpolationCubic
X,32,0.0,eInterpolationCubic
X,32*,0.0,eInterpolationCubic
X,33,0.0,eInterpolationCubic
X,33*,0.0,eInterpolationCubic
X,34,0.0,eInterpolationCubic
X,34*,0.0,eInterpolationCubic
X,35,0.0,eInterpolationCubic
X,35*,0.0,eInterpolationCubic
X,36,0.0,eInterpolationCubic
X,36*,0.0,eInterpolationCubic
X,37,0.0,eInterpolationCubic
X,37*,0.0,eInterpolationCubic
X,38,0.0,eInterpolationCubic
X,38*,0.0,eInterpolationCubic
X,39,0.0,eInterpolationCubic
X,39*,0.0,eInterpolationCubic
X,40,0.0,eInterpolationCubic
X,40*,0.0,eInterpolationCubic
X,41,0.0,eInterpolationCubic
X,41*,0.0,eInterpolationCubic
X,42,0.0,eInterpolationCubic
X,42*,0.0,eInterpolationCubic
X,43,0.0,eInterpolationCubic
X,43*,0.0,eInterpolationCubic
X,44,0.0,eInterpolationCubic
X,44*,0.0,eInterpolationCubic
X,45,0.0,eInterpolationCubic
X,45*,0.0,eInterpolationCubic
X,46,0.0,eInterpolationCubic
X,46*,0.0,eInterpolationCubic
X,47,0.0,eInterpolationCubic
X,47*,0.0,eInterpolationCubic
X,48,0.0,eInterpolationCubic
X,48*,0.0,eInterpolationCubic
X,49,0.0,eInterpolationCubic
X,49*,0.0,eInterpolationCubic
X,50,0.0,eInterpolationCubic
X,50*,0.0,eInterpolationCubic
X,51,0.0,eInterpolationCubic
X,51*,0.0,eInterpolationCubic
X,52,0.0,eInterpolationCubic
X,52*,0.0,eInterpolationCubic
X,53,0.0,eInterpolationCubic
X,53*,0.0,eInterpolationCubic
X,54,0.0,eInterpolationCubic
X,54*,0.0,eInterpolationCubic
X,55,0.0,eInterpolationCubic
X,55*,0.0,eInterpolationCubic
X,56,0.0,eInterpolationCubic
X,56*,0.0,eInterpolationCubic
X,57,0.0,eInterpolationCubic
X,57*,0.0,eInterpolationCubic
X,58,0.0,eInterpolationCubic
X,58*,0.0,eInterpolationCubic
X,59,0.0,eInterpolationCubic
X,59*,0.0,eInterpolationCubic
X,60,0.0,eInterpolationCubic
X,60*,0.0,eInterpolationConstant
Y,0,-0.5445111989974976,eInterpolationCubic
Y,0*,-16.094223022460938,eInterpolationCubic
Y,1,-32.316585540771484,eInterpolationCubic
Y,1*,-48.20262145996094,eInterpolationCubic
Y,2,-62.74335861206055,eInterpolationCubic
Y,2*,-74.92981719970703,eInterpolationCubic
Y,3,-85.32311248779297,eInterpolationCubic
Y,3*,-95.19938659667969,eInterpolationCubic
Y,4,-104.62223815917969,eInterpolationCubic
Y,4*,-113.6552505493164,eInterpolationCubic
Y,5,-122.36200714111328,eInterpolationCubic
Y,5*,-130.80612182617188,eInterpolationCubic
Y,6,-139.05116271972656,eInterpolationCubic
Y,6*,-147.1607208251953,eInterpolationCubic
Y,7,-155.1984100341797,eInterpolationCubic
Y,7*,-163.22779846191406,eInterpolationCubic
Y,8,-171.3124542236328,eInterpolationCubic
Y,8*,-178.38148498535156,eInterpolationCubic
Y,9,-184.16470336914062,eInterpolationCubic
Y,9*,-189.92681884765625,eInterpolationCubic
Y,10,-196.93252563476562,eInterpolationCubic
Y,10*,-208.32582092285156,eInterpolationCubic
Y,11,-219.60696411132812,eInterpolationCubic
Y,11*,-227.3651580810547,eInterpolationCubic
Y,12,-234.93894958496094,eInterpolationCubic
Y,12*,-242.25160217285156,eInterpolationCubic
Y,13,-249.22634887695312,eInterpolationCubic
Y,13*,-255.78646850585938,eInterpolationCubic
Y,14,-261.855224609375,eInterpolationCubic
Y,14*,-267.35589599609375,eInterpolationCubic
Y,15,-272.2887878417969,eInterpolationCubic
Y,15*,-276.76409912109375,eInterpolationCubic
Y,16,-280.8697204589844,eInterpolationCubic
Y,16*,-284.6935729980469,eInterpolationCubic
Y,17,-288.32354736328125,eInterpolationCubic
Y,17*,-291.84759521484375,eInterpolationCubic
Y,18,-295.35357666015625,eInterpolationCubic
Y,18*,-298.929443359375,eInterpolationCubic
Y,19,-302.6630554199219,eInterpolationCubic
Y,19*,-306.6747741699219,eInterpolationCubic
Y,20,-310.5241394042969,eInterpolationCubic
Y,20*,-313.4578552246094,eInterpolationCubic
Y,21,-315.7422790527344,eInterpolationCubic
Y,21*,-318.12359619140625,eInterpolationCubic
Y,22,-320.5683898925781,eInterpolationCubic
Y,22*,-323.0433349609375,eInterpolationCubic
Y,23,-325.5150451660156,eInterpolationCubic
Y,23*,-327.95013427734375,eInterpolationCubic
Y,24,-330.3152160644531,eInterpolationCubic
Y,24*,-332.5769348144531,eInterpolationCubic
Y,25,-334.70184326171875,eInterpolationCubic
Y,25*,-336.6566162109375,eInterpolationCubic
Y,26,-338.40789794921875,eInterpolationCubic
Y,26*,-339.9222717285156,eInterpolationCubic
Y,27,-341.1663513183594,eInterpolationCubic
Y,27*,-342.1068115234375,eInterpolationCubic
Y,28,-342.710205078125,eInterpolationCubic
Y,28*,-343.11309814453125,eInterpolationCubic
Y,29,-343.4757995605469,eInterpolationCubic
Y,29*,-343.80029296875,eInterpolationCubic
Y,30,-344.08880615234375,eInterpolationCubic
Y,30*,-344.34344482421875,eInterpolationCubic
Y,31,-344.5662536621094,eInterpolationCubic
Y,31*,-344.7593994140625,eInterpolationCubic
Y,32,-344.9250183105469,eInterpolationCubic
Y,32*,-345.0652160644531,eInterpolationCubic
Y,33,-345.1820983886719,eInterpolationCubic
Y,33*,-345.2778015136719,eInterpolationCubic
Y,34,-345.35443115234375,eInterpolationCubic
Y,34*,-345.4140930175781,eInterpolationCubic
Y,35,-345.4589538574219,eInterpolationCubic
Y,35*,-345.4910888671875,eInterpolationCubic
Y,36,-345.5126037597656,eInterpolationCubic
Y,36*,-345.52569580078125,eInterpolationCubic
Y,37,-345.53240966796875,eInterpolationCubic
Y,37*,-345.5348815917969,eInterpolationCubic
Y,38,-345.53521728515625,eInterpolationCubic
Y,38*,-345.5116271972656,eInterpolationCubic
Y,39,-345.4422607421875,eInterpolationCubic
Y,39*,-345.3293151855469,eInterpolationCubic
Y,40,-345.17498779296875,eInterpolationCubic
Y,40*,-344.9814147949219,eInterpolationCubic
Y,41,-344.7508239746094,eInterpolationCubic
Y,41*,-344.4853515625,eInterpolationCubic
Y,42,-344.18719482421875,eInterpolationCubic
Y,42*,-343.8585510253906,eInterpolationCubic
Y,43,-343.5015563964844,eInterpolationCubic
Y,43*,-343.1184387207031,eInterpolationCubic
Y,44,-342.71136474609375,eInterpolationCubic
Y,44*,-342.282470703125,eInterpolationCubic
Y,45,-341.833984375,eInterpolationCubic
Y,45*,-341.3680419921875,eInterpolationCubic
Y,46,-340.8868713378906,eInterpolationCubic
Y,46*,-340.3926086425781,eInterpolationCubic
Y,47,-339.8874816894531,eInterpolationCubic
Y,47*,-339.37359619140625,eInterpolationCubic
Y,48,-338.8531799316406,eInterpolationCubic
Y,48*,-338.32843017578125,eInterpolationCubic
Y,49,-337.8014831542969,eInterpolationCubic
Y,49*,-337.2745666503906,eInterpolationCubic
Y,50,-336.74981689453125,eInterpolationCubic
Y,50*,-336.2294006347656,eInterpolationCubic
Y,51,-335.7155456542969,eInterpolationCubic
Y,51*,-335.21038818359375,eInterpolationCubic
Y,52,-334.71612548828125,eInterpolationCubic
Y,52*,-334.2349853515625,eInterpolationCubic
Y,53,-333.76904296875,eInterpolationCubic
Y,53*,-333.320556640625,eInterpolationCubic
Y,54,-332.89166259765625,eInterpolationCubic
Y,54*,-332.4845886230469,eInterpolationCubic
Y,55,-332.1014404296875,eInterpolationCubic
Y,55*,-331.74444580078125,eInterpolationCubic
Y,56,-331.4158020019531,eInterpolationCubic
Y,56*,-331.1176452636719,eInterpolationCubic
Y,57,-330.8522033691406,eInterpolationCubic
Y,57*,-330.62158203125,eInterpolationCubic
Y,58,-330.42803955078125,eInterpolationCubic
Y,58*,-330.2737121582031,eInterpolationCubic
Y,59,-330.1607666015625,eInterpolationCubic
Y,59*,-330.0914001464844,eInterpolationCubic
Y,60,-330.0677795410156,eInterpolationCubic
Y,60*,-330.0677795410156,eInterpolationConstant
Z,0,-1.2090577405865445e-16,eInterpolationCubic
Z,0*,-1.2090577405865445e-16,eInterpolationCubic
Z,1,-1.2090577405865445e-16,eInterpolationCubic
Z,1*,-1.2090577405865445e-16,eInterpolationCubic
Z,2,-1.2090577405865445e-16,eInterpolationCubic
Z,2*,-1.2090577405865445e-16,eInterpolationCubic
Z,3,-1.2090577405865445e-16,eInterpolationCubic
Z,3*,-1.2090577405865445e-16,eInterpolationCubic
Z,4,-1.2090577405865445e-16,eInterpolationCubic
Z,4*,-1.2090577405865445e-16,eInterpolationCubic
Z,5,-1.2090577405865445e-16,eInterpolationCubic
Z,5*,-1.2090577405865445e-16,eInterpolationCubic
Z,6,-1.2090577405865445e-16,eInterpolationCubic
Z,6*,-1.2090577405865445e-16,eInterpolationCubic
Z,7,-1.2090577405865445e-16,eInterpolationCubic
Z,7*,-1.2090577405865445e-16,eInterpolationCubic
Z,8,-1.2090577405865445e-16,eInterpolationCubic
Z,8*,-1.2090577405865445e-16,eInterpolationCubic
Z,9,-1.2090577405865445e-16,eInterpolationCubic
Z,9*,-1.2090577405865445e-16,eInterpolationCubic
Z,10,-1.2090577405865445e-16,eInterpolationCubic
Z,10*,-1.2090577405865445e-16,eInterpolationCubic
Z,11,-1.2090577405865445e-16,eInterpolationCubic
Z,11*,-1.2090577405865445e-16,eInterpolationCubic
Z,12,-1.2090577405865445e-16,eInterpolationCubic
Z,12*,-1.2090577405865445e-16,eInterpolationCubic
Z,13,-1.2090577405865445e-16,eInterpolationCubic
Z,13*,-1.2090577405865445e-16,eInterpolationCubic
Z,14,-1.2090577405865445e-16,eInterpolationCubic
Z,14*,-1.2090577405865445e-16,eInterpolationCubic
Z,15,-1.2090577405865445e-16,eInterpolationCubic
Z,15*,-1.2090577405865445e-16,eInterpolationCubic
Z,16,-1.2090577405865445e-16,eInterpolationCubic
Z,16*,-1.2090577405865445e-16,eInterpolationCubic
Z,17,-1.2090577405865445e-16,eInterpolationCubic
Z,17*,-1.2090577405865445e-16,eInterpolationCubic
Z,18,-1.2090577405865445e-16,eInterpolationCubic
Z,18*,-1.2090577405865445e-16,eInterpolationCubic
Z,19,-1.2090577405865445e-16,eInterpolationCubic
Z,19*,-1.2090577405865445e-16,eInterpolationCubic
Z,20,-1.2090577405865445e-16,eInterpolationCubic
Z,20*,-1.2090577405865445e-16,eInterpolationCubic
Z,21,-1.2090577405865445e-16,eInterpolationCubic
Z,21*,-1.2090577405865445e-16,eInterpolationCubic
Z,22,-1.2090577405865445e-16,eInterpolationCubic
Z,22*,-1.2090577405865445e-16,eInterpolationCubic
Z,23,-1.2090577405865445e-16,eInterpolationCubic
Z,23*,-1.2090577405865445e-16,eInterpolationCubic
Z,24,-1.2090577405865445e-16,eInterpolationCubic
Z,24*,-1.2090577405865445e-16,eInterpolationCubic
Z,25,-1.2090577405865445e-16,eInterpolationCubic
Z,25*,-1.2090577405865445e-16,eInterpolationCubic
Z,26,-1.2090577405865445e-16,eInterpolationCubic
Z,26*,-1.2090577405865445e-16,eInterpolationCubic
Z,27,-1.2090577405865445e-16,eInterpolationCubic
Z,27*,-1.2090577405865445e-16,eInterpolationCubic
Z,28,-1.2090577405865445e-16,eInterpolationCubic
Z,28*,-1.2090577405865445e-16,eInterpolationCubic
Z,29,-1.2090577405865445e-16,eInterpolationCubic
Z,29*,-1.2090577405865445e-16,eInterpolationCubic
Z,30,-1.2090577405865445e-16,eInterpolationCubic
Z,30*,-1.2090577405865445e-16,eInterpolationCubic
Z,31,-1.2090577405865445e-16,eInterpolationCubic
Z,31*,-1.2090577405865445e-16,eInterpolationCubic
Z,32,-1.2090577405865445e-16,eInterpolationCubic
Z,32*,-1.2090577405865445e-16,eInterpolationCubic
Z,33,-1.2090577405865445e-16,eInterpolationCubic
Z,33*,-1.2090577405865445e-16,eInterpolationCubic
Z,34,-1.2090577405865445e-16,eInterpolationCubic
Z,34*,-1.2090577405865445e-16,eInterpolationCubic
Z,35,-1.2090577405865445e-16,eInterpolationCubic
Z,35*,-1.2090577405865445e-16,eInterpolationCubic
Z,36,-1.2090577405865445e-16,eInterpolationCubic
Z,36*,-1.2090577405865445e-16,eInterpolationCubic
Z,37,-1.2090577405865445e-16,eInterpolationCubic
Z,37*,-1.2090577405865445e-16,eInterpolationCubic
Z,38,-1.2090577405865445e-16,eInterpolationCubic
Z,38*,-1.2090577405865445e-16,eInterpolationCubic
Z,39,-1.2090577405865445e-16,eInterpolationCubic
Z,39*,-1.2090577405865445e-16,eInterpolationCubic
Z,40,-1.2090577405865445e-16,eInterpolationCubic
Z,40*,-1.2090577405865445e-16,eInterpolationCubic
Z,41,-1.2090577405865445e-16,eInterpolationCubic
Z,41*,-1.2090577405865445e-16,eInterpolationCubic
Z,42,-1.2090577405865445e-16,eInterpolationCubic
Z,42*,-1.2090577405865445e-16,eInterpolationCubic
Z,43,-1.2090577405865445e-16,eInterpolationCubic
Z,43*,-1.2090577405865445e-16,eInterpolationCubic
Z,44,-1.2090577405865445e-16,eInterpolationCubic
Z,44*,-1.2090577405865445e-16,eInterpolationCubic
Z,45,-1.2090577405865445e-16,eInterpolationCubic
Z,45*,-1.2090577405865445e-16,eInterpolationCubic
Z,46,-1.2090577405865445e-16,eInterpolationCubic
Z,46*,-1.2090577405865445e-16,eInterpolationCubic
Z,47,-1.2090577405865445e-16,eInterpolationCubic
Z,47*,-1.2090577405865445e-16,eInterpolationCubic
Z,48,-1.2090577405865445e-16,eInterpolationCubic
Z,48*,-1.2090577405865445e-16,eInterpolationCubic
Z,49,-1.2090577405865445e-16,eInterpolationCubic
Z,49*,-1.2090577405865445e-16,eInterpolationCubic
Z,50,-1.2090577405865445e-16,eInterpolationCubic
Z,50*,-1.2090577405865445e-16,eInterpolationCubic
Z,51,-1.2090577405865445e-16,eInterpolationCubic
Z,51*,-1.2090577405865445e-16,eInterpolationCubic
Z,52,-1.2090577405865445e-16,eInterpolationCubic
Z,52*,-1.2090577405865445e-16,eInterpolationCubic
Z,53,-1.2090577405865445e-16,eInterpolationCubic
Z,53*,-1.2090577405865445e-16,eInterpolationCubic
Z,54,-1.2090577405865445e-16,eInterpolationCubic
Z,54*,-1.2090577405865445e-16,eInterpolationCubic
Z,55,-1.2090577405865445e-16,eInterpolationCubic
Z,55*,-1.2090577405865445e-16,eInterpolationCubic
Z,56,-1.2090577405865445e-16,eInterpolationCubic
Z,56*,-1.2090577405865445e-16,eInterpolationCubic
Z,57,-1.2090577405865445e-16,eInterpolationCubic
Z,57*,-1.2090577405865445e-16,eInterpolationCubic
Z,58,-1.2090577405865445e-16,eInterpolationCubic
Z,58*,-1.2090577405865445e-16,eInterpolationCubic
Z,59,-1.2090577405865445e-16,eInterpolationCubic
Z,59*,-1.2090577405865445e-16,eInterpolationCubic
Z,60,-1.2090577405865445e-16,eInterpolationCubic
Z,60*,-1.2090577405865445e-16,eInterpolationConstant
