Axis,KeyFrame,Value,InterpolationType
X,0,0.0,eInterpolationCubic
X,0*,0.0,eInterpolationCubic
X,1,0.0,eInterpolationCubic
X,1*,0.0,eInterpolationCubic
X,2,0.0,eInterpolationCubic
X,2*,0.0,eInterpolationCubic
X,3,0.0,eInterpolationCubic
X,3*,0.0,eInterpolationCubic
X,4,0.0,eInterpolationCubic
X,4*,0.0,eInterpolationCubic
X,5,0.0,eInterpolationCubic
X,5*,0.0,eInterpolationCubic
X,6,0.0,eInterpolationCubic
X,6*,0.0,eInterpolationCubic
X,7,0.0,eInterpolationCubic
X,7*,0.0,eInterpolationCubic
X,8,0.0,eInterpolationCubic
X,8*,0.0,eInterpolationCubic
X,9,0.0,eInterpolationCubic
X,9*,0.0,eInterpolationCubic
X,10,0.0,eInterpolationCubic
X,10*,0.0,eInterpolationCubic
X,11,0.0,eInterpolationCubic
X,11*,0.0,eInterpolationCubic
X,12,0.0,eInterpolationCubic
X,12*,0.0,eInterpolationCubic
X,13,0.0,eInterpolationCubic
X,13*,0.0,eInterpolationCubic
X,14,0.0,eInterpolationCubic
X,14*,0.0,eInterpolationCubic
X,15,0.0,eInterpolationCubic
X,15*,0.0,eInterpolationCubic
X,16,0.0,eInterpolationCubic
X,16*,0.0,eInterpolationCubic
X,17,0.0,eInterpolationCubic
X,17*,0.0,eInterpolationCubic
X,18,0.0,eInterpolationCubic
X,18*,0.0,eInterpolationCubic
X,19,0.0,eInterpolationCubic
X,19*,0.0,eInterpolationCubic
X,20,0.0,eInterpolationCubic
X,20*,0.0,eInterpolationCubic
X,21,0.0,eInterpolationCubic
X,21*,0.0,eInterpolationCubic
X,22,0.0,eInterpolationCubic
X,22*,0.0,eInterpolationCubic
X,23,0.0,eInterpolationCubic
X,23*,0.0,eInterpolationCubic
X,24,0.0,eInterpolationCubic
X,24*,0.0,eInterpolationCubic
X,25,0.0,eInterpolationCubic
X,25*,0.0,eInterpolationCubic
X,26,0.0,eInterpolationCubic
X,26*,0.0,eInterpolationCubic
X,27,0.0,eInterpolationCubic
X,27*,0.0,eInterpolationCubic
X,28,0.0,eInterpolationCubic
X,28*,0.0,eInterpolationCubic
X,29,0.0,eInterpolationCubic
X,29*,0.0,eInterpolationCubic
X,30,0.0,eInterpolationCubic
X,30*,0.0,eInterpolationCubic
X,31,0.0,eInterpolationCubic
X,31*,0.0,eInterpolationCubic
X,32,0.0,eInterpolationCubic
X,32*,0.0,eInterpolationCubic
X,33,0.0,eInterpolationCubic
X,33*,0.0,eInterpolationCubic
X,34,0.0,eInterpolationCubic
X,34*,0.0,eInterpolationCubic
X,35,0.0,eInterpolationCubic
X,35*,0.0,eInterpolationCubic
X,36,0.0,eInterpolationCubic
X,36*,0.0,eInterpolationCubic
X,37,0.0,eInterpolationCubic
X,37*,0.0,eInterpolationCubic
X,38,0.0,eInterpolationCubic
X,38*,0.0,eInterpolationCubic
X,39,0.0,eInterpolationCubic
X,39*,0.0,eInterpolationCubic
X,40,0.0,eInterpolationCubic
X,40*,0.0,eInterpolationCubic
X,41,0.0,eInterpolationCubic
X,41*,0.0,eInterpolationCubic
X,42,0.0,eInterpolationCubic
X,42*,0.0,eInterpolationCubic
X,43,0.0,eInterpolationCubic
X,43*,0.0,eInterpolationCubic
X,44,0.0,eInterpolationCubic
X,44*,0.0,eInterpolationCubic
X,45,0.0,eInterpolationCubic
X,45*,0.0,eInterpolationCubic
X,46,0.0,eInterpolationCubic
X,46*,0.0,eInterpolationCubic
X,47,0.0,eInterpolationCubic
X,47*,0.0,eInterpolationCubic
X,48,0.0,eInterpolationCubic
X,48*,0.0,eInterpolationCubic
X,49,0.0,eInterpolationCubic
X,49*,0.0,eInterpolationCubic
X,50,0.0,eInterpolationCubic
X,50*,0.0,eInterpolationCubic
X,51,0.0,eInterpolationCubic
X,51*,0.0,eInterpolationCubic
X,52,0.0,eInterpolationCubic
X,52*,0.0,eInterpolationCubic
X,53,0.0,eInterpolationCubic
X,53*,0.0,eInterpolationCubic
X,54,0.0,eInterpolationCubic
X,54*,0.0,eInterpolationCubic
X,55,0.0,eInterpolationCubic
X,55*,0.0,eInterpolationCubic
X,56,0.0,eInterpolationCubic
X,56*,0.0,eInterpolationCubic
X,57,0.0,eInterpolationCubic
X,57*,0.0,eInterpolationCubic
X,58,0.0,eInterpolationCubic
X,58*,0.0,eInterpolationCubic
X,59,0.0,eInterpolationCubic
X,59*,0.0,eInterpolationCubic
X,60,0.0,eInterpolationCubic
X,60*,0.0,eInterpolationCubic
X,61,0.0,eInterpolationCubic
X,61*,0.0,eInterpolationCubic
X,62,0.0,eInterpolationCubic
X,62*,0.0,eInterpolationCubic
X,63,0.0,eInterpolationCubic
X,63*,0.0,eInterpolationCubic
X,64,0.0,eInterpolationCubic
X,64*,0.0,eInterpolationCubic
X,65,0.0,eInterpolationCubic
X,65*,0.0,eInterpolationConstant
Y,0,-0.0,eInterpolationCubic
Y,0*,-1.0970925092697144,eInterpolationCubic
Y,1,-4.064284324645996,eInterpolationCubic
Y,1*,-8.415448188781738,eInterpolationCubic
Y,2,-13.664456367492676,eInterpolationCubic
Y,2*,-19.325180053710938,eInterpolationCubic
Y,3,-24.91149139404297,eInterpolationCubic
Y,3*,-29.9372615814209,eInterpolationCubic
Y,4,-33.91636657714844,eInterpolationCubic
Y,4*,-36.3626708984375,eInterpolationCubic
Y,5,-37.82619094848633,eInterpolationCubic
Y,5*,-39.18362045288086,eInterpolationCubic
Y,6,-40.43885040283203,eInterpolationCubic
Y,6*,-41.59577178955078,eInterpolationCubic
Y,7,-42.65829086303711,eInterpolationCubic
Y,7*,-43.63029861450195,eInterpolationCubic
Y,8,-44.51568603515625,eInterpolationCubic
Y,8*,-45.31835174560547,eInterpolationCubic
Y,9,-46.042198181152344,eInterpolationCubic
Y,9*,-46.691104888916016,eInterpolationCubic
Y,10,-47.268985748291016,eInterpolationCubic
Y,10*,-47.779720306396484,eInterpolationCubic
Y,11,-48.227210998535156,eInterpolationCubic
Y,11*,-48.6153564453125,eInterpolationCubic
Y,12,-48.94804382324219,eInterpolationCubic
Y,12*,-49.22917556762695,eInterpolationCubic
Y,13,-49.462642669677734,eInterpolationCubic
Y,13*,-49.652347564697266,eInterpolationCubic
Y,14,-49.80217361450195,eInterpolationCubic
Y,14*,-49.91602325439453,eInterpolationCubic
Y,15,-49.99779510498047,eInterpolationCubic
Y,15*,-50.0513801574707,eInterpolationCubic
Y,16,-50.0806770324707,eInterpolationCubic
Y,16*,-50.08957290649414,eInterpolationCubic
Y,17,-50.08957290649414,eInterpolationCubic
Y,17*,-50.08957290649414,eInterpolationCubic
Y,18,-50.08957290649414,eInterpolationCubic
Y,18*,-50.08957290649414,eInterpolationCubic
Y,19,-50.08957290649414,eInterpolationCubic
Y,19*,-50.08957290649414,eInterpolationCubic
Y,20,-50.08957290649414,eInterpolationCubic
Y,20*,-50.08957290649414,eInterpolationCubic
Y,21,-50.08957290649414,eInterpolationCubic
Y,21*,-50.08957290649414,eInterpolationCubic
Y,22,-50.08957290649414,eInterpolationCubic
Y,22*,-50.08957290649414,eInterpolationCubic
Y,23,-50.08957290649414,eInterpolationCubic
Y,23*,-50.08957290649414,eInterpolationCubic
Y,24,-50.08957290649414,eInterpolationCubic
Y,24*,-50.08957290649414,eInterpolationCubic
Y,25,-50.08957290649414,eInterpolationCubic
Y,25*,-50.08957290649414,eInterpolationCubic
Y,26,-50.08957290649414,eInterpolationCubic
Y,26*,-50.08957290649414,eInterpolationCubic
Y,27,-50.08957290649414,eInterpolationCubic
Y,27*,-50.08957290649414,eInterpolationCubic
Y,28,-50.08957290649414,eInterpolationCubic
Y,28*,-50.08957290649414,eInterpolationCubic
Y,29,-50.08957290649414,eInterpolationCubic
Y,29*,-50.08957290649414,eInterpolationCubic
Y,30,-50.08957290649414,eInterpolationCubic
Y,30*,-50.08957290649414,eInterpolationCubic
Y,31,-50.08957290649414,eInterpolationCubic
Y,31*,-50.08957290649414,eInterpolationCubic
Y,32,-50.08957290649414,eInterpolationCubic
Y,32*,-50.08957290649414,eInterpolationCubic
Y,33,-50.08957290649414,eInterpolationCubic
Y,33*,-50.08957290649414,eInterpolationCubic
Y,34,-50.08957290649414,eInterpolationCubic
Y,34*,-50.08957290649414,eInterpolationCubic
Y,35,-50.08957290649414,eInterpolationCubic
Y,35*,-50.08957290649414,eInterpolationCubic
Y,36,-50.08957290649414,eInterpolationCubic
Y,36*,-50.08957290649414,eInterpolationCubic
Y,37,-50.08957290649414,eInterpolationCubic
Y,37*,-50.08957290649414,eInterpolationCubic
Y,38,-50.08957290649414,eInterpolationCubic
Y,38*,-50.08957290649414,eInterpolationCubic
Y,39,-50.08957290649414,eInterpolationCubic
Y,39*,-50.08957290649414,eInterpolationCubic
Y,40,-50.08957290649414,eInterpolationCubic
Y,40*,-50.08957290649414,eInterpolationCubic
Y,41,-50.08957290649414,eInterpolationCubic
Y,41*,-50.08957290649414,eInterpolationCubic
Y,42,-50.08957290649414,eInterpolationCubic
Y,42*,-50.08957290649414,eInterpolationCubic
Y,43,-50.08957290649414,eInterpolationCubic
Y,43*,-50.08957290649414,eInterpolationCubic
Y,44,-50.08957290649414,eInterpolationCubic
Y,44*,-50.08957290649414,eInterpolationCubic
Y,45,-50.08957290649414,eInterpolationCubic
Y,45*,-50.08957290649414,eInterpolationCubic
Y,46,-50.08957290649414,eInterpolationCubic
Y,46*,-50.08957290649414,eInterpolationCubic
Y,47,-50.08957290649414,eInterpolationCubic
Y,47*,-50.08957290649414,eInterpolationCubic
Y,48,-50.08957290649414,eInterpolationCubic
Y,48*,-50.08957290649414,eInterpolationCubic
Y,49,-50.08957290649414,eInterpolationCubic
Y,49*,-50.08957290649414,eInterpolationCubic
Y,50,-50.08957290649414,eInterpolationCubic
Y,50*,-50.08957290649414,eInterpolationCubic
Y,51,-50.08957290649414,eInterpolationCubic
Y,51*,-50.08957290649414,eInterpolationCubic
Y,52,-50.08957290649414,eInterpolationCubic
Y,52*,-50.08957290649414,eInterpolationCubic
Y,53,-50.08957290649414,eInterpolationCubic
Y,53*,-50.08957290649414,eInterpolationCubic
Y,54,-50.08957290649414,eInterpolationCubic
Y,54*,-50.08957290649414,eInterpolationCubic
Y,55,-50.08957290649414,eInterpolationCubic
Y,55*,-50.08957290649414,eInterpolationCubic
Y,56,-50.08957290649414,eInterpolationCubic
Y,56*,-50.08957290649414,eInterpolationCubic
Y,57,-50.08957290649414,eInterpolationCubic
Y,57*,-50.08957290649414,eInterpolationCubic
Y,58,-50.08957290649414,eInterpolationCubic
Y,58*,-50.08957290649414,eInterpolationCubic
Y,59,-50.08957290649414,eInterpolationCubic
Y,59*,-50.08957290649414,eInterpolationCubic
Y,60,-50.08957290649414,eInterpolationCubic
Y,60*,-50.08957290649414,eInterpolationCubic
Y,61,-50.08957290649414,eInterpolationCubic
Y,61*,-50.08957290649414,eInterpolationCubic
Y,62,-50.08957290649414,eInterpolationCubic
Y,62*,-50.08957290649414,eInterpolationCubic
Y,63,-50.08957290649414,eInterpolationCubic
Y,63*,-50.08957290649414,eInterpolationCubic
Y,64,-50.08957290649414,eInterpolationCubic
Y,64*,-50.08957290649414,eInterpolationCubic
Y,65,-50.08957290649414,eInterpolationCubic
Y,65*,-50.08957290649414,eInterpolationConstant
Z,0,0.0,eInterpolationCubic
Z,0*,0.0,eInterpolationCubic
Z,1,0.0,eInterpolationCubic
Z,1*,0.0,eInterpolationCubic
Z,2,0.0,eInterpolationCubic
Z,2*,0.0,eInterpolationCubic
Z,3,0.0,eInterpolationCubic
Z,3*,0.0,eInterpolationCubic
Z,4,0.0,eInterpolationCubic
Z,4*,0.0,eInterpolationCubic
Z,5,0.0,eInterpolationCubic
Z,5*,0.0,eInterpolationCubic
Z,6,0.0,eInterpolationCubic
Z,6*,0.0,eInterpolationCubic
Z,7,0.0,eInterpolationCubic
Z,7*,0.0,eInterpolationCubic
Z,8,0.0,eInterpolationCubic
Z,8*,0.0,eInterpolationCubic
Z,9,0.0,eInterpolationCubic
Z,9*,0.0,eInterpolationCubic
Z,10,0.0,eInterpolationCubic
Z,10*,0.0,eInterpolationCubic
Z,11,0.0,eInterpolationCubic
Z,11*,0.0,eInterpolationCubic
Z,12,0.0,eInterpolationCubic
Z,12*,0.0,eInterpolationCubic
Z,13,0.0,eInterpolationCubic
Z,13*,0.0,eInterpolationCubic
Z,14,0.0,eInterpolationCubic
Z,14*,0.0,eInterpolationCubic
Z,15,0.0,eInterpolationCubic
Z,15*,0.0,eInterpolationCubic
Z,16,0.0,eInterpolationCubic
Z,16*,0.0,eInterpolationCubic
Z,17,0.0,eInterpolationCubic
Z,17*,0.0,eInterpolationCubic
Z,18,0.0,eInterpolationCubic
Z,18*,0.0,eInterpolationCubic
Z,19,0.0,eInterpolationCubic
Z,19*,0.0,eInterpolationCubic
Z,20,0.0,eInterpolationCubic
Z,20*,0.0,eInterpolationCubic
Z,21,0.0,eInterpolationCubic
Z,21*,0.0,eInterpolationCubic
Z,22,0.0,eInterpolationCubic
Z,22*,0.0,eInterpolationCubic
Z,23,0.0,eInterpolationCubic
Z,23*,0.0,eInterpolationCubic
Z,24,0.0,eInterpolationCubic
Z,24*,0.0,eInterpolationCubic
Z,25,0.0,eInterpolationCubic
Z,25*,0.0,eInterpolationCubic
Z,26,0.0,eInterpolationCubic
Z,26*,0.0,eInterpolationCubic
Z,27,0.0,eInterpolationCubic
Z,27*,0.0,eInterpolationCubic
Z,28,0.0,eInterpolationCubic
Z,28*,0.0,eInterpolationCubic
Z,29,0.0,eInterpolationCubic
Z,29*,0.0,eInterpolationCubic
Z,30,0.0,eInterpolationCubic
Z,30*,0.0,eInterpolationCubic
Z,31,0.0,eInterpolationCubic
Z,31*,0.0,eInterpolationCubic
Z,32,0.0,eInterpolationCubic
Z,32*,0.0,eInterpolationCubic
Z,33,0.0,eInterpolationCubic
Z,33*,0.0,eInterpolationCubic
Z,34,0.0,eInterpolationCubic
Z,34*,0.0,eInterpolationCubic
Z,35,0.0,eInterpolationCubic
Z,35*,0.0,eInterpolationCubic
Z,36,0.0,eInterpolationCubic
Z,36*,0.0,eInterpolationCubic
Z,37,0.0,eInterpolationCubic
Z,37*,0.0,eInterpolationCubic
Z,38,0.0,eInterpolationCubic
Z,38*,0.0,eInterpolationCubic
Z,39,0.0,eInterpolationCubic
Z,39*,0.0,eInterpolationCubic
Z,40,0.0,eInterpolationCubic
Z,40*,0.0,eInterpolationCubic
Z,41,0.0,eInterpolationCubic
Z,41*,0.0,eInterpolationCubic
Z,42,0.0,eInterpolationCubic
Z,42*,0.0,eInterpolationCubic
Z,43,0.0,eInterpolationCubic
Z,43*,0.0,eInterpolationCubic
Z,44,0.0,eInterpolationCubic
Z,44*,0.0,eInterpolationCubic
Z,45,0.0,eInterpolationCubic
Z,45*,0.0,eInterpolationCubic
Z,46,0.0,eInterpolationCubic
Z,46*,0.0,eInterpolationCubic
Z,47,0.0,eInterpolationCubic
Z,47*,0.0,eInterpolationCubic
Z,48,0.0,eInterpolationCubic
Z,48*,0.0,eInterpolationCubic
Z,49,0.0,eInterpolationCubic
Z,49*,0.0,eInterpolationCubic
Z,50,0.0,eInterpolationCubic
Z,50*,0.0,eInterpolationCubic
Z,51,0.0,eInterpolationCubic
Z,51*,0.0,eInterpolationCubic
Z,52,0.0,eInterpolationCubic
Z,52*,0.0,eInterpolationCubic
Z,53,0.0,eInterpolationCubic
Z,53*,0.0,eInterpolationCubic
Z,54,0.0,eInterpolationCubic
Z,54*,0.0,eInterpolationCubic
Z,55,0.0,eInterpolationCubic
Z,55*,0.0,eInterpolationCubic
Z,56,0.0,eInterpolationCubic
Z,56*,0.0,eInterpolationCubic
Z,57,0.0,eInterpolationCubic
Z,57*,0.0,eInterpolationCubic
Z,58,0.0,eInterpolationCubic
Z,58*,0.0,eInterpolationCubic
Z,59,0.0,eInterpolationCubic
Z,59*,0.0,eInterpolationCubic
Z,60,0.0,eInterpolationCubic
Z,60*,0.0,eInterpolationCubic
Z,61,0.0,eInterpolationCubic
Z,61*,0.0,eInterpolationCubic
Z,62,0.0,eInterpolationCubic
Z,62*,0.0,eInterpolationCubic
Z,63,0.0,eInterpolationCubic
Z,63*,0.0,eInterpolationCubic
Z,64,0.0,eInterpolationCubic
Z,64*,0.0,eInterpolationCubic
Z,65,0.0,eInterpolationCubic
Z,65*,0.0,eInterpolationConstant
