Axis,KeyFrame,Value,InterpolationType
X,0,0.0,eInterpolationCubic
X,0*,-10.165771484375,eInterpolationCubic
X,1,-20.073532104492188,eInterpolationCubic
X,1*,-30.497314453125,eInterpolationCubic
X,2,-42.211158752441406,eInterpolationCubic
X,2*,-55.0968017578125,eInterpolationCubic
X,3,-68.45022583007812,eInterpolationCubic
X,3*,-82.16683959960938,eInterpolationCubic
X,4,-96.14202880859375,eInterpolationCubic
X,4*,-110.27120971679688,eInterpolationCubic
X,5,-124.44977569580078,eInterpolationCubic
X,5*,-138.57310485839844,eInterpolationCubic
X,6,-152.53663635253906,eInterpolationCubic
X,6*,-166.23573303222656,eInterpolationCubic
X,7,-179.56581115722656,eInterpolationCubic
X,7*,-192.42227172851562,eInterpolationCubic
X,8,-204.70050048828125,eInterpolationCubic
X,8*,-216.29591369628906,eInterpolationCubic
X,9,-227.10389709472656,eInterpolationCubic
X,9*,-237.39466857910156,eInterpolationCubic
X,10,-247.4733428955078,eInterpolationCubic
X,10*,-257.28759765625,eInterpolationCubic
X,11,-266.7851257324219,eInterpolationCubic
X,11*,-275.91363525390625,eInterpolationCubic
X,12,-284.6208190917969,eInterpolationCubic
X,12*,-292.8544006347656,eInterpolationCubic
X,13,-300.56201171875,eInterpolationCubic
X,13*,-307.6914367675781,eInterpolationCubic
X,14,-314.1903076171875,eInterpolationCubic
X,14*,-320.00634765625,eInterpolationCubic
X,15,-325.0872802734375,eInterpolationCubic
X,15*,-329.3807373046875,eInterpolationCubic
X,16,-332.83447265625,eInterpolationCubic
X,16*,-335.6405944824219,eInterpolationCubic
X,17,-338.0465393066406,eInterpolationCubic
X,17*,-340.0831604003906,eInterpolationCubic
X,18,-341.7811584472656,eInterpolationCubic
X,18*,-343.17138671875,eInterpolationCubic
X,19,-344.28460693359375,eInterpolationCubic
X,19*,-345.1515808105469,eInterpolationCubic
X,20,-345.8030700683594,eInterpolationCubic
X,20*,-346.2698974609375,eInterpolationCubic
X,21,-346.58282470703125,eInterpolationCubic
X,21*,-346.77264404296875,eInterpolationCubic
X,22,-346.8700866699219,eInterpolationCubic
X,22*,-346.906005859375,eInterpolationCubic
X,23,-346.9111328125,eInterpolationCubic
X,23*,-346.9111328125,eInterpolationCubic
X,24,-346.9111328125,eInterpolationCubic
X,24*,-346.9111328125,eInterpolationCubic
X,25,-346.9111328125,eInterpolationCubic
X,25*,-346.9111328125,eInterpolationCubic
X,26,-346.9111328125,eInterpolationCubic
X,26*,-346.9111328125,eInterpolationCubic
X,27,-346.9111328125,eInterpolationCubic
X,27*,-346.9111328125,eInterpolationCubic
X,28,-346.9111328125,eInterpolationCubic
X,28*,-346.9111328125,eInterpolationCubic
X,29,-346.9111328125,eInterpolationCubic
X,29*,-346.9111328125,eInterpolationCubic
X,30,-346.9111328125,eInterpolationCubic
X,30*,-346.9111328125,eInterpolationCubic
X,31,-346.9111328125,eInterpolationCubic
X,31*,-346.9111328125,eInterpolationCubic
X,32,-346.9111328125,eInterpolationCubic
X,32*,-346.9111328125,eInterpolationCubic
X,33,-346.9111328125,eInterpolationCubic
X,33*,-346.9111328125,eInterpolationCubic
X,34,-346.9111328125,eInterpolationCubic
X,34*,-346.9111328125,eInterpolationCubic
X,35,-346.9111328125,eInterpolationCubic
X,35*,-346.9111328125,eInterpolationConstant
Y,0,-0.0,eInterpolationCubic
Y,0*,-0.0,eInterpolationCubic
Y,1,-0.0,eInterpolationCubic
Y,1*,-0.0,eInterpolationCubic
Y,2,-0.0,eInterpolationCubic
Y,2*,-0.0,eInterpolationCubic
Y,3,-0.0,eInterpolationCubic
Y,3*,-0.0,eInterpolationCubic
Y,4,-0.0,eInterpolationCubic
Y,4*,-0.0,eInterpolationCubic
Y,5,-0.0,eInterpolationCubic
Y,5*,-0.0,eInterpolationCubic
Y,6,-0.0,eInterpolationCubic
Y,6*,-0.0,eInterpolationCubic
Y,7,-0.0,eInterpolationCubic
Y,7*,-0.0,eInterpolationCubic
Y,8,-0.0,eInterpolationCubic
Y,8*,-0.0,eInterpolationCubic
Y,9,-0.0,eInterpolationCubic
Y,9*,-0.0,eInterpolationCubic
Y,10,-0.0,eInterpolationCubic
Y,10*,-0.0,eInterpolationCubic
Y,11,-0.0,eInterpolationCubic
Y,11*,-0.0,eInterpolationCubic
Y,12,-0.0,eInterpolationCubic
Y,12*,-0.0,eInterpolationCubic
Y,13,-0.0,eInterpolationCubic
Y,13*,-0.0,eInterpolationCubic
Y,14,-0.0,eInterpolationCubic
Y,14*,-0.0,eInterpolationCubic
Y,15,-0.0,eInterpolationCubic
Y,15*,-0.0,eInterpolationCubic
Y,16,-0.0,eInterpolationCubic
Y,16*,-0.0,eInterpolationCubic
Y,17,-0.0,eInterpolationCubic
Y,17*,-0.0,eInterpolationCubic
Y,18,-0.0,eInterpolationCubic
Y,18*,-0.0,eInterpolationCubic
Y,19,-0.0,eInterpolationCubic
Y,19*,-0.0,eInterpolationCubic
Y,20,-0.0,eInterpolationCubic
Y,20*,-0.0,eInterpolationCubic
Y,21,-0.0,eInterpolationCubic
Y,21*,-0.0,eInterpolationCubic
Y,22,-0.0,eInterpolationCubic
Y,22*,-0.0,eInterpolationCubic
Y,23,-0.0,eInterpolationCubic
Y,23*,-0.0,eInterpolationCubic
Y,24,-0.0,eInterpolationCubic
Y,24*,-0.0,eInterpolationCubic
Y,25,-0.0,eInterpolationCubic
Y,25*,-0.0,eInterpolationCubic
Y,26,-0.0,eInterpolationCubic
Y,26*,-0.0,eInterpolationCubic
Y,27,-0.0,eInterpolationCubic
Y,27*,-0.0,eInterpolationCubic
Y,28,-0.0,eInterpolationCubic
Y,28*,-0.0,eInterpolationCubic
Y,29,-0.0,eInterpolationCubic
Y,29*,-0.0,eInterpolationCubic
Y,30,-0.0,eInterpolationCubic
Y,30*,-0.0,eInterpolationCubic
Y,31,-0.0,eInterpolationCubic
Y,31*,-0.0,eInterpolationCubic
Y,32,-0.0,eInterpolationCubic
Y,32*,-0.0,eInterpolationCubic
Y,33,-0.0,eInterpolationCubic
Y,33*,-0.0,eInterpolationCubic
Y,34,-0.0,eInterpolationCubic
Y,34*,-0.0,eInterpolationCubic
Y,35,-0.0,eInterpolationCubic
Y,35*,-0.0,eInterpolationConstant
Z,0,0.0,eInterpolationCubic
Z,0*,0.0,eInterpolationCubic
Z,1,0.0,eInterpolationCubic
Z,1*,0.0,eInterpolationCubic
Z,2,0.0,eInterpolationCubic
Z,2*,0.0,eInterpolationCubic
Z,3,0.0,eInterpolationCubic
Z,3*,0.0,eInterpolationCubic
Z,4,0.0,eInterpolationCubic
Z,4*,0.0,eInterpolationCubic
Z,5,0.0,eInterpolationCubic
Z,5*,0.0,eInterpolationCubic
Z,6,0.0,eInterpolationCubic
Z,6*,0.0,eInterpolationCubic
Z,7,0.0,eInterpolationCubic
Z,7*,0.0,eInterpolationCubic
Z,8,0.0,eInterpolationCubic
Z,8*,0.0,eInterpolationCubic
Z,9,0.0,eInterpolationCubic
Z,9*,0.0,eInterpolationCubic
Z,10,0.0,eInterpolationCubic
Z,10*,0.0,eInterpolationCubic
Z,11,0.0,eInterpolationCubic
Z,11*,0.0,eInterpolationCubic
Z,12,0.0,eInterpolationCubic
Z,12*,0.0,eInterpolationCubic
Z,13,0.0,eInterpolationCubic
Z,13*,0.0,eInterpolationCubic
Z,14,0.0,eInterpolationCubic
Z,14*,0.0,eInterpolationCubic
Z,15,0.0,eInterpolationCubic
Z,15*,0.0,eInterpolationCubic
Z,16,0.0,eInterpolationCubic
Z,16*,0.0,eInterpolationCubic
Z,17,0.0,eInterpolationCubic
Z,17*,0.0,eInterpolationCubic
Z,18,0.0,eInterpolationCubic
Z,18*,0.0,eInterpolationCubic
Z,19,0.0,eInterpolationCubic
Z,19*,0.0,eInterpolationCubic
Z,20,0.0,eInterpolationCubic
Z,20*,0.0,eInterpolationCubic
Z,21,0.0,eInterpolationCubic
Z,21*,0.0,eInterpolationCubic
Z,22,0.0,eInterpolationCubic
Z,22*,0.0,eInterpolationCubic
Z,23,0.0,eInterpolationCubic
Z,23*,0.0,eInterpolationCubic
Z,24,0.0,eInterpolationCubic
Z,24*,0.0,eInterpolationCubic
Z,25,0.0,eInterpolationCubic
Z,25*,0.0,eInterpolationCubic
Z,26,0.0,eInterpolationCubic
Z,26*,0.0,eInterpolationCubic
Z,27,0.0,eInterpolationCubic
Z,27*,0.0,eInterpolationCubic
Z,28,0.0,eInterpolationCubic
Z,28*,0.0,eInterpolationCubic
Z,29,0.0,eInterpolationCubic
Z,29*,0.0,eInterpolationCubic
Z,30,0.0,eInterpolationCubic
Z,30*,0.0,eInterpolationCubic
Z,31,0.0,eInterpolationCubic
Z,31*,0.0,eInterpolationCubic
Z,32,0.0,eInterpolationCubic
Z,32*,0.0,eInterpolationCubic
Z,33,0.0,eInterpolationCubic
Z,33*,0.0,eInterpolationCubic
Z,34,0.0,eInterpolationCubic
Z,34*,0.0,eInterpolationCubic
Z,35,0.0,eInterpolationCubic
Z,35*,0.0,eInterpolationConstant
