Axis,KeyFrame,Value,InterpolationType
X,0,0.0,eInterpolationCubic
X,0*,0.0,eInterpolationCubic
X,1,0.0,eInterpolationCubic
X,1*,0.0,eInterpolationCubic
X,2,0.0,eInterpolationCubic
X,2*,0.0,eInterpolationCubic
X,3,0.0,eInterpolationCubic
X,3*,0.0,eInterpolationCubic
X,4,0.0,eInterpolationCubic
X,4*,0.0,eInterpolationCubic
X,5,0.0,eInterpolationCubic
X,5*,0.0,eInterpolationCubic
X,6,0.0,eInterpolationCubic
X,6*,0.0,eInterpolationCubic
X,7,0.0,eInterpolationCubic
X,7*,0.0,eInterpolationCubic
X,8,0.0,eInterpolationCubic
X,8*,0.0,eInterpolationCubic
X,9,0.0,eInterpolationCubic
X,9*,0.0,eInterpolationCubic
X,10,0.0,eInterpolationCubic
X,10*,0.0,eInterpolationCubic
X,11,0.0,eInterpolationCubic
X,11*,0.0,eInterpolationCubic
X,12,0.0,eInterpolationCubic
X,12*,0.0,eInterpolationCubic
X,13,0.0,eInterpolationCubic
X,13*,0.0,eInterpolationCubic
X,14,0.0,eInterpolationCubic
X,14*,0.0,eInterpolationCubic
X,15,0.0,eInterpolationCubic
X,15*,0.0,eInterpolationCubic
X,16,0.0,eInterpolationCubic
X,16*,0.0,eInterpolationCubic
X,17,0.0,eInterpolationCubic
X,17*,0.0,eInterpolationCubic
X,18,0.0,eInterpolationCubic
X,18*,0.0,eInterpolationCubic
X,19,0.0,eInterpolationCubic
X,19*,0.0,eInterpolationCubic
X,20,0.0,eInterpolationCubic
X,20*,0.0,eInterpolationCubic
X,21,0.0,eInterpolationCubic
X,21*,0.0,eInterpolationCubic
X,22,0.0,eInterpolationCubic
X,22*,0.0,eInterpolationCubic
X,23,0.0,eInterpolationCubic
X,23*,0.0,eInterpolationCubic
X,24,0.0,eInterpolationCubic
X,24*,0.0,eInterpolationCubic
X,25,0.0,eInterpolationCubic
X,25*,0.0,eInterpolationCubic
X,26,0.0,eInterpolationCubic
X,26*,0.0,eInterpolationCubic
X,27,0.0,eInterpolationCubic
X,27*,0.0,eInterpolationCubic
X,28,0.0,eInterpolationCubic
X,28*,0.0,eInterpolationCubic
X,29,0.0,eInterpolationCubic
X,29*,0.0,eInterpolationCubic
X,30,0.0,eInterpolationCubic
X,30*,0.0,eInterpolationCubic
X,31,0.0,eInterpolationCubic
X,31*,0.0,eInterpolationCubic
X,32,0.0,eInterpolationCubic
X,32*,0.0,eInterpolationCubic
X,33,0.0,eInterpolationCubic
X,33*,0.0,eInterpolationCubic
X,34,0.0,eInterpolationCubic
X,34*,0.0,eInterpolationCubic
X,35,0.0,eInterpolationCubic
X,35*,0.0,eInterpolationCubic
X,36,0.0,eInterpolationCubic
X,36*,0.0,eInterpolationCubic
X,37,0.0,eInterpolationCubic
X,37*,0.0,eInterpolationCubic
X,38,0.0,eInterpolationCubic
X,38*,0.0,eInterpolationCubic
X,39,0.0,eInterpolationCubic
X,39*,0.0,eInterpolationCubic
X,40,0.0,eInterpolationCubic
X,40*,0.0,eInterpolationCubic
X,41,0.0,eInterpolationCubic
X,41*,0.0,eInterpolationCubic
X,42,0.0,eInterpolationCubic
X,42*,0.0,eInterpolationCubic
X,43,0.0,eInterpolationCubic
X,43*,0.0,eInterpolationCubic
X,44,0.0,eInterpolationCubic
X,44*,0.0,eInterpolationCubic
X,45,0.0,eInterpolationCubic
X,45*,0.0,eInterpolationCubic
X,46,0.0,eInterpolationCubic
X,46*,0.0,eInterpolationCubic
X,47,0.0,eInterpolationCubic
X,47*,0.0,eInterpolationCubic
X,48,0.0,eInterpolationCubic
X,48*,0.0,eInterpolationCubic
X,49,0.0,eInterpolationCubic
X,49*,0.0,eInterpolationCubic
X,50,0.0,eInterpolationCubic
X,50*,0.0,eInterpolationCubic
X,51,0.0,eInterpolationCubic
X,51*,0.0,eInterpolationCubic
X,52,0.0,eInterpolationCubic
X,52*,0.0,eInterpolationCubic
X,53,0.0,eInterpolationCubic
X,53*,0.0,eInterpolationCubic
X,54,0.0,eInterpolationCubic
X,54*,0.0,eInterpolationCubic
X,55,0.0,eInterpolationCubic
X,55*,0.0,eInterpolationCubic
X,56,0.0,eInterpolationCubic
X,56*,0.0,eInterpolationCubic
X,57,0.0,eInterpolationCubic
X,57*,0.0,eInterpolationCubic
X,58,0.0,eInterpolationCubic
X,58*,0.0,eInterpolationCubic
X,59,0.0,eInterpolationCubic
X,59*,0.0,eInterpolationCubic
X,60,0.0,eInterpolationCubic
X,60*,0.0,eInterpolationCubic
X,61,0.0,eInterpolationCubic
X,61*,0.0,eInterpolationCubic
X,62,0.0,eInterpolationCubic
X,62*,0.0,eInterpolationCubic
X,63,0.0,eInterpolationCubic
X,63*,0.0,eInterpolationCubic
X,64,0.0,eInterpolationCubic
X,64*,0.0,eInterpolationCubic
X,65,0.0,eInterpolationCubic
X,65*,0.0,eInterpolationCubic
X,66,0.0,eInterpolationCubic
X,66*,0.0,eInterpolationCubic
X,67,0.0,eInterpolationCubic
X,67*,0.0,eInterpolationCubic
X,68,0.0,eInterpolationCubic
X,68*,0.0,eInterpolationCubic
X,69,0.0,eInterpolationCubic
X,69*,0.0,eInterpolationCubic
X,70,0.0,eInterpolationCubic
X,70*,0.0,eInterpolationCubic
X,71,0.0,eInterpolationCubic
X,71*,0.0,eInterpolationCubic
X,72,0.0,eInterpolationCubic
X,72*,0.0,eInterpolationCubic
X,73,0.0,eInterpolationCubic
X,73*,0.0,eInterpolationCubic
X,74,0.0,eInterpolationCubic
X,74*,0.0,eInterpolationCubic
X,75,0.0,eInterpolationCubic
X,75*,0.0,eInterpolationConstant
Y,0,0.0003114707942586392,eInterpolationCubic
Y,0*,-0.11175137013196945,eInterpolationCubic
Y,1,-0.4435911476612091,eInterpolationCubic
Y,1*,-0.9886847138404846,eInterpolationCubic
Y,2,-1.740509033203125,eInterpolationCubic
Y,2*,-2.6925408840179443,eInterpolationCubic
Y,3,-3.838257312774658,eInterpolationCubic
Y,3*,-5.1711344718933105,eInterpolationCubic
Y,4,-6.684650897979736,eInterpolationCubic
Y,4*,-8.372282028198242,eInterpolationCubic
Y,5,-10.22750473022461,eInterpolationCubic
Y,5*,-12.243796348571777,eInterpolationCubic
Y,6,-14.414633750915527,eInterpolationCubic
Y,6*,-16.733495712280273,eInterpolationCubic
Y,7,-19.1938533782959,eInterpolationCubic
Y,7*,-21.7891902923584,eInterpolationCubic
Y,8,-24.51297950744629,eInterpolationCubic
Y,8*,-27.35869789123535,eInterpolationCubic
Y,9,-30.417448043823242,eInterpolationCubic
Y,9*,-33.756290435791016,eInterpolationCubic
Y,10,-37.3326530456543,eInterpolationCubic
Y,10*,-41.10396194458008,eInterpolationCubic
Y,11,-45.027645111083984,eInterpolationCubic
Y,11*,-49.061119079589844,eInterpolationCubic
Y,12,-53.16182327270508,eInterpolationCubic
Y,12*,-57.28717041015625,eInterpolationCubic
Y,13,-61.39459228515625,eInterpolationCubic
Y,13*,-65.44152069091797,eInterpolationCubic
Y,14,-69.38536071777344,eInterpolationCubic
Y,14*,-73.18355560302734,eInterpolationCubic
Y,15,-76.9469223022461,eInterpolationCubic
Y,15*,-80.76573944091797,eInterpolationCubic
Y,16,-84.56664276123047,eInterpolationCubic
Y,16*,-88.2762222290039,eInterpolationCubic
Y,17,-91.82112884521484,eInterpolationCubic
Y,17*,-95.12798309326172,eInterpolationCubic
Y,18,-98.18956756591797,eInterpolationCubic
Y,18*,-101.05465698242188,eInterpolationCubic
Y,19,-103.73385620117188,eInterpolationCubic
Y,19*,-106.23777770996094,eInterpolationCubic
Y,20,-108.57701873779297,eInterpolationCubic
Y,20*,-110.76217651367188,eInterpolationCubic
Y,21,-112.80386352539062,eInterpolationCubic
Y,21*,-114.71269226074219,eInterpolationCubic
Y,22,-116.4992446899414,eInterpolationCubic
Y,22*,-118.17412567138672,eInterpolationCubic
Y,23,-119.74795532226562,eInterpolationCubic
Y,23*,-121.23133087158203,eInterpolationCubic
Y,24,-122.58747100830078,eInterpolationCubic
Y,24*,-123.77949523925781,eInterpolationCubic
Y,25,-124.81787109375,eInterpolationCubic
Y,25*,-125.71305847167969,eInterpolationCubic
Y,26,-126.47551727294922,eInterpolationCubic
Y,26*,-127.11570739746094,eInterpolationCubic
Y,27,-127.64409637451172,eInterpolationCubic
Y,27*,-128.07113647460938,eInterpolationCubic
Y,28,-128.4073028564453,eInterpolationCubic
Y,28*,-128.6630401611328,eInterpolationCubic
Y,29,-128.8488311767578,eInterpolationCubic
Y,29*,-128.97511291503906,eInterpolationCubic
Y,30,-129.0523681640625,eInterpolationCubic
Y,30*,-129.09104919433594,eInterpolationCubic
Y,31,-129.10162353515625,eInterpolationCubic
Y,31*,-129.0938262939453,eInterpolationCubic
Y,32,-129.07049560546875,eInterpolationCubic
Y,32*,-129.03182983398438,eInterpolationCubic
Y,33,-128.97793579101562,eInterpolationCubic
Y,33*,-128.9089813232422,eInterpolationCubic
Y,34,-128.8251190185547,eInterpolationCubic
Y,34*,-128.7265167236328,eInterpolationCubic
Y,35,-128.61328125,eInterpolationCubic
Y,35*,-128.48558044433594,eInterpolationCubic
Y,36,-128.34356689453125,eInterpolationCubic
Y,36*,-128.18740844726562,eInterpolationCubic
Y,37,-128.01722717285156,eInterpolationCubic
Y,37*,-127.83319091796875,eInterpolationCubic
Y,38,-127.63542938232422,eInterpolationCubic
Y,38*,-127.42410278320312,eInterpolationCubic
Y,39,-127.19937133789062,eInterpolationCubic
Y,39*,-126.96138000488281,eInterpolationCubic
Y,40,-126.71026611328125,eInterpolationCubic
Y,40*,-126.4461898803711,eInterpolationCubic
Y,41,-126.16929626464844,eInterpolationCubic
Y,41*,-125.8797378540039,eInterpolationCubic
Y,42,-125.57767486572266,eInterpolationCubic
Y,42*,-125.26323699951172,eInterpolationCubic
Y,43,-124.93658447265625,eInterpolationCubic
Y,43*,-124.59786224365234,eInterpolationCubic
Y,44,-124.24722290039062,eInterpolationCubic
Y,44*,-123.88482666015625,eInterpolationCubic
Y,45,-123.51081085205078,eInterpolationCubic
Y,45*,-123.11186218261719,eInterpolationCubic
Y,46,-122.67646789550781,eInterpolationCubic
Y,46*,-122.20745086669922,eInterpolationCubic
Y,47,-121.7076416015625,eInterpolationCubic
Y,47*,-121.17987060546875,eInterpolationCubic
Y,48,-120.62696838378906,eInterpolationCubic
Y,48*,-120.05177307128906,eInterpolationCubic
Y,49,-119.45709991455078,eInterpolationCubic
Y,49*,-118.84578704833984,eInterpolationCubic
Y,50,-118.22067260742188,eInterpolationCubic
Y,50*,-117.58457946777344,eInterpolationCubic
Y,51,-116.94033813476562,eInterpolationCubic
Y,51*,-116.29077911376953,eInterpolationCubic
Y,52,-115.63874053955078,eInterpolationCubic
Y,52*,-114.9870376586914,eInterpolationCubic
Y,53,-114.33851623535156,eInterpolationCubic
Y,53*,-113.69599914550781,eInterpolationCubic
Y,54,-113.06231689453125,eInterpolationCubic
Y,54*,-112.4403076171875,eInterpolationCubic
Y,55,-111.8327865600586,eInterpolationCubic
Y,55*,-111.24259185791016,eInterpolationCubic
Y,56,-110.67256164550781,eInterpolationCubic
Y,56*,-110.12551879882812,eInterpolationCubic
Y,57,-109.60428619384766,eInterpolationCubic
Y,57*,-109.1117172241211,eInterpolationCubic
Y,58,-108.65061950683594,eInterpolationCubic
Y,58*,-108.22383880615234,eInterpolationCubic
Y,59,-107.83419799804688,eInterpolationCubic
Y,59*,-107.83467102050781,eInterpolationCubic
Y,60,-107.83604431152344,eInterpolationCubic
Y,60*,-107.8382568359375,eInterpolationCubic
Y,61,-107.84125518798828,eInterpolationCubic
Y,61*,-107.84497833251953,eInterpolationCubic
Y,62,-107.84934997558594,eInterpolationCubic
Y,62*,-107.85433959960938,eInterpolationCubic
Y,63,-107.85985565185547,eInterpolationCubic
Y,63*,-107.86585998535156,eInterpolationCubic
Y,64,-107.8722915649414,eInterpolationCubic
Y,64*,-107.87907409667969,eInterpolationCubic
Y,65,-107.88616180419922,eInterpolationCubic
Y,65*,-107.89348602294922,eInterpolationCubic
Y,66,-107.90099334716797,eInterpolationCubic
Y,66*,-107.90861511230469,eInterpolationCubic
Y,67,-107.91630554199219,eInterpolationCubic
Y,67*,-107.92399597167969,eInterpolationCubic
Y,68,-107.9316177368164,eInterpolationCubic
Y,68*,-107.93913269042969,eInterpolationCubic
Y,69,-107.94645690917969,eInterpolationCubic
Y,69*,-107.95354461669922,eInterpolationCubic
Y,70,-107.96033477783203,eInterpolationCubic
Y,70*,-107.96675109863281,eInterpolationCubic
Y,71,-107.9727554321289,eInterpolationCubic
Y,71*,-107.97827911376953,eInterpolationCubic
Y,72,-107.98326110839844,eInterpolationCubic
Y,72*,-107.98764038085938,eInterpolationCubic
Y,73,-107.99136352539062,eInterpolationCubic
Y,73*,-107.9943618774414,eInterpolationCubic
Y,74,-107.99657440185547,eInterpolationCubic
Y,74*,-107.9979476928711,eInterpolationCubic
Y,75,-107.9984130859375,eInterpolationCubic
Y,75*,-107.9984130859375,eInterpolationConstant
Z,0,0.0,eInterpolationCubic
Z,0*,0.0,eInterpolationCubic
Z,1,0.0,eInterpolationCubic
Z,1*,0.0,eInterpolationCubic
Z,2,0.0,eInterpolationCubic
Z,2*,0.0,eInterpolationCubic
Z,3,0.0,eInterpolationCubic
Z,3*,0.0,eInterpolationCubic
Z,4,0.0,eInterpolationCubic
Z,4*,0.0,eInterpolationCubic
Z,5,0.0,eInterpolationCubic
Z,5*,0.0,eInterpolationCubic
Z,6,0.0,eInterpolationCubic
Z,6*,0.0,eInterpolationCubic
Z,7,0.0,eInterpolationCubic
Z,7*,0.0,eInterpolationCubic
Z,8,0.0,eInterpolationCubic
Z,8*,0.0,eInterpolationCubic
Z,9,0.0,eInterpolationCubic
Z,9*,0.0,eInterpolationCubic
Z,10,0.0,eInterpolationCubic
Z,10*,0.0,eInterpolationCubic
Z,11,0.0,eInterpolationCubic
Z,11*,0.0,eInterpolationCubic
Z,12,0.0,eInterpolationCubic
Z,12*,0.0,eInterpolationCubic
Z,13,0.0,eInterpolationCubic
Z,13*,0.0,eInterpolationCubic
Z,14,0.0,eInterpolationCubic
Z,14*,0.0,eInterpolationCubic
Z,15,0.0,eInterpolationCubic
Z,15*,0.0,eInterpolationCubic
Z,16,0.0,eInterpolationCubic
Z,16*,0.0,eInterpolationCubic
Z,17,0.0,eInterpolationCubic
Z,17*,0.0,eInterpolationCubic
Z,18,0.0,eInterpolationCubic
Z,18*,0.0,eInterpolationCubic
Z,19,0.0,eInterpolationCubic
Z,19*,0.0,eInterpolationCubic
Z,20,0.0,eInterpolationCubic
Z,20*,0.0,eInterpolationCubic
Z,21,0.0,eInterpolationCubic
Z,21*,0.0,eInterpolationCubic
Z,22,0.0,eInterpolationCubic
Z,22*,0.0,eInterpolationCubic
Z,23,0.0,eInterpolationCubic
Z,23*,0.0,eInterpolationCubic
Z,24,0.0,eInterpolationCubic
Z,24*,0.0,eInterpolationCubic
Z,25,0.0,eInterpolationCubic
Z,25*,0.0,eInterpolationCubic
Z,26,0.0,eInterpolationCubic
Z,26*,0.0,eInterpolationCubic
Z,27,0.0,eInterpolationCubic
Z,27*,0.0,eInterpolationCubic
Z,28,0.0,eInterpolationCubic
Z,28*,0.0,eInterpolationCubic
Z,29,0.0,eInterpolationCubic
Z,29*,0.0,eInterpolationCubic
Z,30,0.0,eInterpolationCubic
Z,30*,0.0,eInterpolationCubic
Z,31,0.0,eInterpolationCubic
Z,31*,0.0,eInterpolationCubic
Z,32,0.0,eInterpolationCubic
Z,32*,0.0,eInterpolationCubic
Z,33,0.0,eInterpolationCubic
Z,33*,0.0,eInterpolationCubic
Z,34,0.0,eInterpolationCubic
Z,34*,0.0,eInterpolationCubic
Z,35,0.0,eInterpolationCubic
Z,35*,0.0,eInterpolationCubic
Z,36,0.0,eInterpolationCubic
Z,36*,0.0,eInterpolationCubic
Z,37,0.0,eInterpolationCubic
Z,37*,0.0,eInterpolationCubic
Z,38,0.0,eInterpolationCubic
Z,38*,0.0,eInterpolationCubic
Z,39,0.0,eInterpolationCubic
Z,39*,0.0,eInterpolationCubic
Z,40,0.0,eInterpolationCubic
Z,40*,0.0,eInterpolationCubic
Z,41,0.0,eInterpolationCubic
Z,41*,0.0,eInterpolationCubic
Z,42,0.0,eInterpolationCubic
Z,42*,0.0,eInterpolationCubic
Z,43,0.0,eInterpolationCubic
Z,43*,0.0,eInterpolationCubic
Z,44,0.0,eInterpolationCubic
Z,44*,0.0,eInterpolationCubic
Z,45,0.0,eInterpolationCubic
Z,45*,0.0,eInterpolationCubic
Z,46,0.0,eInterpolationCubic
Z,46*,0.0,eInterpolationCubic
Z,47,0.0,eInterpolationCubic
Z,47*,0.0,eInterpolationCubic
Z,48,0.0,eInterpolationCubic
Z,48*,0.0,eInterpolationCubic
Z,49,0.0,eInterpolationCubic
Z,49*,0.0,eInterpolationCubic
Z,50,0.0,eInterpolationCubic
Z,50*,0.0,eInterpolationCubic
Z,51,0.0,eInterpolationCubic
Z,51*,0.0,eInterpolationCubic
Z,52,0.0,eInterpolationCubic
Z,52*,0.0,eInterpolationCubic
Z,53,0.0,eInterpolationCubic
Z,53*,0.0,eInterpolationCubic
Z,54,0.0,eInterpolationCubic
Z,54*,0.0,eInterpolationCubic
Z,55,0.0,eInterpolationCubic
Z,55*,0.0,eInterpolationCubic
Z,56,0.0,eInterpolationCubic
Z,56*,0.0,eInterpolationCubic
Z,57,0.0,eInterpolationCubic
Z,57*,0.0,eInterpolationCubic
Z,58,0.0,eInterpolationCubic
Z,58*,0.0,eInterpolationCubic
Z,59,0.0,eInterpolationCubic
Z,59*,0.0,eInterpolationCubic
Z,60,0.0,eInterpolationCubic
Z,60*,0.0,eInterpolationCubic
Z,61,0.0,eInterpolationCubic
Z,61*,0.0,eInterpolationCubic
Z,62,0.0,eInterpolationCubic
Z,62*,0.0,eInterpolationCubic
Z,63,0.0,eInterpolationCubic
Z,63*,0.0,eInterpolationCubic
Z,64,0.0,eInterpolationCubic
Z,64*,0.0,eInterpolationCubic
Z,65,0.0,eInterpolationCubic
Z,65*,0.0,eInterpolationCubic
Z,66,0.0,eInterpolationCubic
Z,66*,0.0,eInterpolationCubic
Z,67,0.0,eInterpolationCubic
Z,67*,0.0,eInterpolationCubic
Z,68,0.0,eInterpolationCubic
Z,68*,0.0,eInterpolationCubic
Z,69,0.0,eInterpolationCubic
Z,69*,0.0,eInterpolationCubic
Z,70,0.0,eInterpolationCubic
Z,70*,0.0,eInterpolationCubic
Z,71,0.0,eInterpolationCubic
Z,71*,0.0,eInterpolationCubic
Z,72,0.0,eInterpolationCubic
Z,72*,0.0,eInterpolationCubic
Z,73,0.0,eInterpolationCubic
Z,73*,0.0,eInterpolationCubic
Z,74,0.0,eInterpolationCubic
Z,74*,0.0,eInterpolationCubic
Z,75,0.0,eInterpolationCubic
Z,75*,0.0,eInterpolationConstant
