Axis,KeyFrame,Value,InterpolationType
X,0,0.0,eInterpolationCubic
X,0*,0.0,eInterpolationCubic
X,1,0.0,eInterpolationCubic
X,1*,0.0,eInterpolationCubic
X,2,0.0,eInterpolationCubic
X,2*,0.0,eInterpolationCubic
X,3,0.0,eInterpolationCubic
X,3*,0.0,eInterpolationCubic
X,4,0.0,eInterpolationCubic
X,4*,0.0,eInterpolationCubic
X,5,0.0,eInterpolationCubic
X,5*,0.0,eInterpolationCubic
X,6,0.0,eInterpolationCubic
X,6*,0.0,eInterpolationCubic
X,7,0.0,eInterpolationCubic
X,7*,0.0,eInterpolationCubic
X,8,0.0,eInterpolationCubic
X,8*,0.0,eInterpolationCubic
X,9,0.0,eInterpolationCubic
X,9*,0.0,eInterpolationCubic
X,10,0.0,eInterpolationCubic
X,10*,0.0,eInterpolationCubic
X,11,0.0,eInterpolationCubic
X,11*,0.0,eInterpolationCubic
X,12,0.0,eInterpolationCubic
X,12*,0.0,eInterpolationCubic
X,13,0.0,eInterpolationCubic
X,13*,0.0,eInterpolationCubic
X,14,0.0,eInterpolationCubic
X,14*,0.0,eInterpolationCubic
X,15,0.0,eInterpolationCubic
X,15*,0.0,eInterpolationCubic
X,16,0.0,eInterpolationCubic
X,16*,0.0,eInterpolationCubic
X,17,0.0,eInterpolationCubic
X,17*,0.0,eInterpolationCubic
X,18,0.0,eInterpolationCubic
X,18*,0.0,eInterpolationCubic
X,19,0.0,eInterpolationCubic
X,19*,0.0,eInterpolationCubic
X,20,0.0,eInterpolationCubic
X,20*,0.0,eInterpolationCubic
X,21,0.0,eInterpolationCubic
X,21*,0.0,eInterpolationCubic
X,22,0.0,eInterpolationCubic
X,22*,0.0,eInterpolationCubic
X,23,0.0,eInterpolationCubic
X,23*,0.0,eInterpolationCubic
X,24,0.0,eInterpolationCubic
X,24*,0.0,eInterpolationCubic
X,25,0.0,eInterpolationCubic
X,25*,0.0,eInterpolationCubic
X,26,0.0,eInterpolationCubic
X,26*,0.0,eInterpolationCubic
X,27,0.0,eInterpolationCubic
X,27*,0.0,eInterpolationCubic
X,28,0.0,eInterpolationCubic
X,28*,0.0,eInterpolationCubic
X,29,0.0,eInterpolationCubic
X,29*,0.0,eInterpolationCubic
X,30,0.0,eInterpolationCubic
X,30*,0.0,eInterpolationConstant
Y,0,34.804527282714844,eInterpolationCubic
Y,0*,34.804527282714844,eInterpolationCubic
Y,1,34.804527282714844,eInterpolationCubic
Y,1*,34.804527282714844,eInterpolationCubic
Y,2,34.804527282714844,eInterpolationCubic
Y,2*,34.804527282714844,eInterpolationCubic
Y,3,34.804527282714844,eInterpolationCubic
Y,3*,34.804527282714844,eInterpolationCubic
Y,4,34.804527282714844,eInterpolationCubic
Y,4*,34.804527282714844,eInterpolationCubic
Y,5,34.804527282714844,eInterpolationCubic
Y,5*,34.804527282714844,eInterpolationCubic
Y,6,34.804527282714844,eInterpolationCubic
Y,6*,34.804527282714844,eInterpolationCubic
Y,7,34.804527282714844,eInterpolationCubic
Y,7*,34.804527282714844,eInterpolationCubic
Y,8,34.804527282714844,eInterpolationCubic
Y,8*,34.804527282714844,eInterpolationCubic
Y,9,34.804527282714844,eInterpolationCubic
Y,9*,34.804527282714844,eInterpolationCubic
Y,10,34.804527282714844,eInterpolationCubic
Y,10*,34.804527282714844,eInterpolationCubic
Y,11,34.804527282714844,eInterpolationCubic
Y,11*,34.804527282714844,eInterpolationCubic
Y,12,34.804527282714844,eInterpolationCubic
Y,12*,34.804527282714844,eInterpolationCubic
Y,13,34.804527282714844,eInterpolationCubic
Y,13*,34.804527282714844,eInterpolationCubic
Y,14,34.804527282714844,eInterpolationCubic
Y,14*,34.804527282714844,eInterpolationCubic
Y,15,34.804527282714844,eInterpolationCubic
Y,15*,34.804527282714844,eInterpolationCubic
Y,16,34.804527282714844,eInterpolationCubic
Y,16*,34.804527282714844,eInterpolationCubic
Y,17,34.804527282714844,eInterpolationCubic
Y,17*,34.804527282714844,eInterpolationCubic
Y,18,34.804527282714844,eInterpolationCubic
Y,18*,34.804527282714844,eInterpolationCubic
Y,19,34.804527282714844,eInterpolationCubic
Y,19*,34.804527282714844,eInterpolationCubic
Y,20,34.804527282714844,eInterpolationCubic
Y,20*,34.804527282714844,eInterpolationCubic
Y,21,34.804527282714844,eInterpolationCubic
Y,21*,34.804527282714844,eInterpolationCubic
Y,22,34.804527282714844,eInterpolationCubic
Y,22*,34.804527282714844,eInterpolationCubic
Y,23,34.804527282714844,eInterpolationCubic
Y,23*,34.804527282714844,eInterpolationCubic
Y,24,34.804527282714844,eInterpolationCubic
Y,24*,34.804527282714844,eInterpolationCubic
Y,25,34.804527282714844,eInterpolationCubic
Y,25*,34.804527282714844,eInterpolationCubic
Y,26,34.804527282714844,eInterpolationCubic
Y,26*,34.804527282714844,eInterpolationCubic
Y,27,34.804527282714844,eInterpolationCubic
Y,27*,34.804527282714844,eInterpolationCubic
Y,28,34.804527282714844,eInterpolationCubic
Y,28*,34.804527282714844,eInterpolationCubic
Y,29,34.804527282714844,eInterpolationCubic
Y,29*,34.804527282714844,eInterpolationCubic
Y,30,34.804527282714844,eInterpolationCubic
Y,30*,34.804527282714844,eInterpolationConstant
Z,0,0.0,eInterpolationCubic
Z,0*,0.0,eInterpolationCubic
Z,1,0.0,eInterpolationCubic
Z,1*,0.0,eInterpolationCubic
Z,2,0.0,eInterpolationCubic
Z,2*,0.0,eInterpolationCubic
Z,3,0.0,eInterpolationCubic
Z,3*,0.0,eInterpolationCubic
Z,4,0.0,eInterpolationCubic
Z,4*,0.0,eInterpolationCubic
Z,5,0.0,eInterpolationCubic
Z,5*,0.0,eInterpolationCubic
Z,6,0.0,eInterpolationCubic
Z,6*,0.0,eInterpolationCubic
Z,7,0.0,eInterpolationCubic
Z,7*,0.0,eInterpolationCubic
Z,8,0.0,eInterpolationCubic
Z,8*,0.0,eInterpolationCubic
Z,9,0.0,eInterpolationCubic
Z,9*,0.0,eInterpolationCubic
Z,10,0.0,eInterpolationCubic
Z,10*,0.0,eInterpolationCubic
Z,11,0.0,eInterpolationCubic
Z,11*,0.0,eInterpolationCubic
Z,12,0.0,eInterpolationCubic
Z,12*,0.0,eInterpolationCubic
Z,13,0.0,eInterpolationCubic
Z,13*,0.0,eInterpolationCubic
Z,14,0.0,eInterpolationCubic
Z,14*,0.0,eInterpolationCubic
Z,15,0.0,eInterpolationCubic
Z,15*,0.0,eInterpolationCubic
Z,16,0.0,eInterpolationCubic
Z,16*,0.0,eInterpolationCubic
Z,17,0.0,eInterpolationCubic
Z,17*,0.0,eInterpolationCubic
Z,18,0.0,eInterpolationCubic
Z,18*,0.0,eInterpolationCubic
Z,19,0.0,eInterpolationCubic
Z,19*,0.0,eInterpolationCubic
Z,20,0.0,eInterpolationCubic
Z,20*,0.0,eInterpolationCubic
Z,21,0.0,eInterpolationCubic
Z,21*,0.0,eInterpolationCubic
Z,22,0.0,eInterpolationCubic
Z,22*,0.0,eInterpolationCubic
Z,23,0.0,eInterpolationCubic
Z,23*,0.0,eInterpolationCubic
Z,24,0.0,eInterpolationCubic
Z,24*,0.0,eInterpolationCubic
Z,25,0.0,eInterpolationCubic
Z,25*,0.0,eInterpolationCubic
Z,26,0.0,eInterpolationCubic
Z,26*,0.0,eInterpolationCubic
Z,27,0.0,eInterpolationCubic
Z,27*,0.0,eInterpolationCubic
Z,28,0.0,eInterpolationCubic
Z,28*,0.0,eInterpolationCubic
Z,29,0.0,eInterpolationCubic
Z,29*,0.0,eInterpolationCubic
Z,30,0.0,eInterpolationCubic
Z,30*,0.0,eInterpolationConstant
