Axis,KeyFrame,Value,InterpolationType
X,0,0.0,eInterpolationCubic
X,0*,0.0,eInterpolationCubic
X,1,0.0,eInterpolationCubic
X,1*,0.0,eInterpolationCubic
X,2,0.0,eInterpolationCubic
X,2*,0.0,eInterpolationCubic
X,3,0.0,eInterpolationCubic
X,3*,0.0,eInterpolationCubic
X,4,0.0,eInterpolationCubic
X,4*,0.0,eInterpolationCubic
X,5,0.0,eInterpolationCubic
X,5*,0.0,eInterpolationCubic
X,6,0.0,eInterpolationCubic
X,6*,0.0,eInterpolationCubic
X,7,0.0,eInterpolationCubic
X,7*,0.0,eInterpolationCubic
X,8,0.0,eInterpolationCubic
X,8*,0.0,eInterpolationCubic
X,9,0.0,eInterpolationCubic
X,9*,0.0,eInterpolationCubic
X,10,0.0,eInterpolationCubic
X,10*,0.0,eInterpolationCubic
X,11,0.0,eInterpolationCubic
X,11*,0.0,eInterpolationCubic
X,12,0.0,eInterpolationCubic
X,12*,0.0,eInterpolationCubic
X,13,0.0,eInterpolationCubic
X,13*,0.0,eInterpolationCubic
X,14,0.0,eInterpolationCubic
X,14*,0.0,eInterpolationCubic
X,15,0.0,eInterpolationCubic
X,15*,0.0,eInterpolationCubic
X,16,0.0,eInterpolationCubic
X,16*,0.0,eInterpolationCubic
X,17,0.0,eInterpolationCubic
X,17*,0.0,eInterpolationCubic
X,18,0.0,eInterpolationCubic
X,18*,0.0,eInterpolationCubic
X,19,0.0,eInterpolationCubic
X,19*,0.0,eInterpolationCubic
X,20,0.0,eInterpolationCubic
X,20*,0.0,eInterpolationCubic
X,21,0.0,eInterpolationCubic
X,21*,0.0,eInterpolationCubic
X,22,0.0,eInterpolationCubic
X,22*,0.0,eInterpolationCubic
X,23,0.0,eInterpolationCubic
X,23*,0.0,eInterpolationCubic
X,24,0.0,eInterpolationCubic
X,24*,0.0,eInterpolationCubic
X,25,0.0,eInterpolationCubic
X,25*,0.0,eInterpolationCubic
X,26,0.0,eInterpolationCubic
X,26*,0.0,eInterpolationCubic
X,27,0.0,eInterpolationCubic
X,27*,0.0,eInterpolationCubic
X,28,0.0,eInterpolationCubic
X,28*,0.0,eInterpolationCubic
X,29,0.0,eInterpolationCubic
X,29*,0.0,eInterpolationCubic
X,30,0.0,eInterpolationCubic
X,30*,0.0,eInterpolationCubic
X,31,0.0,eInterpolationCubic
X,31*,0.0,eInterpolationCubic
X,32,0.0,eInterpolationCubic
X,32*,0.0,eInterpolationCubic
X,33,0.0,eInterpolationCubic
X,33*,0.0,eInterpolationCubic
X,34,0.0,eInterpolationCubic
X,34*,0.0,eInterpolationCubic
X,35,0.0,eInterpolationCubic
X,35*,0.0,eInterpolationCubic
X,36,0.0,eInterpolationCubic
X,36*,0.0,eInterpolationCubic
X,37,0.0,eInterpolationCubic
X,37*,0.0,eInterpolationCubic
X,38,0.0,eInterpolationCubic
X,38*,0.0,eInterpolationCubic
X,39,0.0,eInterpolationCubic
X,39*,0.0,eInterpolationCubic
X,40,0.0,eInterpolationCubic
X,40*,0.0,eInterpolationCubic
X,41,0.0,eInterpolationCubic
X,41*,0.0,eInterpolationCubic
X,42,0.0,eInterpolationCubic
X,42*,0.0,eInterpolationCubic
X,43,0.0,eInterpolationCubic
X,43*,0.0,eInterpolationCubic
X,44,0.0,eInterpolationCubic
X,44*,0.0,eInterpolationCubic
X,45,0.0,eInterpolationCubic
X,45*,0.0,eInterpolationCubic
X,46,0.0,eInterpolationCubic
X,46*,0.0,eInterpolationCubic
X,47,0.0,eInterpolationCubic
X,47*,0.0,eInterpolationCubic
X,48,0.0,eInterpolationCubic
X,48*,0.0,eInterpolationCubic
X,49,0.0,eInterpolationCubic
X,49*,0.0,eInterpolationCubic
X,50,0.0,eInterpolationCubic
X,50*,0.0,eInterpolationCubic
X,51,0.0,eInterpolationCubic
X,51*,0.0,eInterpolationCubic
X,52,0.0,eInterpolationCubic
X,52*,0.0,eInterpolationCubic
X,53,0.0,eInterpolationCubic
X,53*,0.0,eInterpolationCubic
X,54,0.0,eInterpolationCubic
X,54*,0.0,eInterpolationCubic
X,55,0.0,eInterpolationCubic
X,55*,0.0,eInterpolationConstant
Y,0,0.00019111984875053167,eInterpolationCubic
Y,0*,0.004354935139417648,eInterpolationCubic
Y,1,0.01634920947253704,eInterpolationCubic
Y,1*,0.035428181290626526,eInterpolationCubic
Y,2,0.060846101492643356,eInterpolationCubic
Y,2*,0.09185720235109329,eInterpolationCubic
Y,3,0.12771572172641754,eInterpolationCubic
Y,3*,0.1676759272813797,eInterpolationCubic
Y,4,0.21099203824996948,eInterpolationCubic
Y,4*,0.2569182813167572,eInterpolationCubic
Y,5,0.30470895767211914,eInterpolationCubic
Y,5*,0.35361823439598083,eInterpolationCubic
Y,6,0.40290042757987976,eInterpolationCubic
Y,6*,0.45180970430374146,eInterpolationCubic
Y,7,0.4996003806591034,eInterpolationCubic
Y,7*,0.5455266237258911,eInterpolationCubic
Y,8,0.5888426899909973,eInterpolationCubic
Y,8*,0.6288028955459595,eInterpolationCubic
Y,9,0.6646614074707031,eInterpolationCubic
Y,9*,0.6956725716590881,eInterpolationCubic
Y,10,0.7210904955863953,eInterpolationCubic
Y,10*,0.7401694655418396,eInterpolationCubic
Y,11,0.7521637082099915,eInterpolationCubic
Y,11*,0.7563275098800659,eInterpolationCubic
Y,12,0.5921130776405334,eInterpolationCubic
Y,12*,0.1418476551771164,eInterpolationCubic
Y,13,-0.5309019088745117,eInterpolationCubic
Y,13*,-1.3625686168670654,eInterpolationCubic
Y,14,-2.289585590362549,eInterpolationCubic
Y,14*,-3.2483861446380615,eInterpolationCubic
Y,15,-4.175403594970703,eInterpolationCubic
Y,15*,-5.007070064544678,eInterpolationCubic
Y,16,-5.679819583892822,eInterpolationCubic
Y,16*,-6.130084991455078,eInterpolationCubic
Y,17,-6.294299602508545,eInterpolationCubic
Y,17*,-6.099606513977051,eInterpolationCubic
Y,18,-5.537599086761475,eInterpolationCubic
Y,18*,-4.6413798332214355,eInterpolationCubic
Y,19,-3.4440560340881348,eInterpolationCubic
Y,19*,-1.9787312746047974,eInterpolationCubic
Y,20,-0.278510719537735,eInterpolationCubic
Y,20*,1.6235007047653198,eInterpolationCubic
Y,21,3.6941981315612793,eInterpolationCubic
Y,21*,5.900476932525635,eInterpolationCubic
Y,22,8.209230422973633,eInterpolationCubic
Y,22*,10.587356567382812,eInterpolationCubic
Y,23,13.001749992370605,eInterpolationCubic
Y,23*,15.419302940368652,eInterpolationCubic
Y,24,17.806913375854492,eInterpolationCubic
Y,24*,20.131473541259766,eInterpolationCubic
Y,25,22.35988426208496,eInterpolationCubic
Y,25*,24.45903205871582,eInterpolationCubic
Y,26,26.39582061767578,eInterpolationCubic
Y,26*,28.13714027404785,eInterpolationCubic
Y,27,29.649885177612305,eInterpolationCubic
Y,27*,30.900955200195312,eInterpolationCubic
Y,28,31.857242584228516,eInterpolationCubic
Y,28*,32.48563766479492,eInterpolationCubic
Y,29,32.90232467651367,eInterpolationCubic
Y,29*,33.24973678588867,eInterpolationCubic
Y,30,33.53417205810547,eInterpolationCubic
Y,30*,33.76192855834961,eInterpolationCubic
Y,31,33.939308166503906,eInterpolationCubic
Y,31*,34.072608947753906,eInterpolationCubic
Y,32,34.16811752319336,eInterpolationCubic
Y,32*,34.23214340209961,eInterpolationCubic
Y,33,34.27097702026367,eInterpolationCubic
Y,33*,34.290924072265625,eInterpolationCubic
Y,34,34.29826736450195,eInterpolationCubic
Y,34*,34.29931640625,eInterpolationCubic
Y,35,34.164798736572266,eInterpolationCubic
Y,35*,33.78463363647461,eInterpolationCubic
Y,36,33.19392013549805,eInterpolationCubic
Y,36*,32.42774200439453,eInterpolationCubic
Y,37,31.521202087402344,eInterpolationCubic
Y,37*,30.509382247924805,eInterpolationCubic
Y,38,29.427379608154297,eInterpolationCubic
Y,38*,28.310285568237305,eInterpolationCubic
Y,39,27.193191528320312,eInterpolationCubic
Y,39*,26.111188888549805,eInterpolationCubic
Y,40,25.099369049072266,eInterpolationCubic
Y,40*,24.192827224731445,eInterpolationCubic
Y,41,23.426652908325195,eInterpolationCubic
Y,41*,22.835935592651367,eInterpolationCubic
Y,42,22.455774307250977,eInterpolationCubic
Y,42*,22.32125473022461,eInterpolationCubic
Y,43,22.32125473022461,eInterpolationCubic
Y,43*,22.32125473022461,eInterpolationCubic
Y,44,22.32125473022461,eInterpolationCubic
Y,44*,22.32125473022461,eInterpolationCubic
Y,45,22.32125473022461,eInterpolationCubic
Y,45*,22.32125473022461,eInterpolationCubic
Y,46,22.32125473022461,eInterpolationCubic
Y,46*,22.32125473022461,eInterpolationCubic
Y,47,22.32125473022461,eInterpolationCubic
Y,47*,22.32125473022461,eInterpolationCubic
Y,48,22.32125473022461,eInterpolationCubic
Y,48*,22.32125473022461,eInterpolationCubic
Y,49,22.32125473022461,eInterpolationCubic
Y,49*,22.32125473022461,eInterpolationCubic
Y,50,22.32125473022461,eInterpolationCubic
Y,50*,22.32125473022461,eInterpolationCubic
Y,51,22.32125473022461,eInterpolationCubic
Y,51*,22.32125473022461,eInterpolationCubic
Y,52,22.32125473022461,eInterpolationCubic
Y,52*,22.32125473022461,eInterpolationCubic
Y,53,22.32125473022461,eInterpolationCubic
Y,53*,22.32125473022461,eInterpolationCubic
Y,54,22.32125473022461,eInterpolationCubic
Y,54*,22.32125473022461,eInterpolationCubic
Y,55,22.32125473022461,eInterpolationCubic
Y,55*,22.32125473022461,eInterpolationConstant
Z,0,0.0,eInterpolationCubic
Z,0*,0.0,eInterpolationCubic
Z,1,0.0,eInterpolationCubic
Z,1*,0.0,eInterpolationCubic
Z,2,0.0,eInterpolationCubic
Z,2*,0.0,eInterpolationCubic
Z,3,0.0,eInterpolationCubic
Z,3*,0.0,eInterpolationCubic
Z,4,0.0,eInterpolationCubic
Z,4*,0.0,eInterpolationCubic
Z,5,0.0,eInterpolationCubic
Z,5*,0.0,eInterpolationCubic
Z,6,0.0,eInterpolationCubic
Z,6*,0.0,eInterpolationCubic
Z,7,0.0,eInterpolationCubic
Z,7*,0.0,eInterpolationCubic
Z,8,0.0,eInterpolationCubic
Z,8*,0.0,eInterpolationCubic
Z,9,0.0,eInterpolationCubic
Z,9*,0.0,eInterpolationCubic
Z,10,0.0,eInterpolationCubic
Z,10*,0.0,eInterpolationCubic
Z,11,0.0,eInterpolationCubic
Z,11*,0.0,eInterpolationCubic
Z,12,0.0,eInterpolationCubic
Z,12*,0.0,eInterpolationCubic
Z,13,0.0,eInterpolationCubic
Z,13*,0.0,eInterpolationCubic
Z,14,0.0,eInterpolationCubic
Z,14*,0.0,eInterpolationCubic
Z,15,0.0,eInterpolationCubic
Z,15*,0.0,eInterpolationCubic
Z,16,0.0,eInterpolationCubic
Z,16*,0.0,eInterpolationCubic
Z,17,0.0,eInterpolationCubic
Z,17*,0.0,eInterpolationCubic
Z,18,0.0,eInterpolationCubic
Z,18*,0.0,eInterpolationCubic
Z,19,0.0,eInterpolationCubic
Z,19*,0.0,eInterpolationCubic
Z,20,0.0,eInterpolationCubic
Z,20*,0.0,eInterpolationCubic
Z,21,0.0,eInterpolationCubic
Z,21*,0.0,eInterpolationCubic
Z,22,0.0,eInterpolationCubic
Z,22*,0.0,eInterpolationCubic
Z,23,0.0,eInterpolationCubic
Z,23*,0.0,eInterpolationCubic
Z,24,0.0,eInterpolationCubic
Z,24*,0.0,eInterpolationCubic
Z,25,0.0,eInterpolationCubic
Z,25*,0.0,eInterpolationCubic
Z,26,0.0,eInterpolationCubic
Z,26*,0.0,eInterpolationCubic
Z,27,0.0,eInterpolationCubic
Z,27*,0.0,eInterpolationCubic
Z,28,0.0,eInterpolationCubic
Z,28*,0.0,eInterpolationCubic
Z,29,0.0,eInterpolationCubic
Z,29*,0.0,eInterpolationCubic
Z,30,0.0,eInterpolationCubic
Z,30*,0.0,eInterpolationCubic
Z,31,0.0,eInterpolationCubic
Z,31*,0.0,eInterpolationCubic
Z,32,0.0,eInterpolationCubic
Z,32*,0.0,eInterpolationCubic
Z,33,0.0,eInterpolationCubic
Z,33*,0.0,eInterpolationCubic
Z,34,0.0,eInterpolationCubic
Z,34*,0.0,eInterpolationCubic
Z,35,0.0,eInterpolationCubic
Z,35*,0.0,eInterpolationCubic
Z,36,0.0,eInterpolationCubic
Z,36*,0.0,eInterpolationCubic
Z,37,0.0,eInterpolationCubic
Z,37*,0.0,eInterpolationCubic
Z,38,0.0,eInterpolationCubic
Z,38*,0.0,eInterpolationCubic
Z,39,0.0,eInterpolationCubic
Z,39*,0.0,eInterpolationCubic
Z,40,0.0,eInterpolationCubic
Z,40*,0.0,eInterpolationCubic
Z,41,0.0,eInterpolationCubic
Z,41*,0.0,eInterpolationCubic
Z,42,0.0,eInterpolationCubic
Z,42*,0.0,eInterpolationCubic
Z,43,0.0,eInterpolationCubic
Z,43*,0.0,eInterpolationCubic
Z,44,0.0,eInterpolationCubic
Z,44*,0.0,eInterpolationCubic
Z,45,0.0,eInterpolationCubic
Z,45*,0.0,eInterpolationCubic
Z,46,0.0,eInterpolationCubic
Z,46*,0.0,eInterpolationCubic
Z,47,0.0,eInterpolationCubic
Z,47*,0.0,eInterpolationCubic
Z,48,0.0,eInterpolationCubic
Z,48*,0.0,eInterpolationCubic
Z,49,0.0,eInterpolationCubic
Z,49*,0.0,eInterpolationCubic
Z,50,0.0,eInterpolationCubic
Z,50*,0.0,eInterpolationCubic
Z,51,0.0,eInterpolationCubic
Z,51*,0.0,eInterpolationCubic
Z,52,0.0,eInterpolationCubic
Z,52*,0.0,eInterpolationCubic
Z,53,0.0,eInterpolationCubic
Z,53*,0.0,eInterpolationCubic
Z,54,0.0,eInterpolationCubic
Z,54*,0.0,eInterpolationCubic
Z,55,0.0,eInterpolationCubic
Z,55*,0.0,eInterpolationConstant
