Axis,KeyFrame,Value,InterpolationType
X,0,0.0,eInterpolationCubic
X,0*,7.020613670349121,eInterpolationCubic
X,1,14.427194595336914,eInterpolationCubic
X,1*,22.1798152923584,eInterpolationCubic
X,2,30.23854637145996,eInterpolationCubic
X,2*,38.5634651184082,eInterpolationCubic
X,3,47.11463928222656,eInterpolationCubic
X,3*,55.852142333984375,eInterpolationCubic
X,4,64.73604583740234,eInterpolationCubic
X,4*,73.72642517089844,eInterpolationCubic
X,5,82.7833480834961,eInterpolationCubic
X,5*,91.86688995361328,eInterpolationCubic
X,6,100.93711853027344,eInterpolationCubic
X,6*,109.95411682128906,eInterpolationCubic
X,7,118.8779525756836,eInterpolationCubic
X,7*,127.66868591308594,eInterpolationCubic
X,8,136.28640747070312,eInterpolationCubic
X,8*,144.69117736816406,eInterpolationCubic
X,9,152.84307861328125,eInterpolationCubic
X,9*,160.70216369628906,eInterpolationCubic
X,10,168.22853088378906,eInterpolationCubic
X,10*,175.3822479248047,eInterpolationCubic
X,11,182.1233673095703,eInterpolationCubic
X,11*,188.41197204589844,eInterpolationCubic
X,12,194.20814514160156,eInterpolationCubic
X,12*,199.471923828125,eInterpolationCubic
X,13,204.16343688964844,eInterpolationCubic
X,13*,208.24270629882812,eInterpolationCubic
X,14,211.66983032226562,eInterpolationCubic
X,14*,214.40487670898438,eInterpolationCubic
X,15,216.4079132080078,eInterpolationCubic
X,15*,217.63900756835938,eInterpolationCubic
X,16,218.05825805664062,eInterpolationCubic
X,16*,218.05825805664062,eInterpolationCubic
X,17,218.05825805664062,eInterpolationCubic
X,17*,218.05825805664062,eInterpolationCubic
X,18,218.05825805664062,eInterpolationCubic
X,18*,218.05825805664062,eInterpolationCubic
X,19,218.05825805664062,eInterpolationCubic
X,19*,218.05825805664062,eInterpolationCubic
X,20,218.05825805664062,eInterpolationCubic
X,20*,218.05825805664062,eInterpolationCubic
X,21,218.05825805664062,eInterpolationCubic
X,21*,218.05825805664062,eInterpolationCubic
X,22,218.05825805664062,eInterpolationCubic
X,22*,218.05825805664062,eInterpolationCubic
X,23,218.05825805664062,eInterpolationCubic
X,23*,218.05825805664062,eInterpolationCubic
X,24,218.05825805664062,eInterpolationCubic
X,24*,218.05825805664062,eInterpolationCubic
X,25,218.05825805664062,eInterpolationCubic
X,25*,218.05825805664062,eInterpolationCubic
X,26,218.05825805664062,eInterpolationCubic
X,26*,218.05825805664062,eInterpolationCubic
X,27,218.05825805664062,eInterpolationCubic
X,27*,218.05825805664062,eInterpolationCubic
X,28,218.05825805664062,eInterpolationCubic
X,28*,218.05825805664062,eInterpolationCubic
X,29,218.05825805664062,eInterpolationCubic
X,29*,218.05825805664062,eInterpolationCubic
X,30,218.05825805664062,eInterpolationCubic
X,30*,218.05825805664062,eInterpolationCubic
X,31,218.05825805664062,eInterpolationCubic
X,31*,218.05825805664062,eInterpolationCubic
X,32,218.05825805664062,eInterpolationCubic
X,32*,218.05825805664062,eInterpolationCubic
X,33,218.05825805664062,eInterpolationCubic
X,33*,218.05825805664062,eInterpolationCubic
X,34,218.05825805664062,eInterpolationCubic
X,34*,218.05825805664062,eInterpolationCubic
X,35,218.05825805664062,eInterpolationCubic
X,35*,218.05825805664062,eInterpolationConstant
Y,0,-0.0,eInterpolationCubic
Y,0*,-0.0,eInterpolationCubic
Y,1,-0.0,eInterpolationCubic
Y,1*,-0.0,eInterpolationCubic
Y,2,-0.0,eInterpolationCubic
Y,2*,-0.0,eInterpolationCubic
Y,3,-0.0,eInterpolationCubic
Y,3*,-0.0,eInterpolationCubic
Y,4,-0.0,eInterpolationCubic
Y,4*,-0.0,eInterpolationCubic
Y,5,-0.0,eInterpolationCubic
Y,5*,-0.0,eInterpolationCubic
Y,6,-0.0,eInterpolationCubic
Y,6*,-0.0,eInterpolationCubic
Y,7,-0.0,eInterpolationCubic
Y,7*,-0.0,eInterpolationCubic
Y,8,-0.0,eInterpolationCubic
Y,8*,-0.0,eInterpolationCubic
Y,9,-0.0,eInterpolationCubic
Y,9*,-0.0,eInterpolationCubic
Y,10,-0.0,eInterpolationCubic
Y,10*,-0.0,eInterpolationCubic
Y,11,-0.0,eInterpolationCubic
Y,11*,-0.0,eInterpolationCubic
Y,12,-0.0,eInterpolationCubic
Y,12*,-0.0,eInterpolationCubic
Y,13,-0.0,eInterpolationCubic
Y,13*,-0.0,eInterpolationCubic
Y,14,-0.0,eInterpolationCubic
Y,14*,-0.0,eInterpolationCubic
Y,15,-0.0,eInterpolationCubic
Y,15*,-0.0,eInterpolationCubic
Y,16,-0.0,eInterpolationCubic
Y,16*,-0.0,eInterpolationCubic
Y,17,-0.0,eInterpolationCubic
Y,17*,-0.0,eInterpolationCubic
Y,18,-0.0,eInterpolationCubic
Y,18*,-0.0,eInterpolationCubic
Y,19,-0.0,eInterpolationCubic
Y,19*,-0.0,eInterpolationCubic
Y,20,-0.0,eInterpolationCubic
Y,20*,-0.0,eInterpolationCubic
Y,21,-0.0,eInterpolationCubic
Y,21*,-0.0,eInterpolationCubic
Y,22,-0.0,eInterpolationCubic
Y,22*,-0.0,eInterpolationCubic
Y,23,-0.0,eInterpolationCubic
Y,23*,-0.0,eInterpolationCubic
Y,24,-0.0,eInterpolationCubic
Y,24*,-0.0,eInterpolationCubic
Y,25,-0.0,eInterpolationCubic
Y,25*,-0.0,eInterpolationCubic
Y,26,-0.0,eInterpolationCubic
Y,26*,-0.0,eInterpolationCubic
Y,27,-0.0,eInterpolationCubic
Y,27*,-0.0,eInterpolationCubic
Y,28,-0.0,eInterpolationCubic
Y,28*,-0.0,eInterpolationCubic
Y,29,-0.0,eInterpolationCubic
Y,29*,-0.0,eInterpolationCubic
Y,30,-0.0,eInterpolationCubic
Y,30*,-0.0,eInterpolationCubic
Y,31,-0.0,eInterpolationCubic
Y,31*,-0.0,eInterpolationCubic
Y,32,-0.0,eInterpolationCubic
Y,32*,-0.0,eInterpolationCubic
Y,33,-0.0,eInterpolationCubic
Y,33*,-0.0,eInterpolationCubic
Y,34,-0.0,eInterpolationCubic
Y,34*,-0.0,eInterpolationCubic
Y,35,-0.0,eInterpolationCubic
Y,35*,-0.0,eInterpolationConstant
Z,0,0.0,eInterpolationCubic
Z,0*,0.0,eInterpolationCubic
Z,1,0.0,eInterpolationCubic
Z,1*,0.0,eInterpolationCubic
Z,2,0.0,eInterpolationCubic
Z,2*,0.0,eInterpolationCubic
Z,3,0.0,eInterpolationCubic
Z,3*,0.0,eInterpolationCubic
Z,4,0.0,eInterpolationCubic
Z,4*,0.0,eInterpolationCubic
Z,5,0.0,eInterpolationCubic
Z,5*,0.0,eInterpolationCubic
Z,6,0.0,eInterpolationCubic
Z,6*,0.0,eInterpolationCubic
Z,7,0.0,eInterpolationCubic
Z,7*,0.0,eInterpolationCubic
Z,8,0.0,eInterpolationCubic
Z,8*,0.0,eInterpolationCubic
Z,9,0.0,eInterpolationCubic
Z,9*,0.0,eInterpolationCubic
Z,10,0.0,eInterpolationCubic
Z,10*,0.0,eInterpolationCubic
Z,11,0.0,eInterpolationCubic
Z,11*,0.0,eInterpolationCubic
Z,12,0.0,eInterpolationCubic
Z,12*,0.0,eInterpolationCubic
Z,13,0.0,eInterpolationCubic
Z,13*,0.0,eInterpolationCubic
Z,14,0.0,eInterpolationCubic
Z,14*,0.0,eInterpolationCubic
Z,15,0.0,eInterpolationCubic
Z,15*,0.0,eInterpolationCubic
Z,16,0.0,eInterpolationCubic
Z,16*,0.0,eInterpolationCubic
Z,17,0.0,eInterpolationCubic
Z,17*,0.0,eInterpolationCubic
Z,18,0.0,eInterpolationCubic
Z,18*,0.0,eInterpolationCubic
Z,19,0.0,eInterpolationCubic
Z,19*,0.0,eInterpolationCubic
Z,20,0.0,eInterpolationCubic
Z,20*,0.0,eInterpolationCubic
Z,21,0.0,eInterpolationCubic
Z,21*,0.0,eInterpolationCubic
Z,22,0.0,eInterpolationCubic
Z,22*,0.0,eInterpolationCubic
Z,23,0.0,eInterpolationCubic
Z,23*,0.0,eInterpolationCubic
Z,24,0.0,eInterpolationCubic
Z,24*,0.0,eInterpolationCubic
Z,25,0.0,eInterpolationCubic
Z,25*,0.0,eInterpolationCubic
Z,26,0.0,eInterpolationCubic
Z,26*,0.0,eInterpolationCubic
Z,27,0.0,eInterpolationCubic
Z,27*,0.0,eInterpolationCubic
Z,28,0.0,eInterpolationCubic
Z,28*,0.0,eInterpolationCubic
Z,29,0.0,eInterpolationCubic
Z,29*,0.0,eInterpolationCubic
Z,30,0.0,eInterpolationCubic
Z,30*,0.0,eInterpolationCubic
Z,31,0.0,eInterpolationCubic
Z,31*,0.0,eInterpolationCubic
Z,32,0.0,eInterpolationCubic
Z,32*,0.0,eInterpolationCubic
Z,33,0.0,eInterpolationCubic
Z,33*,0.0,eInterpolationCubic
Z,34,0.0,eInterpolationCubic
Z,34*,0.0,eInterpolationCubic
Z,35,0.0,eInterpolationCubic
Z,35*,0.0,eInterpolationConstant
