Axis,KeyFrame,Value,InterpolationType
X,0,0.0,eInterpolationCubic
X,0*,0.0,eInterpolationCubic
X,1,0.0,eInterpolationCubic
X,1*,0.0,eInterpolationCubic
X,2,0.0,eInterpolationCubic
X,2*,0.0,eInterpolationCubic
X,3,0.0,eInterpolationCubic
X,3*,0.0,eInterpolationCubic
X,4,0.0,eInterpolationCubic
X,4*,0.0,eInterpolationCubic
X,5,0.0,eInterpolationCubic
X,5*,0.0,eInterpolationCubic
X,6,0.0,eInterpolationCubic
X,6*,0.0,eInterpolationCubic
X,7,0.0,eInterpolationCubic
X,7*,0.0,eInterpolationCubic
X,8,0.0,eInterpolationCubic
X,8*,0.0,eInterpolationCubic
X,9,0.0,eInterpolationCubic
X,9*,0.0,eInterpolationCubic
X,10,0.0,eInterpolationCubic
X,10*,0.0,eInterpolationCubic
X,11,0.0,eInterpolationCubic
X,11*,0.0,eInterpolationCubic
X,12,0.0,eInterpolationCubic
X,12*,0.0,eInterpolationCubic
X,13,0.0,eInterpolationCubic
X,13*,0.0,eInterpolationCubic
X,14,0.0,eInterpolationCubic
X,14*,0.0,eInterpolationCubic
X,15,0.0,eInterpolationCubic
X,15*,0.0,eInterpolationCubic
X,16,0.0,eInterpolationCubic
X,16*,0.0,eInterpolationCubic
X,17,0.0,eInterpolationCubic
X,17*,0.0,eInterpolationCubic
X,18,0.0,eInterpolationCubic
X,18*,0.0,eInterpolationCubic
X,19,0.0,eInterpolationCubic
X,19*,0.0,eInterpolationCubic
X,20,0.0,eInterpolationCubic
X,20*,0.0,eInterpolationCubic
X,21,0.0,eInterpolationCubic
X,21*,0.0,eInterpolationCubic
X,22,0.0,eInterpolationCubic
X,22*,0.0,eInterpolationCubic
X,23,0.0,eInterpolationCubic
X,23*,0.0,eInterpolationCubic
X,24,0.0,eInterpolationCubic
X,24*,0.0,eInterpolationCubic
X,25,0.0,eInterpolationCubic
X,25*,0.0,eInterpolationCubic
X,26,0.0,eInterpolationCubic
X,26*,0.0,eInterpolationCubic
X,27,0.0,eInterpolationCubic
X,27*,0.0,eInterpolationCubic
X,28,0.0,eInterpolationCubic
X,28*,0.0,eInterpolationCubic
X,29,0.0,eInterpolationCubic
X,29*,0.0,eInterpolationCubic
X,30,0.0,eInterpolationCubic
X,30*,0.0,eInterpolationConstant
Y,0,-0.0,eInterpolationCubic
Y,0*,4.325394153594971,eInterpolationCubic
Y,1,9.206342697143555,eInterpolationCubic
Y,1*,14.404752731323242,eInterpolationCubic
Y,2,19.682525634765625,eInterpolationCubic
Y,2*,24.801570892333984,eInterpolationCubic
Y,3,29.52379035949707,eInterpolationCubic
Y,3*,33.611087799072266,eInterpolationCubic
Y,4,36.82537078857422,eInterpolationCubic
Y,4*,38.92854690551758,eInterpolationCubic
Y,5,39.68251419067383,eInterpolationCubic
Y,5*,39.68251419067383,eInterpolationCubic
Y,6,39.68251419067383,eInterpolationCubic
Y,6*,39.68251419067383,eInterpolationCubic
Y,7,39.68251419067383,eInterpolationCubic
Y,7*,39.68251419067383,eInterpolationCubic
Y,8,39.68251419067383,eInterpolationCubic
Y,8*,39.68251419067383,eInterpolationCubic
Y,9,39.682369232177734,eInterpolationCubic
Y,9*,39.682369232177734,eInterpolationCubic
Y,10,39.68223190307617,eInterpolationCubic
Y,10*,39.68223190307617,eInterpolationCubic
Y,11,39.68202590942383,eInterpolationCubic
Y,11*,39.6818962097168,eInterpolationCubic
Y,12,39.68174362182617,eInterpolationCubic
Y,12*,39.68156433105469,eInterpolationCubic
Y,13,39.68136215209961,eInterpolationCubic
Y,13*,39.681129455566406,eInterpolationCubic
Y,14,39.68087387084961,eInterpolationCubic
Y,14*,39.68058776855469,eInterpolationCubic
Y,15,39.68026351928711,eInterpolationCubic
Y,15*,39.679908752441406,eInterpolationCubic
Y,16,39.67951965332031,eInterpolationCubic
Y,16*,39.67909240722656,eInterpolationCubic
Y,17,39.678627014160156,eInterpolationCubic
Y,17*,39.67811965942383,eInterpolationCubic
Y,18,39.67757034301758,eInterpolationCubic
Y,18*,39.676979064941406,eInterpolationCubic
Y,19,39.67633819580078,eInterpolationCubic
Y,19*,39.675655364990234,eInterpolationCubic
Y,20,39.674922943115234,eInterpolationCubic
Y,20*,39.674137115478516,eInterpolationCubic
Y,21,39.673301696777344,eInterpolationCubic
Y,21*,39.67240905761719,eInterpolationCubic
Y,22,39.67145919799805,eInterpolationCubic
Y,22*,39.67045593261719,eInterpolationCubic
Y,23,39.669395446777344,eInterpolationCubic
Y,23*,39.66826629638672,eInterpolationCubic
Y,24,39.667083740234375,eInterpolationCubic
Y,24*,39.66583251953125,eInterpolationCubic
Y,25,39.66451644897461,eInterpolationCubic
Y,25*,39.66313171386719,eInterpolationCubic
Y,26,39.661678314208984,eInterpolationCubic
Y,26*,39.660152435302734,eInterpolationCubic
Y,27,39.6585578918457,eInterpolationCubic
Y,27*,39.65688705444336,eInterpolationCubic
Y,28,39.6551399230957,eInterpolationCubic
Y,28*,39.653316497802734,eInterpolationCubic
Y,29,39.65141677856445,eInterpolationCubic
Y,29*,39.64942932128906,eInterpolationCubic
Y,30,39.647361755371094,eInterpolationCubic
Y,30*,39.647361755371094,eInterpolationConstant
Z,0,0.0,eInterpolationCubic
Z,0*,0.0,eInterpolationCubic
Z,1,0.0,eInterpolationCubic
Z,1*,0.0,eInterpolationCubic
Z,2,0.0,eInterpolationCubic
Z,2*,0.0,eInterpolationCubic
Z,3,0.0,eInterpolationCubic
Z,3*,0.0,eInterpolationCubic
Z,4,0.0,eInterpolationCubic
Z,4*,0.0,eInterpolationCubic
Z,5,0.0,eInterpolationCubic
Z,5*,0.0,eInterpolationCubic
Z,6,0.0,eInterpolationCubic
Z,6*,0.0,eInterpolationCubic
Z,7,0.0,eInterpolationCubic
Z,7*,0.0,eInterpolationCubic
Z,8,0.0,eInterpolationCubic
Z,8*,0.0,eInterpolationCubic
Z,9,0.0,eInterpolationCubic
Z,9*,0.0,eInterpolationCubic
Z,10,0.0,eInterpolationCubic
Z,10*,0.0,eInterpolationCubic
Z,11,0.0,eInterpolationCubic
Z,11*,0.0,eInterpolationCubic
Z,12,0.0,eInterpolationCubic
Z,12*,0.0,eInterpolationCubic
Z,13,0.0,eInterpolationCubic
Z,13*,0.0,eInterpolationCubic
Z,14,0.0,eInterpolationCubic
Z,14*,0.0,eInterpolationCubic
Z,15,0.0,eInterpolationCubic
Z,15*,0.0,eInterpolationCubic
Z,16,0.0,eInterpolationCubic
Z,16*,0.0,eInterpolationCubic
Z,17,0.0,eInterpolationCubic
Z,17*,0.0,eInterpolationCubic
Z,18,0.0,eInterpolationCubic
Z,18*,0.0,eInterpolationCubic
Z,19,0.0,eInterpolationCubic
Z,19*,0.0,eInterpolationCubic
Z,20,0.0,eInterpolationCubic
Z,20*,0.0,eInterpolationCubic
Z,21,0.0,eInterpolationCubic
Z,21*,0.0,eInterpolationCubic
Z,22,0.0,eInterpolationCubic
Z,22*,0.0,eInterpolationCubic
Z,23,0.0,eInterpolationCubic
Z,23*,0.0,eInterpolationCubic
Z,24,0.0,eInterpolationCubic
Z,24*,0.0,eInterpolationCubic
Z,25,0.0,eInterpolationCubic
Z,25*,0.0,eInterpolationCubic
Z,26,0.0,eInterpolationCubic
Z,26*,0.0,eInterpolationCubic
Z,27,0.0,eInterpolationCubic
Z,27*,0.0,eInterpolationCubic
Z,28,0.0,eInterpolationCubic
Z,28*,0.0,eInterpolationCubic
Z,29,0.0,eInterpolationCubic
Z,29*,0.0,eInterpolationCubic
Z,30,0.0,eInterpolationCubic
Z,30*,0.0,eInterpolationConstant
