Axis,KeyFrame,Value,InterpolationType
X,0,0.0,eInterpolationCubic
X,0*,-22.284486770629883,eInterpolationCubic
X,1,-45.1728630065918,eInterpolationCubic
X,1*,-66.85346221923828,eInterpolationCubic
X,2,-85.51458740234375,eInterpolationCubic
X,2*,-101.90847778320312,eInterpolationCubic
X,3,-117.95264434814453,eInterpolationCubic
X,3*,-133.58338928222656,eInterpolationCubic
X,4,-148.73696899414062,eInterpolationCubic
X,4*,-163.3496856689453,eInterpolationCubic
X,5,-177.3578338623047,eInterpolationCubic
X,5*,-190.6976776123047,eInterpolationCubic
X,6,-203.30551147460938,eInterpolationCubic
X,6*,-215.1176300048828,eInterpolationCubic
X,7,-226.3829803466797,eInterpolationCubic
X,7*,-237.39889526367188,eInterpolationCubic
X,8,-248.1741180419922,eInterpolationCubic
X,8*,-258.71746826171875,eInterpolationCubic
X,9,-269.03765869140625,eInterpolationCubic
X,9*,-279.1434326171875,eInterpolationCubic
X,10,-289.0436706542969,eInterpolationCubic
X,10*,-298.7470397949219,eInterpolationCubic
X,11,-308.2623291015625,eInterpolationCubic
X,11*,-317.5982971191406,eInterpolationCubic
X,12,-326.76373291015625,eInterpolationCubic
X,12*,-335.7673645019531,eInterpolationCubic
X,13,-344.6180114746094,eInterpolationCubic
X,13*,-353.32440185546875,eInterpolationCubic
X,14,-361.8953552246094,eInterpolationCubic
X,14*,-370.33953857421875,eInterpolationCubic
X,15,-378.4776306152344,eInterpolationCubic
X,15*,-386.1399230957031,eInterpolationCubic
X,16,-393.34954833984375,eInterpolationCubic
X,16*,-400.12982177734375,eInterpolationCubic
X,17,-406.5039367675781,eInterpolationCubic
X,17*,-412.49517822265625,eInterpolationCubic
X,18,-418.1267395019531,eInterpolationCubic
X,18*,-423.4218444824219,eInterpolationCubic
X,19,-428.40380859375,eInterpolationCubic
X,19*,-433.09576416015625,eInterpolationCubic
X,20,-437.74090576171875,eInterpolationCubic
X,20*,-442.4737243652344,eInterpolationCubic
X,21,-447.15472412109375,eInterpolationCubic
X,21*,-451.6443176269531,eInterpolationCubic
X,22,-455.8029479980469,eInterpolationCubic
X,22*,-459.4910583496094,eInterpolationCubic
X,23,-462.5690612792969,eInterpolationCubic
X,23*,-464.89739990234375,eInterpolationCubic
X,24,-466.3365783691406,eInterpolationCubic
X,24*,-466.74688720703125,eInterpolationCubic
X,25,-465.9888916015625,eInterpolationCubic
X,25*,-467.3724060058594,eInterpolationCubic
X,26,-468.7443542480469,eInterpolationCubic
X,26*,-470.1029052734375,eInterpolationCubic
X,27,-471.4461975097656,eInterpolationCubic
X,27*,-472.7724304199219,eInterpolationCubic
X,28,-474.0797424316406,eInterpolationCubic
X,28*,-475.3663635253906,eInterpolationCubic
X,29,-476.63043212890625,eInterpolationCubic
X,29*,-477.8700866699219,eInterpolationCubic
X,30,-479.08355712890625,eInterpolationCubic
X,30*,-480.2690124511719,eInterpolationCubic
X,31,-481.4245300292969,eInterpolationCubic
X,31*,-482.54840087890625,eInterpolationCubic
X,32,-483.6387023925781,eInterpolationCubic
X,32*,-484.6936950683594,eInterpolationCubic
X,33,-485.7114562988281,eInterpolationCubic
X,33*,-486.6902160644531,eInterpolationCubic
X,34,-487.62811279296875,eInterpolationCubic
X,34*,-488.52337646484375,eInterpolationCubic
X,35,-489.3741149902344,eInterpolationCubic
X,35*,-490.17852783203125,eInterpolationCubic
X,36,-490.934814453125,eInterpolationCubic
X,36*,-491.64105224609375,eInterpolationCubic
X,37,-492.2955017089844,eInterpolationCubic
X,37*,-492.8962707519531,eInterpolationCubic
X,38,-493.4416198730469,eInterpolationCubic
X,38*,-493.92962646484375,eInterpolationCubic
X,39,-494.3585205078125,eInterpolationCubic
X,39*,-494.7264099121094,eInterpolationCubic
X,40,-495.0315246582031,eInterpolationCubic
X,40*,-495.27203369140625,eInterpolationCubic
X,41,-495.44610595703125,eInterpolationCubic
X,41*,-495.5518798828125,eInterpolationCubic
X,42,-495.5875244140625,eInterpolationCubic
X,42*,-495.5875244140625,eInterpolationConstant
Y,0,-0.0,eInterpolationCubic
Y,0*,2.3019999844109407e-06,eInterpolationCubic
Y,1,4.656238161260262e-06,eInterpolationCubic
Y,1*,7.060778443701565e-06,eInterpolationCubic
Y,2,9.513687473372556e-06,eInterpolationCubic
Y,2*,1.201302893605316e-05,eInterpolationCubic
Y,3,1.4556869246007409e-05,eInterpolationCubic
Y,3*,1.714327299850993e-05,eInterpolationCubic
Y,4,1.9770308426814154e-05,eInterpolationCubic
Y,4*,2.2436035578721203e-05,eInterpolationCubic
Y,5,2.5138524506473914e-05,eInterpolationCubic
Y,5*,2.787583798635751e-05,eInterpolationCubic
Y,6,3.0646038794657215e-05,eInterpolationCubic
Y,6*,3.344720244058408e-05,eInterpolationCubic
Y,7,3.6277382605476305e-05,eInterpolationCubic
Y,7*,3.913464752258733e-05,eInterpolationCubic
Y,8,4.2017065425170586e-05,eInterpolationCubic
Y,8*,4.49227009085007e-05,eInterpolationCubic
Y,9,4.7849614929873496e-05,eInterpolationCubic
Y,9*,5.079587936052121e-05,eInterpolationCubic
Y,10,5.375955515773967e-05,eInterpolationCubic
Y,10*,5.6738706916803494e-05,eInterpolationCubic
Y,11,5.973140650894493e-05,eInterpolationCubic
Y,11*,6.273571489145979e-05,eInterpolationCubic
Y,12,6.574968574568629e-05,eInterpolationCubic
Y,12*,6.877141277072951e-05,eInterpolationCubic
Y,13,7.179893145803362e-05,eInterpolationCubic
Y,13*,7.483032095478848e-05,eInterpolationCubic
Y,14,7.78636458562687e-05,eInterpolationCubic
Y,14*,8.089697075774893e-05,eInterpolationCubic
Y,15,8.392836025450379e-05,eInterpolationCubic
Y,15*,8.695588621776551e-05,eInterpolationCubic
Y,16,8.997760596685112e-05,eInterpolationCubic
Y,16*,9.299157682107762e-05,eInterpolationCubic
Y,17,9.599588520359248e-05,eInterpolationCubic
Y,17*,9.898858843371272e-05,eInterpolationCubic
Y,18,0.00010196773655479774,eInterpolationCubic
Y,18*,0.000104931415989995,eInterpolationCubic
Y,19,0.00010787767678266391,eInterpolationCubic
Y,19*,0.0001108045908040367,eInterpolationCubic
Y,20,0.00011371022992534563,eInterpolationCubic
Y,20*,0.00011659264418995008,eInterpolationCubic
Y,21,0.00011944991274503991,eInterpolationCubic
Y,21*,0.0001222800783580169,eInterpolationCubic
Y,22,0.00012508126383181661,eInterpolationCubic
Y,22*,0.00012785146827809513,eInterpolationCubic
Y,23,0.0001305887708440423,eInterpolationCubic
Y,23*,0.000133291250676848,eInterpolationCubic
Y,24,0.00013595698692370206,eInterpolationCubic
Y,24*,0.0001385840296279639,eInterpolationCubic
Y,25,0.0001411704288329929,eInterpolationCubic
Y,25*,0.00014371426368597895,eInterpolationCubic
Y,26,0.00014621359878219664,eInterpolationCubic
Y,26*,0.00014866651326883584,eInterpolationCubic
Y,27,0.00015107105718925595,eInterpolationCubic
Y,27*,0.0001534252951387316,eInterpolationCubic
Y,28,0.0001557272917125374,eInterpolationCubic
Y,28*,0.00015797512605786324,eInterpolationCubic
Y,29,0.00016016684821806848,eInterpolationCubic
Y,29*,0.00016230052278842777,eInterpolationCubic
Y,30,0.00016437421436421573,eInterpolationCubic
Y,30*,0.00016638600209262222,eInterpolationCubic
Y,31,0.00016833395056892186,eInterpolationCubic
Y,31*,0.0001702161243883893,eInterpolationCubic
Y,32,0.0001720305735943839,eInterpolationCubic
Y,32*,0.00017377537733409554,eInterpolationCubic
Y,33,0.00017544858565088362,eInterpolationCubic
Y,33*,0.00017704827769193798,eInterpolationCubic
Y,34,0.0001785725326044485,eInterpolationCubic
Y,34*,0.00018001938587985933,eInterpolationCubic
Y,35,0.0001813869021134451,eInterpolationCubic
Y,35*,0.0001826731750043109,eInterpolationCubic
Y,36,0.00018387625459581614,eInterpolationCubic
Y,36*,0.00018499420548323542,eInterpolationCubic
Y,37,0.00018602509226184338,eInterpolationCubic
Y,37*,0.00018696697952691466,eInterpolationCubic
Y,38,0.00018781793187372386,eInterpolationCubic
Y,38*,0.00018857601389754564,eInterpolationCubic
Y,39,0.00018923930474556983,eInterpolationCubic
Y,39*,0.00018980585446115583,eInterpolationCubic
Y,40,0.0001902737421914935,eInterpolationCubic
Y,40*,0.00019064100342802703,eInterpolationCubic
Y,41,0.0001909057464217767,eInterpolationCubic
Y,41*,0.00019106600666418672,eInterpolationCubic
Y,42,0.00019111984875053167,eInterpolationCubic
Y,42*,0.00019111984875053167,eInterpolationConstant
Z,0,0.0,eInterpolationCubic
Z,0*,0.0,eInterpolationCubic
Z,1,0.0,eInterpolationCubic
Z,1*,0.0,eInterpolationCubic
Z,2,0.0,eInterpolationCubic
Z,2*,0.0,eInterpolationCubic
Z,3,0.0,eInterpolationCubic
Z,3*,0.0,eInterpolationCubic
Z,4,0.0,eInterpolationCubic
Z,4*,0.0,eInterpolationCubic
Z,5,0.0,eInterpolationCubic
Z,5*,0.0,eInterpolationCubic
Z,6,0.0,eInterpolationCubic
Z,6*,0.0,eInterpolationCubic
Z,7,0.0,eInterpolationCubic
Z,7*,0.0,eInterpolationCubic
Z,8,0.0,eInterpolationCubic
Z,8*,0.0,eInterpolationCubic
Z,9,0.0,eInterpolationCubic
Z,9*,0.0,eInterpolationCubic
Z,10,0.0,eInterpolationCubic
Z,10*,0.0,eInterpolationCubic
Z,11,0.0,eInterpolationCubic
Z,11*,0.0,eInterpolationCubic
Z,12,0.0,eInterpolationCubic
Z,12*,0.0,eInterpolationCubic
Z,13,0.0,eInterpolationCubic
Z,13*,0.0,eInterpolationCubic
Z,14,0.0,eInterpolationCubic
Z,14*,0.0,eInterpolationCubic
Z,15,0.0,eInterpolationCubic
Z,15*,0.0,eInterpolationCubic
Z,16,0.0,eInterpolationCubic
Z,16*,0.0,eInterpolationCubic
Z,17,0.0,eInterpolationCubic
Z,17*,0.0,eInterpolationCubic
Z,18,0.0,eInterpolationCubic
Z,18*,0.0,eInterpolationCubic
Z,19,0.0,eInterpolationCubic
Z,19*,0.0,eInterpolationCubic
Z,20,0.0,eInterpolationCubic
Z,20*,0.0,eInterpolationCubic
Z,21,0.0,eInterpolationCubic
Z,21*,0.0,eInterpolationCubic
Z,22,0.0,eInterpolationCubic
Z,22*,0.0,eInterpolationCubic
Z,23,0.0,eInterpolationCubic
Z,23*,0.0,eInterpolationCubic
Z,24,0.0,eInterpolationCubic
Z,24*,0.0,eInterpolationCubic
Z,25,0.0,eInterpolationCubic
Z,25*,0.0,eInterpolationCubic
Z,26,0.0,eInterpolationCubic
Z,26*,0.0,eInterpolationCubic
Z,27,0.0,eInterpolationCubic
Z,27*,0.0,eInterpolationCubic
Z,28,0.0,eInterpolationCubic
Z,28*,0.0,eInterpolationCubic
Z,29,0.0,eInterpolationCubic
Z,29*,0.0,eInterpolationCubic
Z,30,0.0,eInterpolationCubic
Z,30*,0.0,eInterpolationCubic
Z,31,0.0,eInterpolationCubic
Z,31*,0.0,eInterpolationCubic
Z,32,0.0,eInterpolationCubic
Z,32*,0.0,eInterpolationCubic
Z,33,0.0,eInterpolationCubic
Z,33*,0.0,eInterpolationCubic
Z,34,0.0,eInterpolationCubic
Z,34*,0.0,eInterpolationCubic
Z,35,0.0,eInterpolationCubic
Z,35*,0.0,eInterpolationCubic
Z,36,0.0,eInterpolationCubic
Z,36*,0.0,eInterpolationCubic
Z,37,0.0,eInterpolationCubic
Z,37*,0.0,eInterpolationCubic
Z,38,0.0,eInterpolationCubic
Z,38*,0.0,eInterpolationCubic
Z,39,0.0,eInterpolationCubic
Z,39*,0.0,eInterpolationCubic
Z,40,0.0,eInterpolationCubic
Z,40*,0.0,eInterpolationCubic
Z,41,0.0,eInterpolationCubic
Z,41*,0.0,eInterpolationCubic
Z,42,0.0,eInterpolationCubic
Z,42*,0.0,eInterpolationConstant
