Axis,KeyFrame,Value,InterpolationType
X,0,0.0,eInterpolationCubic
X,0*,-6.268392562866211,eInterpolationCubic
X,1,-12.592612266540527,eInterpolationCubic
X,1*,-18.805177688598633,eInterpolationCubic
X,2,-24.738597869873047,eInterpolationCubic
X,2*,-30.512351989746094,eInterpolationCubic
X,3,-36.34618377685547,eInterpolationCubic
X,3*,-42.22300338745117,eInterpolationCubic
X,4,-48.125736236572266,eInterpolationCubic
X,4*,-54.03728485107422,eInterpolationCubic
X,5,-59.940574645996094,eInterpolationCubic
X,5*,-65.81851959228516,eInterpolationCubic
X,6,-71.65402221679688,eInterpolationCubic
X,6*,-77.43001556396484,eInterpolationCubic
X,7,-83.12940979003906,eInterpolationCubic
X,7*,-88.73512268066406,eInterpolationCubic
X,8,-94.23006439208984,eInterpolationCubic
X,8*,-99.5971450805664,eInterpolationCubic
X,9,-104.81930541992188,eInterpolationCubic
X,9*,-109.87942504882812,eInterpolationCubic
X,10,-114.76044464111328,eInterpolationCubic
X,10*,-119.5779037475586,eInterpolationCubic
X,11,-124.44497680664062,eInterpolationCubic
X,11*,-129.34103393554688,eInterpolationCubic
X,12,-134.24545288085938,eInterpolationCubic
X,12*,-139.1376495361328,eInterpolationCubic
X,13,-143.9969482421875,eInterpolationCubic
X,13*,-148.80276489257812,eInterpolationCubic
X,14,-153.53443908691406,eInterpolationCubic
X,14*,-158.17138671875,eInterpolationCubic
X,15,-162.69296264648438,eInterpolationCubic
X,15*,-167.0785369873047,eInterpolationCubic
X,16,-171.30751037597656,eInterpolationCubic
X,16*,-175.35923767089844,eInterpolationCubic
X,17,-179.21310424804688,eInterpolationCubic
X,17*,-182.84848022460938,eInterpolationCubic
X,18,-186.24478149414062,eInterpolationCubic
X,18*,-189.38131713867188,eInterpolationCubic
X,19,-192.23753356933594,eInterpolationCubic
X,19*,-194.79275512695312,eInterpolationCubic
X,20,-197.0263671875,eInterpolationCubic
X,20*,-199.02545166015625,eInterpolationCubic
X,21,-200.89369201660156,eInterpolationCubic
X,21*,-202.63552856445312,eInterpolationCubic
X,22,-204.2554168701172,eInterpolationCubic
X,22*,-205.7577362060547,eInterpolationCubic
X,23,-207.14695739746094,eInterpolationCubic
X,23*,-208.42745971679688,eInterpolationCubic
X,24,-209.6037139892578,eInterpolationCubic
X,24*,-210.68011474609375,eInterpolationCubic
X,25,-211.66110229492188,eInterpolationCubic
X,25*,-212.5510711669922,eInterpolationCubic
X,26,-213.3544921875,eInterpolationCubic
X,26*,-214.07577514648438,eInterpolationCubic
X,27,-214.71934509277344,eInterpolationCubic
X,27*,-215.28961181640625,eInterpolationCubic
X,28,-215.79103088378906,eInterpolationCubic
X,28*,-216.22799682617188,eInterpolationCubic
X,29,-216.60494995117188,eInterpolationCubic
X,29*,-216.92630004882812,eInterpolationCubic
X,30,-217.19650268554688,eInterpolationCubic
X,30*,-217.4199676513672,eInterpolationCubic
X,31,-217.6011199951172,eInterpolationCubic
X,31*,-217.74440002441406,eInterpolationCubic
X,32,-217.8542022705078,eInterpolationCubic
X,32*,-217.9349822998047,eInterpolationCubic
X,33,-217.9911346435547,eInterpolationCubic
X,33*,-218.02711486816406,eInterpolationCubic
X,34,-218.04733276367188,eInterpolationCubic
X,34*,-218.05621337890625,eInterpolationCubic
X,35,-218.05819702148438,eInterpolationCubic
X,35*,-218.05819702148438,eInterpolationConstant
Y,0,-0.0,eInterpolationCubic
Y,0*,-0.0,eInterpolationCubic
Y,1,-0.0,eInterpolationCubic
Y,1*,-0.0,eInterpolationCubic
Y,2,-0.0,eInterpolationCubic
Y,2*,-0.0,eInterpolationCubic
Y,3,-0.0,eInterpolationCubic
Y,3*,-0.0,eInterpolationCubic
Y,4,-0.0,eInterpolationCubic
Y,4*,-0.0,eInterpolationCubic
Y,5,-0.0,eInterpolationCubic
Y,5*,-0.0,eInterpolationCubic
Y,6,-0.0,eInterpolationCubic
Y,6*,-0.0,eInterpolationCubic
Y,7,-0.0,eInterpolationCubic
Y,7*,-0.0,eInterpolationCubic
Y,8,-0.0,eInterpolationCubic
Y,8*,-0.0,eInterpolationCubic
Y,9,-0.0,eInterpolationCubic
Y,9*,-0.0,eInterpolationCubic
Y,10,-0.0,eInterpolationCubic
Y,10*,-0.0,eInterpolationCubic
Y,11,-0.0,eInterpolationCubic
Y,11*,-0.0,eInterpolationCubic
Y,12,-0.0,eInterpolationCubic
Y,12*,-0.0,eInterpolationCubic
Y,13,-0.0,eInterpolationCubic
Y,13*,-0.0,eInterpolationCubic
Y,14,-0.0,eInterpolationCubic
Y,14*,-0.0,eInterpolationCubic
Y,15,-0.0,eInterpolationCubic
Y,15*,-0.0,eInterpolationCubic
Y,16,-0.0,eInterpolationCubic
Y,16*,-0.0,eInterpolationCubic
Y,17,-0.0,eInterpolationCubic
Y,17*,-0.0,eInterpolationCubic
Y,18,-0.0,eInterpolationCubic
Y,18*,-0.0,eInterpolationCubic
Y,19,-0.0,eInterpolationCubic
Y,19*,-0.0,eInterpolationCubic
Y,20,-0.0,eInterpolationCubic
Y,20*,-0.0,eInterpolationCubic
Y,21,-0.0,eInterpolationCubic
Y,21*,-0.0,eInterpolationCubic
Y,22,-0.0,eInterpolationCubic
Y,22*,-0.0,eInterpolationCubic
Y,23,-0.0,eInterpolationCubic
Y,23*,-0.0,eInterpolationCubic
Y,24,-0.0,eInterpolationCubic
Y,24*,-0.0,eInterpolationCubic
Y,25,-0.0,eInterpolationCubic
Y,25*,-0.0,eInterpolationCubic
Y,26,-0.0,eInterpolationCubic
Y,26*,-0.0,eInterpolationCubic
Y,27,-0.0,eInterpolationCubic
Y,27*,-0.0,eInterpolationCubic
Y,28,-0.0,eInterpolationCubic
Y,28*,-0.0,eInterpolationCubic
Y,29,-0.0,eInterpolationCubic
Y,29*,-0.0,eInterpolationCubic
Y,30,-0.0,eInterpolationCubic
Y,30*,-0.0,eInterpolationCubic
Y,31,-0.0,eInterpolationCubic
Y,31*,-0.0,eInterpolationCubic
Y,32,-0.0,eInterpolationCubic
Y,32*,-0.0,eInterpolationCubic
Y,33,-0.0,eInterpolationCubic
Y,33*,-0.0,eInterpolationCubic
Y,34,-0.0,eInterpolationCubic
Y,34*,-0.0,eInterpolationCubic
Y,35,-0.0,eInterpolationCubic
Y,35*,-0.0,eInterpolationConstant
Z,0,0.0,eInterpolationCubic
Z,0*,0.0,eInterpolationCubic
Z,1,0.0,eInterpolationCubic
Z,1*,0.0,eInterpolationCubic
Z,2,0.0,eInterpolationCubic
Z,2*,0.0,eInterpolationCubic
Z,3,0.0,eInterpolationCubic
Z,3*,0.0,eInterpolationCubic
Z,4,0.0,eInterpolationCubic
Z,4*,0.0,eInterpolationCubic
Z,5,0.0,eInterpolationCubic
Z,5*,0.0,eInterpolationCubic
Z,6,0.0,eInterpolationCubic
Z,6*,0.0,eInterpolationCubic
Z,7,0.0,eInterpolationCubic
Z,7*,0.0,eInterpolationCubic
Z,8,0.0,eInterpolationCubic
Z,8*,0.0,eInterpolationCubic
Z,9,0.0,eInterpolationCubic
Z,9*,0.0,eInterpolationCubic
Z,10,0.0,eInterpolationCubic
Z,10*,0.0,eInterpolationCubic
Z,11,0.0,eInterpolationCubic
Z,11*,0.0,eInterpolationCubic
Z,12,0.0,eInterpolationCubic
Z,12*,0.0,eInterpolationCubic
Z,13,0.0,eInterpolationCubic
Z,13*,0.0,eInterpolationCubic
Z,14,0.0,eInterpolationCubic
Z,14*,0.0,eInterpolationCubic
Z,15,0.0,eInterpolationCubic
Z,15*,0.0,eInterpolationCubic
Z,16,0.0,eInterpolationCubic
Z,16*,0.0,eInterpolationCubic
Z,17,0.0,eInterpolationCubic
Z,17*,0.0,eInterpolationCubic
Z,18,0.0,eInterpolationCubic
Z,18*,0.0,eInterpolationCubic
Z,19,0.0,eInterpolationCubic
Z,19*,0.0,eInterpolationCubic
Z,20,0.0,eInterpolationCubic
Z,20*,0.0,eInterpolationCubic
Z,21,0.0,eInterpolationCubic
Z,21*,0.0,eInterpolationCubic
Z,22,0.0,eInterpolationCubic
Z,22*,0.0,eInterpolationCubic
Z,23,0.0,eInterpolationCubic
Z,23*,0.0,eInterpolationCubic
Z,24,0.0,eInterpolationCubic
Z,24*,0.0,eInterpolationCubic
Z,25,0.0,eInterpolationCubic
Z,25*,0.0,eInterpolationCubic
Z,26,0.0,eInterpolationCubic
Z,26*,0.0,eInterpolationCubic
Z,27,0.0,eInterpolationCubic
Z,27*,0.0,eInterpolationCubic
Z,28,0.0,eInterpolationCubic
Z,28*,0.0,eInterpolationCubic
Z,29,0.0,eInterpolationCubic
Z,29*,0.0,eInterpolationCubic
Z,30,0.0,eInterpolationCubic
Z,30*,0.0,eInterpolationCubic
Z,31,0.0,eInterpolationCubic
Z,31*,0.0,eInterpolationCubic
Z,32,0.0,eInterpolationCubic
Z,32*,0.0,eInterpolationCubic
Z,33,0.0,eInterpolationCubic
Z,33*,0.0,eInterpolationCubic
Z,34,0.0,eInterpolationCubic
Z,34*,0.0,eInterpolationCubic
Z,35,0.0,eInterpolationCubic
Z,35*,0.0,eInterpolationConstant
