Axis,KeyFrame,Value,InterpolationType
X,0,0.0,eInterpolationCubic
X,0*,0.0,eInterpolationCubic
X,1,0.0,eInterpolationCubic
X,1*,0.0,eInterpolationCubic
X,2,0.0,eInterpolationCubic
X,2*,0.0,eInterpolationCubic
X,3,0.0,eInterpolationCubic
X,3*,0.0,eInterpolationCubic
X,4,0.0,eInterpolationCubic
X,4*,0.0,eInterpolationCubic
X,5,0.0,eInterpolationCubic
X,5*,0.0,eInterpolationCubic
X,6,0.0,eInterpolationCubic
X,6*,0.0,eInterpolationCubic
X,7,0.0,eInterpolationCubic
X,7*,0.0,eInterpolationCubic
X,8,0.0,eInterpolationCubic
X,8*,0.0,eInterpolationCubic
X,9,0.0,eInterpolationCubic
X,9*,0.0,eInterpolationCubic
X,10,0.0,eInterpolationCubic
X,10*,0.0,eInterpolationCubic
X,11,0.0,eInterpolationCubic
X,11*,0.0,eInterpolationCubic
X,12,0.0,eInterpolationCubic
X,12*,0.0,eInterpolationCubic
X,13,0.0,eInterpolationCubic
X,13*,0.0,eInterpolationCubic
X,14,0.0,eInterpolationCubic
X,14*,0.0,eInterpolationCubic
X,15,0.0,eInterpolationCubic
X,15*,0.0,eInterpolationCubic
X,16,0.0,eInterpolationCubic
X,16*,0.0,eInterpolationCubic
X,17,0.0,eInterpolationCubic
X,17*,0.0,eInterpolationCubic
X,18,0.0,eInterpolationCubic
X,18*,0.0,eInterpolationCubic
X,19,0.0,eInterpolationCubic
X,19*,0.0,eInterpolationCubic
X,20,0.0,eInterpolationCubic
X,20*,0.0,eInterpolationCubic
X,21,0.0,eInterpolationCubic
X,21*,0.0,eInterpolationCubic
X,22,0.0,eInterpolationCubic
X,22*,0.0,eInterpolationCubic
X,23,0.0,eInterpolationCubic
X,23*,0.0,eInterpolationCubic
X,24,0.0,eInterpolationCubic
X,24*,0.0,eInterpolationCubic
X,25,0.0,eInterpolationCubic
X,25*,0.0,eInterpolationCubic
X,26,0.0,eInterpolationCubic
X,26*,0.0,eInterpolationCubic
X,27,0.0,eInterpolationCubic
X,27*,0.0,eInterpolationCubic
X,28,0.0,eInterpolationCubic
X,28*,0.0,eInterpolationCubic
X,29,0.0,eInterpolationCubic
X,29*,0.0,eInterpolationCubic
X,30,0.0,eInterpolationCubic
X,30*,0.0,eInterpolationConstant
Y,0,-0.0,eInterpolationCubic
Y,0*,4.325394153594971,eInterpolationCubic
Y,1,9.206342697143555,eInterpolationCubic
Y,1*,14.404752731323242,eInterpolationCubic
Y,2,19.682525634765625,eInterpolationCubic
Y,2*,24.801570892333984,eInterpolationCubic
Y,3,29.52379035949707,eInterpolationCubic
Y,3*,33.611087799072266,eInterpolationCubic
Y,4,36.82537078857422,eInterpolationCubic
Y,4*,38.92854690551758,eInterpolationCubic
Y,5,39.68251419067383,eInterpolationCubic
Y,5*,39.68251419067383,eInterpolationCubic
Y,6,39.68251419067383,eInterpolationCubic
Y,6*,39.68251419067383,eInterpolationCubic
Y,7,39.68251419067383,eInterpolationCubic
Y,7*,39.68251419067383,eInterpolationCubic
Y,8,39.68251419067383,eInterpolationCubic
Y,8*,39.68251419067383,eInterpolationCubic
Y,9,39.68236541748047,eInterpolationCubic
Y,9*,39.68236541748047,eInterpolationCubic
Y,10,39.682228088378906,eInterpolationCubic
Y,10*,39.682228088378906,eInterpolationCubic
Y,11,39.6820182800293,eInterpolationCubic
Y,11*,39.681884765625,eInterpolationCubic
Y,12,39.681724548339844,eInterpolationCubic
Y,12*,39.68154525756836,eInterpolationCubic
Y,13,39.681339263916016,eInterpolationCubic
Y,13*,39.68110275268555,eInterpolationCubic
Y,14,39.68083953857422,eInterpolationCubic
Y,14*,39.680545806884766,eInterpolationCubic
Y,15,39.68021774291992,eInterpolationCubic
Y,15*,39.67985534667969,eInterpolationCubic
Y,16,39.67945861816406,eInterpolationCubic
Y,16*,39.679019927978516,eInterpolationCubic
Y,17,39.67854690551758,eInterpolationCubic
Y,17*,39.67803192138672,eInterpolationCubic
Y,18,39.67747116088867,eInterpolationCubic
Y,18*,39.67686462402344,eInterpolationCubic
Y,19,39.67621612548828,eInterpolationCubic
Y,19*,39.675514221191406,eInterpolationCubic
Y,20,39.674766540527344,eInterpolationCubic
Y,20*,39.67396545410156,eInterpolationCubic
Y,21,39.67311096191406,eInterpolationCubic
Y,21*,39.672203063964844,eInterpolationCubic
Y,22,39.671234130859375,eInterpolationCubic
Y,22*,39.67021179199219,eInterpolationCubic
Y,23,39.66912841796875,eInterpolationCubic
Y,23*,39.6679801940918,eInterpolationCubic
Y,24,39.666770935058594,eInterpolationCubic
Y,24*,39.665496826171875,eInterpolationCubic
Y,25,39.66415023803711,eInterpolationCubic
Y,25*,39.66273880004883,eInterpolationCubic
Y,26,39.661258697509766,eInterpolationCubic
Y,26*,39.65970230102539,eInterpolationCubic
Y,27,39.65807342529297,eInterpolationCubic
Y,27*,39.656368255615234,eInterpolationCubic
Y,28,39.65458679199219,eInterpolationCubic
Y,28*,39.65272903442383,eInterpolationCubic
Y,29,39.65078353881836,eInterpolationCubic
Y,29*,39.64876174926758,eInterpolationCubic
Y,30,39.64665222167969,eInterpolationCubic
Y,30*,39.64665222167969,eInterpolationConstant
Z,0,0.0,eInterpolationCubic
Z,0*,0.0,eInterpolationCubic
Z,1,0.0,eInterpolationCubic
Z,1*,0.0,eInterpolationCubic
Z,2,0.0,eInterpolationCubic
Z,2*,0.0,eInterpolationCubic
Z,3,0.0,eInterpolationCubic
Z,3*,0.0,eInterpolationCubic
Z,4,0.0,eInterpolationCubic
Z,4*,0.0,eInterpolationCubic
Z,5,0.0,eInterpolationCubic
Z,5*,0.0,eInterpolationCubic
Z,6,0.0,eInterpolationCubic
Z,6*,0.0,eInterpolationCubic
Z,7,0.0,eInterpolationCubic
Z,7*,0.0,eInterpolationCubic
Z,8,0.0,eInterpolationCubic
Z,8*,0.0,eInterpolationCubic
Z,9,0.0,eInterpolationCubic
Z,9*,0.0,eInterpolationCubic
Z,10,0.0,eInterpolationCubic
Z,10*,0.0,eInterpolationCubic
Z,11,0.0,eInterpolationCubic
Z,11*,0.0,eInterpolationCubic
Z,12,0.0,eInterpolationCubic
Z,12*,0.0,eInterpolationCubic
Z,13,0.0,eInterpolationCubic
Z,13*,0.0,eInterpolationCubic
Z,14,0.0,eInterpolationCubic
Z,14*,0.0,eInterpolationCubic
Z,15,0.0,eInterpolationCubic
Z,15*,0.0,eInterpolationCubic
Z,16,0.0,eInterpolationCubic
Z,16*,0.0,eInterpolationCubic
Z,17,0.0,eInterpolationCubic
Z,17*,0.0,eInterpolationCubic
Z,18,0.0,eInterpolationCubic
Z,18*,0.0,eInterpolationCubic
Z,19,0.0,eInterpolationCubic
Z,19*,0.0,eInterpolationCubic
Z,20,0.0,eInterpolationCubic
Z,20*,0.0,eInterpolationCubic
Z,21,0.0,eInterpolationCubic
Z,21*,0.0,eInterpolationCubic
Z,22,0.0,eInterpolationCubic
Z,22*,0.0,eInterpolationCubic
Z,23,0.0,eInterpolationCubic
Z,23*,0.0,eInterpolationCubic
Z,24,0.0,eInterpolationCubic
Z,24*,0.0,eInterpolationCubic
Z,25,0.0,eInterpolationCubic
Z,25*,0.0,eInterpolationCubic
Z,26,0.0,eInterpolationCubic
Z,26*,0.0,eInterpolationCubic
Z,27,0.0,eInterpolationCubic
Z,27*,0.0,eInterpolationCubic
Z,28,0.0,eInterpolationCubic
Z,28*,0.0,eInterpolationCubic
Z,29,0.0,eInterpolationCubic
Z,29*,0.0,eInterpolationCubic
Z,30,0.0,eInterpolationCubic
Z,30*,0.0,eInterpolationConstant
