Axis,KeyFrame,Value,InterpolationType
X,0,0.0,eInterpolationCubic
X,0*,0.0,eInterpolationCubic
X,1,0.0,eInterpolationCubic
X,1*,0.0,eInterpolationCubic
X,2,0.0,eInterpolationCubic
X,2*,0.0,eInterpolationCubic
X,3,0.0,eInterpolationCubic
X,3*,0.0,eInterpolationCubic
X,4,0.0,eInterpolationCubic
X,4*,0.0,eInterpolationCubic
X,5,0.0,eInterpolationCubic
X,5*,0.0,eInterpolationCubic
X,6,0.0,eInterpolationCubic
X,6*,0.0,eInterpolationCubic
X,7,0.0,eInterpolationCubic
X,7*,0.0,eInterpolationCubic
X,8,0.0,eInterpolationCubic
X,8*,0.0,eInterpolationCubic
X,9,0.0,eInterpolationCubic
X,9*,0.0,eInterpolationCubic
X,10,0.0,eInterpolationCubic
X,10*,0.0,eInterpolationCubic
X,11,0.0,eInterpolationCubic
X,11*,0.0,eInterpolationCubic
X,12,0.0,eInterpolationCubic
X,12*,0.0,eInterpolationCubic
X,13,0.0,eInterpolationCubic
X,13*,0.0,eInterpolationCubic
X,14,0.0,eInterpolationCubic
X,14*,0.0,eInterpolationCubic
X,15,0.0,eInterpolationCubic
X,15*,0.0,eInterpolationCubic
X,16,0.0,eInterpolationCubic
X,16*,0.0,eInterpolationCubic
X,17,0.0,eInterpolationCubic
X,17*,0.0,eInterpolationCubic
X,18,0.0,eInterpolationCubic
X,18*,0.0,eInterpolationCubic
X,19,0.0,eInterpolationCubic
X,19*,0.0,eInterpolationCubic
X,20,0.0,eInterpolationCubic
X,20*,0.0,eInterpolationConstant
Y,0,-0.0,eInterpolationCubic
Y,0*,-9.349736213684082,eInterpolationCubic
Y,1,-18.69955062866211,eInterpolationCubic
Y,1*,-28.04936408996582,eInterpolationCubic
Y,2,-37.39917755126953,eInterpolationCubic
Y,2*,-46.74898910522461,eInterpolationCubic
Y,3,-56.09880447387695,eInterpolationCubic
Y,3*,-65.44861602783203,eInterpolationCubic
Y,4,-74.7984390258789,eInterpolationCubic
Y,4*,-84.14824676513672,eInterpolationCubic
Y,5,-93.49806213378906,eInterpolationCubic
Y,5*,-102.84786987304688,eInterpolationCubic
Y,6,-112.19769287109375,eInterpolationCubic
Y,6*,-121.54750061035156,eInterpolationCubic
Y,7,-130.89730834960938,eInterpolationCubic
Y,7*,-140.2471160888672,eInterpolationCubic
Y,8,-149.59693908691406,eInterpolationCubic
Y,8*,-158.94676208496094,eInterpolationCubic
Y,9,-168.29656982421875,eInterpolationCubic
Y,9*,-177.64637756347656,eInterpolationCubic
Y,10,-186.99620056152344,eInterpolationCubic
Y,10*,-196.34600830078125,eInterpolationCubic
Y,11,-205.69581604003906,eInterpolationCubic
Y,11*,-215.04563903808594,eInterpolationCubic
Y,12,-224.3954620361328,eInterpolationCubic
Y,12*,-233.74526977539062,eInterpolationCubic
Y,13,-243.09507751464844,eInterpolationCubic
Y,13*,-252.44488525390625,eInterpolationCubic
Y,14,-261.7947082519531,eInterpolationCubic
Y,14*,-271.1445007324219,eInterpolationCubic
Y,15,-280.49432373046875,eInterpolationCubic
Y,15*,-289.8441467285156,eInterpolationCubic
Y,16,-299.1939392089844,eInterpolationCubic
Y,16*,-308.5437927246094,eInterpolationCubic
Y,17,-317.89361572265625,eInterpolationCubic
Y,17*,-327.243408203125,eInterpolationCubic
Y,18,-336.5932312011719,eInterpolationCubic
Y,18*,-345.9430236816406,eInterpolationCubic
Y,19,-355.2928466796875,eInterpolationCubic
Y,19*,-364.6426696777344,eInterpolationCubic
Y,20,-373.9924621582031,eInterpolationCubic
Y,20*,-373.9924621582031,eInterpolationConstant
Z,0,0.0,eInterpolationCubic
Z,0*,0.0,eInterpolationCubic
Z,1,0.0,eInterpolationCubic
Z,1*,0.0,eInterpolationCubic
Z,2,0.0,eInterpolationCubic
Z,2*,0.0,eInterpolationCubic
Z,3,0.0,eInterpolationCubic
Z,3*,0.0,eInterpolationCubic
Z,4,0.0,eInterpolationCubic
Z,4*,0.0,eInterpolationCubic
Z,5,0.0,eInterpolationCubic
Z,5*,0.0,eInterpolationCubic
Z,6,0.0,eInterpolationCubic
Z,6*,0.0,eInterpolationCubic
Z,7,0.0,eInterpolationCubic
Z,7*,0.0,eInterpolationCubic
Z,8,0.0,eInterpolationCubic
Z,8*,0.0,eInterpolationCubic
Z,9,0.0,eInterpolationCubic
Z,9*,0.0,eInterpolationCubic
Z,10,0.0,eInterpolationCubic
Z,10*,0.0,eInterpolationCubic
Z,11,0.0,eInterpolationCubic
Z,11*,0.0,eInterpolationCubic
Z,12,0.0,eInterpolationCubic
Z,12*,0.0,eInterpolationCubic
Z,13,0.0,eInterpolationCubic
Z,13*,0.0,eInterpolationCubic
Z,14,0.0,eInterpolationCubic
Z,14*,0.0,eInterpolationCubic
Z,15,0.0,eInterpolationCubic
Z,15*,0.0,eInterpolationCubic
Z,16,0.0,eInterpolationCubic
Z,16*,0.0,eInterpolationCubic
Z,17,0.0,eInterpolationCubic
Z,17*,0.0,eInterpolationCubic
Z,18,0.0,eInterpolationCubic
Z,18*,0.0,eInterpolationCubic
Z,19,0.0,eInterpolationCubic
Z,19*,0.0,eInterpolationCubic
Z,20,0.0,eInterpolationCubic
Z,20*,0.0,eInterpolationConstant
