Axis,KeyFrame,Value,InterpolationType
X,0,0.0,eInterpolationCubic
X,0*,0.0,eInterpolationCubic
X,1,0.0,eInterpolationCubic
X,1*,0.0,eInterpolationCubic
X,2,0.0,eInterpolationCubic
X,2*,0.0,eInterpolationCubic
X,3,0.0,eInterpolationCubic
X,3*,0.0,eInterpolationCubic
X,4,0.0,eInterpolationCubic
X,4*,0.0,eInterpolationCubic
X,5,0.0,eInterpolationCubic
X,5*,0.0,eInterpolationCubic
X,6,0.0,eInterpolationCubic
X,6*,0.0,eInterpolationCubic
X,7,0.0,eInterpolationCubic
X,7*,0.0,eInterpolationCubic
X,8,0.0,eInterpolationCubic
X,8*,0.0,eInterpolationCubic
X,9,0.0,eInterpolationCubic
X,9*,0.0,eInterpolationCubic
X,10,0.0,eInterpolationCubic
X,10*,0.0,eInterpolationCubic
X,11,0.0,eInterpolationCubic
X,11*,0.0,eInterpolationCubic
X,12,0.0,eInterpolationCubic
X,12*,0.0,eInterpolationCubic
X,13,0.0,eInterpolationCubic
X,13*,0.0,eInterpolationCubic
X,14,0.0,eInterpolationCubic
X,14*,0.0,eInterpolationCubic
X,15,0.0,eInterpolationCubic
X,15*,0.0,eInterpolationCubic
X,16,0.0,eInterpolationCubic
X,16*,0.0,eInterpolationCubic
X,17,0.0,eInterpolationCubic
X,17*,0.0,eInterpolationCubic
X,18,0.0,eInterpolationCubic
X,18*,0.0,eInterpolationCubic
X,19,0.0,eInterpolationCubic
X,19*,0.0,eInterpolationCubic
X,20,0.0,eInterpolationCubic
X,20*,0.0,eInterpolationCubic
X,21,0.0,eInterpolationCubic
X,21*,0.0,eInterpolationCubic
X,22,0.0,eInterpolationCubic
X,22*,0.0,eInterpolationCubic
X,23,0.0,eInterpolationCubic
X,23*,0.0,eInterpolationCubic
X,24,0.0,eInterpolationCubic
X,24*,0.0,eInterpolationCubic
X,25,0.0,eInterpolationCubic
X,25*,0.0,eInterpolationCubic
X,26,0.0,eInterpolationCubic
X,26*,0.0,eInterpolationCubic
X,27,0.0,eInterpolationCubic
X,27*,0.0,eInterpolationCubic
X,28,0.0,eInterpolationCubic
X,28*,0.0,eInterpolationCubic
X,29,0.0,eInterpolationCubic
X,29*,0.0,eInterpolationCubic
X,30,0.0,eInterpolationCubic
X,30*,0.0,eInterpolationCubic
X,31,0.0,eInterpolationCubic
X,31*,0.0,eInterpolationCubic
X,32,0.0,eInterpolationCubic
X,32*,0.0,eInterpolationCubic
X,33,0.0,eInterpolationCubic
X,33*,0.0,eInterpolationCubic
X,34,0.0,eInterpolationCubic
X,34*,0.0,eInterpolationCubic
X,35,0.0,eInterpolationCubic
X,35*,0.0,eInterpolationConstant
Y,0,-0.0,eInterpolationCubic
Y,0*,10.165708541870117,eInterpolationCubic
Y,1,20.07339859008789,eInterpolationCubic
Y,1*,30.49712371826172,eInterpolationCubic
Y,2,42.2109375,eInterpolationCubic
Y,2*,55.1632080078125,eInterpolationCubic
Y,3,68.56355285644531,eInterpolationCubic
Y,3*,82.30973052978516,eInterpolationCubic
Y,4,96.29952239990234,eInterpolationCubic
Y,4*,110.43067932128906,eInterpolationCubic
Y,5,124.60095977783203,eInterpolationCubic
Y,5*,138.70814514160156,eInterpolationCubic
Y,6,152.64999389648438,eInterpolationCubic
Y,6*,166.32427978515625,eInterpolationCubic
Y,7,179.62872314453125,eInterpolationCubic
Y,7*,192.4611358642578,eInterpolationCubic
Y,8,204.71926879882812,eInterpolationCubic
Y,8*,216.30088806152344,eInterpolationCubic
Y,9,227.10374450683594,eInterpolationCubic
Y,9*,237.39451599121094,eInterpolationCubic
Y,10,247.47315979003906,eInterpolationCubic
Y,10*,257.2873840332031,eInterpolationCubic
Y,11,266.78485107421875,eInterpolationCubic
Y,11*,275.913330078125,eInterpolationCubic
Y,12,284.6204833984375,eInterpolationCubic
Y,12*,292.85400390625,eInterpolationCubic
Y,13,300.56158447265625,eInterpolationCubic
Y,13*,307.69097900390625,eInterpolationCubic
Y,14,314.1898498535156,eInterpolationCubic
Y,14*,320.00592041015625,eInterpolationCubic
Y,15,325.0868835449219,eInterpolationCubic
Y,15*,329.3804016113281,eInterpolationCubic
Y,16,332.8341979980469,eInterpolationCubic
Y,16*,335.64044189453125,eInterpolationCubic
Y,17,338.0464782714844,eInterpolationCubic
Y,17*,340.0831604003906,eInterpolationCubic
Y,18,341.7812194824219,eInterpolationCubic
Y,18*,343.1714782714844,eInterpolationCubic
Y,19,344.2847595214844,eInterpolationCubic
Y,19*,345.1517639160156,eInterpolationCubic
Y,20,345.80328369140625,eInterpolationCubic
Y,20*,346.2701110839844,eInterpolationCubic
Y,21,346.5830383300781,eInterpolationCubic
Y,21*,346.77288818359375,eInterpolationCubic
Y,22,346.8703308105469,eInterpolationCubic
Y,22*,346.90625,eInterpolationCubic
Y,23,346.911376953125,eInterpolationCubic
Y,23*,346.911376953125,eInterpolationCubic
Y,24,346.911376953125,eInterpolationCubic
Y,24*,346.911376953125,eInterpolationCubic
Y,25,346.911376953125,eInterpolationCubic
Y,25*,346.911376953125,eInterpolationCubic
Y,26,346.911376953125,eInterpolationCubic
Y,26*,346.911376953125,eInterpolationCubic
Y,27,346.911376953125,eInterpolationCubic
Y,27*,346.911376953125,eInterpolationCubic
Y,28,346.911376953125,eInterpolationCubic
Y,28*,346.911376953125,eInterpolationCubic
Y,29,346.911376953125,eInterpolationCubic
Y,29*,346.911376953125,eInterpolationCubic
Y,30,346.9112548828125,eInterpolationCubic
Y,30*,346.9112548828125,eInterpolationCubic
Y,31,346.9112548828125,eInterpolationCubic
Y,31*,346.9112548828125,eInterpolationCubic
Y,32,346.9112548828125,eInterpolationCubic
Y,32*,346.9112548828125,eInterpolationCubic
Y,33,346.9112548828125,eInterpolationCubic
Y,33*,346.9112548828125,eInterpolationCubic
Y,34,346.9112548828125,eInterpolationCubic
Y,34*,346.9112548828125,eInterpolationCubic
Y,35,346.9112548828125,eInterpolationCubic
Y,35*,346.9112548828125,eInterpolationConstant
Z,0,0.0,eInterpolationCubic
Z,0*,0.0,eInterpolationCubic
Z,1,0.0,eInterpolationCubic
Z,1*,0.0,eInterpolationCubic
Z,2,0.0,eInterpolationCubic
Z,2*,0.0,eInterpolationCubic
Z,3,0.0,eInterpolationCubic
Z,3*,0.0,eInterpolationCubic
Z,4,0.0,eInterpolationCubic
Z,4*,0.0,eInterpolationCubic
Z,5,0.0,eInterpolationCubic
Z,5*,0.0,eInterpolationCubic
Z,6,0.0,eInterpolationCubic
Z,6*,0.0,eInterpolationCubic
Z,7,0.0,eInterpolationCubic
Z,7*,0.0,eInterpolationCubic
Z,8,0.0,eInterpolationCubic
Z,8*,0.0,eInterpolationCubic
Z,9,0.0,eInterpolationCubic
Z,9*,0.0,eInterpolationCubic
Z,10,0.0,eInterpolationCubic
Z,10*,0.0,eInterpolationCubic
Z,11,0.0,eInterpolationCubic
Z,11*,0.0,eInterpolationCubic
Z,12,0.0,eInterpolationCubic
Z,12*,0.0,eInterpolationCubic
Z,13,0.0,eInterpolationCubic
Z,13*,0.0,eInterpolationCubic
Z,14,0.0,eInterpolationCubic
Z,14*,0.0,eInterpolationCubic
Z,15,0.0,eInterpolationCubic
Z,15*,0.0,eInterpolationCubic
Z,16,0.0,eInterpolationCubic
Z,16*,0.0,eInterpolationCubic
Z,17,0.0,eInterpolationCubic
Z,17*,0.0,eInterpolationCubic
Z,18,0.0,eInterpolationCubic
Z,18*,0.0,eInterpolationCubic
Z,19,0.0,eInterpolationCubic
Z,19*,0.0,eInterpolationCubic
Z,20,0.0,eInterpolationCubic
Z,20*,0.0,eInterpolationCubic
Z,21,0.0,eInterpolationCubic
Z,21*,0.0,eInterpolationCubic
Z,22,0.0,eInterpolationCubic
Z,22*,0.0,eInterpolationCubic
Z,23,0.0,eInterpolationCubic
Z,23*,0.0,eInterpolationCubic
Z,24,0.0,eInterpolationCubic
Z,24*,0.0,eInterpolationCubic
Z,25,0.0,eInterpolationCubic
Z,25*,0.0,eInterpolationCubic
Z,26,0.0,eInterpolationCubic
Z,26*,0.0,eInterpolationCubic
Z,27,0.0,eInterpolationCubic
Z,27*,0.0,eInterpolationCubic
Z,28,0.0,eInterpolationCubic
Z,28*,0.0,eInterpolationCubic
Z,29,0.0,eInterpolationCubic
Z,29*,0.0,eInterpolationCubic
Z,30,0.0,eInterpolationCubic
Z,30*,0.0,eInterpolationCubic
Z,31,0.0,eInterpolationCubic
Z,31*,0.0,eInterpolationCubic
Z,32,0.0,eInterpolationCubic
Z,32*,0.0,eInterpolationCubic
Z,33,0.0,eInterpolationCubic
Z,33*,0.0,eInterpolationCubic
Z,34,0.0,eInterpolationCubic
Z,34*,0.0,eInterpolationCubic
Z,35,0.0,eInterpolationCubic
Z,35*,0.0,eInterpolationConstant
