Axis,KeyFrame,Value,InterpolationType
X,0,0.0,eInterpolationCubic
X,0*,-6.268392562866211,eInterpolationCubic
X,1,-12.592612266540527,eInterpolationCubic
X,1*,-18.805177688598633,eInterpolationCubic
X,2,-24.738597869873047,eInterpolationCubic
X,2*,-30.512351989746094,eInterpolationCubic
X,3,-36.34618377685547,eInterpolationCubic
X,3*,-42.22300338745117,eInterpolationCubic
X,4,-48.125736236572266,eInterpolationCubic
X,4*,-54.03728485107422,eInterpolationCubic
X,5,-59.940574645996094,eInterpolationCubic
X,5*,-65.81851959228516,eInterpolationCubic
X,6,-71.65402221679688,eInterpolationCubic
X,6*,-77.43001556396484,eInterpolationCubic
X,7,-83.12940979003906,eInterpolationCubic
X,7*,-88.73512268066406,eInterpolationCubic
X,8,-94.23006439208984,eInterpolationCubic
X,8*,-99.5971450805664,eInterpolationCubic
X,9,-104.81930541992188,eInterpolationCubic
X,9*,-109.87942504882812,eInterpolationCubic
X,10,-114.76044464111328,eInterpolationCubic
X,10*,-119.5779037475586,eInterpolationCubic
X,11,-124.4449691772461,eInterpolationCubic
X,11*,-129.3410186767578,eInterpolationCubic
X,12,-134.24545288085938,eInterpolationCubic
X,12*,-139.1376495361328,eInterpolationCubic
X,13,-143.99693298339844,eInterpolationCubic
X,13*,-148.80274963378906,eInterpolationCubic
X,14,-153.534423828125,eInterpolationCubic
X,14*,-158.17135620117188,eInterpolationCubic
X,15,-162.69293212890625,eInterpolationCubic
X,15*,-167.07852172851562,eInterpolationCubic
X,16,-171.30747985839844,eInterpolationCubic
X,16*,-175.3592071533203,eInterpolationCubic
X,17,-179.21307373046875,eInterpolationCubic
X,17*,-182.84844970703125,eInterpolationCubic
X,18,-186.2447509765625,eInterpolationCubic
X,18*,-189.3813018798828,eInterpolationCubic
X,19,-192.23751831054688,eInterpolationCubic
X,19*,-194.79273986816406,eInterpolationCubic
X,20,-197.0263671875,eInterpolationCubic
X,20*,-199.0254669189453,eInterpolationCubic
X,21,-200.8937225341797,eInterpolationCubic
X,21*,-202.6355743408203,eInterpolationCubic
X,22,-204.25546264648438,eInterpolationCubic
X,22*,-205.7578125,eInterpolationCubic
X,23,-207.1470489501953,eInterpolationCubic
X,23*,-208.4275665283203,eInterpolationCubic
X,24,-209.6038360595703,eInterpolationCubic
X,24*,-210.6802520751953,eInterpolationCubic
X,25,-211.6612548828125,eInterpolationCubic
X,25*,-212.55126953125,eInterpolationCubic
X,26,-213.35470581054688,eInterpolationCubic
X,26*,-214.0760040283203,eInterpolationCubic
X,27,-214.71958923339844,eInterpolationCubic
X,27*,-215.28988647460938,eInterpolationCubic
X,28,-215.7913055419922,eInterpolationCubic
X,28*,-216.22830200195312,eInterpolationCubic
X,29,-216.6052703857422,eInterpolationCubic
X,29*,-216.92666625976562,eInterpolationCubic
X,30,-217.19686889648438,eInterpolationCubic
X,30*,-217.4203643798828,eInterpolationCubic
X,31,-217.60153198242188,eInterpolationCubic
X,31*,-217.74481201171875,eInterpolationCubic
X,32,-217.85462951660156,eInterpolationCubic
X,32*,-217.93540954589844,eInterpolationCubic
X,33,-217.99159240722656,eInterpolationCubic
X,33*,-218.02757263183594,eInterpolationCubic
X,34,-218.0478057861328,eInterpolationCubic
X,34*,-218.0566864013672,eInterpolationCubic
X,35,-218.05865478515625,eInterpolationCubic
X,35*,-218.05865478515625,eInterpolationConstant
Y,0,-0.0,eInterpolationCubic
Y,0*,-0.0,eInterpolationCubic
Y,1,-0.0,eInterpolationCubic
Y,1*,-0.0,eInterpolationCubic
Y,2,-0.0,eInterpolationCubic
Y,2*,-0.0,eInterpolationCubic
Y,3,-0.0,eInterpolationCubic
Y,3*,-0.0,eInterpolationCubic
Y,4,-0.0,eInterpolationCubic
Y,4*,-0.0,eInterpolationCubic
Y,5,-0.0,eInterpolationCubic
Y,5*,-0.0,eInterpolationCubic
Y,6,-0.0,eInterpolationCubic
Y,6*,-0.0,eInterpolationCubic
Y,7,-0.0,eInterpolationCubic
Y,7*,-0.0,eInterpolationCubic
Y,8,-0.0,eInterpolationCubic
Y,8*,-0.0,eInterpolationCubic
Y,9,-0.0,eInterpolationCubic
Y,9*,-0.0,eInterpolationCubic
Y,10,-0.0,eInterpolationCubic
Y,10*,-0.0,eInterpolationCubic
Y,11,-0.0,eInterpolationCubic
Y,11*,-0.0,eInterpolationCubic
Y,12,-0.0,eInterpolationCubic
Y,12*,-0.0,eInterpolationCubic
Y,13,-0.0,eInterpolationCubic
Y,13*,-0.0,eInterpolationCubic
Y,14,-0.0,eInterpolationCubic
Y,14*,-0.0,eInterpolationCubic
Y,15,-0.0,eInterpolationCubic
Y,15*,-0.0,eInterpolationCubic
Y,16,-0.0,eInterpolationCubic
Y,16*,-0.0,eInterpolationCubic
Y,17,-0.0,eInterpolationCubic
Y,17*,-0.0,eInterpolationCubic
Y,18,-0.0,eInterpolationCubic
Y,18*,-0.0,eInterpolationCubic
Y,19,-0.0,eInterpolationCubic
Y,19*,-0.0,eInterpolationCubic
Y,20,-0.0,eInterpolationCubic
Y,20*,-0.0,eInterpolationCubic
Y,21,-0.0,eInterpolationCubic
Y,21*,-0.0,eInterpolationCubic
Y,22,-0.0,eInterpolationCubic
Y,22*,-0.0,eInterpolationCubic
Y,23,-0.0,eInterpolationCubic
Y,23*,-0.0,eInterpolationCubic
Y,24,-0.0,eInterpolationCubic
Y,24*,-0.0,eInterpolationCubic
Y,25,-0.0,eInterpolationCubic
Y,25*,-0.0,eInterpolationCubic
Y,26,-0.0,eInterpolationCubic
Y,26*,-0.0,eInterpolationCubic
Y,27,-0.0,eInterpolationCubic
Y,27*,-0.0,eInterpolationCubic
Y,28,-0.0,eInterpolationCubic
Y,28*,-0.0,eInterpolationCubic
Y,29,-0.0,eInterpolationCubic
Y,29*,-0.0,eInterpolationCubic
Y,30,-0.0,eInterpolationCubic
Y,30*,-0.0,eInterpolationCubic
Y,31,-0.0,eInterpolationCubic
Y,31*,-0.0,eInterpolationCubic
Y,32,-0.0,eInterpolationCubic
Y,32*,-0.0,eInterpolationCubic
Y,33,-0.0,eInterpolationCubic
Y,33*,-0.0,eInterpolationCubic
Y,34,-0.0,eInterpolationCubic
Y,34*,-0.0,eInterpolationCubic
Y,35,-0.0,eInterpolationCubic
Y,35*,-0.0,eInterpolationConstant
Z,0,0.0,eInterpolationCubic
Z,0*,0.0,eInterpolationCubic
Z,1,0.0,eInterpolationCubic
Z,1*,0.0,eInterpolationCubic
Z,2,0.0,eInterpolationCubic
Z,2*,0.0,eInterpolationCubic
Z,3,0.0,eInterpolationCubic
Z,3*,0.0,eInterpolationCubic
Z,4,0.0,eInterpolationCubic
Z,4*,0.0,eInterpolationCubic
Z,5,0.0,eInterpolationCubic
Z,5*,0.0,eInterpolationCubic
Z,6,0.0,eInterpolationCubic
Z,6*,0.0,eInterpolationCubic
Z,7,0.0,eInterpolationCubic
Z,7*,0.0,eInterpolationCubic
Z,8,0.0,eInterpolationCubic
Z,8*,0.0,eInterpolationCubic
Z,9,0.0,eInterpolationCubic
Z,9*,0.0,eInterpolationCubic
Z,10,0.0,eInterpolationCubic
Z,10*,0.0,eInterpolationCubic
Z,11,0.0,eInterpolationCubic
Z,11*,0.0,eInterpolationCubic
Z,12,0.0,eInterpolationCubic
Z,12*,0.0,eInterpolationCubic
Z,13,0.0,eInterpolationCubic
Z,13*,0.0,eInterpolationCubic
Z,14,0.0,eInterpolationCubic
Z,14*,0.0,eInterpolationCubic
Z,15,0.0,eInterpolationCubic
Z,15*,0.0,eInterpolationCubic
Z,16,0.0,eInterpolationCubic
Z,16*,0.0,eInterpolationCubic
Z,17,0.0,eInterpolationCubic
Z,17*,0.0,eInterpolationCubic
Z,18,0.0,eInterpolationCubic
Z,18*,0.0,eInterpolationCubic
Z,19,0.0,eInterpolationCubic
Z,19*,0.0,eInterpolationCubic
Z,20,0.0,eInterpolationCubic
Z,20*,0.0,eInterpolationCubic
Z,21,0.0,eInterpolationCubic
Z,21*,0.0,eInterpolationCubic
Z,22,0.0,eInterpolationCubic
Z,22*,0.0,eInterpolationCubic
Z,23,0.0,eInterpolationCubic
Z,23*,0.0,eInterpolationCubic
Z,24,0.0,eInterpolationCubic
Z,24*,0.0,eInterpolationCubic
Z,25,0.0,eInterpolationCubic
Z,25*,0.0,eInterpolationCubic
Z,26,0.0,eInterpolationCubic
Z,26*,0.0,eInterpolationCubic
Z,27,0.0,eInterpolationCubic
Z,27*,0.0,eInterpolationCubic
Z,28,0.0,eInterpolationCubic
Z,28*,0.0,eInterpolationCubic
Z,29,0.0,eInterpolationCubic
Z,29*,0.0,eInterpolationCubic
Z,30,0.0,eInterpolationCubic
Z,30*,0.0,eInterpolationCubic
Z,31,0.0,eInterpolationCubic
Z,31*,0.0,eInterpolationCubic
Z,32,0.0,eInterpolationCubic
Z,32*,0.0,eInterpolationCubic
Z,33,0.0,eInterpolationCubic
Z,33*,0.0,eInterpolationCubic
Z,34,0.0,eInterpolationCubic
Z,34*,0.0,eInterpolationCubic
Z,35,0.0,eInterpolationCubic
Z,35*,0.0,eInterpolationConstant
