Axis,KeyFrame,Value,InterpolationType
X,0,0.0,eInterpolationCubic
X,0*,0.0,eInterpolationCubic
X,1,0.0,eInterpolationCubic
X,1*,0.0,eInterpolationCubic
X,2,0.0,eInterpolationCubic
X,2*,0.0,eInterpolationCubic
X,3,0.0,eInterpolationCubic
X,3*,0.0,eInterpolationCubic
X,4,0.0,eInterpolationCubic
X,4*,0.0,eInterpolationCubic
X,5,0.0,eInterpolationCubic
X,5*,0.0,eInterpolationCubic
X,6,0.0,eInterpolationCubic
X,6*,0.0,eInterpolationCubic
X,7,0.0,eInterpolationCubic
X,7*,0.0,eInterpolationCubic
X,8,0.0,eInterpolationCubic
X,8*,0.0,eInterpolationCubic
X,9,0.0,eInterpolationCubic
X,9*,0.0,eInterpolationCubic
X,10,0.0,eInterpolationCubic
X,10*,0.0,eInterpolationCubic
X,11,0.0,eInterpolationCubic
X,11*,0.0,eInterpolationCubic
X,12,0.0,eInterpolationCubic
X,12*,0.0,eInterpolationCubic
X,13,0.0,eInterpolationCubic
X,13*,0.0,eInterpolationCubic
X,14,0.0,eInterpolationCubic
X,14*,0.0,eInterpolationCubic
X,15,0.0,eInterpolationCubic
X,15*,0.0,eInterpolationCubic
X,16,0.0,eInterpolationCubic
X,16*,0.0,eInterpolationCubic
X,17,0.0,eInterpolationCubic
X,17*,0.0,eInterpolationCubic
X,18,0.0,eInterpolationCubic
X,18*,0.0,eInterpolationCubic
X,19,0.0,eInterpolationCubic
X,19*,0.0,eInterpolationCubic
X,20,0.0,eInterpolationCubic
X,20*,0.0,eInterpolationCubic
X,21,0.0,eInterpolationCubic
X,21*,0.0,eInterpolationCubic
X,22,0.0,eInterpolationCubic
X,22*,0.0,eInterpolationCubic
X,23,0.0,eInterpolationCubic
X,23*,0.0,eInterpolationCubic
X,24,0.0,eInterpolationCubic
X,24*,0.0,eInterpolationCubic
X,25,0.0,eInterpolationCubic
X,25*,0.0,eInterpolationCubic
X,26,0.0,eInterpolationCubic
X,26*,0.0,eInterpolationCubic
X,27,0.0,eInterpolationCubic
X,27*,0.0,eInterpolationCubic
X,28,0.0,eInterpolationCubic
X,28*,0.0,eInterpolationCubic
X,29,0.0,eInterpolationCubic
X,29*,0.0,eInterpolationCubic
X,30,0.0,eInterpolationCubic
X,30*,0.0,eInterpolationCubic
X,31,0.0,eInterpolationCubic
X,31*,0.0,eInterpolationCubic
X,32,0.0,eInterpolationCubic
X,32*,0.0,eInterpolationCubic
X,33,0.0,eInterpolationCubic
X,33*,0.0,eInterpolationCubic
X,34,0.0,eInterpolationCubic
X,34*,0.0,eInterpolationCubic
X,35,0.0,eInterpolationCubic
X,35*,0.0,eInterpolationCubic
X,36,0.0,eInterpolationCubic
X,36*,0.0,eInterpolationCubic
X,37,0.0,eInterpolationCubic
X,37*,0.0,eInterpolationCubic
X,38,0.0,eInterpolationCubic
X,38*,0.0,eInterpolationCubic
X,39,0.0,eInterpolationCubic
X,39*,0.0,eInterpolationCubic
X,40,0.0,eInterpolationCubic
X,40*,0.0,eInterpolationCubic
X,41,0.0,eInterpolationCubic
X,41*,0.0,eInterpolationCubic
X,42,0.0,eInterpolationCubic
X,42*,0.0,eInterpolationCubic
X,43,0.0,eInterpolationCubic
X,43*,0.0,eInterpolationCubic
X,44,0.0,eInterpolationCubic
X,44*,0.0,eInterpolationCubic
X,45,0.0,eInterpolationCubic
X,45*,0.0,eInterpolationCubic
X,46,0.0,eInterpolationCubic
X,46*,0.0,eInterpolationCubic
X,47,0.0,eInterpolationCubic
X,47*,0.0,eInterpolationCubic
X,48,0.0,eInterpolationCubic
X,48*,0.0,eInterpolationCubic
X,49,0.0,eInterpolationCubic
X,49*,0.0,eInterpolationCubic
X,50,0.0,eInterpolationCubic
X,50*,0.0,eInterpolationCubic
X,51,0.0,eInterpolationCubic
X,51*,0.0,eInterpolationCubic
X,52,0.0,eInterpolationCubic
X,52*,0.0,eInterpolationCubic
X,53,0.0,eInterpolationCubic
X,53*,0.0,eInterpolationCubic
X,54,0.0,eInterpolationCubic
X,54*,0.0,eInterpolationCubic
X,55,0.0,eInterpolationCubic
X,55*,0.0,eInterpolationCubic
X,56,0.0,eInterpolationCubic
X,56*,0.0,eInterpolationCubic
X,57,0.0,eInterpolationCubic
X,57*,0.0,eInterpolationCubic
X,58,0.0,eInterpolationCubic
X,58*,0.0,eInterpolationCubic
X,59,0.0,eInterpolationCubic
X,59*,0.0,eInterpolationCubic
X,60,0.0,eInterpolationCubic
X,60*,0.0,eInterpolationCubic
X,61,0.0,eInterpolationCubic
X,61*,0.0,eInterpolationCubic
X,62,0.0,eInterpolationCubic
X,62*,0.0,eInterpolationCubic
X,63,0.0,eInterpolationCubic
X,63*,0.0,eInterpolationCubic
X,64,0.0,eInterpolationCubic
X,64*,0.0,eInterpolationCubic
X,65,0.0,eInterpolationCubic
X,65*,0.0,eInterpolationCubic
X,66,0.0,eInterpolationCubic
X,66*,0.0,eInterpolationCubic
X,67,0.0,eInterpolationCubic
X,67*,0.0,eInterpolationCubic
X,68,0.0,eInterpolationCubic
X,68*,0.0,eInterpolationCubic
X,69,0.0,eInterpolationCubic
X,69*,0.0,eInterpolationCubic
X,70,0.0,eInterpolationCubic
X,70*,0.0,eInterpolationCubic
X,71,0.0,eInterpolationCubic
X,71*,0.0,eInterpolationCubic
X,72,0.0,eInterpolationCubic
X,72*,0.0,eInterpolationCubic
X,73,0.0,eInterpolationCubic
X,73*,0.0,eInterpolationCubic
X,74,0.0,eInterpolationCubic
X,74*,0.0,eInterpolationCubic
X,75,0.0,eInterpolationCubic
X,75*,0.0,eInterpolationCubic
X,76,0.0,eInterpolationCubic
X,76*,0.0,eInterpolationCubic
X,77,0.0,eInterpolationCubic
X,77*,0.0,eInterpolationCubic
X,78,0.0,eInterpolationCubic
X,78*,0.0,eInterpolationCubic
X,79,0.0,eInterpolationCubic
X,79*,0.0,eInterpolationCubic
X,80,0.0,eInterpolationCubic
X,80*,0.0,eInterpolationConstant
Y,0,0.00021021178690716624,eInterpolationCubic
Y,0*,-0.059214893728494644,eInterpolationCubic
Y,1,-0.23754684627056122,eInterpolationCubic
Y,1*,-0.5348706245422363,eInterpolationCubic
Y,2,-0.951271116733551,eInterpolationCubic
Y,2*,-1.4868333339691162,eInterpolationCubic
Y,3,-2.1416420936584473,eInterpolationCubic
Y,3*,-2.9157824516296387,eInterpolationCubic
Y,4,-3.809339761734009,eInterpolationCubic
Y,4*,-4.8223981857299805,eInterpolationCubic
Y,5,-5.955043315887451,eInterpolationCubic
Y,5*,-7.207359313964844,eInterpolationCubic
Y,6,-8.579432487487793,eInterpolationCubic
Y,6*,-10.071346282958984,eInterpolationCubic
Y,7,-11.683186531066895,eInterpolationCubic
Y,7*,-13.4150390625,eInterpolationCubic
Y,8,-15.266985893249512,eInterpolationCubic
Y,8*,-17.23911476135254,eInterpolationCubic
Y,9,-19.331510543823242,eInterpolationCubic
Y,9*,-21.54425621032715,eInterpolationCubic
Y,10,-23.877437591552734,eInterpolationCubic
Y,10*,-27.580581665039062,eInterpolationCubic
Y,11,-33.38851547241211,eInterpolationCubic
Y,11*,-40.52928161621094,eInterpolationCubic
Y,12,-48.23090744018555,eInterpolationCubic
Y,12*,-55.7214469909668,eInterpolationCubic
Y,13,-62.22892761230469,eInterpolationCubic
Y,13*,-67.77771759033203,eInterpolationCubic
Y,14,-72.91799926757812,eInterpolationCubic
Y,14*,-77.66653442382812,eInterpolationCubic
Y,15,-82.04007720947266,eInterpolationCubic
Y,15*,-86.05538940429688,eInterpolationCubic
Y,16,-89.7292251586914,eInterpolationCubic
Y,16*,-93.07833862304688,eInterpolationCubic
Y,17,-96.11949157714844,eInterpolationCubic
Y,17*,-98.86943817138672,eInterpolationCubic
Y,18,-101.34494018554688,eInterpolationCubic
Y,18*,-103.56275939941406,eInterpolationCubic
Y,19,-105.5396499633789,eInterpolationCubic
Y,19*,-107.2923583984375,eInterpolationCubic
Y,20,-108.8376693725586,eInterpolationCubic
Y,20*,-110.19231414794922,eInterpolationCubic
Y,21,-111.40336608886719,eInterpolationCubic
Y,21*,-112.51024627685547,eInterpolationCubic
Y,22,-113.51830291748047,eInterpolationCubic
Y,22*,-114.43284606933594,eInterpolationCubic
Y,23,-115.25921630859375,eInterpolationCubic
Y,23*,-116.00272369384766,eInterpolationCubic
Y,24,-116.66870880126953,eInterpolationCubic
Y,24*,-117.26249694824219,eInterpolationCubic
Y,25,-117.78941345214844,eInterpolationCubic
Y,25*,-118.2547836303711,eInterpolationCubic
Y,26,-118.66393280029297,eInterpolationCubic
Y,26*,-119.0221939086914,eInterpolationCubic
Y,27,-119.33489227294922,eInterpolationCubic
Y,27*,-119.60735321044922,eInterpolationCubic
Y,28,-119.84490966796875,eInterpolationCubic
Y,28*,-120.05287170410156,eInterpolationCubic
Y,29,-120.23658752441406,eInterpolationCubic
Y,29*,-120.40137481689453,eInterpolationCubic
Y,30,-120.55255126953125,eInterpolationCubic
Y,30*,-120.6954574584961,eInterpolationCubic
Y,31,-120.83541870117188,eInterpolationCubic
Y,31*,-120.97775268554688,eInterpolationCubic
Y,32,-121.12779998779297,eInterpolationCubic
Y,32*,-121.29087829589844,eInterpolationCubic
Y,33,-121.4723129272461,eInterpolationCubic
Y,33*,-121.67743682861328,eInterpolationCubic
Y,34,-121.91157531738281,eInterpolationCubic
Y,34*,-122.18006134033203,eInterpolationCubic
Y,35,-122.48820495605469,eInterpolationCubic
Y,35*,-122.84135437011719,eInterpolationCubic
Y,36,-123.21511840820312,eInterpolationCubic
Y,36*,-123.58161926269531,eInterpolationCubic
Y,37,-123.94092559814453,eInterpolationCubic
Y,37*,-124.2931137084961,eInterpolationCubic
Y,38,-124.63825225830078,eInterpolationCubic
Y,38*,-124.97639465332031,eInterpolationCubic
Y,39,-125.3076400756836,eInterpolationCubic
Y,39*,-125.63202667236328,eInterpolationCubic
Y,40,-125.94965362548828,eInterpolationCubic
Y,40*,-126.26055908203125,eInterpolationCubic
Y,41,-126.56483459472656,eInterpolationCubic
Y,41*,-126.86254119873047,eInterpolationCubic
Y,42,-127.15375518798828,eInterpolationCubic
Y,42*,-127.43854522705078,eInterpolationCubic
Y,43,-127.71696472167969,eInterpolationCubic
Y,43*,-127.98908996582031,eInterpolationCubic
Y,44,-128.2550048828125,eInterpolationCubic
Y,44*,-128.5147705078125,eInterpolationCubic
Y,45,-128.76844787597656,eInterpolationCubic
Y,45*,-129.01614379882812,eInterpolationCubic
Y,46,-129.25787353515625,eInterpolationCubic
Y,46*,-129.4937286376953,eInterpolationCubic
Y,47,-129.72378540039062,eInterpolationCubic
Y,47*,-129.94810485839844,eInterpolationCubic
Y,48,-130.166748046875,eInterpolationCubic
Y,48*,-130.37982177734375,eInterpolationCubic
Y,49,-130.5873565673828,eInterpolationCubic
Y,49*,-130.78944396972656,eInterpolationCubic
Y,50,-130.9861297607422,eInterpolationCubic
Y,50*,-131.17752075195312,eInterpolationCubic
Y,51,-131.3636474609375,eInterpolationCubic
Y,51*,-131.54458618164062,eInterpolationCubic
Y,52,-131.72044372558594,eInterpolationCubic
Y,52*,-131.89125061035156,eInterpolationCubic
Y,53,-132.0570831298828,eInterpolationCubic
Y,53*,-132.21803283691406,eInterpolationCubic
Y,54,-132.37411499023438,eInterpolationCubic
Y,54*,-132.5254669189453,eInterpolationCubic
Y,55,-132.672119140625,eInterpolationCubic
Y,55*,-132.81414794921875,eInterpolationCubic
Y,56,-132.9516143798828,eInterpolationCubic
Y,56*,-133.08460998535156,eInterpolationCubic
Y,57,-133.21319580078125,eInterpolationCubic
Y,57*,-133.33741760253906,eInterpolationCubic
Y,58,-133.45736694335938,eInterpolationCubic
Y,58*,-133.57313537597656,eInterpolationCubic
Y,59,-133.68475341796875,eInterpolationCubic
Y,59*,-133.79229736328125,eInterpolationCubic
Y,60,-133.8958282470703,eInterpolationCubic
Y,60*,-133.99545288085938,eInterpolationCubic
Y,61,-134.09121704101562,eInterpolationCubic
Y,61*,-134.18319702148438,eInterpolationCubic
Y,62,-134.2714385986328,eInterpolationCubic
Y,62*,-134.35604858398438,eInterpolationCubic
Y,63,-134.4370880126953,eInterpolationCubic
Y,63*,-134.5145721435547,eInterpolationCubic
Y,64,-134.58865356445312,eInterpolationCubic
Y,64*,-134.6593475341797,eInterpolationCubic
Y,65,-134.72674560546875,eInterpolationCubic
Y,65*,-134.7908935546875,eInterpolationCubic
Y,66,-134.85189819335938,eInterpolationCubic
Y,66*,-134.90980529785156,eInterpolationCubic
Y,67,-134.9646759033203,eInterpolationCubic
Y,67*,-135.01658630371094,eInterpolationCubic
Y,68,-135.0656280517578,eInterpolationCubic
Y,68*,-135.11183166503906,eInterpolationCubic
Y,69,-135.1553192138672,eInterpolationCubic
Y,69*,-135.1960906982422,eInterpolationCubic
Y,70,-135.23426818847656,eInterpolationCubic
Y,70*,-135.26991271972656,eInterpolationCubic
Y,71,-135.30308532714844,eInterpolationCubic
Y,71*,-135.33384704589844,eInterpolationCubic
Y,72,-135.3623046875,eInterpolationCubic
Y,72*,-135.3884735107422,eInterpolationCubic
Y,73,-135.41244506835938,eInterpolationCubic
Y,73*,-135.434326171875,eInterpolationCubic
Y,74,-135.45413208007812,eInterpolationCubic
Y,74*,-135.47195434570312,eInterpolationCubic
Y,75,-135.4878692626953,eInterpolationCubic
Y,75*,-135.50193786621094,eInterpolationCubic
Y,76,-135.51422119140625,eInterpolationCubic
Y,76*,-135.52481079101562,eInterpolationCubic
Y,77,-135.5337677001953,eInterpolationCubic
Y,77*,-135.5411376953125,eInterpolationCubic
Y,78,-135.54702758789062,eInterpolationCubic
Y,78*,-135.5514678955078,eInterpolationCubic
Y,79,-135.55458068847656,eInterpolationCubic
Y,79*,-135.55638122558594,eInterpolationCubic
Y,80,-135.5569610595703,eInterpolationCubic
Y,80*,-135.5569610595703,eInterpolationConstant
Z,0,0.0,eInterpolationCubic
Z,0*,0.0,eInterpolationCubic
Z,1,0.0,eInterpolationCubic
Z,1*,0.0,eInterpolationCubic
Z,2,0.0,eInterpolationCubic
Z,2*,0.0,eInterpolationCubic
Z,3,0.0,eInterpolationCubic
Z,3*,0.0,eInterpolationCubic
Z,4,0.0,eInterpolationCubic
Z,4*,0.0,eInterpolationCubic
Z,5,0.0,eInterpolationCubic
Z,5*,0.0,eInterpolationCubic
Z,6,0.0,eInterpolationCubic
Z,6*,0.0,eInterpolationCubic
Z,7,0.0,eInterpolationCubic
Z,7*,0.0,eInterpolationCubic
Z,8,0.0,eInterpolationCubic
Z,8*,0.0,eInterpolationCubic
Z,9,0.0,eInterpolationCubic
Z,9*,0.0,eInterpolationCubic
Z,10,0.0,eInterpolationCubic
Z,10*,0.0,eInterpolationCubic
Z,11,0.0,eInterpolationCubic
Z,11*,0.0,eInterpolationCubic
Z,12,0.0,eInterpolationCubic
Z,12*,0.0,eInterpolationCubic
Z,13,0.0,eInterpolationCubic
Z,13*,0.0,eInterpolationCubic
Z,14,0.0,eInterpolationCubic
Z,14*,0.0,eInterpolationCubic
Z,15,0.0,eInterpolationCubic
Z,15*,0.0,eInterpolationCubic
Z,16,0.0,eInterpolationCubic
Z,16*,0.0,eInterpolationCubic
Z,17,0.0,eInterpolationCubic
Z,17*,0.0,eInterpolationCubic
Z,18,0.0,eInterpolationCubic
Z,18*,0.0,eInterpolationCubic
Z,19,0.0,eInterpolationCubic
Z,19*,0.0,eInterpolationCubic
Z,20,0.0,eInterpolationCubic
Z,20*,0.0,eInterpolationCubic
Z,21,0.0,eInterpolationCubic
Z,21*,0.0,eInterpolationCubic
Z,22,0.0,eInterpolationCubic
Z,22*,0.0,eInterpolationCubic
Z,23,0.0,eInterpolationCubic
Z,23*,0.0,eInterpolationCubic
Z,24,0.0,eInterpolationCubic
Z,24*,0.0,eInterpolationCubic
Z,25,0.0,eInterpolationCubic
Z,25*,0.0,eInterpolationCubic
Z,26,0.0,eInterpolationCubic
Z,26*,0.0,eInterpolationCubic
Z,27,0.0,eInterpolationCubic
Z,27*,0.0,eInterpolationCubic
Z,28,0.0,eInterpolationCubic
Z,28*,0.0,eInterpolationCubic
Z,29,0.0,eInterpolationCubic
Z,29*,0.0,eInterpolationCubic
Z,30,0.0,eInterpolationCubic
Z,30*,0.0,eInterpolationCubic
Z,31,0.0,eInterpolationCubic
Z,31*,0.0,eInterpolationCubic
Z,32,0.0,eInterpolationCubic
Z,32*,0.0,eInterpolationCubic
Z,33,0.0,eInterpolationCubic
Z,33*,0.0,eInterpolationCubic
Z,34,0.0,eInterpolationCubic
Z,34*,0.0,eInterpolationCubic
Z,35,0.0,eInterpolationCubic
Z,35*,0.0,eInterpolationCubic
Z,36,0.0,eInterpolationCubic
Z,36*,0.0,eInterpolationCubic
Z,37,0.0,eInterpolationCubic
Z,37*,0.0,eInterpolationCubic
Z,38,0.0,eInterpolationCubic
Z,38*,0.0,eInterpolationCubic
Z,39,0.0,eInterpolationCubic
Z,39*,0.0,eInterpolationCubic
Z,40,0.0,eInterpolationCubic
Z,40*,0.0,eInterpolationCubic
Z,41,0.0,eInterpolationCubic
Z,41*,0.0,eInterpolationCubic
Z,42,0.0,eInterpolationCubic
Z,42*,0.0,eInterpolationCubic
Z,43,0.0,eInterpolationCubic
Z,43*,0.0,eInterpolationCubic
Z,44,0.0,eInterpolationCubic
Z,44*,0.0,eInterpolationCubic
Z,45,0.0,eInterpolationCubic
Z,45*,0.0,eInterpolationCubic
Z,46,0.0,eInterpolationCubic
Z,46*,0.0,eInterpolationCubic
Z,47,0.0,eInterpolationCubic
Z,47*,0.0,eInterpolationCubic
Z,48,0.0,eInterpolationCubic
Z,48*,0.0,eInterpolationCubic
Z,49,0.0,eInterpolationCubic
Z,49*,0.0,eInterpolationCubic
Z,50,0.0,eInterpolationCubic
Z,50*,0.0,eInterpolationCubic
Z,51,0.0,eInterpolationCubic
Z,51*,0.0,eInterpolationCubic
Z,52,0.0,eInterpolationCubic
Z,52*,0.0,eInterpolationCubic
Z,53,0.0,eInterpolationCubic
Z,53*,0.0,eInterpolationCubic
Z,54,0.0,eInterpolationCubic
Z,54*,0.0,eInterpolationCubic
Z,55,0.0,eInterpolationCubic
Z,55*,0.0,eInterpolationCubic
Z,56,0.0,eInterpolationCubic
Z,56*,0.0,eInterpolationCubic
Z,57,0.0,eInterpolationCubic
Z,57*,0.0,eInterpolationCubic
Z,58,0.0,eInterpolationCubic
Z,58*,0.0,eInterpolationCubic
Z,59,0.0,eInterpolationCubic
Z,59*,0.0,eInterpolationCubic
Z,60,0.0,eInterpolationCubic
Z,60*,0.0,eInterpolationCubic
Z,61,0.0,eInterpolationCubic
Z,61*,0.0,eInterpolationCubic
Z,62,0.0,eInterpolationCubic
Z,62*,0.0,eInterpolationCubic
Z,63,0.0,eInterpolationCubic
Z,63*,0.0,eInterpolationCubic
Z,64,0.0,eInterpolationCubic
Z,64*,0.0,eInterpolationCubic
Z,65,0.0,eInterpolationCubic
Z,65*,0.0,eInterpolationCubic
Z,66,0.0,eInterpolationCubic
Z,66*,0.0,eInterpolationCubic
Z,67,0.0,eInterpolationCubic
Z,67*,0.0,eInterpolationCubic
Z,68,0.0,eInterpolationCubic
Z,68*,0.0,eInterpolationCubic
Z,69,0.0,eInterpolationCubic
Z,69*,0.0,eInterpolationCubic
Z,70,0.0,eInterpolationCubic
Z,70*,0.0,eInterpolationCubic
Z,71,0.0,eInterpolationCubic
Z,71*,0.0,eInterpolationCubic
Z,72,0.0,eInterpolationCubic
Z,72*,0.0,eInterpolationCubic
Z,73,0.0,eInterpolationCubic
Z,73*,0.0,eInterpolationCubic
Z,74,0.0,eInterpolationCubic
Z,74*,0.0,eInterpolationCubic
Z,75,0.0,eInterpolationCubic
Z,75*,0.0,eInterpolationCubic
Z,76,0.0,eInterpolationCubic
Z,76*,0.0,eInterpolationCubic
Z,77,0.0,eInterpolationCubic
Z,77*,0.0,eInterpolationCubic
Z,78,0.0,eInterpolationCubic
Z,78*,0.0,eInterpolationCubic
Z,79,0.0,eInterpolationCubic
Z,79*,0.0,eInterpolationCubic
Z,80,0.0,eInterpolationCubic
Z,80*,0.0,eInterpolationConstant
