Axis,KeyFrame,Value,InterpolationType
X,0,0.0,eInterpolationCubic
X,0*,0.0,eInterpolationCubic
X,1,0.0,eInterpolationCubic
X,1*,0.0,eInterpolationCubic
X,2,0.0,eInterpolationCubic
X,2*,0.0,eInterpolationCubic
X,3,0.0,eInterpolationCubic
X,3*,0.0,eInterpolationCubic
X,4,0.0,eInterpolationCubic
X,4*,0.0,eInterpolationCubic
X,5,0.0,eInterpolationCubic
X,5*,0.0,eInterpolationCubic
X,6,0.0,eInterpolationCubic
X,6*,0.0,eInterpolationCubic
X,7,0.0,eInterpolationCubic
X,7*,0.0,eInterpolationCubic
X,8,0.0,eInterpolationCubic
X,8*,0.0,eInterpolationCubic
X,9,0.0,eInterpolationCubic
X,9*,0.0,eInterpolationCubic
X,10,0.0,eInterpolationCubic
X,10*,0.0,eInterpolationCubic
X,11,0.0,eInterpolationCubic
X,11*,0.0,eInterpolationCubic
X,12,0.0,eInterpolationCubic
X,12*,0.0,eInterpolationCubic
X,13,0.0,eInterpolationCubic
X,13*,0.0,eInterpolationCubic
X,14,0.0,eInterpolationCubic
X,14*,0.0,eInterpolationCubic
X,15,0.0,eInterpolationCubic
X,15*,0.0,eInterpolationCubic
X,16,0.0,eInterpolationCubic
X,16*,0.0,eInterpolationCubic
X,17,0.0,eInterpolationCubic
X,17*,0.0,eInterpolationCubic
X,18,0.0,eInterpolationCubic
X,18*,0.0,eInterpolationCubic
X,19,0.0,eInterpolationCubic
X,19*,0.0,eInterpolationCubic
X,20,0.0,eInterpolationCubic
X,20*,0.0,eInterpolationCubic
X,21,0.0,eInterpolationCubic
X,21*,0.0,eInterpolationCubic
X,22,0.0,eInterpolationCubic
X,22*,0.0,eInterpolationCubic
X,23,0.0,eInterpolationCubic
X,23*,0.0,eInterpolationCubic
X,24,0.0,eInterpolationCubic
X,24*,0.0,eInterpolationCubic
X,25,0.0,eInterpolationCubic
X,25*,0.0,eInterpolationCubic
X,26,0.0,eInterpolationCubic
X,26*,0.0,eInterpolationCubic
X,27,0.0,eInterpolationCubic
X,27*,0.0,eInterpolationCubic
X,28,0.0,eInterpolationCubic
X,28*,0.0,eInterpolationCubic
X,29,0.0,eInterpolationCubic
X,29*,0.0,eInterpolationCubic
X,30,0.0,eInterpolationCubic
X,30*,0.0,eInterpolationCubic
X,31,0.0,eInterpolationCubic
X,31*,0.0,eInterpolationCubic
X,32,0.0,eInterpolationCubic
X,32*,0.0,eInterpolationCubic
X,33,0.0,eInterpolationCubic
X,33*,0.0,eInterpolationCubic
X,34,0.0,eInterpolationCubic
X,34*,0.0,eInterpolationCubic
X,35,0.0,eInterpolationCubic
X,35*,0.0,eInterpolationCubic
X,36,0.0,eInterpolationCubic
X,36*,0.0,eInterpolationCubic
X,37,0.0,eInterpolationCubic
X,37*,0.0,eInterpolationCubic
X,38,0.0,eInterpolationCubic
X,38*,0.0,eInterpolationCubic
X,39,0.0,eInterpolationCubic
X,39*,0.0,eInterpolationCubic
X,40,0.0,eInterpolationCubic
X,40*,0.0,eInterpolationCubic
X,41,0.0,eInterpolationCubic
X,41*,0.0,eInterpolationCubic
X,42,0.0,eInterpolationCubic
X,42*,0.0,eInterpolationCubic
X,43,0.0,eInterpolationCubic
X,43*,0.0,eInterpolationCubic
X,44,0.0,eInterpolationCubic
X,44*,0.0,eInterpolationCubic
X,45,0.0,eInterpolationCubic
X,45*,0.0,eInterpolationCubic
X,46,0.0,eInterpolationCubic
X,46*,0.0,eInterpolationCubic
X,47,0.0,eInterpolationCubic
X,47*,0.0,eInterpolationCubic
X,48,0.0,eInterpolationCubic
X,48*,0.0,eInterpolationCubic
X,49,0.0,eInterpolationCubic
X,49*,0.0,eInterpolationCubic
X,50,0.0,eInterpolationCubic
X,50*,0.0,eInterpolationCubic
X,51,0.0,eInterpolationCubic
X,51*,0.0,eInterpolationCubic
X,52,0.0,eInterpolationCubic
X,52*,0.0,eInterpolationCubic
X,53,0.0,eInterpolationCubic
X,53*,0.0,eInterpolationCubic
X,54,0.0,eInterpolationCubic
X,54*,0.0,eInterpolationCubic
X,55,0.0,eInterpolationCubic
X,55*,0.0,eInterpolationConstant
Y,0,0.00019111984875053167,eInterpolationCubic
Y,0*,0.00569137092679739,eInterpolationCubic
Y,1,0.022057972848415375,eInterpolationCubic
Y,1*,0.049089692533016205,eInterpolationCubic
Y,2,0.08658530563116074,eInterpolationCubic
Y,2*,0.13434359431266785,eInterpolationCubic
Y,3,0.19216330349445343,eInterpolationCubic
Y,3*,0.25984323024749756,eInterpolationCubic
Y,4,0.33718210458755493,eInterpolationCubic
Y,4*,0.4239787459373474,eInterpolationCubic
Y,5,0.5200319290161133,eInterpolationCubic
Y,5*,0.625140368938446,eInterpolationCubic
Y,6,0.7391029000282288,eInterpolationCubic
Y,6*,0.8617182970046997,eInterpolationCubic
Y,7,0.9927851557731628,eInterpolationCubic
Y,7*,1.132102608680725,eInterpolationCubic
Y,8,1.2794690132141113,eInterpolationCubic
Y,8*,1.4346834421157837,eInterpolationCubic
Y,9,1.597544550895691,eInterpolationCubic
Y,9*,1.7678511142730713,eInterpolationCubic
Y,10,1.945401906967163,eInterpolationCubic
Y,10*,2.129995584487915,eInterpolationCubic
Y,11,2.3214313983917236,eInterpolationCubic
Y,11*,2.51950740814209,eInterpolationCubic
Y,12,2.72402286529541,eInterpolationCubic
Y,12*,2.9347763061523438,eInterpolationCubic
Y,13,3.151566743850708,eInterpolationCubic
Y,13*,3.374192714691162,eInterpolationCubic
Y,14,3.6024529933929443,eInterpolationCubic
Y,14*,3.836146831512451,eInterpolationCubic
Y,15,4.075072288513184,eInterpolationCubic
Y,15*,4.319028854370117,eInterpolationCubic
Y,16,4.567814350128174,eInterpolationCubic
Y,16*,4.82122802734375,eInterpolationCubic
Y,17,5.0790696144104,eInterpolationCubic
Y,17*,5.3411359786987305,eInterpolationCubic
Y,18,5.607227325439453,eInterpolationCubic
Y,18*,5.877142429351807,eInterpolationCubic
Y,19,6.150679588317871,eInterpolationCubic
Y,19*,6.427637100219727,eInterpolationCubic
Y,20,6.7078142166137695,eInterpolationCubic
Y,20*,6.9910101890563965,eInterpolationCubic
Y,21,7.2770233154296875,eInterpolationCubic
Y,21*,7.565652370452881,eInterpolationCubic
Y,22,7.856696128845215,eInterpolationCubic
Y,22*,8.149953842163086,eInterpolationCubic
Y,23,8.445222854614258,eInterpolationCubic
Y,23*,8.742302894592285,eInterpolationCubic
Y,24,9.040994644165039,eInterpolationCubic
Y,24*,9.341093063354492,eInterpolationCubic
Y,25,9.642399787902832,eInterpolationCubic
Y,25*,9.944711685180664,eInterpolationCubic
Y,26,10.24782943725586,eInterpolationCubic
Y,26*,10.55155086517334,eInterpolationCubic
Y,27,10.855674743652344,eInterpolationCubic
Y,27*,11.15999984741211,eInterpolationCubic
Y,28,11.464324951171875,eInterpolationCubic
Y,28*,11.768447875976562,eInterpolationCubic
Y,29,12.072168350219727,eInterpolationCubic
Y,29*,12.375286102294922,eInterpolationCubic
Y,30,12.67759895324707,eInterpolationCubic
Y,30*,12.97890567779541,eInterpolationCubic
Y,31,13.27900505065918,eInterpolationCubic
Y,31*,13.5776948928833,eInterpolationCubic
Y,32,13.874775886535645,eInterpolationCubic
Y,32*,14.170045852661133,eInterpolationCubic
Y,33,14.463302612304688,eInterpolationCubic
Y,33*,14.75434684753418,eInterpolationCubic
Y,34,15.042975425720215,eInterpolationCubic
Y,34*,15.328988075256348,eInterpolationCubic
Y,35,15.612183570861816,eInterpolationCubic
Y,35*,15.892361640930176,eInterpolationCubic
Y,36,16.16931915283203,eInterpolationCubic
Y,36*,16.442855834960938,eInterpolationCubic
Y,37,16.712770462036133,eInterpolationCubic
Y,37*,16.978862762451172,eInterpolationCubic
Y,38,17.240928649902344,eInterpolationCubic
Y,38*,17.498769760131836,eInterpolationCubic
Y,39,17.75218391418457,eInterpolationCubic
Y,39*,18.0009708404541,eInterpolationCubic
Y,40,18.24492645263672,eInterpolationCubic
Y,40*,18.48385238647461,eInterpolationCubic
Y,41,18.717546463012695,eInterpolationCubic
Y,41*,18.9458065032959,eInterpolationCubic
Y,42,19.168432235717773,eInterpolationCubic
Y,42*,19.385223388671875,eInterpolationCubic
Y,43,19.595975875854492,eInterpolationCubic
Y,43*,19.800491333007812,eInterpolationCubic
Y,44,19.998567581176758,eInterpolationCubic
Y,44*,20.19000244140625,eInterpolationCubic
Y,45,20.374595642089844,eInterpolationCubic
Y,45*,20.552146911621094,eInterpolationCubic
Y,46,20.722454071044922,eInterpolationCubic
Y,46*,20.88531494140625,eInterpolationCubic
Y,47,21.040531158447266,eInterpolationCubic
Y,47*,21.187896728515625,eInterpolationCubic
Y,48,21.327213287353516,eInterpolationCubic
Y,48*,21.45827865600586,eInterpolationCubic
Y,49,21.580896377563477,eInterpolationCubic
Y,49*,21.69485855102539,eInterpolationCubic
Y,50,21.79996681213379,eInterpolationCubic
Y,50*,21.896020889282227,eInterpolationCubic
Y,51,21.982816696166992,eInterpolationCubic
Y,51*,22.060155868530273,eInterpolationCubic
Y,52,22.127836227416992,eInterpolationCubic
Y,52*,22.18565559387207,eInterpolationCubic
Y,53,22.233413696289062,eInterpolationCubic
Y,53*,22.27090835571289,eInterpolationCubic
Y,54,22.297941207885742,eInterpolationCubic
Y,54*,22.314306259155273,eInterpolationCubic
Y,55,22.319808959960938,eInterpolationCubic
Y,55*,22.319808959960938,eInterpolationConstant
Z,0,0.0,eInterpolationCubic
Z,0*,0.0,eInterpolationCubic
Z,1,0.0,eInterpolationCubic
Z,1*,0.0,eInterpolationCubic
Z,2,0.0,eInterpolationCubic
Z,2*,0.0,eInterpolationCubic
Z,3,0.0,eInterpolationCubic
Z,3*,0.0,eInterpolationCubic
Z,4,0.0,eInterpolationCubic
Z,4*,0.0,eInterpolationCubic
Z,5,0.0,eInterpolationCubic
Z,5*,0.0,eInterpolationCubic
Z,6,0.0,eInterpolationCubic
Z,6*,0.0,eInterpolationCubic
Z,7,0.0,eInterpolationCubic
Z,7*,0.0,eInterpolationCubic
Z,8,0.0,eInterpolationCubic
Z,8*,0.0,eInterpolationCubic
Z,9,0.0,eInterpolationCubic
Z,9*,0.0,eInterpolationCubic
Z,10,0.0,eInterpolationCubic
Z,10*,0.0,eInterpolationCubic
Z,11,0.0,eInterpolationCubic
Z,11*,0.0,eInterpolationCubic
Z,12,0.0,eInterpolationCubic
Z,12*,0.0,eInterpolationCubic
Z,13,0.0,eInterpolationCubic
Z,13*,0.0,eInterpolationCubic
Z,14,0.0,eInterpolationCubic
Z,14*,0.0,eInterpolationCubic
Z,15,0.0,eInterpolationCubic
Z,15*,0.0,eInterpolationCubic
Z,16,0.0,eInterpolationCubic
Z,16*,0.0,eInterpolationCubic
Z,17,0.0,eInterpolationCubic
Z,17*,0.0,eInterpolationCubic
Z,18,0.0,eInterpolationCubic
Z,18*,0.0,eInterpolationCubic
Z,19,0.0,eInterpolationCubic
Z,19*,0.0,eInterpolationCubic
Z,20,0.0,eInterpolationCubic
Z,20*,0.0,eInterpolationCubic
Z,21,0.0,eInterpolationCubic
Z,21*,0.0,eInterpolationCubic
Z,22,0.0,eInterpolationCubic
Z,22*,0.0,eInterpolationCubic
Z,23,0.0,eInterpolationCubic
Z,23*,0.0,eInterpolationCubic
Z,24,0.0,eInterpolationCubic
Z,24*,0.0,eInterpolationCubic
Z,25,0.0,eInterpolationCubic
Z,25*,0.0,eInterpolationCubic
Z,26,0.0,eInterpolationCubic
Z,26*,0.0,eInterpolationCubic
Z,27,0.0,eInterpolationCubic
Z,27*,0.0,eInterpolationCubic
Z,28,0.0,eInterpolationCubic
Z,28*,0.0,eInterpolationCubic
Z,29,0.0,eInterpolationCubic
Z,29*,0.0,eInterpolationCubic
Z,30,0.0,eInterpolationCubic
Z,30*,0.0,eInterpolationCubic
Z,31,0.0,eInterpolationCubic
Z,31*,0.0,eInterpolationCubic
Z,32,0.0,eInterpolationCubic
Z,32*,0.0,eInterpolationCubic
Z,33,0.0,eInterpolationCubic
Z,33*,0.0,eInterpolationCubic
Z,34,0.0,eInterpolationCubic
Z,34*,0.0,eInterpolationCubic
Z,35,0.0,eInterpolationCubic
Z,35*,0.0,eInterpolationCubic
Z,36,0.0,eInterpolationCubic
Z,36*,0.0,eInterpolationCubic
Z,37,0.0,eInterpolationCubic
Z,37*,0.0,eInterpolationCubic
Z,38,0.0,eInterpolationCubic
Z,38*,0.0,eInterpolationCubic
Z,39,0.0,eInterpolationCubic
Z,39*,0.0,eInterpolationCubic
Z,40,0.0,eInterpolationCubic
Z,40*,0.0,eInterpolationCubic
Z,41,0.0,eInterpolationCubic
Z,41*,0.0,eInterpolationCubic
Z,42,0.0,eInterpolationCubic
Z,42*,0.0,eInterpolationCubic
Z,43,0.0,eInterpolationCubic
Z,43*,0.0,eInterpolationCubic
Z,44,0.0,eInterpolationCubic
Z,44*,0.0,eInterpolationCubic
Z,45,0.0,eInterpolationCubic
Z,45*,0.0,eInterpolationCubic
Z,46,0.0,eInterpolationCubic
Z,46*,0.0,eInterpolationCubic
Z,47,0.0,eInterpolationCubic
Z,47*,0.0,eInterpolationCubic
Z,48,0.0,eInterpolationCubic
Z,48*,0.0,eInterpolationCubic
Z,49,0.0,eInterpolationCubic
Z,49*,0.0,eInterpolationCubic
Z,50,0.0,eInterpolationCubic
Z,50*,0.0,eInterpolationCubic
Z,51,0.0,eInterpolationCubic
Z,51*,0.0,eInterpolationCubic
Z,52,0.0,eInterpolationCubic
Z,52*,0.0,eInterpolationCubic
Z,53,0.0,eInterpolationCubic
Z,53*,0.0,eInterpolationCubic
Z,54,0.0,eInterpolationCubic
Z,54*,0.0,eInterpolationCubic
Z,55,0.0,eInterpolationCubic
Z,55*,0.0,eInterpolationConstant
