Axis,KeyFrame,Value,InterpolationType
X,0,0.0,eInterpolationCubic
X,0*,0.0,eInterpolationCubic
X,1,0.0,eInterpolationCubic
X,1*,0.0,eInterpolationCubic
X,2,0.0,eInterpolationCubic
X,2*,0.0,eInterpolationCubic
X,3,0.0,eInterpolationCubic
X,3*,0.0,eInterpolationCubic
X,4,0.0,eInterpolationCubic
X,4*,0.0,eInterpolationCubic
X,5,0.0,eInterpolationCubic
X,5*,0.0,eInterpolationCubic
X,6,0.0,eInterpolationCubic
X,6*,0.0,eInterpolationCubic
X,7,0.0,eInterpolationCubic
X,7*,0.0,eInterpolationCubic
X,8,0.0,eInterpolationCubic
X,8*,0.0,eInterpolationCubic
X,9,0.0,eInterpolationCubic
X,9*,0.0,eInterpolationCubic
X,10,0.0,eInterpolationCubic
X,10*,0.0,eInterpolationCubic
X,11,0.0,eInterpolationCubic
X,11*,0.0,eInterpolationCubic
X,12,0.0,eInterpolationCubic
X,12*,0.0,eInterpolationCubic
X,13,0.0,eInterpolationCubic
X,13*,0.0,eInterpolationCubic
X,14,0.0,eInterpolationCubic
X,14*,0.0,eInterpolationCubic
X,15,0.0,eInterpolationCubic
X,15*,0.0,eInterpolationCubic
X,16,0.0,eInterpolationCubic
X,16*,0.0,eInterpolationCubic
X,17,0.0,eInterpolationCubic
X,17*,0.0,eInterpolationCubic
X,18,0.0,eInterpolationCubic
X,18*,0.0,eInterpolationCubic
X,19,0.0,eInterpolationCubic
X,19*,0.0,eInterpolationCubic
X,20,0.0,eInterpolationCubic
X,20*,0.0,eInterpolationCubic
X,21,0.0,eInterpolationCubic
X,21*,0.0,eInterpolationCubic
X,22,0.0,eInterpolationCubic
X,22*,0.0,eInterpolationCubic
X,23,0.0,eInterpolationCubic
X,23*,0.0,eInterpolationCubic
X,24,0.0,eInterpolationCubic
X,24*,0.0,eInterpolationCubic
X,25,0.0,eInterpolationCubic
X,25*,0.0,eInterpolationCubic
X,26,0.0,eInterpolationCubic
X,26*,0.0,eInterpolationCubic
X,27,0.0,eInterpolationCubic
X,27*,0.0,eInterpolationCubic
X,28,0.0,eInterpolationCubic
X,28*,0.0,eInterpolationCubic
X,29,0.0,eInterpolationCubic
X,29*,0.0,eInterpolationCubic
X,30,0.0,eInterpolationCubic
X,30*,0.0,eInterpolationCubic
X,31,0.0,eInterpolationCubic
X,31*,0.0,eInterpolationCubic
X,32,0.0,eInterpolationCubic
X,32*,0.0,eInterpolationCubic
X,33,0.0,eInterpolationCubic
X,33*,0.0,eInterpolationCubic
X,34,0.0,eInterpolationCubic
X,34*,0.0,eInterpolationCubic
X,35,0.0,eInterpolationCubic
X,35*,0.0,eInterpolationConstant
Y,0,-0.0,eInterpolationCubic
Y,0*,-4.229790210723877,eInterpolationCubic
Y,1,-14.797015190124512,eInterpolationCubic
Y,1*,-28.518455505371094,eInterpolationCubic
Y,2,-42.21089553833008,eInterpolationCubic
Y,2*,-55.16314697265625,eInterpolationCubic
Y,3,-68.5634765625,eInterpolationCubic
Y,3*,-82.30964660644531,eInterpolationCubic
Y,4,-96.2994155883789,eInterpolationCubic
Y,4*,-110.43055725097656,eInterpolationCubic
Y,5,-124.60083770751953,eInterpolationCubic
Y,5*,-138.70799255371094,eInterpolationCubic
Y,6,-152.64984130859375,eInterpolationCubic
Y,6*,-166.3240966796875,eInterpolationCubic
Y,7,-179.6285400390625,eInterpolationCubic
Y,7*,-192.4609375,eInterpolationCubic
Y,8,-204.71905517578125,eInterpolationCubic
Y,8*,-216.3006591796875,eInterpolationCubic
Y,9,-227.10350036621094,eInterpolationCubic
Y,9*,-237.39427185058594,eInterpolationCubic
Y,10,-247.47288513183594,eInterpolationCubic
Y,10*,-257.2870788574219,eInterpolationCubic
Y,11,-266.7845764160156,eInterpolationCubic
Y,11*,-275.9130554199219,eInterpolationCubic
Y,12,-284.62017822265625,eInterpolationCubic
Y,12*,-292.8536682128906,eInterpolationCubic
Y,13,-300.5613098144531,eInterpolationCubic
Y,13*,-307.6906433105469,eInterpolationCubic
Y,14,-314.18951416015625,eInterpolationCubic
Y,14*,-320.0055847167969,eInterpolationCubic
Y,15,-325.0865173339844,eInterpolationCubic
Y,15*,-329.3800354003906,eInterpolationCubic
Y,16,-332.8338928222656,eInterpolationCubic
Y,16*,-335.64007568359375,eInterpolationCubic
Y,17,-338.0461120605469,eInterpolationCubic
Y,17*,-340.0827941894531,eInterpolationCubic
Y,18,-341.7808532714844,eInterpolationCubic
Y,18*,-343.171142578125,eInterpolationCubic
Y,19,-344.2843933105469,eInterpolationCubic
Y,19*,-345.1513671875,eInterpolationCubic
Y,20,-345.80291748046875,eInterpolationCubic
Y,20*,-346.2697448730469,eInterpolationCubic
Y,21,-346.5826721191406,eInterpolationCubic
Y,21*,-346.7724914550781,eInterpolationCubic
Y,22,-346.8699645996094,eInterpolationCubic
Y,22*,-346.9058837890625,eInterpolationCubic
Y,23,-346.9110107421875,eInterpolationCubic
Y,23*,-346.9110107421875,eInterpolationCubic
Y,24,-346.9110107421875,eInterpolationCubic
Y,24*,-346.9110107421875,eInterpolationCubic
Y,25,-346.9110107421875,eInterpolationCubic
Y,25*,-346.9110107421875,eInterpolationCubic
Y,26,-346.9110107421875,eInterpolationCubic
Y,26*,-346.9110107421875,eInterpolationCubic
Y,27,-346.9110107421875,eInterpolationCubic
Y,27*,-346.9110107421875,eInterpolationCubic
Y,28,-346.9110107421875,eInterpolationCubic
Y,28*,-346.9110107421875,eInterpolationCubic
Y,29,-346.9110107421875,eInterpolationCubic
Y,29*,-346.9110107421875,eInterpolationCubic
Y,30,-346.9111328125,eInterpolationCubic
Y,30*,-346.9111328125,eInterpolationCubic
Y,31,-346.9111328125,eInterpolationCubic
Y,31*,-346.9111328125,eInterpolationCubic
Y,32,-346.9111328125,eInterpolationCubic
Y,32*,-346.9111328125,eInterpolationCubic
Y,33,-346.9111328125,eInterpolationCubic
Y,33*,-346.9111328125,eInterpolationCubic
Y,34,-346.9111328125,eInterpolationCubic
Y,34*,-346.9111328125,eInterpolationCubic
Y,35,-346.9111328125,eInterpolationCubic
Y,35*,-346.9111328125,eInterpolationConstant
Z,0,0.0,eInterpolationCubic
Z,0*,0.0,eInterpolationCubic
Z,1,0.0,eInterpolationCubic
Z,1*,0.0,eInterpolationCubic
Z,2,0.0,eInterpolationCubic
Z,2*,0.0,eInterpolationCubic
Z,3,0.0,eInterpolationCubic
Z,3*,0.0,eInterpolationCubic
Z,4,0.0,eInterpolationCubic
Z,4*,0.0,eInterpolationCubic
Z,5,0.0,eInterpolationCubic
Z,5*,0.0,eInterpolationCubic
Z,6,0.0,eInterpolationCubic
Z,6*,0.0,eInterpolationCubic
Z,7,0.0,eInterpolationCubic
Z,7*,0.0,eInterpolationCubic
Z,8,0.0,eInterpolationCubic
Z,8*,0.0,eInterpolationCubic
Z,9,0.0,eInterpolationCubic
Z,9*,0.0,eInterpolationCubic
Z,10,0.0,eInterpolationCubic
Z,10*,0.0,eInterpolationCubic
Z,11,0.0,eInterpolationCubic
Z,11*,0.0,eInterpolationCubic
Z,12,0.0,eInterpolationCubic
Z,12*,0.0,eInterpolationCubic
Z,13,0.0,eInterpolationCubic
Z,13*,0.0,eInterpolationCubic
Z,14,0.0,eInterpolationCubic
Z,14*,0.0,eInterpolationCubic
Z,15,0.0,eInterpolationCubic
Z,15*,0.0,eInterpolationCubic
Z,16,0.0,eInterpolationCubic
Z,16*,0.0,eInterpolationCubic
Z,17,0.0,eInterpolationCubic
Z,17*,0.0,eInterpolationCubic
Z,18,0.0,eInterpolationCubic
Z,18*,0.0,eInterpolationCubic
Z,19,0.0,eInterpolationCubic
Z,19*,0.0,eInterpolationCubic
Z,20,0.0,eInterpolationCubic
Z,20*,0.0,eInterpolationCubic
Z,21,0.0,eInterpolationCubic
Z,21*,0.0,eInterpolationCubic
Z,22,0.0,eInterpolationCubic
Z,22*,0.0,eInterpolationCubic
Z,23,0.0,eInterpolationCubic
Z,23*,0.0,eInterpolationCubic
Z,24,0.0,eInterpolationCubic
Z,24*,0.0,eInterpolationCubic
Z,25,0.0,eInterpolationCubic
Z,25*,0.0,eInterpolationCubic
Z,26,0.0,eInterpolationCubic
Z,26*,0.0,eInterpolationCubic
Z,27,0.0,eInterpolationCubic
Z,27*,0.0,eInterpolationCubic
Z,28,0.0,eInterpolationCubic
Z,28*,0.0,eInterpolationCubic
Z,29,0.0,eInterpolationCubic
Z,29*,0.0,eInterpolationCubic
Z,30,0.0,eInterpolationCubic
Z,30*,0.0,eInterpolationCubic
Z,31,0.0,eInterpolationCubic
Z,31*,0.0,eInterpolationCubic
Z,32,0.0,eInterpolationCubic
Z,32*,0.0,eInterpolationCubic
Z,33,0.0,eInterpolationCubic
Z,33*,0.0,eInterpolationCubic
Z,34,0.0,eInterpolationCubic
Z,34*,0.0,eInterpolationCubic
Z,35,0.0,eInterpolationCubic
Z,35*,0.0,eInterpolationConstant
