Axis,KeyFrame,Value,InterpolationType
X,0,0.0,eInterpolationCubic
X,0*,0.0,eInterpolationCubic
X,1,0.0,eInterpolationCubic
X,1*,0.0,eInterpolationCubic
X,2,0.0,eInterpolationCubic
X,2*,0.0,eInterpolationCubic
X,3,0.0,eInterpolationCubic
X,3*,0.0,eInterpolationCubic
X,4,0.0,eInterpolationCubic
X,4*,0.0,eInterpolationCubic
X,5,0.0,eInterpolationCubic
X,5*,0.0,eInterpolationCubic
X,6,0.0,eInterpolationCubic
X,6*,0.0,eInterpolationCubic
X,7,0.0,eInterpolationCubic
X,7*,0.0,eInterpolationCubic
X,8,0.0,eInterpolationCubic
X,8*,0.0,eInterpolationCubic
X,9,0.0,eInterpolationCubic
X,9*,0.0,eInterpolationCubic
X,10,0.0,eInterpolationCubic
X,10*,0.0,eInterpolationCubic
X,11,0.0,eInterpolationCubic
X,11*,0.0,eInterpolationCubic
X,12,0.0,eInterpolationCubic
X,12*,0.0,eInterpolationCubic
X,13,0.0,eInterpolationCubic
X,13*,0.0,eInterpolationCubic
X,14,0.0,eInterpolationCubic
X,14*,0.0,eInterpolationCubic
X,15,0.0,eInterpolationCubic
X,15*,0.0,eInterpolationCubic
X,16,0.0,eInterpolationCubic
X,16*,0.0,eInterpolationCubic
X,17,0.0,eInterpolationCubic
X,17*,0.0,eInterpolationCubic
X,18,0.0,eInterpolationCubic
X,18*,0.0,eInterpolationCubic
X,19,0.0,eInterpolationCubic
X,19*,0.0,eInterpolationCubic
X,20,0.0,eInterpolationCubic
X,20*,0.0,eInterpolationConstant
Y,0,-0.0,eInterpolationCubic
Y,0*,-0.0,eInterpolationCubic
Y,1,-0.0,eInterpolationCubic
Y,1*,-0.0,eInterpolationCubic
Y,2,-0.0,eInterpolationCubic
Y,2*,-0.0,eInterpolationCubic
Y,3,-0.0,eInterpolationCubic
Y,3*,-0.0,eInterpolationCubic
Y,4,-0.0,eInterpolationCubic
Y,4*,-0.0,eInterpolationCubic
Y,5,-0.0,eInterpolationCubic
Y,5*,-0.0,eInterpolationCubic
Y,6,-0.0,eInterpolationCubic
Y,6*,-0.0,eInterpolationCubic
Y,7,-0.0,eInterpolationCubic
Y,7*,-0.0,eInterpolationCubic
Y,8,-0.0,eInterpolationCubic
Y,8*,-0.0,eInterpolationCubic
Y,9,-0.0,eInterpolationCubic
Y,9*,-0.0,eInterpolationCubic
Y,10,-0.0,eInterpolationCubic
Y,10*,-0.0,eInterpolationCubic
Y,11,-0.0,eInterpolationCubic
Y,11*,-0.0,eInterpolationCubic
Y,12,-0.0,eInterpolationCubic
Y,12*,-0.0,eInterpolationCubic
Y,13,-0.0,eInterpolationCubic
Y,13*,-0.0,eInterpolationCubic
Y,14,-0.0,eInterpolationCubic
Y,14*,-0.0,eInterpolationCubic
Y,15,-0.0,eInterpolationCubic
Y,15*,-0.0,eInterpolationCubic
Y,16,-0.0,eInterpolationCubic
Y,16*,-0.0,eInterpolationCubic
Y,17,-0.0,eInterpolationCubic
Y,17*,-0.0,eInterpolationCubic
Y,18,-0.0,eInterpolationCubic
Y,18*,-0.0,eInterpolationCubic
Y,19,-0.0,eInterpolationCubic
Y,19*,-0.0,eInterpolationCubic
Y,20,-0.0,eInterpolationCubic
Y,20*,-0.0,eInterpolationConstant
Z,0,0.0,eInterpolationCubic
Z,0*,0.0,eInterpolationCubic
Z,1,0.0,eInterpolationCubic
Z,1*,0.0,eInterpolationCubic
Z,2,0.0,eInterpolationCubic
Z,2*,0.0,eInterpolationCubic
Z,3,0.0,eInterpolationCubic
Z,3*,0.0,eInterpolationCubic
Z,4,0.0,eInterpolationCubic
Z,4*,0.0,eInterpolationCubic
Z,5,0.0,eInterpolationCubic
Z,5*,0.0,eInterpolationCubic
Z,6,0.0,eInterpolationCubic
Z,6*,0.0,eInterpolationCubic
Z,7,0.0,eInterpolationCubic
Z,7*,0.0,eInterpolationCubic
Z,8,0.0,eInterpolationCubic
Z,8*,0.0,eInterpolationCubic
Z,9,0.0,eInterpolationCubic
Z,9*,0.0,eInterpolationCubic
Z,10,0.0,eInterpolationCubic
Z,10*,0.0,eInterpolationCubic
Z,11,0.0,eInterpolationCubic
Z,11*,0.0,eInterpolationCubic
Z,12,0.0,eInterpolationCubic
Z,12*,0.0,eInterpolationCubic
Z,13,0.0,eInterpolationCubic
Z,13*,0.0,eInterpolationCubic
Z,14,0.0,eInterpolationCubic
Z,14*,0.0,eInterpolationCubic
Z,15,0.0,eInterpolationCubic
Z,15*,0.0,eInterpolationCubic
Z,16,0.0,eInterpolationCubic
Z,16*,0.0,eInterpolationCubic
Z,17,0.0,eInterpolationCubic
Z,17*,0.0,eInterpolationCubic
Z,18,0.0,eInterpolationCubic
Z,18*,0.0,eInterpolationCubic
Z,19,0.0,eInterpolationCubic
Z,19*,0.0,eInterpolationCubic
Z,20,0.0,eInterpolationCubic
Z,20*,0.0,eInterpolationConstant
