Axis,KeyFrame,Value,InterpolationType
X,0,0.0,eInterpolationCubic
X,0*,0.0,eInterpolationCubic
X,1,0.0,eInterpolationCubic
X,1*,0.0,eInterpolationCubic
X,2,0.0,eInterpolationCubic
X,2*,0.0,eInterpolationCubic
X,3,0.0,eInterpolationCubic
X,3*,0.0,eInterpolationCubic
X,4,0.0,eInterpolationCubic
X,4*,0.0,eInterpolationCubic
X,5,0.0,eInterpolationCubic
X,5*,0.0,eInterpolationCubic
X,6,0.0,eInterpolationCubic
X,6*,0.0,eInterpolationCubic
X,7,0.0,eInterpolationCubic
X,7*,0.0,eInterpolationCubic
X,8,0.0,eInterpolationCubic
X,8*,0.0,eInterpolationCubic
X,9,0.0,eInterpolationCubic
X,9*,0.0,eInterpolationCubic
X,10,0.0,eInterpolationCubic
X,10*,0.0,eInterpolationCubic
X,11,0.0,eInterpolationCubic
X,11*,0.0,eInterpolationCubic
X,12,0.0,eInterpolationCubic
X,12*,0.0,eInterpolationCubic
X,13,0.0,eInterpolationCubic
X,13*,0.0,eInterpolationCubic
X,14,0.0,eInterpolationCubic
X,14*,0.0,eInterpolationCubic
X,15,0.0,eInterpolationCubic
X,15*,0.0,eInterpolationCubic
X,16,0.0,eInterpolationCubic
X,16*,0.0,eInterpolationCubic
X,17,0.0,eInterpolationCubic
X,17*,0.0,eInterpolationCubic
X,18,0.0,eInterpolationConstant
Y,0,-0.0,eInterpolationCubic
Y,0*,-0.44834253191947937,eInterpolationCubic
Y,1,-1.6652722358703613,eInterpolationCubic
Y,1*,-3.4586424827575684,eInterpolationCubic
Y,2,-5.636305809020996,eInterpolationCubic
Y,2*,-8.00611686706543,eInterpolationCubic
Y,3,-10.375926971435547,eInterpolationCubic
Y,3*,-12.55359172821045,eInterpolationCubic
Y,4,-14.34696102142334,eInterpolationCubic
Y,4*,-15.56389045715332,eInterpolationCubic
Y,5,-16.01223373413086,eInterpolationCubic
Y,5*,-15.767656326293945,eInterpolationCubic
Y,6,-15.103804588317871,eInterpolationCubic
Y,6*,-14.125496864318848,eInterpolationCubic
Y,7,-12.93755054473877,eInterpolationCubic
Y,7*,-11.644786834716797,eInterpolationCubic
Y,8,-10.352022171020508,eInterpolationCubic
Y,8*,-9.164076805114746,eInterpolationCubic
Y,9,-8.185768127441406,eInterpolationCubic
Y,9*,-7.52191686630249,eInterpolationCubic
Y,10,-7.277339935302734,eInterpolationCubic
Y,10*,-10.28972339630127,eInterpolationCubic
Y,11,-18.971738815307617,eInterpolationCubic
Y,11*,-32.790679931640625,eInterpolationCubic
Y,12,-51.21385192871094,eInterpolationCubic
Y,12*,-73.70853424072266,eInterpolationCubic
Y,13,-98.25324249267578,eInterpolationCubic
Y,13*,-123.1639404296875,eInterpolationCubic
Y,14,-148.41416931152344,eInterpolationCubic
Y,14*,-173.97744750976562,eInterpolationCubic
Y,15,-199.82733154296875,eInterpolationCubic
Y,15*,-225.9373321533203,eInterpolationCubic
Y,16,-252.28099060058594,eInterpolationCubic
Y,16*,-278.83184814453125,eInterpolationCubic
Y,17,-305.56341552734375,eInterpolationCubic
Y,17*,-332.4492492675781,eInterpolationCubic
Y,18,-332.4492492675781,eInterpolationConstant
Z,0,0.0,eInterpolationCubic
Z,0*,0.0,eInterpolationCubic
Z,1,0.0,eInterpolationCubic
Z,1*,0.0,eInterpolationCubic
Z,2,0.0,eInterpolationCubic
Z,2*,0.0,eInterpolationCubic
Z,3,0.0,eInterpolationCubic
Z,3*,0.0,eInterpolationCubic
Z,4,0.0,eInterpolationCubic
Z,4*,0.0,eInterpolationCubic
Z,5,0.0,eInterpolationCubic
Z,5*,0.0,eInterpolationCubic
Z,6,0.0,eInterpolationCubic
Z,6*,0.0,eInterpolationCubic
Z,7,0.0,eInterpolationCubic
Z,7*,0.0,eInterpolationCubic
Z,8,0.0,eInterpolationCubic
Z,8*,0.0,eInterpolationCubic
Z,9,0.0,eInterpolationCubic
Z,9*,0.0,eInterpolationCubic
Z,10,0.0,eInterpolationCubic
Z,10*,0.0,eInterpolationCubic
Z,11,0.0,eInterpolationCubic
Z,11*,0.0,eInterpolationCubic
Z,12,0.0,eInterpolationCubic
Z,12*,0.0,eInterpolationCubic
Z,13,0.0,eInterpolationCubic
Z,13*,0.0,eInterpolationCubic
Z,14,0.0,eInterpolationCubic
Z,14*,0.0,eInterpolationCubic
Z,15,0.0,eInterpolationCubic
Z,15*,0.0,eInterpolationCubic
Z,16,0.0,eInterpolationCubic
Z,16*,0.0,eInterpolationCubic
Z,17,0.0,eInterpolationCubic
Z,17*,0.0,eInterpolationCubic
Z,18,0.0,eInterpolationConstant
