Axis,KeyFrame,Value,InterpolationType
X,0,0.0,eInterpolationCubic
X,0*,0.0,eInterpolationCubic
X,1,0.0,eInterpolationCubic
X,1*,0.0,eInterpolationCubic
X,2,0.0,eInterpolationCubic
X,2*,0.0,eInterpolationCubic
X,3,0.0,eInterpolationCubic
X,3*,0.0,eInterpolationCubic
X,4,0.0,eInterpolationCubic
X,4*,0.0,eInterpolationCubic
X,5,0.0,eInterpolationCubic
X,5*,0.0,eInterpolationCubic
X,6,0.0,eInterpolationCubic
X,6*,0.0,eInterpolationCubic
X,7,0.0,eInterpolationCubic
X,7*,0.0,eInterpolationCubic
X,8,0.0,eInterpolationCubic
X,8*,0.0,eInterpolationCubic
X,9,0.0,eInterpolationCubic
X,9*,0.0,eInterpolationCubic
X,10,0.0,eInterpolationCubic
X,10*,0.0,eInterpolationCubic
X,11,0.0,eInterpolationCubic
X,11*,0.0,eInterpolationCubic
X,12,0.0,eInterpolationCubic
X,12*,0.0,eInterpolationCubic
X,13,0.0,eInterpolationCubic
X,13*,0.0,eInterpolationCubic
X,14,0.0,eInterpolationCubic
X,14*,0.0,eInterpolationCubic
X,15,0.0,eInterpolationCubic
X,15*,0.0,eInterpolationCubic
X,16,0.0,eInterpolationCubic
X,16*,0.0,eInterpolationCubic
X,17,0.0,eInterpolationCubic
X,17*,0.0,eInterpolationCubic
X,18,0.0,eInterpolationCubic
X,18*,0.0,eInterpolationCubic
X,19,0.0,eInterpolationCubic
X,19*,0.0,eInterpolationCubic
X,20,0.0,eInterpolationCubic
X,20*,0.0,eInterpolationCubic
X,21,0.0,eInterpolationCubic
X,21*,0.0,eInterpolationCubic
X,22,0.0,eInterpolationCubic
X,22*,0.0,eInterpolationCubic
X,23,0.0,eInterpolationCubic
X,23*,0.0,eInterpolationCubic
X,24,0.0,eInterpolationCubic
X,24*,0.0,eInterpolationCubic
X,25,0.0,eInterpolationCubic
X,25*,0.0,eInterpolationCubic
X,26,0.0,eInterpolationCubic
X,26*,0.0,eInterpolationCubic
X,27,0.0,eInterpolationCubic
X,27*,0.0,eInterpolationCubic
X,28,0.0,eInterpolationCubic
X,28*,0.0,eInterpolationCubic
X,29,0.0,eInterpolationCubic
X,29*,0.0,eInterpolationCubic
X,30,0.0,eInterpolationCubic
X,30*,0.0,eInterpolationCubic
X,31,0.0,eInterpolationCubic
X,31*,0.0,eInterpolationCubic
X,32,0.0,eInterpolationCubic
X,32*,0.0,eInterpolationCubic
X,33,0.0,eInterpolationCubic
X,33*,0.0,eInterpolationCubic
X,34,0.0,eInterpolationCubic
X,34*,0.0,eInterpolationCubic
X,35,0.0,eInterpolationCubic
X,35*,0.0,eInterpolationConstant
Y,0,-0.0,eInterpolationCubic
Y,0*,-6.09185266494751,eInterpolationCubic
Y,1,-12.121840476989746,eInterpolationCubic
Y,1*,-18.275556564331055,eInterpolationCubic
Y,2,-24.738597869873047,eInterpolationCubic
Y,2*,-30.412887573242188,eInterpolationCubic
Y,3,-36.605464935302734,eInterpolationCubic
Y,3*,-43.23752975463867,eInterpolationCubic
Y,4,-50.23027420043945,eInterpolationCubic
Y,4*,-57.5048942565918,eInterpolationCubic
Y,5,-64.98258209228516,eInterpolationCubic
Y,5*,-72.58454132080078,eInterpolationCubic
Y,6,-80.23196411132812,eInterpolationCubic
Y,6*,-87.84603881835938,eInterpolationCubic
Y,7,-95.34796905517578,eInterpolationCubic
Y,7*,-102.65894317626953,eInterpolationCubic
Y,8,-109.70015716552734,eInterpolationCubic
Y,8*,-116.39281463623047,eInterpolationCubic
Y,9,-122.65809631347656,eInterpolationCubic
Y,9*,-128.41720581054688,eInterpolationCubic
Y,10,-133.5913543701172,eInterpolationCubic
Y,10*,-138.37115478515625,eInterpolationCubic
Y,11,-142.99932861328125,eInterpolationCubic
Y,11*,-147.47512817382812,eInterpolationCubic
Y,12,-151.7978057861328,eInterpolationCubic
Y,12*,-155.9666290283203,eInterpolationCubic
Y,13,-159.9808349609375,eInterpolationCubic
Y,13*,-163.8397216796875,eInterpolationCubic
Y,14,-167.5425262451172,eInterpolationCubic
Y,14*,-171.08851623535156,eInterpolationCubic
Y,15,-174.47691345214844,eInterpolationCubic
Y,15*,-177.70704650878906,eInterpolationCubic
Y,16,-180.77810668945312,eInterpolationCubic
Y,16*,-183.6894073486328,eInterpolationCubic
Y,17,-186.440185546875,eInterpolationCubic
Y,17*,-189.02967834472656,eInterpolationCubic
Y,18,-191.45716857910156,eInterpolationCubic
Y,18*,-193.72190856933594,eInterpolationCubic
Y,19,-195.82318115234375,eInterpolationCubic
Y,19*,-197.7602081298828,eInterpolationCubic
Y,20,-199.53228759765625,eInterpolationCubic
Y,20*,-201.1712646484375,eInterpolationCubic
Y,21,-202.71151733398438,eInterpolationCubic
Y,21*,-204.15609741210938,eInterpolationCubic
Y,22,-205.50802612304688,eInterpolationCubic
Y,22*,-206.7703094482422,eInterpolationCubic
Y,23,-207.94601440429688,eInterpolationCubic
Y,23*,-209.0381622314453,eInterpolationCubic
Y,24,-210.0497589111328,eInterpolationCubic
Y,24*,-210.98385620117188,eInterpolationCubic
Y,25,-211.84344482421875,eInterpolationCubic
Y,25*,-212.631591796875,eInterpolationCubic
Y,26,-213.351318359375,eInterpolationCubic
Y,26*,-214.00564575195312,eInterpolationCubic
Y,27,-214.5976104736328,eInterpolationCubic
Y,27*,-215.13023376464844,eInterpolationCubic
Y,28,-215.60653686523438,eInterpolationCubic
Y,28*,-216.02955627441406,eInterpolationCubic
Y,29,-216.40234375,eInterpolationCubic
Y,29*,-216.72789001464844,eInterpolationCubic
Y,30,-217.0092315673828,eInterpolationCubic
Y,30*,-217.24942016601562,eInterpolationCubic
Y,31,-217.4514617919922,eInterpolationCubic
Y,31*,-217.61837768554688,eInterpolationCubic
Y,32,-217.75323486328125,eInterpolationCubic
Y,32*,-217.85902404785156,eInterpolationCubic
Y,33,-217.93878173828125,eInterpolationCubic
Y,33*,-217.9955596923828,eInterpolationCubic
Y,34,-218.03236389160156,eInterpolationCubic
Y,34*,-218.05221557617188,eInterpolationCubic
Y,35,-218.05816650390625,eInterpolationCubic
Y,35*,-218.05816650390625,eInterpolationConstant
Z,0,0.0,eInterpolationCubic
Z,0*,0.0,eInterpolationCubic
Z,1,0.0,eInterpolationCubic
Z,1*,0.0,eInterpolationCubic
Z,2,0.0,eInterpolationCubic
Z,2*,0.0,eInterpolationCubic
Z,3,0.0,eInterpolationCubic
Z,3*,0.0,eInterpolationCubic
Z,4,0.0,eInterpolationCubic
Z,4*,0.0,eInterpolationCubic
Z,5,0.0,eInterpolationCubic
Z,5*,0.0,eInterpolationCubic
Z,6,0.0,eInterpolationCubic
Z,6*,0.0,eInterpolationCubic
Z,7,0.0,eInterpolationCubic
Z,7*,0.0,eInterpolationCubic
Z,8,0.0,eInterpolationCubic
Z,8*,0.0,eInterpolationCubic
Z,9,0.0,eInterpolationCubic
Z,9*,0.0,eInterpolationCubic
Z,10,0.0,eInterpolationCubic
Z,10*,0.0,eInterpolationCubic
Z,11,0.0,eInterpolationCubic
Z,11*,0.0,eInterpolationCubic
Z,12,0.0,eInterpolationCubic
Z,12*,0.0,eInterpolationCubic
Z,13,0.0,eInterpolationCubic
Z,13*,0.0,eInterpolationCubic
Z,14,0.0,eInterpolationCubic
Z,14*,0.0,eInterpolationCubic
Z,15,0.0,eInterpolationCubic
Z,15*,0.0,eInterpolationCubic
Z,16,0.0,eInterpolationCubic
Z,16*,0.0,eInterpolationCubic
Z,17,0.0,eInterpolationCubic
Z,17*,0.0,eInterpolationCubic
Z,18,0.0,eInterpolationCubic
Z,18*,0.0,eInterpolationCubic
Z,19,0.0,eInterpolationCubic
Z,19*,0.0,eInterpolationCubic
Z,20,0.0,eInterpolationCubic
Z,20*,0.0,eInterpolationCubic
Z,21,0.0,eInterpolationCubic
Z,21*,0.0,eInterpolationCubic
Z,22,0.0,eInterpolationCubic
Z,22*,0.0,eInterpolationCubic
Z,23,0.0,eInterpolationCubic
Z,23*,0.0,eInterpolationCubic
Z,24,0.0,eInterpolationCubic
Z,24*,0.0,eInterpolationCubic
Z,25,0.0,eInterpolationCubic
Z,25*,0.0,eInterpolationCubic
Z,26,0.0,eInterpolationCubic
Z,26*,0.0,eInterpolationCubic
Z,27,0.0,eInterpolationCubic
Z,27*,0.0,eInterpolationCubic
Z,28,0.0,eInterpolationCubic
Z,28*,0.0,eInterpolationCubic
Z,29,0.0,eInterpolationCubic
Z,29*,0.0,eInterpolationCubic
Z,30,0.0,eInterpolationCubic
Z,30*,0.0,eInterpolationCubic
Z,31,0.0,eInterpolationCubic
Z,31*,0.0,eInterpolationCubic
Z,32,0.0,eInterpolationCubic
Z,32*,0.0,eInterpolationCubic
Z,33,0.0,eInterpolationCubic
Z,33*,0.0,eInterpolationCubic
Z,34,0.0,eInterpolationCubic
Z,34*,0.0,eInterpolationCubic
Z,35,0.0,eInterpolationCubic
Z,35*,0.0,eInterpolationConstant
