Axis,KeyFrame,Value,InterpolationType
X,0,0.0,eInterpolationCubic
X,0*,0.0,eInterpolationCubic
X,1,0.0,eInterpolationCubic
X,1*,0.0,eInterpolationCubic
X,2,0.0,eInterpolationCubic
X,2*,0.0,eInterpolationCubic
X,3,0.0,eInterpolationCubic
X,3*,0.0,eInterpolationCubic
X,4,0.0,eInterpolationCubic
X,4*,0.0,eInterpolationCubic
X,5,0.0,eInterpolationCubic
X,5*,0.0,eInterpolationCubic
X,6,0.0,eInterpolationCubic
X,6*,0.0,eInterpolationCubic
X,7,0.0,eInterpolationCubic
X,7*,0.0,eInterpolationCubic
X,8,0.0,eInterpolationCubic
X,8*,0.0,eInterpolationCubic
X,9,0.0,eInterpolationCubic
X,9*,0.0,eInterpolationCubic
X,10,0.0,eInterpolationCubic
X,10*,0.0,eInterpolationCubic
X,11,0.0,eInterpolationCubic
X,11*,0.0,eInterpolationCubic
X,12,0.0,eInterpolationCubic
X,12*,0.0,eInterpolationCubic
X,13,0.0,eInterpolationCubic
X,13*,0.0,eInterpolationCubic
X,14,0.0,eInterpolationCubic
X,14*,0.0,eInterpolationCubic
X,15,0.0,eInterpolationCubic
X,15*,0.0,eInterpolationCubic
X,16,0.0,eInterpolationCubic
X,16*,0.0,eInterpolationCubic
X,17,0.0,eInterpolationCubic
X,17*,0.0,eInterpolationCubic
X,18,0.0,eInterpolationCubic
X,18*,0.0,eInterpolationCubic
X,19,0.0,eInterpolationCubic
X,19*,0.0,eInterpolationCubic
X,20,0.0,eInterpolationCubic
X,20*,0.0,eInterpolationCubic
X,21,0.0,eInterpolationCubic
X,21*,0.0,eInterpolationCubic
X,22,0.0,eInterpolationCubic
X,22*,0.0,eInterpolationCubic
X,23,0.0,eInterpolationCubic
X,23*,0.0,eInterpolationCubic
X,24,0.0,eInterpolationCubic
X,24*,0.0,eInterpolationCubic
X,25,0.0,eInterpolationCubic
X,25*,0.0,eInterpolationCubic
X,26,0.0,eInterpolationCubic
X,26*,0.0,eInterpolationCubic
X,27,0.0,eInterpolationCubic
X,27*,0.0,eInterpolationCubic
X,28,0.0,eInterpolationCubic
X,28*,0.0,eInterpolationCubic
X,29,0.0,eInterpolationCubic
X,29*,0.0,eInterpolationCubic
X,30,0.0,eInterpolationCubic
X,30*,0.0,eInterpolationCubic
X,31,0.0,eInterpolationCubic
X,31*,0.0,eInterpolationCubic
X,32,0.0,eInterpolationCubic
X,32*,0.0,eInterpolationCubic
X,33,0.0,eInterpolationCubic
X,33*,0.0,eInterpolationCubic
X,34,0.0,eInterpolationCubic
X,34*,0.0,eInterpolationCubic
X,35,0.0,eInterpolationCubic
X,35*,0.0,eInterpolationCubic
X,36,0.0,eInterpolationCubic
X,36*,0.0,eInterpolationCubic
X,37,0.0,eInterpolationCubic
X,37*,0.0,eInterpolationCubic
X,38,0.0,eInterpolationCubic
X,38*,0.0,eInterpolationCubic
X,39,0.0,eInterpolationCubic
X,39*,0.0,eInterpolationCubic
X,40,0.0,eInterpolationCubic
X,40*,0.0,eInterpolationCubic
X,41,0.0,eInterpolationCubic
X,41*,0.0,eInterpolationCubic
X,42,0.0,eInterpolationCubic
X,42*,0.0,eInterpolationCubic
X,43,0.0,eInterpolationCubic
X,43*,0.0,eInterpolationCubic
X,44,0.0,eInterpolationCubic
X,44*,0.0,eInterpolationCubic
X,45,0.0,eInterpolationCubic
X,45*,0.0,eInterpolationCubic
X,46,0.0,eInterpolationCubic
X,46*,0.0,eInterpolationCubic
X,47,0.0,eInterpolationCubic
X,47*,0.0,eInterpolationCubic
X,48,0.0,eInterpolationCubic
X,48*,0.0,eInterpolationCubic
X,49,0.0,eInterpolationCubic
X,49*,0.0,eInterpolationCubic
X,50,0.0,eInterpolationCubic
X,50*,0.0,eInterpolationConstant
Y,0,-0.0,eInterpolationCubic
Y,0*,-12.078225135803223,eInterpolationCubic
Y,1,-23.96327781677246,eInterpolationCubic
Y,1*,-35.66567611694336,eInterpolationCubic
Y,2,-47.1959228515625,eInterpolationCubic
Y,2*,-58.56454849243164,eInterpolationCubic
Y,3,-69.78205108642578,eInterpolationCubic
Y,3*,-80.85895538330078,eInterpolationCubic
Y,4,-91.80577087402344,eInterpolationCubic
Y,4*,-102.50336456298828,eInterpolationCubic
Y,5,-112.83047485351562,eInterpolationCubic
Y,5*,-122.79437255859375,eInterpolationCubic
Y,6,-132.40231323242188,eInterpolationCubic
Y,6*,-141.66160583496094,eInterpolationCubic
Y,7,-150.57948303222656,eInterpolationCubic
Y,7*,-159.1632537841797,eInterpolationCubic
Y,8,-167.42019653320312,eInterpolationCubic
Y,8*,-175.35757446289062,eInterpolationCubic
Y,9,-182.98263549804688,eInterpolationCubic
Y,9*,-190.30271911621094,eInterpolationCubic
Y,10,-197.32504272460938,eInterpolationCubic
Y,10*,-204.05690002441406,eInterpolationCubic
Y,11,-210.50558471679688,eInterpolationCubic
Y,11*,-216.6783447265625,eInterpolationCubic
Y,12,-222.5824737548828,eInterpolationCubic
Y,12*,-228.22523498535156,eInterpolationCubic
Y,13,-233.61392211914062,eInterpolationCubic
Y,13*,-238.75579833984375,eInterpolationCubic
Y,14,-243.6581268310547,eInterpolationCubic
Y,14*,-248.32821655273438,eInterpolationCubic
Y,15,-252.77333068847656,eInterpolationCubic
Y,15*,-257.0007019042969,eInterpolationCubic
Y,16,-261.0176696777344,eInterpolationCubic
Y,16*,-264.83148193359375,eInterpolationCubic
Y,17,-268.44940185546875,eInterpolationCubic
Y,17*,-271.87872314453125,eInterpolationCubic
Y,18,-275.1266784667969,eInterpolationCubic
Y,18*,-278.2006530761719,eInterpolationCubic
Y,19,-281.1077880859375,eInterpolationCubic
Y,19*,-283.8015441894531,eInterpolationCubic
Y,20,-286.2389221191406,eInterpolationCubic
Y,20*,-288.4328308105469,eInterpolationCubic
Y,21,-290.3959655761719,eInterpolationCubic
Y,21*,-292.1412658691406,eInterpolationCubic
Y,22,-293.68145751953125,eInterpolationCubic
Y,22*,-295.0294189453125,eInterpolationCubic
Y,23,-296.1979064941406,eInterpolationCubic
Y,23*,-297.19976806640625,eInterpolationCubic
Y,24,-298.0478515625,eInterpolationCubic
Y,24*,-298.75494384765625,eInterpolationCubic
Y,25,-299.3338623046875,eInterpolationCubic
Y,25*,-299.7973937988281,eInterpolationCubic
Y,26,-300.1584167480469,eInterpolationCubic
Y,26*,-300.4297180175781,eInterpolationCubic
Y,27,-300.6241149902344,eInterpolationCubic
Y,27*,-300.7544250488281,eInterpolationCubic
Y,28,-300.8334655761719,eInterpolationCubic
Y,28*,-300.8740234375,eInterpolationCubic
Y,29,-300.8890075683594,eInterpolationCubic
Y,29*,-300.89111328125,eInterpolationCubic
Y,30,-301.05572509765625,eInterpolationCubic
Y,30*,-301.2123107910156,eInterpolationCubic
Y,31,-301.3610534667969,eInterpolationCubic
Y,31*,-301.5021667480469,eInterpolationCubic
Y,32,-301.6358642578125,eInterpolationCubic
Y,32*,-301.7623291015625,eInterpolationCubic
Y,33,-301.8817443847656,eInterpolationCubic
Y,33*,-301.9943542480469,eInterpolationCubic
Y,34,-302.1003723144531,eInterpolationCubic
Y,34*,-302.199951171875,eInterpolationCubic
Y,35,-302.2933044433594,eInterpolationCubic
Y,35*,-302.3806457519531,eInterpolationCubic
Y,36,-302.462158203125,eInterpolationCubic
Y,36*,-302.5380554199219,eInterpolationCubic
Y,37,-302.6085205078125,eInterpolationCubic
Y,37*,-302.67376708984375,eInterpolationCubic
Y,38,-302.7340393066406,eInterpolationCubic
Y,38*,-302.7894287109375,eInterpolationCubic
Y,39,-302.84027099609375,eInterpolationCubic
Y,39*,-302.8866271972656,eInterpolationCubic
Y,40,-302.9288330078125,eInterpolationCubic
Y,40*,-302.96697998046875,eInterpolationCubic
Y,41,-303.0013427734375,eInterpolationCubic
Y,41*,-303.0320739746094,eInterpolationCubic
Y,42,-303.0594177246094,eInterpolationCubic
Y,42*,-303.0835266113281,eInterpolationCubic
Y,43,-303.1046142578125,eInterpolationCubic
Y,43*,-303.1229248046875,eInterpolationCubic
Y,44,-303.13861083984375,eInterpolationCubic
Y,44*,-303.1518859863281,eInterpolationCubic
Y,45,-303.1629333496094,eInterpolationCubic
Y,45*,-303.1720275878906,eInterpolationCubic
Y,46,-303.1792907714844,eInterpolationCubic
Y,46*,-303.1849365234375,eInterpolationCubic
Y,47,-303.1891784667969,eInterpolationCubic
Y,47*,-303.1922302246094,eInterpolationCubic
Y,48,-303.1942443847656,eInterpolationCubic
Y,48*,-303.19549560546875,eInterpolationCubic
Y,49,-303.1961364746094,eInterpolationCubic
Y,49*,-303.1963806152344,eInterpolationCubic
Y,50,-303.1963806152344,eInterpolationCubic
Y,50*,-303.1963806152344,eInterpolationConstant
Z,0,0.0,eInterpolationCubic
Z,0*,0.0,eInterpolationCubic
Z,1,0.0,eInterpolationCubic
Z,1*,0.0,eInterpolationCubic
Z,2,0.0,eInterpolationCubic
Z,2*,0.0,eInterpolationCubic
Z,3,0.0,eInterpolationCubic
Z,3*,0.0,eInterpolationCubic
Z,4,0.0,eInterpolationCubic
Z,4*,0.0,eInterpolationCubic
Z,5,0.0,eInterpolationCubic
Z,5*,0.0,eInterpolationCubic
Z,6,0.0,eInterpolationCubic
Z,6*,0.0,eInterpolationCubic
Z,7,0.0,eInterpolationCubic
Z,7*,0.0,eInterpolationCubic
Z,8,0.0,eInterpolationCubic
Z,8*,0.0,eInterpolationCubic
Z,9,0.0,eInterpolationCubic
Z,9*,0.0,eInterpolationCubic
Z,10,0.0,eInterpolationCubic
Z,10*,0.0,eInterpolationCubic
Z,11,0.0,eInterpolationCubic
Z,11*,0.0,eInterpolationCubic
Z,12,0.0,eInterpolationCubic
Z,12*,0.0,eInterpolationCubic
Z,13,0.0,eInterpolationCubic
Z,13*,0.0,eInterpolationCubic
Z,14,0.0,eInterpolationCubic
Z,14*,0.0,eInterpolationCubic
Z,15,0.0,eInterpolationCubic
Z,15*,0.0,eInterpolationCubic
Z,16,0.0,eInterpolationCubic
Z,16*,0.0,eInterpolationCubic
Z,17,0.0,eInterpolationCubic
Z,17*,0.0,eInterpolationCubic
Z,18,0.0,eInterpolationCubic
Z,18*,0.0,eInterpolationCubic
Z,19,0.0,eInterpolationCubic
Z,19*,0.0,eInterpolationCubic
Z,20,0.0,eInterpolationCubic
Z,20*,0.0,eInterpolationCubic
Z,21,0.0,eInterpolationCubic
Z,21*,0.0,eInterpolationCubic
Z,22,0.0,eInterpolationCubic
Z,22*,0.0,eInterpolationCubic
Z,23,0.0,eInterpolationCubic
Z,23*,0.0,eInterpolationCubic
Z,24,0.0,eInterpolationCubic
Z,24*,0.0,eInterpolationCubic
Z,25,0.0,eInterpolationCubic
Z,25*,0.0,eInterpolationCubic
Z,26,0.0,eInterpolationCubic
Z,26*,0.0,eInterpolationCubic
Z,27,0.0,eInterpolationCubic
Z,27*,0.0,eInterpolationCubic
Z,28,0.0,eInterpolationCubic
Z,28*,0.0,eInterpolationCubic
Z,29,0.0,eInterpolationCubic
Z,29*,0.0,eInterpolationCubic
Z,30,0.0,eInterpolationCubic
Z,30*,0.0,eInterpolationCubic
Z,31,0.0,eInterpolationCubic
Z,31*,0.0,eInterpolationCubic
Z,32,0.0,eInterpolationCubic
Z,32*,0.0,eInterpolationCubic
Z,33,0.0,eInterpolationCubic
Z,33*,0.0,eInterpolationCubic
Z,34,0.0,eInterpolationCubic
Z,34*,0.0,eInterpolationCubic
Z,35,0.0,eInterpolationCubic
Z,35*,0.0,eInterpolationCubic
Z,36,0.0,eInterpolationCubic
Z,36*,0.0,eInterpolationCubic
Z,37,0.0,eInterpolationCubic
Z,37*,0.0,eInterpolationCubic
Z,38,0.0,eInterpolationCubic
Z,38*,0.0,eInterpolationCubic
Z,39,0.0,eInterpolationCubic
Z,39*,0.0,eInterpolationCubic
Z,40,0.0,eInterpolationCubic
Z,40*,0.0,eInterpolationCubic
Z,41,0.0,eInterpolationCubic
Z,41*,0.0,eInterpolationCubic
Z,42,0.0,eInterpolationCubic
Z,42*,0.0,eInterpolationCubic
Z,43,0.0,eInterpolationCubic
Z,43*,0.0,eInterpolationCubic
Z,44,0.0,eInterpolationCubic
Z,44*,0.0,eInterpolationCubic
Z,45,0.0,eInterpolationCubic
Z,45*,0.0,eInterpolationCubic
Z,46,0.0,eInterpolationCubic
Z,46*,0.0,eInterpolationCubic
Z,47,0.0,eInterpolationCubic
Z,47*,0.0,eInterpolationCubic
Z,48,0.0,eInterpolationCubic
Z,48*,0.0,eInterpolationCubic
Z,49,0.0,eInterpolationCubic
Z,49*,0.0,eInterpolationCubic
Z,50,0.0,eInterpolationCubic
Z,50*,0.0,eInterpolationConstant
