Axis,KeyFrame,Value,InterpolationType
X,0,0.0,eInterpolationCubic
X,0*,0.0,eInterpolationCubic
X,1,0.0,eInterpolationCubic
X,1*,0.0,eInterpolationCubic
X,2,0.0,eInterpolationCubic
X,2*,0.0,eInterpolationCubic
X,3,0.0,eInterpolationCubic
X,3*,0.0,eInterpolationCubic
X,4,0.0,eInterpolationCubic
X,4*,0.0,eInterpolationCubic
X,5,0.0,eInterpolationCubic
X,5*,0.0,eInterpolationCubic
X,6,0.0,eInterpolationCubic
X,6*,0.0,eInterpolationCubic
X,7,0.0,eInterpolationCubic
X,7*,0.0,eInterpolationCubic
X,8,0.0,eInterpolationCubic
X,8*,0.0,eInterpolationCubic
X,9,0.0,eInterpolationCubic
X,9*,0.0,eInterpolationCubic
X,10,0.0,eInterpolationCubic
X,10*,0.0,eInterpolationCubic
X,11,0.0,eInterpolationCubic
X,11*,0.0,eInterpolationCubic
X,12,0.0,eInterpolationCubic
X,12*,0.0,eInterpolationCubic
X,13,0.0,eInterpolationCubic
X,13*,0.0,eInterpolationCubic
X,14,0.0,eInterpolationCubic
X,14*,0.0,eInterpolationCubic
X,15,0.0,eInterpolationCubic
X,15*,0.0,eInterpolationCubic
X,16,0.0,eInterpolationCubic
X,16*,0.0,eInterpolationCubic
X,17,0.0,eInterpolationCubic
X,17*,0.0,eInterpolationCubic
X,18,0.0,eInterpolationCubic
X,18*,0.0,eInterpolationCubic
X,19,0.0,eInterpolationCubic
X,19*,0.0,eInterpolationCubic
X,20,0.0,eInterpolationCubic
X,20*,0.0,eInterpolationCubic
X,21,0.0,eInterpolationCubic
X,21*,0.0,eInterpolationCubic
X,22,0.0,eInterpolationCubic
X,22*,0.0,eInterpolationCubic
X,23,0.0,eInterpolationCubic
X,23*,0.0,eInterpolationCubic
X,24,0.0,eInterpolationCubic
X,24*,0.0,eInterpolationCubic
X,25,0.0,eInterpolationCubic
X,25*,0.0,eInterpolationCubic
X,26,0.0,eInterpolationCubic
X,26*,0.0,eInterpolationCubic
X,27,0.0,eInterpolationCubic
X,27*,0.0,eInterpolationCubic
X,28,0.0,eInterpolationCubic
X,28*,0.0,eInterpolationCubic
X,29,0.0,eInterpolationCubic
X,29*,0.0,eInterpolationCubic
X,30,0.0,eInterpolationCubic
X,30*,0.0,eInterpolationCubic
X,31,0.0,eInterpolationCubic
X,31*,0.0,eInterpolationCubic
X,32,0.0,eInterpolationCubic
X,32*,0.0,eInterpolationCubic
X,33,0.0,eInterpolationCubic
X,33*,0.0,eInterpolationCubic
X,34,0.0,eInterpolationCubic
X,34*,0.0,eInterpolationCubic
X,35,0.0,eInterpolationCubic
X,35*,0.0,eInterpolationCubic
X,36,0.0,eInterpolationCubic
X,36*,0.0,eInterpolationCubic
X,37,0.0,eInterpolationCubic
X,37*,0.0,eInterpolationCubic
X,38,0.0,eInterpolationCubic
X,38*,0.0,eInterpolationCubic
X,39,0.0,eInterpolationCubic
X,39*,0.0,eInterpolationCubic
X,40,0.0,eInterpolationCubic
X,40*,0.0,eInterpolationCubic
X,41,0.0,eInterpolationCubic
X,41*,0.0,eInterpolationCubic
X,42,0.0,eInterpolationCubic
X,42*,0.0,eInterpolationCubic
X,43,0.0,eInterpolationCubic
X,43*,0.0,eInterpolationCubic
X,44,0.0,eInterpolationCubic
X,44*,0.0,eInterpolationCubic
X,45,0.0,eInterpolationCubic
X,45*,0.0,eInterpolationCubic
X,46,0.0,eInterpolationCubic
X,46*,0.0,eInterpolationCubic
X,47,0.0,eInterpolationCubic
X,47*,0.0,eInterpolationCubic
X,48,0.0,eInterpolationCubic
X,48*,0.0,eInterpolationCubic
X,49,0.0,eInterpolationCubic
X,49*,0.0,eInterpolationCubic
X,50,0.0,eInterpolationCubic
X,50*,0.0,eInterpolationCubic
X,51,0.0,eInterpolationCubic
X,51*,0.0,eInterpolationCubic
X,52,0.0,eInterpolationCubic
X,52*,0.0,eInterpolationCubic
X,53,0.0,eInterpolationCubic
X,53*,0.0,eInterpolationCubic
X,54,0.0,eInterpolationCubic
X,54*,0.0,eInterpolationCubic
X,55,0.0,eInterpolationCubic
X,55*,0.0,eInterpolationCubic
X,56,0.0,eInterpolationCubic
X,56*,0.0,eInterpolationCubic
X,57,0.0,eInterpolationCubic
X,57*,0.0,eInterpolationCubic
X,58,0.0,eInterpolationCubic
X,58*,0.0,eInterpolationCubic
X,59,0.0,eInterpolationCubic
X,59*,0.0,eInterpolationCubic
X,60,0.0,eInterpolationCubic
X,60*,0.0,eInterpolationConstant
Y,0,0.00019111984875053167,eInterpolationCubic
Y,0*,0.00019111984875053167,eInterpolationCubic
Y,1,0.00019111984875053167,eInterpolationCubic
Y,1*,0.00019111984875053167,eInterpolationCubic
Y,2,0.00019111984875053167,eInterpolationCubic
Y,2*,0.00019111984875053167,eInterpolationCubic
Y,3,0.00019111984875053167,eInterpolationCubic
Y,3*,0.00019111984875053167,eInterpolationCubic
Y,4,0.00019111984875053167,eInterpolationCubic
Y,4*,0.00019111984875053167,eInterpolationCubic
Y,5,0.00019111984875053167,eInterpolationCubic
Y,5*,0.00019111984875053167,eInterpolationCubic
Y,6,0.00019111984875053167,eInterpolationCubic
Y,6*,0.00019111984875053167,eInterpolationCubic
Y,7,0.00019111984875053167,eInterpolationCubic
Y,7*,0.00019111984875053167,eInterpolationCubic
Y,8,0.00019111984875053167,eInterpolationCubic
Y,8*,0.00019111984875053167,eInterpolationCubic
Y,9,0.00019111984875053167,eInterpolationCubic
Y,9*,0.00019111984875053167,eInterpolationCubic
Y,10,0.00019111984875053167,eInterpolationCubic
Y,10*,0.00019111984875053167,eInterpolationCubic
Y,11,0.00019111984875053167,eInterpolationCubic
Y,11*,0.00019111984875053167,eInterpolationCubic
Y,12,0.00019111984875053167,eInterpolationCubic
Y,12*,0.00019111984875053167,eInterpolationCubic
Y,13,0.00019111984875053167,eInterpolationCubic
Y,13*,0.00019111984875053167,eInterpolationCubic
Y,14,0.00019111984875053167,eInterpolationCubic
Y,14*,0.00019111984875053167,eInterpolationCubic
Y,15,0.00019111984875053167,eInterpolationCubic
Y,15*,0.00019111984875053167,eInterpolationCubic
Y,16,0.00019111984875053167,eInterpolationCubic
Y,16*,0.00019111984875053167,eInterpolationCubic
Y,17,0.00019111984875053167,eInterpolationCubic
Y,17*,0.00019111984875053167,eInterpolationCubic
Y,18,0.00019111984875053167,eInterpolationCubic
Y,18*,0.00019111984875053167,eInterpolationCubic
Y,19,0.00019111984875053167,eInterpolationCubic
Y,19*,0.00019111984875053167,eInterpolationCubic
Y,20,0.00019111984875053167,eInterpolationCubic
Y,20*,0.00019111984875053167,eInterpolationCubic
Y,21,0.00019111984875053167,eInterpolationCubic
Y,21*,0.00019111984875053167,eInterpolationCubic
Y,22,0.00019111984875053167,eInterpolationCubic
Y,22*,0.00019111984875053167,eInterpolationCubic
Y,23,0.00019111984875053167,eInterpolationCubic
Y,23*,0.00019111984875053167,eInterpolationCubic
Y,24,0.00019111984875053167,eInterpolationCubic
Y,24*,0.00019111984875053167,eInterpolationCubic
Y,25,0.00019111984875053167,eInterpolationCubic
Y,25*,0.00019111984875053167,eInterpolationCubic
Y,26,0.00019111984875053167,eInterpolationCubic
Y,26*,0.00019111984875053167,eInterpolationCubic
Y,27,0.00019111984875053167,eInterpolationCubic
Y,27*,0.00019111984875053167,eInterpolationCubic
Y,28,0.00019111984875053167,eInterpolationCubic
Y,28*,0.00019111984875053167,eInterpolationCubic
Y,29,0.00019111984875053167,eInterpolationCubic
Y,29*,0.00019111984875053167,eInterpolationCubic
Y,30,0.00019111984875053167,eInterpolationCubic
Y,30*,0.00019111984875053167,eInterpolationCubic
Y,31,0.00019111984875053167,eInterpolationCubic
Y,31*,0.00019111984875053167,eInterpolationCubic
Y,32,0.00019111984875053167,eInterpolationCubic
Y,32*,0.00019111984875053167,eInterpolationCubic
Y,33,0.00019111984875053167,eInterpolationCubic
Y,33*,0.00019111984875053167,eInterpolationCubic
Y,34,0.00019111984875053167,eInterpolationCubic
Y,34*,0.00019111984875053167,eInterpolationCubic
Y,35,0.00019111984875053167,eInterpolationCubic
Y,35*,0.00019111984875053167,eInterpolationCubic
Y,36,0.00019111984875053167,eInterpolationCubic
Y,36*,0.00019111984875053167,eInterpolationCubic
Y,37,0.00019111984875053167,eInterpolationCubic
Y,37*,0.00019111984875053167,eInterpolationCubic
Y,38,0.00019111984875053167,eInterpolationCubic
Y,38*,0.00019111984875053167,eInterpolationCubic
Y,39,0.00019111984875053167,eInterpolationCubic
Y,39*,0.00019111984875053167,eInterpolationCubic
Y,40,0.00019111984875053167,eInterpolationCubic
Y,40*,0.00019111984875053167,eInterpolationCubic
Y,41,0.00019111984875053167,eInterpolationCubic
Y,41*,0.00019111984875053167,eInterpolationCubic
Y,42,0.00019111984875053167,eInterpolationCubic
Y,42*,0.00019111984875053167,eInterpolationCubic
Y,43,0.00019111984875053167,eInterpolationCubic
Y,43*,0.00019111984875053167,eInterpolationCubic
Y,44,0.00019111984875053167,eInterpolationCubic
Y,44*,0.00019111984875053167,eInterpolationCubic
Y,45,0.00019111984875053167,eInterpolationCubic
Y,45*,0.00019111984875053167,eInterpolationCubic
Y,46,0.00019111984875053167,eInterpolationCubic
Y,46*,0.00019111984875053167,eInterpolationCubic
Y,47,0.00019111984875053167,eInterpolationCubic
Y,47*,0.00019111984875053167,eInterpolationCubic
Y,48,0.00019111984875053167,eInterpolationCubic
Y,48*,0.00019111984875053167,eInterpolationCubic
Y,49,0.00019111984875053167,eInterpolationCubic
Y,49*,0.00019111984875053167,eInterpolationCubic
Y,50,0.00019111984875053167,eInterpolationCubic
Y,50*,0.00019111984875053167,eInterpolationCubic
Y,51,0.00019111984875053167,eInterpolationCubic
Y,51*,0.00019111984875053167,eInterpolationCubic
Y,52,0.00019111984875053167,eInterpolationCubic
Y,52*,0.00019111984875053167,eInterpolationCubic
Y,53,0.00019111984875053167,eInterpolationCubic
Y,53*,0.00019111984875053167,eInterpolationCubic
Y,54,0.00019111984875053167,eInterpolationCubic
Y,54*,0.00019111984875053167,eInterpolationCubic
Y,55,0.00019111984875053167,eInterpolationCubic
Y,55*,0.00019111984875053167,eInterpolationCubic
Y,56,0.00019111984875053167,eInterpolationCubic
Y,56*,0.00019111984875053167,eInterpolationCubic
Y,57,0.00019111984875053167,eInterpolationCubic
Y,57*,0.00019111984875053167,eInterpolationCubic
Y,58,0.00019111984875053167,eInterpolationCubic
Y,58*,0.00019111984875053167,eInterpolationCubic
Y,59,0.00019111984875053167,eInterpolationCubic
Y,59*,0.00019111984875053167,eInterpolationCubic
Y,60,0.00019111984875053167,eInterpolationCubic
Y,60*,0.00019111984875053167,eInterpolationConstant
Z,0,0.0,eInterpolationCubic
Z,0*,0.0,eInterpolationCubic
Z,1,0.0,eInterpolationCubic
Z,1*,0.0,eInterpolationCubic
Z,2,0.0,eInterpolationCubic
Z,2*,0.0,eInterpolationCubic
Z,3,0.0,eInterpolationCubic
Z,3*,0.0,eInterpolationCubic
Z,4,0.0,eInterpolationCubic
Z,4*,0.0,eInterpolationCubic
Z,5,0.0,eInterpolationCubic
Z,5*,0.0,eInterpolationCubic
Z,6,0.0,eInterpolationCubic
Z,6*,0.0,eInterpolationCubic
Z,7,0.0,eInterpolationCubic
Z,7*,0.0,eInterpolationCubic
Z,8,0.0,eInterpolationCubic
Z,8*,0.0,eInterpolationCubic
Z,9,0.0,eInterpolationCubic
Z,9*,0.0,eInterpolationCubic
Z,10,0.0,eInterpolationCubic
Z,10*,0.0,eInterpolationCubic
Z,11,0.0,eInterpolationCubic
Z,11*,0.0,eInterpolationCubic
Z,12,0.0,eInterpolationCubic
Z,12*,0.0,eInterpolationCubic
Z,13,0.0,eInterpolationCubic
Z,13*,0.0,eInterpolationCubic
Z,14,0.0,eInterpolationCubic
Z,14*,0.0,eInterpolationCubic
Z,15,0.0,eInterpolationCubic
Z,15*,0.0,eInterpolationCubic
Z,16,0.0,eInterpolationCubic
Z,16*,0.0,eInterpolationCubic
Z,17,0.0,eInterpolationCubic
Z,17*,0.0,eInterpolationCubic
Z,18,0.0,eInterpolationCubic
Z,18*,0.0,eInterpolationCubic
Z,19,0.0,eInterpolationCubic
Z,19*,0.0,eInterpolationCubic
Z,20,0.0,eInterpolationCubic
Z,20*,0.0,eInterpolationCubic
Z,21,0.0,eInterpolationCubic
Z,21*,0.0,eInterpolationCubic
Z,22,0.0,eInterpolationCubic
Z,22*,0.0,eInterpolationCubic
Z,23,0.0,eInterpolationCubic
Z,23*,0.0,eInterpolationCubic
Z,24,0.0,eInterpolationCubic
Z,24*,0.0,eInterpolationCubic
Z,25,0.0,eInterpolationCubic
Z,25*,0.0,eInterpolationCubic
Z,26,0.0,eInterpolationCubic
Z,26*,0.0,eInterpolationCubic
Z,27,0.0,eInterpolationCubic
Z,27*,0.0,eInterpolationCubic
Z,28,0.0,eInterpolationCubic
Z,28*,0.0,eInterpolationCubic
Z,29,0.0,eInterpolationCubic
Z,29*,0.0,eInterpolationCubic
Z,30,0.0,eInterpolationCubic
Z,30*,0.0,eInterpolationCubic
Z,31,0.0,eInterpolationCubic
Z,31*,0.0,eInterpolationCubic
Z,32,0.0,eInterpolationCubic
Z,32*,0.0,eInterpolationCubic
Z,33,0.0,eInterpolationCubic
Z,33*,0.0,eInterpolationCubic
Z,34,0.0,eInterpolationCubic
Z,34*,0.0,eInterpolationCubic
Z,35,0.0,eInterpolationCubic
Z,35*,0.0,eInterpolationCubic
Z,36,0.0,eInterpolationCubic
Z,36*,0.0,eInterpolationCubic
Z,37,0.0,eInterpolationCubic
Z,37*,0.0,eInterpolationCubic
Z,38,0.0,eInterpolationCubic
Z,38*,0.0,eInterpolationCubic
Z,39,0.0,eInterpolationCubic
Z,39*,0.0,eInterpolationCubic
Z,40,0.0,eInterpolationCubic
Z,40*,0.0,eInterpolationCubic
Z,41,0.0,eInterpolationCubic
Z,41*,0.0,eInterpolationCubic
Z,42,0.0,eInterpolationCubic
Z,42*,0.0,eInterpolationCubic
Z,43,0.0,eInterpolationCubic
Z,43*,0.0,eInterpolationCubic
Z,44,0.0,eInterpolationCubic
Z,44*,0.0,eInterpolationCubic
Z,45,0.0,eInterpolationCubic
Z,45*,0.0,eInterpolationCubic
Z,46,0.0,eInterpolationCubic
Z,46*,0.0,eInterpolationCubic
Z,47,0.0,eInterpolationCubic
Z,47*,0.0,eInterpolationCubic
Z,48,0.0,eInterpolationCubic
Z,48*,0.0,eInterpolationCubic
Z,49,0.0,eInterpolationCubic
Z,49*,0.0,eInterpolationCubic
Z,50,0.0,eInterpolationCubic
Z,50*,0.0,eInterpolationCubic
Z,51,0.0,eInterpolationCubic
Z,51*,0.0,eInterpolationCubic
Z,52,0.0,eInterpolationCubic
Z,52*,0.0,eInterpolationCubic
Z,53,0.0,eInterpolationCubic
Z,53*,0.0,eInterpolationCubic
Z,54,0.0,eInterpolationCubic
Z,54*,0.0,eInterpolationCubic
Z,55,0.0,eInterpolationCubic
Z,55*,0.0,eInterpolationCubic
Z,56,0.0,eInterpolationCubic
Z,56*,0.0,eInterpolationCubic
Z,57,0.0,eInterpolationCubic
Z,57*,0.0,eInterpolationCubic
Z,58,0.0,eInterpolationCubic
Z,58*,0.0,eInterpolationCubic
Z,59,0.0,eInterpolationCubic
Z,59*,0.0,eInterpolationCubic
Z,60,0.0,eInterpolationCubic
Z,60*,0.0,eInterpolationConstant
