Axis,KeyFrame,Value,InterpolationType
X,0,0.0,eInterpolationCubic
X,0*,0.0,eInterpolationCubic
X,1,0.0,eInterpolationCubic
X,1*,0.0,eInterpolationCubic
X,2,0.0,eInterpolationCubic
X,2*,0.0,eInterpolationCubic
X,3,0.0,eInterpolationCubic
X,3*,0.0,eInterpolationCubic
X,4,0.0,eInterpolationCubic
X,4*,0.0,eInterpolationCubic
X,5,0.0,eInterpolationCubic
X,5*,0.0,eInterpolationCubic
X,6,0.0,eInterpolationCubic
X,6*,0.0,eInterpolationCubic
X,7,0.0,eInterpolationCubic
X,7*,0.0,eInterpolationCubic
X,8,0.0,eInterpolationCubic
X,8*,0.0,eInterpolationCubic
X,9,0.0,eInterpolationCubic
X,9*,0.0,eInterpolationCubic
X,10,0.0,eInterpolationCubic
X,10*,0.0,eInterpolationCubic
X,11,0.0,eInterpolationCubic
X,11*,0.0,eInterpolationCubic
X,12,0.0,eInterpolationCubic
X,12*,0.0,eInterpolationCubic
X,13,0.0,eInterpolationCubic
X,13*,0.0,eInterpolationCubic
X,14,0.0,eInterpolationCubic
X,14*,0.0,eInterpolationCubic
X,15,0.0,eInterpolationCubic
X,15*,0.0,eInterpolationCubic
X,16,0.0,eInterpolationCubic
X,16*,0.0,eInterpolationCubic
X,17,0.0,eInterpolationCubic
X,17*,0.0,eInterpolationCubic
X,18,0.0,eInterpolationCubic
X,18*,0.0,eInterpolationCubic
X,19,0.0,eInterpolationCubic
X,19*,0.0,eInterpolationCubic
X,20,0.0,eInterpolationCubic
X,20*,0.0,eInterpolationCubic
X,21,0.0,eInterpolationCubic
X,21*,0.0,eInterpolationCubic
X,22,0.0,eInterpolationCubic
X,22*,0.0,eInterpolationCubic
X,23,0.0,eInterpolationCubic
X,23*,0.0,eInterpolationCubic
X,24,0.0,eInterpolationCubic
X,24*,0.0,eInterpolationCubic
X,25,0.0,eInterpolationCubic
X,25*,0.0,eInterpolationConstant
Y,0,0.00019540578068699688,eInterpolationCubic
Y,0*,-6.852966785430908,eInterpolationCubic
Y,1,-13.894365310668945,eInterpolationCubic
Y,1*,-21.076940536499023,eInterpolationCubic
Y,2,-28.353633880615234,eInterpolationCubic
Y,2*,-35.67738342285156,eInterpolationCubic
Y,3,-43.001136779785156,eInterpolationCubic
Y,3*,-50.27783203125,eInterpolationCubic
Y,4,-57.46040344238281,eInterpolationCubic
Y,4*,-64.50180053710938,eInterpolationCubic
Y,5,-71.35496520996094,eInterpolationCubic
Y,5*,-77.97283172607422,eInterpolationCubic
Y,6,-84.30834197998047,eInterpolationCubic
Y,6*,-90.314453125,eInterpolationCubic
Y,7,-95.94407653808594,eInterpolationCubic
Y,7*,-101.15017700195312,eInterpolationCubic
Y,8,-106.07316589355469,eInterpolationCubic
Y,8*,-110.86042022705078,eInterpolationCubic
Y,9,-115.47529602050781,eInterpolationCubic
Y,9*,-119.88113403320312,eInterpolationCubic
Y,10,-124.04129791259766,eInterpolationCubic
Y,10*,-127.91912841796875,eInterpolationCubic
Y,11,-131.47799682617188,eInterpolationCubic
Y,11*,-134.68124389648438,eInterpolationCubic
Y,12,-137.4922332763672,eInterpolationCubic
Y,12*,-139.8743133544922,eInterpolationCubic
Y,13,-141.79083251953125,eInterpolationCubic
Y,13*,-143.20513916015625,eInterpolationCubic
Y,14,-144.08059692382812,eInterpolationCubic
Y,14*,-144.38055419921875,eInterpolationCubic
Y,15,-144.38055419921875,eInterpolationCubic
Y,15*,-144.38055419921875,eInterpolationCubic
Y,16,-144.38055419921875,eInterpolationCubic
Y,16*,-144.38055419921875,eInterpolationCubic
Y,17,-144.38055419921875,eInterpolationCubic
Y,17*,-144.38055419921875,eInterpolationCubic
Y,18,-144.38055419921875,eInterpolationCubic
Y,18*,-144.38055419921875,eInterpolationCubic
Y,19,-144.38055419921875,eInterpolationCubic
Y,19*,-144.38055419921875,eInterpolationCubic
Y,20,-144.38055419921875,eInterpolationCubic
Y,20*,-144.3804473876953,eInterpolationCubic
Y,21,-144.3804473876953,eInterpolationCubic
Y,21*,-144.3804473876953,eInterpolationCubic
Y,22,-144.3804473876953,eInterpolationCubic
Y,22*,-144.3804473876953,eInterpolationCubic
Y,23,-144.3804473876953,eInterpolationCubic
Y,23*,-144.3804473876953,eInterpolationCubic
Y,24,-144.3804473876953,eInterpolationCubic
Y,24*,-144.3804473876953,eInterpolationCubic
Y,25,-144.3804473876953,eInterpolationCubic
Y,25*,-144.3804473876953,eInterpolationConstant
Z,0,0.0,eInterpolationCubic
Z,0*,0.0,eInterpolationCubic
Z,1,0.0,eInterpolationCubic
Z,1*,0.0,eInterpolationCubic
Z,2,0.0,eInterpolationCubic
Z,2*,0.0,eInterpolationCubic
Z,3,0.0,eInterpolationCubic
Z,3*,0.0,eInterpolationCubic
Z,4,0.0,eInterpolationCubic
Z,4*,0.0,eInterpolationCubic
Z,5,0.0,eInterpolationCubic
Z,5*,0.0,eInterpolationCubic
Z,6,0.0,eInterpolationCubic
Z,6*,0.0,eInterpolationCubic
Z,7,0.0,eInterpolationCubic
Z,7*,0.0,eInterpolationCubic
Z,8,0.0,eInterpolationCubic
Z,8*,0.0,eInterpolationCubic
Z,9,0.0,eInterpolationCubic
Z,9*,0.0,eInterpolationCubic
Z,10,0.0,eInterpolationCubic
Z,10*,0.0,eInterpolationCubic
Z,11,0.0,eInterpolationCubic
Z,11*,0.0,eInterpolationCubic
Z,12,0.0,eInterpolationCubic
Z,12*,0.0,eInterpolationCubic
Z,13,0.0,eInterpolationCubic
Z,13*,0.0,eInterpolationCubic
Z,14,0.0,eInterpolationCubic
Z,14*,0.0,eInterpolationCubic
Z,15,0.0,eInterpolationCubic
Z,15*,0.0,eInterpolationCubic
Z,16,0.0,eInterpolationCubic
Z,16*,0.0,eInterpolationCubic
Z,17,0.0,eInterpolationCubic
Z,17*,0.0,eInterpolationCubic
Z,18,0.0,eInterpolationCubic
Z,18*,0.0,eInterpolationCubic
Z,19,0.0,eInterpolationCubic
Z,19*,0.0,eInterpolationCubic
Z,20,0.0,eInterpolationCubic
Z,20*,0.0,eInterpolationCubic
Z,21,0.0,eInterpolationCubic
Z,21*,0.0,eInterpolationCubic
Z,22,0.0,eInterpolationCubic
Z,22*,0.0,eInterpolationCubic
Z,23,0.0,eInterpolationCubic
Z,23*,0.0,eInterpolationCubic
Z,24,0.0,eInterpolationCubic
Z,24*,0.0,eInterpolationCubic
Z,25,0.0,eInterpolationCubic
Z,25*,0.0,eInterpolationConstant
