Axis,KeyFrame,Value,InterpolationType
X,0,0.0,eInterpolationCubic
X,0*,-0.18572576344013214,eInterpolationCubic
X,1,-0.3819466531276703,eInterpolationCubic
X,1*,-0.5875381231307983,eInterpolationCubic
X,2,-0.8013758063316345,eInterpolationCubic
X,2*,-1.022335171699524,eInterpolationCubic
X,3,-1.2492916584014893,eInterpolationCubic
X,3*,-1.4811208248138428,eInterpolationCubic
X,4,-1.716698408126831,eInterpolationCubic
X,4*,-1.954899549484253,eInterpolationCubic
X,5,-2.1946001052856445,eInterpolationCubic
X,5*,-2.434675693511963,eInterpolationCubic
X,6,-2.674001455307007,eInterpolationCubic
X,6*,-2.9114530086517334,eInterpolationCubic
X,7,-3.1459059715270996,eInterpolationCubic
X,7*,-3.3762357234954834,eInterpolationCubic
X,8,-3.601318359375,eInterpolationCubic
X,8*,-3.820028781890869,eInterpolationCubic
X,9,-4.031242370605469,eInterpolationCubic
X,9*,-4.233835220336914,eInterpolationCubic
X,10,-4.426682472229004,eInterpolationCubic
X,10*,-4.6086602210998535,eInterpolationCubic
X,11,-4.7786431312561035,eInterpolationCubic
X,11*,-4.935507774353027,eInterpolationCubic
X,12,-5.078128814697266,eInterpolationCubic
X,12*,-5.205381870269775,eInterpolationCubic
X,13,-5.316142559051514,eInterpolationCubic
X,13*,-5.409286975860596,eInterpolationCubic
X,14,-5.483689308166504,eInterpolationCubic
X,14*,-5.53822660446167,eInterpolationCubic
X,15,-5.571773052215576,eInterpolationCubic
X,15*,-5.583205223083496,eInterpolationCubic
X,16,-5.577710151672363,eInterpolationCubic
X,16*,-5.5614752769470215,eInterpolationCubic
X,17,-5.534877777099609,eInterpolationCubic
X,17*,-5.498294353485107,eInterpolationCubic
X,18,-5.4521026611328125,eInterpolationCubic
X,18*,-5.3966779708862305,eInterpolationCubic
X,19,-5.332398414611816,eInterpolationCubic
X,19*,-5.259640216827393,eInterpolationCubic
X,20,-5.178780555725098,eInterpolationCubic
X,20*,-5.090195655822754,eInterpolationCubic
X,21,-4.994263172149658,eInterpolationCubic
X,21*,-4.891359329223633,eInterpolationCubic
X,22,-4.781860828399658,eInterpolationCubic
X,22*,-4.666144847869873,eInterpolationCubic
X,23,-4.544588088989258,eInterpolationCubic
X,23*,-4.417567729949951,eInterpolationCubic
X,24,-4.285459518432617,eInterpolationCubic
X,24*,-4.148641586303711,eInterpolationCubic
X,25,-4.007490158081055,eInterpolationCubic
X,25*,-3.862382173538208,eInterpolationCubic
X,26,-3.7136943340301514,eInterpolationCubic
X,26*,-3.5618033409118652,eInterpolationCubic
X,27,-3.4070863723754883,eInterpolationCubic
X,27*,-3.249920129776001,eInterpolationCubic
X,28,-3.0906810760498047,eInterpolationCubic
X,28*,-2.929746389389038,eInterpolationCubic
X,29,-2.7674927711486816,eInterpolationCubic
X,29*,-2.604297399520874,eInterpolationCubic
X,30,-2.4405364990234375,eInterpolationCubic
X,30*,-2.27658748626709,eInterpolationCubic
X,31,-2.112826347351074,eInterpolationCubic
X,31*,-1.9496309757232666,eInterpolationCubic
X,32,-1.7873773574829102,eInterpolationCubic
X,32*,-1.6264426708221436,eInterpolationCubic
X,33,-1.4672038555145264,eInterpolationCubic
X,33*,-1.31003737449646,eInterpolationCubic
X,34,-1.155320405960083,eInterpolationCubic
X,34*,-1.0034294128417969,eInterpolationCubic
X,35,-0.8547415137290955,eInterpolationCubic
X,35*,-0.7096334099769592,eInterpolationCubic
X,36,-0.568481981754303,eInterpolationCubic
X,36*,-0.43166396021842957,eInterpolationCubic
X,37,-0.29955625534057617,eInterpolationCubic
X,37*,-0.17253565788269043,eInterpolationCubic
X,38,-0.050978973507881165,eInterpolationCubic
X,38*,0.06473696231842041,eInterpolationCubic
X,39,0.17423531413078308,eInterpolationCubic
X,39*,0.2771393060684204,eInterpolationCubic
X,40,0.3730720281600952,eInterpolationCubic
X,40*,0.46165671944618225,eInterpolationCubic
X,41,0.5425165891647339,eInterpolationCubic
X,41*,0.6152747273445129,eInterpolationCubic
X,42,0.6795544028282166,eInterpolationCubic
X,42*,0.7349786758422852,eInterpolationCubic
X,43,0.7811709046363831,eInterpolationCubic
X,43*,0.8177540898323059,eInterpolationCubic
X,44,0.8443514704704285,eInterpolationCubic
X,44*,0.8605862259864807,eInterpolationCubic
X,45,0.8660815954208374,eInterpolationCubic
X,45*,0.8660815954208374,eInterpolationCubic
X,46,0.8660815954208374,eInterpolationCubic
X,46*,0.8660815954208374,eInterpolationCubic
X,47,0.8660815954208374,eInterpolationCubic
X,47*,0.8660815954208374,eInterpolationCubic
X,48,0.8660815954208374,eInterpolationCubic
X,48*,0.8660815954208374,eInterpolationCubic
X,49,0.8660815954208374,eInterpolationCubic
X,49*,0.8660815954208374,eInterpolationCubic
X,50,0.8660815954208374,eInterpolationCubic
X,50*,0.8660815954208374,eInterpolationCubic
X,51,0.8660815954208374,eInterpolationCubic
X,51*,0.8660815954208374,eInterpolationCubic
X,52,0.8660815954208374,eInterpolationCubic
X,52*,0.8660815954208374,eInterpolationCubic
X,53,0.8660815954208374,eInterpolationCubic
X,53*,0.8660815954208374,eInterpolationCubic
X,54,0.8660815954208374,eInterpolationCubic
X,54*,0.8660815954208374,eInterpolationCubic
X,55,0.8660815954208374,eInterpolationCubic
X,55*,0.8660815954208374,eInterpolationCubic
X,56,0.8660815954208374,eInterpolationCubic
X,56*,0.8660815954208374,eInterpolationCubic
X,57,0.8660815954208374,eInterpolationCubic
X,57*,0.8660815954208374,eInterpolationCubic
X,58,0.8660815954208374,eInterpolationCubic
X,58*,0.8660815954208374,eInterpolationCubic
X,59,0.8660815954208374,eInterpolationCubic
X,59*,0.8660815954208374,eInterpolationCubic
X,60,0.8660815954208374,eInterpolationCubic
X,60*,0.8660815954208374,eInterpolationCubic
X,61,0.8660815954208374,eInterpolationCubic
X,61*,0.8660815954208374,eInterpolationCubic
X,62,0.8660815954208374,eInterpolationCubic
X,62*,0.8660815954208374,eInterpolationCubic
X,63,0.8660815954208374,eInterpolationCubic
X,63*,0.8660815954208374,eInterpolationCubic
X,64,0.8660815954208374,eInterpolationCubic
X,64*,0.8660815954208374,eInterpolationCubic
X,65,0.8660815954208374,eInterpolationCubic
X,65*,0.8660815954208374,eInterpolationCubic
X,66,0.8660815954208374,eInterpolationCubic
X,66*,0.8660815954208374,eInterpolationCubic
X,67,0.8660815954208374,eInterpolationCubic
X,67*,0.8660815954208374,eInterpolationCubic
X,68,0.8660815954208374,eInterpolationCubic
X,68*,0.8660815954208374,eInterpolationCubic
X,69,0.8660815954208374,eInterpolationCubic
X,69*,0.8660815954208374,eInterpolationCubic
X,70,0.8660815954208374,eInterpolationCubic
X,70*,0.8660815954208374,eInterpolationCubic
X,71,0.8660815954208374,eInterpolationCubic
X,71*,0.8660815954208374,eInterpolationCubic
X,72,0.8660815954208374,eInterpolationCubic
X,72*,0.8660815954208374,eInterpolationCubic
X,73,0.8660815954208374,eInterpolationCubic
X,73*,0.8660815954208374,eInterpolationCubic
X,74,0.8660815954208374,eInterpolationCubic
X,74*,0.8660815954208374,eInterpolationCubic
X,75,0.8660815954208374,eInterpolationCubic
X,75*,0.8660815954208374,eInterpolationCubic
X,76,0.8660815954208374,eInterpolationCubic
X,76*,0.8660815954208374,eInterpolationCubic
X,77,0.8660815954208374,eInterpolationCubic
X,77*,0.8660815954208374,eInterpolationCubic
X,78,0.8660815954208374,eInterpolationCubic
X,78*,0.8660815954208374,eInterpolationCubic
X,79,0.8660815954208374,eInterpolationCubic
X,79*,0.8660815954208374,eInterpolationCubic
X,80,0.8660815954208374,eInterpolationCubic
X,80*,0.8660815954208374,eInterpolationCubic
X,81,0.8660815954208374,eInterpolationCubic
X,81*,0.8660815954208374,eInterpolationCubic
X,82,0.8660815954208374,eInterpolationCubic
X,82*,0.8660815954208374,eInterpolationCubic
X,83,0.8660815954208374,eInterpolationCubic
X,83*,0.8660815954208374,eInterpolationCubic
X,84,0.8660815954208374,eInterpolationCubic
X,84*,0.8660815954208374,eInterpolationCubic
X,85,0.8660815954208374,eInterpolationCubic
X,85*,0.8660815954208374,eInterpolationCubic
X,86,0.8660815954208374,eInterpolationCubic
X,86*,0.8660815954208374,eInterpolationCubic
X,87,0.8660815954208374,eInterpolationCubic
X,87*,0.8660815954208374,eInterpolationCubic
X,88,0.8660815954208374,eInterpolationCubic
X,88*,0.8660815954208374,eInterpolationCubic
X,89,0.8660815954208374,eInterpolationCubic
X,89*,0.8660815954208374,eInterpolationCubic
X,90,0.8660815954208374,eInterpolationCubic
X,90*,0.8660815954208374,eInterpolationCubic
X,91,0.8660815954208374,eInterpolationCubic
X,91*,0.8660815954208374,eInterpolationCubic
X,92,0.8660815954208374,eInterpolationCubic
X,92*,0.8660815954208374,eInterpolationCubic
X,93,0.8660815954208374,eInterpolationCubic
X,93*,0.8660815954208374,eInterpolationCubic
X,94,0.8660815954208374,eInterpolationCubic
X,94*,0.8660815954208374,eInterpolationCubic
X,95,0.8660815954208374,eInterpolationCubic
X,95*,0.8660815954208374,eInterpolationCubic
X,96,0.8660815954208374,eInterpolationCubic
X,96*,0.8660815954208374,eInterpolationCubic
X,97,0.8660815954208374,eInterpolationCubic
X,97*,0.8660815954208374,eInterpolationCubic
X,98,0.8660815954208374,eInterpolationCubic
X,98*,0.8660815954208374,eInterpolationCubic
X,99,0.8660815954208374,eInterpolationCubic
X,99*,0.8660815954208374,eInterpolationCubic
X,100,0.8660815954208374,eInterpolationCubic
X,100*,0.8660815954208374,eInterpolationCubic
X,101,0.8660815954208374,eInterpolationCubic
X,101*,0.8660815954208374,eInterpolationCubic
X,102,0.8660815954208374,eInterpolationCubic
X,102*,0.8660815954208374,eInterpolationCubic
X,103,0.8660815954208374,eInterpolationCubic
X,103*,0.8660815954208374,eInterpolationCubic
X,104,0.8660815954208374,eInterpolationCubic
X,104*,0.8660815954208374,eInterpolationCubic
X,105,0.8660815954208374,eInterpolationCubic
X,105*,0.8660815954208374,eInterpolationCubic
X,106,0.8660815954208374,eInterpolationCubic
X,106*,0.8660815954208374,eInterpolationCubic
X,107,0.8660815954208374,eInterpolationCubic
X,107*,0.8660815954208374,eInterpolationCubic
X,108,0.8660815954208374,eInterpolationCubic
X,108*,0.8660815954208374,eInterpolationCubic
X,109,0.8660815954208374,eInterpolationCubic
X,109*,0.8660815954208374,eInterpolationCubic
X,110,0.8660815954208374,eInterpolationCubic
X,110*,0.8660815954208374,eInterpolationConstant
Y,0,-0.0,eInterpolationCubic
Y,0*,0.07758031040430069,eInterpolationCubic
Y,1,0.1572139412164688,eInterpolationCubic
Y,1*,0.238680899143219,eInterpolationCubic
Y,2,0.3217611610889435,eInterpolationCubic
Y,2*,0.4062347710132599,eInterpolationCubic
Y,3,0.49188169836997986,eInterpolationCubic
Y,3*,0.5784819722175598,eInterpolationCubic
Y,4,0.665815532207489,eInterpolationCubic
Y,4*,0.7536624073982239,eInterpolationCubic
Y,5,0.841802716255188,eInterpolationCubic
Y,5*,0.930016279220581,eInterpolationCubic
Y,6,1.018083095550537,eInterpolationCubic
Y,6*,1.105783462524414,eInterpolationCubic
Y,7,1.1928969621658325,eInterpolationCubic
Y,7*,1.27920401096344,eInterpolationCubic
Y,8,1.364484190940857,eInterpolationCubic
Y,8*,1.4485177993774414,eInterpolationCubic
Y,9,1.531084656715393,eInterpolationCubic
Y,9*,1.6119649410247803,eInterpolationCubic
Y,10,1.6909387111663818,eInterpolationCubic
Y,10*,1.767785668373108,eInterpolationCubic
Y,11,1.8422859907150269,eInterpolationCubic
Y,11*,1.9142197370529175,eInterpolationCubic
Y,12,1.9833667278289795,eInterpolationCubic
Y,12*,2.0495071411132812,eInterpolationCubic
Y,13,2.1124207973480225,eInterpolationCubic
Y,13*,2.1718881130218506,eInterpolationCubic
Y,14,2.2276885509490967,eInterpolationCubic
Y,14*,2.279602289199829,eInterpolationCubic
Y,15,2.327409505844116,eInterpolationCubic
Y,15*,2.370889902114868,eInterpolationCubic
Y,16,2.4118902683258057,eInterpolationCubic
Y,16*,2.4523985385894775,eInterpolationCubic
Y,17,2.49240779876709,eInterpolationCubic
Y,17*,2.5319104194641113,eInterpolationCubic
Y,18,2.570899248123169,eInterpolationCubic
Y,18*,2.6093673706054688,eInterpolationCubic
Y,19,2.6473069190979004,eInterpolationCubic
Y,19*,2.684710741043091,eInterpolationCubic
Y,20,2.721571922302246,eInterpolationCubic
Y,20*,2.757883071899414,eInterpolationCubic
Y,21,2.7936370372772217,eInterpolationCubic
Y,21*,2.8288261890411377,eInterpolationCubic
Y,22,2.863443374633789,eInterpolationCubic
Y,22*,2.897481679916382,eInterpolationCubic
Y,23,2.9309334754943848,eInterpolationCubic
Y,23*,2.9637911319732666,eInterpolationCubic
Y,24,2.9960484504699707,eInterpolationCubic
Y,24*,3.0276973247528076,eInterpolationCubic
Y,25,3.0587306022644043,eInterpolationCubic
Y,25*,3.0891411304473877,eInterpolationCubic
Y,26,3.1189217567443848,eInterpolationCubic
Y,26*,3.1480653285980225,eInterpolationCubic
Y,27,3.1765637397766113,eInterpolationCubic
Y,27*,3.2044107913970947,eInterpolationCubic
Y,28,3.2315988540649414,eInterpolationCubic
Y,28*,3.25812029838562,eInterpolationCubic
Y,29,3.283968210220337,eInterpolationCubic
Y,29*,3.3091351985931396,eInterpolationCubic
Y,30,3.3336141109466553,eInterpolationCubic
Y,30*,3.3573975563049316,eInterpolationCubic
Y,31,3.3804783821105957,eInterpolationCubic
Y,31*,3.4028491973876953,eInterpolationCubic
Y,32,3.4245028495788574,eInterpolationCubic
Y,32*,3.445431709289551,eInterpolationCubic
Y,33,3.4656293392181396,eInterpolationCubic
Y,33*,3.4850876331329346,eInterpolationCubic
Y,34,3.5037999153137207,eInterpolationCubic
Y,34*,3.5217583179473877,eInterpolationCubic
Y,35,3.5389561653137207,eInterpolationCubic
Y,35*,3.5553855895996094,eInterpolationCubic
Y,36,3.571039915084839,eInterpolationCubic
Y,36*,3.585911512374878,eInterpolationCubic
Y,37,3.5999934673309326,eInterpolationCubic
Y,37*,3.6132781505584717,eInterpolationCubic
Y,38,3.625758409500122,eInterpolationCubic
Y,38*,3.6374268531799316,eInterpolationCubic
Y,39,3.6482765674591064,eInterpolationCubic
Y,39*,3.6582999229431152,eInterpolationCubic
Y,40,3.667489767074585,eInterpolationCubic
Y,40*,3.6758391857147217,eInterpolationCubic
Y,41,3.683340311050415,eInterpolationCubic
Y,41*,3.689985990524292,eInterpolationCubic
Y,42,3.6957693099975586,eInterpolationCubic
Y,42*,3.700683116912842,eInterpolationCubic
Y,43,3.7047195434570312,eInterpolationCubic
Y,43*,3.707871437072754,eInterpolationCubic
Y,44,3.710132122039795,eInterpolationCubic
Y,44*,3.711493730545044,eInterpolationCubic
Y,45,3.711949110031128,eInterpolationCubic
Y,45*,1.1379953622817993,eInterpolationCubic
Y,46,-6.11399507522583,eInterpolationCubic
Y,46*,-17.339214324951172,eInterpolationCubic
Y,47,-31.832855224609375,eInterpolationCubic
Y,47*,-48.890113830566406,eInterpolationCubic
Y,48,-67.80618286132812,eInterpolationCubic
Y,48*,-87.8762435913086,eInterpolationCubic
Y,49,-108.3955078125,eInterpolationCubic
Y,49*,-128.65914916992188,eInterpolationCubic
Y,50,-147.96237182617188,eInterpolationCubic
Y,50*,-165.6003875732422,eInterpolationCubic
Y,51,-180.86834716796875,eInterpolationCubic
Y,51*,-193.0614776611328,eInterpolationCubic
Y,52,-201.47494506835938,eInterpolationCubic
Y,52*,-205.4039764404297,eInterpolationCubic
Y,53,-206.73818969726562,eInterpolationCubic
Y,53*,-207.85061645507812,eInterpolationCubic
Y,54,-208.7613983154297,eInterpolationCubic
Y,54*,-209.4906768798828,eInterpolationCubic
Y,55,-210.05865478515625,eInterpolationCubic
Y,55*,-210.4854736328125,eInterpolationCubic
Y,56,-210.79129028320312,eInterpolationCubic
Y,56*,-210.9962921142578,eInterpolationCubic
Y,57,-211.1206512451172,eInterpolationCubic
Y,57*,-211.18450927734375,eInterpolationCubic
Y,58,-211.20803833007812,eInterpolationCubic
Y,58*,-211.21139526367188,eInterpolationCubic
Y,59,-211.21119689941406,eInterpolationCubic
Y,59*,-211.20985412597656,eInterpolationCubic
Y,60,-211.2061767578125,eInterpolationCubic
Y,60*,-211.19900512695312,eInterpolationCubic
Y,61,-211.1872100830078,eInterpolationCubic
Y,61*,-211.1696014404297,eInterpolationCubic
Y,62,-211.14505004882812,eInterpolationCubic
Y,62*,-211.1123504638672,eInterpolationCubic
Y,63,-211.07037353515625,eInterpolationCubic
Y,63*,-211.01795959472656,eInterpolationCubic
Y,64,-210.95391845703125,eInterpolationCubic
Y,64*,-210.8771209716797,eInterpolationCubic
Y,65,-210.78640747070312,eInterpolationCubic
Y,65*,-210.6805877685547,eInterpolationCubic
Y,66,-210.55853271484375,eInterpolationCubic
Y,66*,-210.41905212402344,eInterpolationCubic
Y,67,-210.26100158691406,eInterpolationCubic
Y,67*,-210.08323669433594,eInterpolationCubic
Y,68,-209.8845672607422,eInterpolationCubic
Y,68*,-209.66384887695312,eInterpolationCubic
Y,69,-209.419921875,eInterpolationCubic
Y,69*,-209.15162658691406,eInterpolationCubic
Y,70,-208.85777282714844,eInterpolationCubic
Y,70*,-208.53724670410156,eInterpolationCubic
Y,71,-208.18885803222656,eInterpolationCubic
Y,71*,-207.8114471435547,eInterpolationCubic
Y,72,-207.40386962890625,eInterpolationCubic
Y,72*,-206.96495056152344,eInterpolationCubic
Y,73,-206.39463806152344,eInterpolationCubic
Y,73*,-205.60728454589844,eInterpolationCubic
Y,74,-204.6233367919922,eInterpolationCubic
Y,74*,-203.46327209472656,eInterpolationCubic
Y,75,-202.14755249023438,eInterpolationCubic
Y,75*,-200.69659423828125,eInterpolationCubic
Y,76,-199.13087463378906,eInterpolationCubic
Y,76*,-197.47085571289062,eInterpolationCubic
Y,77,-195.73699951171875,eInterpolationCubic
Y,77*,-193.94973754882812,eInterpolationCubic
Y,78,-192.12953186035156,eInterpolationCubic
Y,78*,-190.2968292236328,eInterpolationCubic
Y,79,-188.4721221923828,eInterpolationCubic
Y,79*,-186.6758270263672,eInterpolationCubic
Y,80,-184.9284210205078,eInterpolationCubic
Y,80*,-183.25035095214844,eInterpolationCubic
Y,81,-181.66207885742188,eInterpolationCubic
Y,81*,-180.1840362548828,eInterpolationCubic
Y,82,-178.83670043945312,eInterpolationCubic
Y,82*,-177.6405487060547,eInterpolationCubic
Y,83,-176.61599731445312,eInterpolationCubic
Y,83*,-175.7835235595703,eInterpolationCubic
Y,84,-175.16355895996094,eInterpolationCubic
Y,84*,-174.77659606933594,eInterpolationCubic
Y,85,-174.64305114746094,eInterpolationCubic
Y,85*,-174.71224975585938,eInterpolationCubic
Y,86,-174.9139404296875,eInterpolationCubic
Y,86*,-175.2393035888672,eInterpolationCubic
Y,87,-175.679443359375,eInterpolationCubic
Y,87*,-176.22552490234375,eInterpolationCubic
Y,88,-176.8687286376953,eInterpolationCubic
Y,88*,-177.6001739501953,eInterpolationCubic
Y,89,-178.41102600097656,eInterpolationCubic
Y,89*,-179.29241943359375,eInterpolationCubic
Y,90,-180.23553466796875,eInterpolationCubic
Y,90*,-181.23150634765625,eInterpolationCubic
Y,91,-182.271484375,eInterpolationCubic
Y,91*,-183.34661865234375,eInterpolationCubic
Y,92,-184.44805908203125,eInterpolationCubic
Y,92*,-185.56695556640625,eInterpolationCubic
Y,93,-186.69447326660156,eInterpolationCubic
Y,93*,-187.82174682617188,eInterpolationCubic
Y,94,-188.93994140625,eInterpolationCubic
Y,94*,-190.0402069091797,eInterpolationCubic
Y,95,-191.11366271972656,eInterpolationCubic
Y,95*,-192.15150451660156,eInterpolationCubic
Y,96,-193.1448516845703,eInterpolationCubic
Y,96*,-194.0848846435547,eInterpolationCubic
Y,97,-194.96270751953125,eInterpolationCubic
Y,97*,-195.76953125,eInterpolationCubic
Y,98,-196.4964599609375,eInterpolationCubic
Y,98*,-197.13467407226562,eInterpolationCubic
Y,99,-197.71414184570312,eInterpolationCubic
Y,99*,-198.27056884765625,eInterpolationCubic
Y,100,-198.80374145507812,eInterpolationCubic
Y,100*,-199.31338500976562,eInterpolationCubic
Y,101,-199.79922485351562,eInterpolationCubic
Y,101*,-200.26104736328125,eInterpolationCubic
Y,102,-200.69854736328125,eInterpolationCubic
Y,102*,-201.11151123046875,eInterpolationCubic
Y,103,-201.49969482421875,eInterpolationCubic
Y,103*,-201.86280822753906,eInterpolationCubic
Y,104,-202.2006072998047,eInterpolationCubic
Y,104*,-202.5128631591797,eInterpolationCubic
Y,105,-202.79928588867188,eInterpolationCubic
Y,105*,-203.05963134765625,eInterpolationCubic
Y,106,-203.29364013671875,eInterpolationCubic
Y,106*,-203.50108337402344,eInterpolationCubic
Y,107,-203.68170166015625,eInterpolationCubic
Y,107*,-203.83522033691406,eInterpolationCubic
Y,108,-203.96139526367188,eInterpolationCubic
Y,108*,-204.0599822998047,eInterpolationCubic
Y,109,-204.13070678710938,eInterpolationCubic
Y,109*,-204.17333984375,eInterpolationCubic
Y,110,-204.18759155273438,eInterpolationCubic
Y,110*,-204.18759155273438,eInterpolationConstant
Z,0,0.0,eInterpolationCubic
Z,0*,1.477932333946228,eInterpolationCubic
Z,1,3.0038955211639404,eInterpolationCubic
Z,1*,4.572742938995361,eInterpolationCubic
Z,2,6.179328441619873,eInterpolationCubic
Z,2*,7.818506240844727,eInterpolationCubic
Z,3,9.485130310058594,eInterpolationCubic
Z,3*,11.174054145812988,eInterpolationCubic
Z,4,12.880131721496582,eInterpolationCubic
Z,4*,14.59821605682373,eInterpolationCubic
Z,5,16.323162078857422,eInterpolationCubic
Z,5*,18.04982566833496,eInterpolationCubic
Z,6,19.773056030273438,eInterpolationCubic
Z,6*,21.48771095275879,eInterpolationCubic
Z,7,23.188642501831055,eInterpolationCubic
Z,7*,24.870704650878906,eInterpolationCubic
Z,8,26.528751373291016,eInterpolationCubic
Z,8*,28.157638549804688,eInterpolationCubic
Z,9,29.752216339111328,eInterpolationCubic
Z,9*,31.30733871459961,eInterpolationCubic
Z,10,32.81786346435547,eInterpolationCubic
Z,10*,34.27864074707031,eInterpolationCubic
Z,11,35.68452835083008,eInterpolationCubic
Z,11*,37.03037643432617,eInterpolationCubic
Z,12,38.31104278564453,eInterpolationCubic
Z,12*,39.5213737487793,eInterpolationCubic
Z,13,40.65623092651367,eInterpolationCubic
Z,13*,41.71046829223633,eInterpolationCubic
Z,14,42.678932189941406,eInterpolationCubic
Z,14*,43.55648422241211,eInterpolationCubic
Z,15,44.337974548339844,eInterpolationCubic
Z,15*,45.01825714111328,eInterpolationCubic
Z,16,45.63563537597656,eInterpolationCubic
Z,16*,46.23208999633789,eInterpolationCubic
Z,17,46.807979583740234,eInterpolationCubic
Z,17*,47.36366271972656,eInterpolationCubic
Z,18,47.89950180053711,eInterpolationCubic
Z,18*,48.415863037109375,eInterpolationCubic
Z,19,48.9130973815918,eInterpolationCubic
Z,19*,49.39156723022461,eInterpolationCubic
Z,20,49.85164260864258,eInterpolationCubic
Z,20*,50.293678283691406,eInterpolationCubic
Z,21,50.71803283691406,eInterpolationCubic
Z,21*,51.12506866455078,eInterpolationCubic
Z,22,51.5151481628418,eInterpolationCubic
Z,22*,51.88862991333008,eInterpolationCubic
Z,23,52.24587631225586,eInterpolationCubic
Z,23*,52.587249755859375,eInterpolationCubic
Z,24,52.913108825683594,eInterpolationCubic
Z,24*,53.223812103271484,eInterpolationCubic
Z,25,53.51972579956055,eInterpolationCubic
Z,25*,53.801204681396484,eInterpolationCubic
Z,26,54.06861114501953,eInterpolationCubic
Z,26*,54.32231140136719,eInterpolationCubic
Z,27,54.562660217285156,eInterpolationCubic
Z,27*,54.79002380371094,eInterpolationCubic
Z,28,55.00475311279297,eInterpolationCubic
Z,28*,55.20722198486328,eInterpolationCubic
Z,29,55.39778137207031,eInterpolationCubic
Z,29*,55.5767936706543,eInterpolationCubic
Z,30,55.74462890625,eInterpolationCubic
Z,30*,55.90163040161133,eInterpolationCubic
Z,31,56.04817581176758,eInterpolationCubic
Z,31*,56.18461608886719,eInterpolationCubic
Z,32,56.31131362915039,eInterpolationCubic
Z,32*,56.42863082885742,eInterpolationCubic
Z,33,56.536930084228516,eInterpolationCubic
Z,33*,56.63656997680664,eInterpolationCubic
Z,34,56.727909088134766,eInterpolationCubic
Z,34*,56.811317443847656,eInterpolationCubic
Z,35,56.887142181396484,eInterpolationCubic
Z,35*,56.955753326416016,eInterpolationCubic
Z,36,57.01750946044922,eInterpolationCubic
Z,36*,57.07276916503906,eInterpolationCubic
Z,37,57.12189865112305,eInterpolationCubic
Z,37*,57.16525650024414,eInterpolationCubic
Z,38,57.20319747924805,eInterpolationCubic
Z,38*,57.23609161376953,eInterpolationCubic
Z,39,57.26428985595703,eInterpolationCubic
Z,39*,57.28816604614258,eInterpolationCubic
Z,40,57.308067321777344,eInterpolationCubic
Z,40*,57.324363708496094,eInterpolationCubic
Z,41,57.3374137878418,eInterpolationCubic
Z,41*,57.34757614135742,eInterpolationCubic
Z,42,57.3552131652832,eInterpolationCubic
Z,42*,57.36068344116211,eInterpolationCubic
Z,43,57.36435317993164,eInterpolationCubic
Z,43*,57.366580963134766,eInterpolationCubic
Z,44,57.36772155761719,eInterpolationCubic
Z,44*,57.368141174316406,eInterpolationCubic
Z,45,57.368202209472656,eInterpolationCubic
Z,45*,56.63728713989258,eInterpolationCubic
Z,46,54.58053207397461,eInterpolationCubic
Z,46*,51.40190887451172,eInterpolationCubic
Z,47,47.305397033691406,eInterpolationCubic
Z,47*,42.494964599609375,eInterpolationCubic
Z,48,37.17459487915039,eInterpolationCubic
Z,48*,31.548261642456055,eInterpolationCubic
Z,49,25.8199405670166,eInterpolationCubic
Z,49*,20.193607330322266,eInterpolationCubic
Z,50,14.873237609863281,eInterpolationCubic
Z,50*,10.0628080368042,eInterpolationCubic
Z,51,5.9662933349609375,eInterpolationCubic
Z,51*,2.7876696586608887,eInterpolationCubic
Z,52,0.7309133410453796,eInterpolationCubic
Z,52*,0.0,eInterpolationCubic
Z,53,0.0,eInterpolationCubic
Z,53*,0.0,eInterpolationCubic
Z,54,0.0,eInterpolationCubic
Z,54*,0.0,eInterpolationCubic
Z,55,0.0,eInterpolationCubic
Z,55*,0.0,eInterpolationCubic
Z,56,0.0,eInterpolationCubic
Z,56*,0.0,eInterpolationCubic
Z,57,0.0,eInterpolationCubic
Z,57*,0.0,eInterpolationCubic
Z,58,0.0,eInterpolationCubic
Z,58*,0.0,eInterpolationCubic
Z,59,0.0,eInterpolationCubic
Z,59*,0.0,eInterpolationCubic
Z,60,0.0,eInterpolationCubic
Z,60*,0.0,eInterpolationCubic
Z,61,0.0,eInterpolationCubic
Z,61*,0.0,eInterpolationCubic
Z,62,0.0,eInterpolationCubic
Z,62*,0.0,eInterpolationCubic
Z,63,0.0,eInterpolationCubic
Z,63*,0.0,eInterpolationCubic
Z,64,0.0,eInterpolationCubic
Z,64*,0.0,eInterpolationCubic
Z,65,0.0,eInterpolationCubic
Z,65*,0.0,eInterpolationCubic
Z,66,0.0,eInterpolationCubic
Z,66*,0.0,eInterpolationCubic
Z,67,0.0,eInterpolationCubic
Z,67*,0.0,eInterpolationCubic
Z,68,0.0,eInterpolationCubic
Z,68*,0.0,eInterpolationCubic
Z,69,0.0,eInterpolationCubic
Z,69*,0.0,eInterpolationCubic
Z,70,0.0,eInterpolationCubic
Z,70*,0.0,eInterpolationCubic
Z,71,0.0,eInterpolationCubic
Z,71*,0.0,eInterpolationCubic
Z,72,0.0,eInterpolationCubic
Z,72*,0.0,eInterpolationCubic
Z,73,0.0,eInterpolationCubic
Z,73*,0.0,eInterpolationCubic
Z,74,0.0,eInterpolationCubic
Z,74*,0.0,eInterpolationCubic
Z,75,0.0,eInterpolationCubic
Z,75*,0.0,eInterpolationCubic
Z,76,0.0,eInterpolationCubic
Z,76*,0.0,eInterpolationCubic
Z,77,0.0,eInterpolationCubic
Z,77*,0.0,eInterpolationCubic
Z,78,0.0,eInterpolationCubic
Z,78*,0.0,eInterpolationCubic
Z,79,0.0,eInterpolationCubic
Z,79*,0.0,eInterpolationCubic
Z,80,0.0,eInterpolationCubic
Z,80*,0.0,eInterpolationCubic
Z,81,0.0,eInterpolationCubic
Z,81*,0.0,eInterpolationCubic
Z,82,0.0,eInterpolationCubic
Z,82*,0.0,eInterpolationCubic
Z,83,0.0,eInterpolationCubic
Z,83*,0.0,eInterpolationCubic
Z,84,0.0,eInterpolationCubic
Z,84*,0.0,eInterpolationCubic
Z,85,0.0,eInterpolationCubic
Z,85*,0.0,eInterpolationCubic
Z,86,0.0,eInterpolationCubic
Z,86*,0.0,eInterpolationCubic
Z,87,0.0,eInterpolationCubic
Z,87*,0.0,eInterpolationCubic
Z,88,0.0,eInterpolationCubic
Z,88*,0.0,eInterpolationCubic
Z,89,0.0,eInterpolationCubic
Z,89*,0.0,eInterpolationCubic
Z,90,0.0,eInterpolationCubic
Z,90*,0.0,eInterpolationCubic
Z,91,0.0,eInterpolationCubic
Z,91*,0.0,eInterpolationCubic
Z,92,0.0,eInterpolationCubic
Z,92*,0.0,eInterpolationCubic
Z,93,0.0,eInterpolationCubic
Z,93*,0.0,eInterpolationCubic
Z,94,0.0,eInterpolationCubic
Z,94*,0.0,eInterpolationCubic
Z,95,0.0,eInterpolationCubic
Z,95*,0.0,eInterpolationCubic
Z,96,0.0,eInterpolationCubic
Z,96*,0.0,eInterpolationCubic
Z,97,0.0,eInterpolationCubic
Z,97*,0.0,eInterpolationCubic
Z,98,0.0,eInterpolationCubic
Z,98*,0.0,eInterpolationCubic
Z,99,0.0,eInterpolationCubic
Z,99*,0.0,eInterpolationCubic
Z,100,0.0,eInterpolationCubic
Z,100*,0.0,eInterpolationCubic
Z,101,0.0,eInterpolationCubic
Z,101*,0.0,eInterpolationCubic
Z,102,0.0,eInterpolationCubic
Z,102*,0.0,eInterpolationCubic
Z,103,0.0,eInterpolationCubic
Z,103*,0.0,eInterpolationCubic
Z,104,0.0,eInterpolationCubic
Z,104*,0.0,eInterpolationCubic
Z,105,0.0,eInterpolationCubic
Z,105*,0.0,eInterpolationCubic
Z,106,0.0,eInterpolationCubic
Z,106*,0.0,eInterpolationCubic
Z,107,0.0,eInterpolationCubic
Z,107*,0.0,eInterpolationCubic
Z,108,0.0,eInterpolationCubic
Z,108*,0.0,eInterpolationCubic
Z,109,0.0,eInterpolationCubic
Z,109*,0.0,eInterpolationCubic
Z,110,0.0,eInterpolationCubic
Z,110*,0.0,eInterpolationConstant
