Axis,KeyFrame,Value,InterpolationType
X,0,0.0,eInterpolationCubic
X,0*,0.0,eInterpolationCubic
X,1,0.0,eInterpolationCubic
X,1*,0.0,eInterpolationCubic
X,2,0.0,eInterpolationCubic
X,2*,0.0,eInterpolationCubic
X,3,0.0,eInterpolationCubic
X,3*,0.0,eInterpolationCubic
X,4,0.0,eInterpolationCubic
X,4*,0.0,eInterpolationCubic
X,5,0.0,eInterpolationCubic
X,5*,0.0,eInterpolationCubic
X,6,0.0,eInterpolationCubic
X,6*,0.0,eInterpolationCubic
X,7,0.0,eInterpolationCubic
X,7*,0.0,eInterpolationCubic
X,8,0.0,eInterpolationCubic
X,8*,0.0,eInterpolationCubic
X,9,0.0,eInterpolationCubic
X,9*,0.0,eInterpolationCubic
X,10,0.0,eInterpolationCubic
X,10*,0.0,eInterpolationCubic
X,11,0.0,eInterpolationCubic
X,11*,0.0,eInterpolationCubic
X,12,0.0,eInterpolationCubic
X,12*,0.0,eInterpolationCubic
X,13,0.0,eInterpolationCubic
X,13*,0.0,eInterpolationCubic
X,14,0.0,eInterpolationCubic
X,14*,0.0,eInterpolationCubic
X,15,0.0,eInterpolationCubic
X,15*,0.0,eInterpolationCubic
X,16,0.0,eInterpolationCubic
X,16*,0.0,eInterpolationCubic
X,17,0.0,eInterpolationCubic
X,17*,0.0,eInterpolationCubic
X,18,0.0,eInterpolationCubic
X,18*,0.0,eInterpolationCubic
X,19,0.0,eInterpolationCubic
X,19*,0.0,eInterpolationCubic
X,20,0.0,eInterpolationCubic
X,20*,0.0,eInterpolationCubic
X,21,0.0,eInterpolationCubic
X,21*,0.0,eInterpolationCubic
X,22,0.0,eInterpolationCubic
X,22*,0.0,eInterpolationCubic
X,23,0.0,eInterpolationCubic
X,23*,0.0,eInterpolationCubic
X,24,0.0,eInterpolationCubic
X,24*,0.0,eInterpolationCubic
X,25,0.0,eInterpolationCubic
X,25*,0.0,eInterpolationCubic
X,26,0.0,eInterpolationCubic
X,26*,0.0,eInterpolationCubic
X,27,0.0,eInterpolationCubic
X,27*,0.0,eInterpolationCubic
X,28,0.0,eInterpolationCubic
X,28*,0.0,eInterpolationCubic
X,29,0.0,eInterpolationCubic
X,29*,0.0,eInterpolationCubic
X,30,0.0,eInterpolationCubic
X,30*,0.0,eInterpolationCubic
X,31,0.0,eInterpolationCubic
X,31*,0.0,eInterpolationCubic
X,32,0.0,eInterpolationCubic
X,32*,0.0,eInterpolationCubic
X,33,0.0,eInterpolationCubic
X,33*,0.0,eInterpolationCubic
X,34,0.0,eInterpolationCubic
X,34*,0.0,eInterpolationCubic
X,35,0.0,eInterpolationCubic
X,35*,0.0,eInterpolationCubic
X,36,0.0,eInterpolationCubic
X,36*,0.0,eInterpolationCubic
X,37,0.0,eInterpolationCubic
X,37*,0.0,eInterpolationCubic
X,38,0.0,eInterpolationCubic
X,38*,0.0,eInterpolationCubic
X,39,0.0,eInterpolationCubic
X,39*,0.0,eInterpolationCubic
X,40,0.0,eInterpolationCubic
X,40*,0.0,eInterpolationCubic
X,41,0.0,eInterpolationCubic
X,41*,0.0,eInterpolationCubic
X,42,0.0,eInterpolationCubic
X,42*,0.0,eInterpolationCubic
X,43,0.0,eInterpolationCubic
X,43*,0.0,eInterpolationCubic
X,44,0.0,eInterpolationCubic
X,44*,0.0,eInterpolationCubic
X,45,0.0,eInterpolationCubic
X,45*,0.0,eInterpolationCubic
X,46,0.0,eInterpolationCubic
X,46*,0.0,eInterpolationCubic
X,47,0.0,eInterpolationCubic
X,47*,0.0,eInterpolationCubic
X,48,0.0,eInterpolationCubic
X,48*,0.0,eInterpolationCubic
X,49,0.0,eInterpolationCubic
X,49*,0.0,eInterpolationCubic
X,50,0.0,eInterpolationCubic
X,50*,0.0,eInterpolationCubic
X,51,0.0,eInterpolationCubic
X,51*,0.0,eInterpolationCubic
X,52,0.0,eInterpolationCubic
X,52*,0.0,eInterpolationCubic
X,53,0.0,eInterpolationCubic
X,53*,0.0,eInterpolationCubic
X,54,0.0,eInterpolationCubic
X,54*,0.0,eInterpolationCubic
X,55,0.0,eInterpolationCubic
X,55*,0.0,eInterpolationCubic
X,56,0.0,eInterpolationCubic
X,56*,0.0,eInterpolationCubic
X,57,0.0,eInterpolationCubic
X,57*,0.0,eInterpolationCubic
X,58,0.0,eInterpolationCubic
X,58*,0.0,eInterpolationCubic
X,59,0.0,eInterpolationCubic
X,59*,0.0,eInterpolationCubic
X,60,0.0,eInterpolationCubic
X,60*,0.0,eInterpolationCubic
X,61,0.0,eInterpolationCubic
X,61*,0.0,eInterpolationCubic
X,62,0.0,eInterpolationCubic
X,62*,0.0,eInterpolationCubic
X,63,0.0,eInterpolationCubic
X,63*,0.0,eInterpolationCubic
X,64,0.0,eInterpolationCubic
X,64*,0.0,eInterpolationCubic
X,65,0.0,eInterpolationCubic
X,65*,0.0,eInterpolationCubic
X,66,0.0,eInterpolationCubic
X,66*,0.0,eInterpolationCubic
X,67,0.0,eInterpolationCubic
X,67*,0.0,eInterpolationCubic
X,68,0.0,eInterpolationCubic
X,68*,0.0,eInterpolationCubic
X,69,0.0,eInterpolationCubic
X,69*,0.0,eInterpolationCubic
X,70,0.0,eInterpolationCubic
X,70*,0.0,eInterpolationConstant
Y,0,-0.0,eInterpolationCubic
Y,0*,-1.0061275959014893,eInterpolationCubic
Y,1,-3.783426523208618,eInterpolationCubic
Y,1*,-7.97027063369751,eInterpolationCubic
Y,2,-13.205034255981445,eInterpolationCubic
Y,2*,-19.12609100341797,eInterpolationCubic
Y,3,-25.37181282043457,eInterpolationCubic
Y,3*,-31.58057975769043,eInterpolationCubic
Y,4,-37.3907585144043,eInterpolationCubic
Y,4*,-42.44072723388672,eInterpolationCubic
Y,5,-46.368858337402344,eInterpolationCubic
Y,5*,-49.54740905761719,eInterpolationCubic
Y,6,-52.489498138427734,eInterpolationCubic
Y,6*,-55.218666076660156,eInterpolationCubic
Y,7,-57.758460998535156,eInterpolationCubic
Y,7*,-60.132423400878906,eInterpolationCubic
Y,8,-62.36408996582031,eInterpolationCubic
Y,8*,-64.47701263427734,eInterpolationCubic
Y,9,-66.4947280883789,eInterpolationCubic
Y,9*,-68.44078063964844,eInterpolationCubic
Y,10,-70.33871459960938,eInterpolationCubic
Y,10*,-72.21208190917969,eInterpolationCubic
Y,11,-74.08440399169922,eInterpolationCubic
Y,11*,-75.97923278808594,eInterpolationCubic
Y,12,-77.92011260986328,eInterpolationCubic
Y,12*,-79.83460998535156,eInterpolationCubic
Y,13,-81.61905670166016,eInterpolationCubic
Y,13*,-83.25016784667969,eInterpolationCubic
Y,14,-84.70467376708984,eInterpolationCubic
Y,14*,-85.95929718017578,eInterpolationCubic
Y,15,-86.9907455444336,eInterpolationCubic
Y,15*,-87.7757568359375,eInterpolationCubic
Y,16,-88.3890151977539,eInterpolationCubic
Y,16*,-88.92567443847656,eInterpolationCubic
Y,17,-89.3931655883789,eInterpolationCubic
Y,17*,-89.79890441894531,eInterpolationCubic
Y,18,-90.15030670166016,eInterpolationCubic
Y,18*,-90.4548110961914,eInterpolationCubic
Y,19,-90.71981048583984,eInterpolationCubic
Y,19*,-90.95275115966797,eInterpolationCubic
Y,20,-91.16104125976562,eInterpolationCubic
Y,20*,-91.35209655761719,eInterpolationCubic
Y,21,-91.53334045410156,eInterpolationCubic
Y,21*,-91.71219635009766,eInterpolationCubic
Y,22,-91.8960952758789,eInterpolationCubic
Y,22*,-92.09243774414062,eInterpolationCubic
Y,23,-92.30864715576172,eInterpolationCubic
Y,23*,-92.53050994873047,eInterpolationCubic
Y,24,-92.73970031738281,eInterpolationCubic
Y,24*,-92.9374771118164,eInterpolationCubic
Y,25,-93.1250991821289,eInterpolationCubic
Y,25*,-93.30384063720703,eInterpolationCubic
Y,26,-93.4749526977539,eInterpolationCubic
Y,26*,-93.63970947265625,eInterpolationCubic
Y,27,-93.79936218261719,eInterpolationCubic
Y,27*,-93.9552001953125,eInterpolationCubic
Y,28,-94.10845947265625,eInterpolationCubic
Y,28*,-94.26040649414062,eInterpolationCubic
Y,29,-94.4123306274414,eInterpolationCubic
Y,29*,-94.56546783447266,eInterpolationCubic
Y,30,-94.7210922241211,eInterpolationCubic
Y,30*,-94.8804702758789,eInterpolationCubic
Y,31,-95.04486083984375,eInterpolationCubic
Y,31*,-95.21553039550781,eInterpolationCubic
Y,32,-95.39374542236328,eInterpolationCubic
Y,32*,-95.58076477050781,eInterpolationCubic
Y,33,-95.77784729003906,eInterpolationCubic
Y,33*,-95.98625946044922,eInterpolationCubic
Y,34,-96.207275390625,eInterpolationCubic
Y,34*,-96.44215393066406,eInterpolationCubic
Y,35,-96.69215393066406,eInterpolationCubic
Y,35*,-96.97979736328125,eInterpolationCubic
Y,36,-97.32108306884766,eInterpolationCubic
Y,36*,-97.70752716064453,eInterpolationCubic
Y,37,-98.1306381225586,eInterpolationCubic
Y,37*,-98.5818862915039,eInterpolationCubic
Y,38,-99.05279541015625,eInterpolationCubic
Y,38*,-99.53488159179688,eInterpolationCubic
Y,39,-100.01961517333984,eInterpolationCubic
Y,39*,-100.49851989746094,eInterpolationCubic
Y,40,-100.96309661865234,eInterpolationCubic
Y,40*,-101.40483856201172,eInterpolationCubic
Y,41,-101.81525421142578,eInterpolationCubic
Y,41*,-102.18583679199219,eInterpolationCubic
Y,42,-102.50810241699219,eInterpolationCubic
Y,42*,-102.77354431152344,eInterpolationCubic
Y,43,-102.97367095947266,eInterpolationCubic
Y,43*,-103.09996795654297,eInterpolationCubic
Y,44,-103.14396667480469,eInterpolationCubic
Y,44*,-103.13380432128906,eInterpolationCubic
Y,45,-103.1038589477539,eInterpolationCubic
Y,45*,-103.05491638183594,eInterpolationCubic
Y,46,-102.9877700805664,eInterpolationCubic
Y,46*,-102.90321350097656,eInterpolationCubic
Y,47,-102.80203247070312,eInterpolationCubic
Y,47*,-102.68502044677734,eInterpolationCubic
Y,48,-102.552978515625,eInterpolationCubic
Y,48*,-102.40667724609375,eInterpolationCubic
Y,49,-102.2469253540039,eInterpolationCubic
Y,49*,-102.07450866699219,eInterpolationCubic
Y,50,-101.89022064208984,eInterpolationCubic
Y,50*,-101.69485473632812,eInterpolationCubic
Y,51,-101.48919677734375,eInterpolationCubic
Y,51*,-101.27404022216797,eInterpolationCubic
Y,52,-101.0501708984375,eInterpolationCubic
Y,52*,-100.81839752197266,eInterpolationCubic
Y,53,-100.57949829101562,eInterpolationCubic
Y,53*,-100.33426666259766,eInterpolationCubic
Y,54,-100.08348846435547,eInterpolationCubic
Y,54*,-99.82796478271484,eInterpolationCubic
Y,55,-99.56848907470703,eInterpolationCubic
Y,55*,-99.30583953857422,eInterpolationCubic
Y,56,-99.04081726074219,eInterpolationCubic
Y,56*,-98.77421569824219,eInterpolationCubic
Y,57,-98.50682067871094,eInterpolationCubic
Y,57*,-98.23942565917969,eInterpolationCubic
Y,58,-97.97281646728516,eInterpolationCubic
Y,58*,-97.70779418945312,eInterpolationCubic
Y,59,-97.44515228271484,eInterpolationCubic
Y,59*,-97.18567657470703,eInterpolationCubic
Y,60,-96.93014526367188,eInterpolationCubic
Y,60*,-96.67936706542969,eInterpolationCubic
Y,61,-96.43414306640625,eInterpolationCubic
Y,61*,-96.19523620605469,eInterpolationCubic
Y,62,-95.96346282958984,eInterpolationCubic
Y,62*,-95.73959350585938,eInterpolationCubic
Y,63,-95.5244369506836,eInterpolationCubic
Y,63*,-95.31877899169922,eInterpolationCubic
Y,64,-95.1234130859375,eInterpolationCubic
Y,64*,-94.93912506103516,eInterpolationCubic
Y,65,-94.76670837402344,eInterpolationCubic
Y,65*,-94.6069564819336,eInterpolationCubic
Y,66,-94.46066284179688,eInterpolationCubic
Y,66*,-94.32861328125,eInterpolationCubic
Y,67,-94.21160125732422,eInterpolationCubic
Y,67*,-94.11042022705078,eInterpolationCubic
Y,68,-94.02586364746094,eInterpolationCubic
Y,68*,-93.9587173461914,eInterpolationCubic
Y,69,-93.90978240966797,eInterpolationCubic
Y,69*,-93.87983703613281,eInterpolationCubic
Y,70,-93.86966705322266,eInterpolationCubic
Y,70*,-93.86966705322266,eInterpolationConstant
Z,0,0.0,eInterpolationCubic
Z,0*,0.0,eInterpolationCubic
Z,1,0.0,eInterpolationCubic
Z,1*,0.0,eInterpolationCubic
Z,2,0.0,eInterpolationCubic
Z,2*,0.0,eInterpolationCubic
Z,3,0.0,eInterpolationCubic
Z,3*,0.0,eInterpolationCubic
Z,4,0.0,eInterpolationCubic
Z,4*,0.0,eInterpolationCubic
Z,5,0.0,eInterpolationCubic
Z,5*,0.0,eInterpolationCubic
Z,6,0.0,eInterpolationCubic
Z,6*,0.0,eInterpolationCubic
Z,7,0.0,eInterpolationCubic
Z,7*,0.0,eInterpolationCubic
Z,8,0.0,eInterpolationCubic
Z,8*,0.0,eInterpolationCubic
Z,9,0.0,eInterpolationCubic
Z,9*,0.0,eInterpolationCubic
Z,10,0.0,eInterpolationCubic
Z,10*,0.0,eInterpolationCubic
Z,11,0.0,eInterpolationCubic
Z,11*,0.0,eInterpolationCubic
Z,12,0.0,eInterpolationCubic
Z,12*,0.0,eInterpolationCubic
Z,13,0.0,eInterpolationCubic
Z,13*,0.0,eInterpolationCubic
Z,14,0.0,eInterpolationCubic
Z,14*,0.0,eInterpolationCubic
Z,15,0.0,eInterpolationCubic
Z,15*,0.0,eInterpolationCubic
Z,16,0.0,eInterpolationCubic
Z,16*,0.0,eInterpolationCubic
Z,17,0.0,eInterpolationCubic
Z,17*,0.0,eInterpolationCubic
Z,18,0.0,eInterpolationCubic
Z,18*,0.0,eInterpolationCubic
Z,19,0.0,eInterpolationCubic
Z,19*,0.0,eInterpolationCubic
Z,20,0.0,eInterpolationCubic
Z,20*,0.0,eInterpolationCubic
Z,21,0.0,eInterpolationCubic
Z,21*,0.0,eInterpolationCubic
Z,22,0.0,eInterpolationCubic
Z,22*,0.0,eInterpolationCubic
Z,23,0.0,eInterpolationCubic
Z,23*,0.0,eInterpolationCubic
Z,24,0.0,eInterpolationCubic
Z,24*,0.0,eInterpolationCubic
Z,25,0.0,eInterpolationCubic
Z,25*,0.0,eInterpolationCubic
Z,26,0.0,eInterpolationCubic
Z,26*,0.0,eInterpolationCubic
Z,27,0.0,eInterpolationCubic
Z,27*,0.0,eInterpolationCubic
Z,28,0.0,eInterpolationCubic
Z,28*,0.0,eInterpolationCubic
Z,29,0.0,eInterpolationCubic
Z,29*,0.0,eInterpolationCubic
Z,30,0.0,eInterpolationCubic
Z,30*,0.0,eInterpolationCubic
Z,31,0.0,eInterpolationCubic
Z,31*,0.0,eInterpolationCubic
Z,32,0.0,eInterpolationCubic
Z,32*,0.0,eInterpolationCubic
Z,33,0.0,eInterpolationCubic
Z,33*,0.0,eInterpolationCubic
Z,34,0.0,eInterpolationCubic
Z,34*,0.0,eInterpolationCubic
Z,35,0.0,eInterpolationCubic
Z,35*,0.0,eInterpolationCubic
Z,36,0.0,eInterpolationCubic
Z,36*,0.0,eInterpolationCubic
Z,37,0.0,eInterpolationCubic
Z,37*,0.0,eInterpolationCubic
Z,38,0.0,eInterpolationCubic
Z,38*,0.0,eInterpolationCubic
Z,39,0.0,eInterpolationCubic
Z,39*,0.0,eInterpolationCubic
Z,40,0.0,eInterpolationCubic
Z,40*,0.0,eInterpolationCubic
Z,41,0.0,eInterpolationCubic
Z,41*,0.0,eInterpolationCubic
Z,42,0.0,eInterpolationCubic
Z,42*,0.0,eInterpolationCubic
Z,43,0.0,eInterpolationCubic
Z,43*,0.0,eInterpolationCubic
Z,44,0.0,eInterpolationCubic
Z,44*,0.0,eInterpolationCubic
Z,45,0.0,eInterpolationCubic
Z,45*,0.0,eInterpolationCubic
Z,46,0.0,eInterpolationCubic
Z,46*,0.0,eInterpolationCubic
Z,47,0.0,eInterpolationCubic
Z,47*,0.0,eInterpolationCubic
Z,48,0.0,eInterpolationCubic
Z,48*,0.0,eInterpolationCubic
Z,49,0.0,eInterpolationCubic
Z,49*,0.0,eInterpolationCubic
Z,50,0.0,eInterpolationCubic
Z,50*,0.0,eInterpolationCubic
Z,51,0.0,eInterpolationCubic
Z,51*,0.0,eInterpolationCubic
Z,52,0.0,eInterpolationCubic
Z,52*,0.0,eInterpolationCubic
Z,53,0.0,eInterpolationCubic
Z,53*,0.0,eInterpolationCubic
Z,54,0.0,eInterpolationCubic
Z,54*,0.0,eInterpolationCubic
Z,55,0.0,eInterpolationCubic
Z,55*,0.0,eInterpolationCubic
Z,56,0.0,eInterpolationCubic
Z,56*,0.0,eInterpolationCubic
Z,57,0.0,eInterpolationCubic
Z,57*,0.0,eInterpolationCubic
Z,58,0.0,eInterpolationCubic
Z,58*,0.0,eInterpolationCubic
Z,59,0.0,eInterpolationCubic
Z,59*,0.0,eInterpolationCubic
Z,60,0.0,eInterpolationCubic
Z,60*,0.0,eInterpolationCubic
Z,61,0.0,eInterpolationCubic
Z,61*,0.0,eInterpolationCubic
Z,62,0.0,eInterpolationCubic
Z,62*,0.0,eInterpolationCubic
Z,63,0.0,eInterpolationCubic
Z,63*,0.0,eInterpolationCubic
Z,64,0.0,eInterpolationCubic
Z,64*,0.0,eInterpolationCubic
Z,65,0.0,eInterpolationCubic
Z,65*,0.0,eInterpolationCubic
Z,66,0.0,eInterpolationCubic
Z,66*,0.0,eInterpolationCubic
Z,67,0.0,eInterpolationCubic
Z,67*,0.0,eInterpolationCubic
Z,68,0.0,eInterpolationCubic
Z,68*,0.0,eInterpolationCubic
Z,69,0.0,eInterpolationCubic
Z,69*,0.0,eInterpolationCubic
Z,70,0.0,eInterpolationCubic
Z,70*,0.0,eInterpolationConstant
