Axis,KeyFrame,Value,InterpolationType
X,0,0.0,eInterpolationCubic
X,0*,0.0,eInterpolationCubic
X,1,0.0,eInterpolationCubic
X,1*,0.0,eInterpolationCubic
X,2,0.0,eInterpolationCubic
X,2*,0.0,eInterpolationCubic
X,3,0.0,eInterpolationCubic
X,3*,0.0,eInterpolationCubic
X,4,0.0,eInterpolationCubic
X,4*,0.0,eInterpolationCubic
X,5,0.0,eInterpolationCubic
X,5*,0.0,eInterpolationCubic
X,6,0.0,eInterpolationCubic
X,6*,0.0,eInterpolationCubic
X,7,0.0,eInterpolationCubic
X,7*,0.0,eInterpolationCubic
X,8,0.0,eInterpolationCubic
X,8*,0.0,eInterpolationCubic
X,9,0.0,eInterpolationCubic
X,9*,0.0,eInterpolationCubic
X,10,0.0,eInterpolationCubic
X,10*,0.0,eInterpolationCubic
X,11,0.0,eInterpolationCubic
X,11*,0.0,eInterpolationCubic
X,12,0.0,eInterpolationCubic
X,12*,0.0,eInterpolationCubic
X,13,0.0,eInterpolationCubic
X,13*,0.0,eInterpolationCubic
X,14,0.0,eInterpolationCubic
X,14*,0.0,eInterpolationCubic
X,15,0.0,eInterpolationCubic
X,15*,0.0,eInterpolationCubic
X,16,0.0,eInterpolationCubic
X,16*,0.0,eInterpolationCubic
X,17,0.0,eInterpolationCubic
X,17*,0.0,eInterpolationCubic
X,18,0.0,eInterpolationCubic
X,18*,0.0,eInterpolationCubic
X,19,0.0,eInterpolationCubic
X,19*,0.0,eInterpolationCubic
X,20,0.0,eInterpolationCubic
X,20*,0.0,eInterpolationCubic
X,21,0.0,eInterpolationCubic
X,21*,0.0,eInterpolationCubic
X,22,0.0,eInterpolationCubic
X,22*,0.0,eInterpolationCubic
X,23,0.0,eInterpolationCubic
X,23*,0.0,eInterpolationCubic
X,24,0.0,eInterpolationCubic
X,24*,0.0,eInterpolationCubic
X,25,0.0,eInterpolationCubic
X,25*,0.0,eInterpolationCubic
X,26,0.0,eInterpolationCubic
X,26*,0.0,eInterpolationCubic
X,27,0.0,eInterpolationCubic
X,27*,0.0,eInterpolationCubic
X,28,0.0,eInterpolationCubic
X,28*,0.0,eInterpolationCubic
X,29,0.0,eInterpolationCubic
X,29*,0.0,eInterpolationCubic
X,30,0.0,eInterpolationCubic
X,30*,0.0,eInterpolationCubic
X,31,0.0,eInterpolationCubic
X,31*,0.0,eInterpolationCubic
X,32,0.0,eInterpolationCubic
X,32*,0.0,eInterpolationCubic
X,33,0.0,eInterpolationCubic
X,33*,0.0,eInterpolationCubic
X,34,0.0,eInterpolationCubic
X,34*,0.0,eInterpolationCubic
X,35,0.0,eInterpolationCubic
X,35*,0.0,eInterpolationCubic
X,36,0.0,eInterpolationCubic
X,36*,0.0,eInterpolationCubic
X,37,0.0,eInterpolationCubic
X,37*,0.0,eInterpolationCubic
X,38,0.0,eInterpolationCubic
X,38*,0.0,eInterpolationCubic
X,39,0.0,eInterpolationCubic
X,39*,0.0,eInterpolationCubic
X,40,0.0,eInterpolationCubic
X,40*,0.0,eInterpolationCubic
X,41,0.0,eInterpolationCubic
X,41*,0.0,eInterpolationCubic
X,42,0.0,eInterpolationCubic
X,42*,0.0,eInterpolationCubic
X,43,0.0,eInterpolationCubic
X,43*,0.0,eInterpolationCubic
X,44,0.0,eInterpolationCubic
X,44*,0.0,eInterpolationCubic
X,45,0.0,eInterpolationCubic
X,45*,0.0,eInterpolationCubic
X,46,0.0,eInterpolationCubic
X,46*,0.0,eInterpolationCubic
X,47,0.0,eInterpolationCubic
X,47*,0.0,eInterpolationCubic
X,48,0.0,eInterpolationCubic
X,48*,0.0,eInterpolationCubic
X,49,0.0,eInterpolationCubic
X,49*,0.0,eInterpolationCubic
X,50,0.0,eInterpolationCubic
X,50*,0.0,eInterpolationCubic
X,51,0.0,eInterpolationCubic
X,51*,0.0,eInterpolationCubic
X,52,0.0,eInterpolationCubic
X,52*,0.0,eInterpolationCubic
X,53,0.0,eInterpolationCubic
X,53*,0.0,eInterpolationCubic
X,54,0.0,eInterpolationCubic
X,54*,0.0,eInterpolationCubic
X,55,0.0,eInterpolationCubic
X,55*,0.0,eInterpolationCubic
X,56,0.0,eInterpolationCubic
X,56*,0.0,eInterpolationCubic
X,57,0.0,eInterpolationCubic
X,57*,0.0,eInterpolationCubic
X,58,0.0,eInterpolationCubic
X,58*,0.0,eInterpolationCubic
X,59,0.0,eInterpolationCubic
X,59*,0.0,eInterpolationCubic
X,60,0.0,eInterpolationCubic
X,60*,0.0,eInterpolationCubic
X,61,0.0,eInterpolationCubic
X,61*,0.0,eInterpolationCubic
X,62,0.0,eInterpolationCubic
X,62*,0.0,eInterpolationCubic
X,63,0.0,eInterpolationCubic
X,63*,0.0,eInterpolationCubic
X,64,0.0,eInterpolationCubic
X,64*,0.0,eInterpolationCubic
X,65,0.0,eInterpolationCubic
X,65*,0.0,eInterpolationCubic
X,66,0.0,eInterpolationCubic
X,66*,0.0,eInterpolationCubic
X,67,0.0,eInterpolationCubic
X,67*,0.0,eInterpolationCubic
X,68,0.0,eInterpolationCubic
X,68*,0.0,eInterpolationCubic
X,69,0.0,eInterpolationCubic
X,69*,0.0,eInterpolationCubic
X,70,0.0,eInterpolationCubic
X,70*,0.0,eInterpolationCubic
X,71,0.0,eInterpolationCubic
X,71*,0.0,eInterpolationCubic
X,72,0.0,eInterpolationCubic
X,72*,0.0,eInterpolationCubic
X,73,0.0,eInterpolationCubic
X,73*,0.0,eInterpolationCubic
X,74,0.0,eInterpolationCubic
X,74*,0.0,eInterpolationCubic
X,75,0.0,eInterpolationCubic
X,75*,0.0,eInterpolationConstant
Y,0,-0.0,eInterpolationCubic
Y,0*,-9.957427978515625,eInterpolationCubic
Y,1,-20.807374954223633,eInterpolationCubic
Y,1*,-32.16733169555664,eInterpolationCubic
Y,2,-43.65479278564453,eInterpolationCubic
Y,2*,-54.88724899291992,eInterpolationCubic
Y,3,-65.48219299316406,eInterpolationCubic
Y,3*,-75.05711364746094,eInterpolationCubic
Y,4,-83.22949981689453,eInterpolationCubic
Y,4*,-89.61685180664062,eInterpolationCubic
Y,5,-93.83665466308594,eInterpolationCubic
Y,5*,-96.74600982666016,eInterpolationCubic
Y,6,-99.46148681640625,eInterpolationCubic
Y,6*,-101.98976135253906,eInterpolationCubic
Y,7,-104.3375244140625,eInterpolationCubic
Y,7*,-106.51146697998047,eInterpolationCubic
Y,8,-108.51826477050781,eInterpolationCubic
Y,8*,-110.36460876464844,eInterpolationCubic
Y,9,-112.05718231201172,eInterpolationCubic
Y,9*,-113.60267639160156,eInterpolationCubic
Y,10,-115.00776672363281,eInterpolationCubic
Y,10*,-116.27914428710938,eInterpolationCubic
Y,11,-117.42350769042969,eInterpolationCubic
Y,11*,-118.44751739501953,eInterpolationCubic
Y,12,-119.35787200927734,eInterpolationCubic
Y,12*,-120.16126251220703,eInterpolationCubic
Y,13,-120.86436462402344,eInterpolationCubic
Y,13*,-121.47386932373047,eInterpolationCubic
Y,14,-121.99646759033203,eInterpolationCubic
Y,14*,-122.43882751464844,eInterpolationCubic
Y,15,-122.80764770507812,eInterpolationCubic
Y,15*,-123.109619140625,eInterpolationCubic
Y,16,-123.3514175415039,eInterpolationCubic
Y,16*,-123.53972625732422,eInterpolationCubic
Y,17,-123.68124389648438,eInterpolationCubic
Y,17*,-123.78263854980469,eInterpolationCubic
Y,18,-123.8506088256836,eInterpolationCubic
Y,18*,-123.89183807373047,eInterpolationCubic
Y,19,-123.91300201416016,eInterpolationCubic
Y,19*,-123.92080688476562,eInterpolationCubic
Y,20,-123.92192077636719,eInterpolationCubic
Y,20*,-122.81713104248047,eInterpolationCubic
Y,21,-119.97077941894531,eInterpolationCubic
Y,21*,-116.08487701416016,eInterpolationCubic
Y,22,-111.86141967773438,eInterpolationCubic
Y,22*,-108.0024185180664,eInterpolationCubic
Y,23,-104.3924789428711,eInterpolationCubic
Y,23*,-100.53215789794922,eInterpolationCubic
Y,24,-96.54741668701172,eInterpolationCubic
Y,24*,-92.56421661376953,eInterpolationCubic
Y,25,-88.7085189819336,eInterpolationCubic
Y,25*,-85.10626983642578,eInterpolationCubic
Y,26,-81.88343811035156,eInterpolationCubic
Y,26*,-79.16598510742188,eInterpolationCubic
Y,27,-76.87980651855469,eInterpolationCubic
Y,27*,-74.84813690185547,eInterpolationCubic
Y,28,-73.04292297363281,eInterpolationCubic
Y,28*,-71.43614959716797,eInterpolationCubic
Y,29,-69.99977111816406,eInterpolationCubic
Y,29*,-68.70574188232422,eInterpolationCubic
Y,30,-67.52603149414062,eInterpolationCubic
Y,30*,-66.4325942993164,eInterpolationCubic
Y,31,-65.39740753173828,eInterpolationCubic
Y,31*,-64.39242553710938,eInterpolationCubic
Y,32,-63.430946350097656,eInterpolationCubic
Y,32*,-62.54086685180664,eInterpolationCubic
Y,33,-61.71602249145508,eInterpolationCubic
Y,33*,-60.95023727416992,eInterpolationCubic
Y,34,-60.23735046386719,eInterpolationCubic
Y,34*,-59.57120132446289,eInterpolationCubic
Y,35,-58.94561767578125,eInterpolationCubic
Y,35*,-58.354434967041016,eInterpolationCubic
Y,36,-57.7914924621582,eInterpolationCubic
Y,36*,-57.250614166259766,eInterpolationCubic
Y,37,-56.725643157958984,eInterpolationCubic
Y,37*,-56.21040725708008,eInterpolationCubic
Y,38,-55.69874954223633,eInterpolationCubic
Y,38*,-55.18449401855469,eInterpolationCubic
Y,39,-54.668357849121094,eInterpolationCubic
Y,39*,-54.15624237060547,eInterpolationCubic
Y,40,-53.6497688293457,eInterpolationCubic
Y,40*,-53.15054702758789,eInterpolationCubic
Y,41,-52.66020202636719,eInterpolationCubic
Y,41*,-52.18034744262695,eInterpolationCubic
Y,42,-51.71260070800781,eInterpolationCubic
Y,42*,-51.25857162475586,eInterpolationCubic
Y,43,-50.81989288330078,eInterpolationCubic
Y,43*,-50.398170471191406,eInterpolationCubic
Y,44,-49.995025634765625,eInterpolationCubic
Y,44*,-49.61207580566406,eInterpolationCubic
Y,45,-49.25093078613281,eInterpolationCubic
Y,45*,-48.91322326660156,eInterpolationCubic
Y,46,-48.60055160522461,eInterpolationCubic
Y,46*,-48.31454849243164,eInterpolationCubic
Y,47,-48.056827545166016,eInterpolationCubic
Y,47*,-47.82899475097656,eInterpolationCubic
Y,48,-47.62190628051758,eInterpolationCubic
Y,48*,-47.425148010253906,eInterpolationCubic
Y,49,-47.2385139465332,eInterpolationCubic
Y,49*,-47.061771392822266,eInterpolationCubic
Y,50,-46.89469528198242,eInterpolationCubic
Y,50*,-46.7370719909668,eInterpolationCubic
Y,51,-46.58866500854492,eInterpolationCubic
Y,51*,-46.44926071166992,eInterpolationCubic
Y,52,-46.318634033203125,eInterpolationCubic
Y,52*,-46.196556091308594,eInterpolationCubic
Y,53,-46.08280563354492,eInterpolationCubic
Y,53*,-45.9771614074707,eInterpolationCubic
Y,54,-45.879398345947266,eInterpolationCubic
Y,54*,-45.78929138183594,eInterpolationCubic
Y,55,-45.70661926269531,eInterpolationCubic
Y,55*,-45.63115692138672,eInterpolationCubic
Y,56,-45.562679290771484,eInterpolationCubic
Y,56*,-45.50096893310547,eInterpolationCubic
Y,57,-45.445796966552734,eInterpolationCubic
Y,57*,-45.39693832397461,eInterpolationCubic
Y,58,-45.35417556762695,eInterpolationCubic
Y,58*,-45.31727600097656,eInterpolationCubic
Y,59,-45.28602600097656,eInterpolationCubic
Y,59*,-45.260196685791016,eInterpolationCubic
Y,60,-45.23956298828125,eInterpolationCubic
Y,60*,-45.223907470703125,eInterpolationCubic
Y,61,-45.21299743652344,eInterpolationCubic
Y,61*,-45.20661544799805,eInterpolationCubic
Y,62,-45.20454025268555,eInterpolationCubic
Y,62*,-45.281551361083984,eInterpolationCubic
Y,63,-45.50448989868164,eInterpolationCubic
Y,63*,-45.86117935180664,eInterpolationCubic
Y,64,-46.339473724365234,eInterpolationCubic
Y,64*,-46.927207946777344,eInterpolationCubic
Y,65,-47.612220764160156,eInterpolationCubic
Y,65*,-48.38235855102539,eInterpolationCubic
Y,66,-49.2254524230957,eInterpolationCubic
Y,66*,-50.12934494018555,eInterpolationCubic
Y,67,-51.081878662109375,eInterpolationCubic
Y,67*,-52.070892333984375,eInterpolationCubic
Y,68,-53.084228515625,eInterpolationCubic
Y,68*,-54.10972213745117,eInterpolationCubic
Y,69,-55.135215759277344,eInterpolationCubic
Y,69*,-56.14855194091797,eInterpolationCubic
Y,70,-57.1375617980957,eInterpolationCubic
Y,70*,-58.0900993347168,eInterpolationCubic
Y,71,-58.99399185180664,eInterpolationCubic
Y,71*,-59.83708572387695,eInterpolationCubic
Y,72,-60.60721969604492,eInterpolationCubic
Y,72*,-61.292236328125,eInterpolationCubic
Y,73,-61.879966735839844,eInterpolationCubic
Y,73*,-62.3582649230957,eInterpolationCubic
Y,74,-62.7149543762207,eInterpolationCubic
Y,74*,-62.937889099121094,eInterpolationCubic
Y,75,-63.0149040222168,eInterpolationCubic
Y,75*,-63.0149040222168,eInterpolationConstant
Z,0,0.0,eInterpolationCubic
Z,0*,0.0,eInterpolationCubic
Z,1,0.0,eInterpolationCubic
Z,1*,0.0,eInterpolationCubic
Z,2,0.0,eInterpolationCubic
Z,2*,0.0,eInterpolationCubic
Z,3,0.0,eInterpolationCubic
Z,3*,0.0,eInterpolationCubic
Z,4,0.0,eInterpolationCubic
Z,4*,0.0,eInterpolationCubic
Z,5,0.0,eInterpolationCubic
Z,5*,0.0,eInterpolationCubic
Z,6,0.0,eInterpolationCubic
Z,6*,0.0,eInterpolationCubic
Z,7,0.0,eInterpolationCubic
Z,7*,0.0,eInterpolationCubic
Z,8,0.0,eInterpolationCubic
Z,8*,0.0,eInterpolationCubic
Z,9,0.0,eInterpolationCubic
Z,9*,0.0,eInterpolationCubic
Z,10,0.0,eInterpolationCubic
Z,10*,0.0,eInterpolationCubic
Z,11,0.0,eInterpolationCubic
Z,11*,0.0,eInterpolationCubic
Z,12,0.0,eInterpolationCubic
Z,12*,0.0,eInterpolationCubic
Z,13,0.0,eInterpolationCubic
Z,13*,0.0,eInterpolationCubic
Z,14,0.0,eInterpolationCubic
Z,14*,0.0,eInterpolationCubic
Z,15,0.0,eInterpolationCubic
Z,15*,0.0,eInterpolationCubic
Z,16,0.0,eInterpolationCubic
Z,16*,0.0,eInterpolationCubic
Z,17,0.0,eInterpolationCubic
Z,17*,0.0,eInterpolationCubic
Z,18,0.0,eInterpolationCubic
Z,18*,0.0,eInterpolationCubic
Z,19,0.0,eInterpolationCubic
Z,19*,0.0,eInterpolationCubic
Z,20,0.0,eInterpolationCubic
Z,20*,0.0,eInterpolationCubic
Z,21,0.0,eInterpolationCubic
Z,21*,0.0,eInterpolationCubic
Z,22,0.0,eInterpolationCubic
Z,22*,0.0,eInterpolationCubic
Z,23,0.0,eInterpolationCubic
Z,23*,0.0,eInterpolationCubic
Z,24,0.0,eInterpolationCubic
Z,24*,0.0,eInterpolationCubic
Z,25,0.0,eInterpolationCubic
Z,25*,0.0,eInterpolationCubic
Z,26,0.0,eInterpolationCubic
Z,26*,0.0,eInterpolationCubic
Z,27,0.0,eInterpolationCubic
Z,27*,0.0,eInterpolationCubic
Z,28,0.0,eInterpolationCubic
Z,28*,0.0,eInterpolationCubic
Z,29,0.0,eInterpolationCubic
Z,29*,0.0,eInterpolationCubic
Z,30,0.0,eInterpolationCubic
Z,30*,0.0,eInterpolationCubic
Z,31,0.0,eInterpolationCubic
Z,31*,0.0,eInterpolationCubic
Z,32,0.0,eInterpolationCubic
Z,32*,0.0,eInterpolationCubic
Z,33,0.0,eInterpolationCubic
Z,33*,0.0,eInterpolationCubic
Z,34,0.0,eInterpolationCubic
Z,34*,0.0,eInterpolationCubic
Z,35,0.0,eInterpolationCubic
Z,35*,0.0,eInterpolationCubic
Z,36,0.0,eInterpolationCubic
Z,36*,0.0,eInterpolationCubic
Z,37,0.0,eInterpolationCubic
Z,37*,0.0,eInterpolationCubic
Z,38,0.0,eInterpolationCubic
Z,38*,0.0,eInterpolationCubic
Z,39,0.0,eInterpolationCubic
Z,39*,0.0,eInterpolationCubic
Z,40,0.0,eInterpolationCubic
Z,40*,0.0,eInterpolationCubic
Z,41,0.0,eInterpolationCubic
Z,41*,0.0,eInterpolationCubic
Z,42,0.0,eInterpolationCubic
Z,42*,0.0,eInterpolationCubic
Z,43,0.0,eInterpolationCubic
Z,43*,0.0,eInterpolationCubic
Z,44,0.0,eInterpolationCubic
Z,44*,0.0,eInterpolationCubic
Z,45,0.0,eInterpolationCubic
Z,45*,0.0,eInterpolationCubic
Z,46,0.0,eInterpolationCubic
Z,46*,0.0,eInterpolationCubic
Z,47,0.0,eInterpolationCubic
Z,47*,0.0,eInterpolationCubic
Z,48,0.0,eInterpolationCubic
Z,48*,0.0,eInterpolationCubic
Z,49,0.0,eInterpolationCubic
Z,49*,0.0,eInterpolationCubic
Z,50,0.0,eInterpolationCubic
Z,50*,0.0,eInterpolationCubic
Z,51,0.0,eInterpolationCubic
Z,51*,0.0,eInterpolationCubic
Z,52,0.0,eInterpolationCubic
Z,52*,0.0,eInterpolationCubic
Z,53,0.0,eInterpolationCubic
Z,53*,0.0,eInterpolationCubic
Z,54,0.0,eInterpolationCubic
Z,54*,0.0,eInterpolationCubic
Z,55,0.0,eInterpolationCubic
Z,55*,0.0,eInterpolationCubic
Z,56,0.0,eInterpolationCubic
Z,56*,0.0,eInterpolationCubic
Z,57,0.0,eInterpolationCubic
Z,57*,0.0,eInterpolationCubic
Z,58,0.0,eInterpolationCubic
Z,58*,0.0,eInterpolationCubic
Z,59,0.0,eInterpolationCubic
Z,59*,0.0,eInterpolationCubic
Z,60,0.0,eInterpolationCubic
Z,60*,0.0,eInterpolationCubic
Z,61,0.0,eInterpolationCubic
Z,61*,0.0,eInterpolationCubic
Z,62,0.0,eInterpolationCubic
Z,62*,0.0,eInterpolationCubic
Z,63,0.0,eInterpolationCubic
Z,63*,0.0,eInterpolationCubic
Z,64,0.0,eInterpolationCubic
Z,64*,0.0,eInterpolationCubic
Z,65,0.0,eInterpolationCubic
Z,65*,0.0,eInterpolationCubic
Z,66,0.0,eInterpolationCubic
Z,66*,0.0,eInterpolationCubic
Z,67,0.0,eInterpolationCubic
Z,67*,0.0,eInterpolationCubic
Z,68,0.0,eInterpolationCubic
Z,68*,0.0,eInterpolationCubic
Z,69,0.0,eInterpolationCubic
Z,69*,0.0,eInterpolationCubic
Z,70,0.0,eInterpolationCubic
Z,70*,0.0,eInterpolationCubic
Z,71,0.0,eInterpolationCubic
Z,71*,0.0,eInterpolationCubic
Z,72,0.0,eInterpolationCubic
Z,72*,0.0,eInterpolationCubic
Z,73,0.0,eInterpolationCubic
Z,73*,0.0,eInterpolationCubic
Z,74,0.0,eInterpolationCubic
Z,74*,0.0,eInterpolationCubic
Z,75,0.0,eInterpolationCubic
Z,75*,0.0,eInterpolationConstant
