Axis,KeyFrame,Value,InterpolationType
X,0,0.0,eInterpolationCubic
X,0*,22.284454345703125,eInterpolationCubic
X,1,45.172794342041016,eInterpolationCubic
X,1*,66.85336303710938,eInterpolationCubic
X,2,85.51448822021484,eInterpolationCubic
X,2*,101.90838623046875,eInterpolationCubic
X,3,117.95257568359375,eInterpolationCubic
X,3*,133.58334350585938,eInterpolationCubic
X,4,148.73696899414062,eInterpolationCubic
X,4*,163.34971618652344,eInterpolationCubic
X,5,177.35787963867188,eInterpolationCubic
X,5*,190.69775390625,eInterpolationCubic
X,6,203.30560302734375,eInterpolationCubic
X,6*,215.11769104003906,eInterpolationCubic
X,7,226.383056640625,eInterpolationCubic
X,7*,237.39895629882812,eInterpolationCubic
X,8,248.17417907714844,eInterpolationCubic
X,8*,258.7174987792969,eInterpolationCubic
X,9,269.03765869140625,eInterpolationCubic
X,9*,279.1434326171875,eInterpolationCubic
X,10,289.0436096191406,eInterpolationCubic
X,10*,298.7469482421875,eInterpolationCubic
X,11,308.26220703125,eInterpolationCubic
X,11*,317.59814453125,eInterpolationCubic
X,12,326.7635498046875,eInterpolationCubic
X,12*,335.7671813964844,eInterpolationCubic
X,13,344.6177978515625,eInterpolationCubic
X,13*,353.3241882324219,eInterpolationCubic
X,14,361.8951416015625,eInterpolationCubic
X,14*,370.3393249511719,eInterpolationCubic
X,15,378.47747802734375,eInterpolationCubic
X,15*,386.1397705078125,eInterpolationCubic
X,16,393.3494567871094,eInterpolationCubic
X,16*,400.12982177734375,eInterpolationCubic
X,17,406.5039978027344,eInterpolationCubic
X,17*,412.49530029296875,eInterpolationCubic
X,18,418.126953125,eInterpolationCubic
X,18*,423.422119140625,eInterpolationCubic
X,19,428.40411376953125,eInterpolationCubic
X,19*,433.0960998535156,eInterpolationCubic
X,20,437.51165771484375,eInterpolationCubic
X,20*,441.6476745605469,eInterpolationCubic
X,21,445.5022888183594,eInterpolationCubic
X,21*,449.0736999511719,eInterpolationCubic
X,22,452.3600158691406,eInterpolationCubic
X,22*,455.3594665527344,eInterpolationCubic
X,23,458.0701599121094,eInterpolationCubic
X,23*,460.4902648925781,eInterpolationCubic
X,24,462.6179504394531,eInterpolationCubic
X,24*,464.4514465332031,eInterpolationCubic
X,25,465.98876953125,eInterpolationCubic
X,25*,467.3722839355469,eInterpolationCubic
X,26,468.7442321777344,eInterpolationCubic
X,26*,470.102783203125,eInterpolationCubic
X,27,471.4460754394531,eInterpolationCubic
X,27*,472.7723083496094,eInterpolationCubic
X,28,474.0796203613281,eInterpolationCubic
X,28*,475.3662414550781,eInterpolationCubic
X,29,476.63031005859375,eInterpolationCubic
X,29*,477.8699951171875,eInterpolationCubic
X,30,479.08343505859375,eInterpolationCubic
X,30*,480.2688903808594,eInterpolationCubic
X,31,481.4244384765625,eInterpolationCubic
X,31*,482.5483093261719,eInterpolationCubic
X,32,483.63861083984375,eInterpolationCubic
X,32*,484.693603515625,eInterpolationCubic
X,33,485.7113952636719,eInterpolationCubic
X,33*,486.6901550292969,eInterpolationCubic
X,34,487.6280822753906,eInterpolationCubic
X,34*,488.5233459472656,eInterpolationCubic
X,35,489.37408447265625,eInterpolationCubic
X,35*,490.1784973144531,eInterpolationCubic
X,36,490.9347839355469,eInterpolationCubic
X,36*,491.64105224609375,eInterpolationCubic
X,37,492.2955017089844,eInterpolationCubic
X,37*,492.89630126953125,eInterpolationCubic
X,38,493.4416198730469,eInterpolationCubic
X,38*,493.9296569824219,eInterpolationCubic
X,39,494.3585510253906,eInterpolationCubic
X,39*,494.7264709472656,eInterpolationCubic
X,40,495.0315856933594,eInterpolationCubic
X,40*,495.2720947265625,eInterpolationCubic
X,41,495.4461364746094,eInterpolationCubic
X,41*,495.55194091796875,eInterpolationCubic
X,42,495.58758544921875,eInterpolationCubic
X,42*,495.58758544921875,eInterpolationConstant
Y,0,-0.0,eInterpolationCubic
Y,0*,3.9960241338121705e-06,eInterpolationCubic
Y,1,8.082727617875207e-06,eInterpolationCubic
Y,1*,1.225674986926606e-05,eInterpolationCubic
Y,2,1.6514735762029886e-05,eInterpolationCubic
Y,2*,2.0853323803748935e-05,eInterpolationCubic
Y,3,2.5269157049478963e-05,eInterpolationCubic
Y,3*,2.975887582579162e-05,eInterpolationCubic
Y,4,3.431912773521617e-05,eInterpolationCubic
Y,4*,3.8946542190387845e-05,eInterpolationCubic
Y,5,4.3637770431814715e-05,eInterpolationCubic
Y,5*,4.838945096707903e-05,eInterpolationCubic
Y,6,5.319822594174184e-05,eInterpolationCubic
Y,6*,5.8060733863385394e-05,eInterpolationCubic
Y,7,6.297362415352836e-05,eInterpolationCubic
Y,7*,6.793352804379538e-05,eInterpolationCubic
Y,8,7.29370949557051e-05,eInterpolationCubic
Y,8*,7.798097067279741e-05,eInterpolationCubic
Y,9,8.306177915073931e-05,eInterpolationCubic
Y,9*,8.817617344902828e-05,eInterpolationCubic
Y,10,9.332079935120419e-05,eInterpolationCubic
Y,10*,9.849228808889166e-05,eInterpolationCubic
Y,11,0.00010368728544563055,eInterpolationCubic
Y,11*,0.00010890243720496073,eInterpolationCubic
Y,12,0.00011413437459850684,eInterpolationCubic
Y,12*,0.00011937975068576634,eInterpolationCubic
Y,13,0.00012463520397432148,eInterpolationCubic
Y,13*,0.00012989738024771214,eInterpolationCubic
Y,14,0.0001351629034616053,eInterpolationCubic
Y,14*,0.00014042842667549849,eInterpolationCubic
Y,15,0.0001456905883969739,eInterpolationCubic
Y,15*,0.00015094605623744428,eInterpolationCubic
Y,16,0.00015619142504874617,eInterpolationCubic
Y,16*,0.0001614233769942075,eInterpolationCubic
Y,17,0.00016663852147758007,eInterpolationCubic
Y,17*,0.00017183351155836135,eInterpolationCubic
Y,18,0.00017700501484796405,eInterpolationCubic
Y,18*,0.00018214962619822472,eInterpolationCubic
Y,19,0.0001872640277724713,eInterpolationCubic
Y,19*,0.00019234484352637082,eInterpolationCubic
Y,20,0.00019738871196750551,eInterpolationCubic
Y,20*,0.00020239227160345763,eInterpolationCubic
Y,21,0.00020735217549372464,eInterpolationCubic
Y,21*,0.0002122650621458888,eInterpolationCubic
Y,22,0.00021712757006753236,eInterpolationCubic
Y,22*,0.00022193635231815279,eInterpolationCubic
Y,23,0.0002266880328534171,eInterpolationCubic
Y,23*,0.00023137926473282278,eInterpolationCubic
Y,24,0.00023600668646395206,eInterpolationCubic
Y,24*,0.00024056692200247198,eInterpolationCubic
Y,25,0.0002450566680636257,eInterpolationCubic
Y,25*,0.00024947247584350407,eInterpolationCubic
Y,26,0.00025381107116118073,eInterpolationCubic
Y,26*,0.00025806904886849225,eInterpolationCubic
Y,27,0.00026224309112876654,eInterpolationCubic
Y,27*,0.0002663297636900097,eInterpolationCubic
Y,28,0.0002703258069232106,eInterpolationCubic
Y,28*,0.00027422778657637537,eInterpolationCubic
Y,29,0.0002780323848128319,eInterpolationCubic
Y,29*,0.0002817362255882472,eInterpolationCubic
Y,30,0.00028533596196211874,eInterpolationCubic
Y,30*,0.00028882818878628314,eInterpolationCubic
Y,31,0.00029220961732789874,eInterpolationCubic
Y,31*,0.0002954768424388021,eInterpolationCubic
Y,32,0.0002986265462823212,eInterpolationCubic
Y,32*,0.0003016553237102926,eInterpolationCubic
Y,33,0.0003045598277822137,eInterpolationCubic
Y,33*,0.0003073367406614125,eInterpolationCubic
Y,34,0.0003099826571997255,eInterpolationCubic
Y,34*,0.00031249423045665026,eInterpolationCubic
Y,35,0.00031486814259551466,eInterpolationCubic
Y,35*,0.0003171009593643248,eInterpolationCubic
Y,36,0.00031918936292640865,eInterpolationCubic
Y,36*,0.00032113000634126365,eInterpolationCubic
Y,37,0.00032291951356455684,eInterpolationCubic
Y,37*,0.0003245545085519552,eInterpolationCubic
Y,38,0.00032603167346678674,eInterpolationCubic
Y,38*,0.00032734766136854887,eInterpolationCubic
Y,39,0.00032849906710907817,eInterpolationCubic
Y,39*,0.0003294825437478721,eInterpolationCubic
Y,40,0.0003302947152405977,eInterpolationCubic
Y,40*,0.00033093226375058293,eInterpolationCubic
Y,41,0.00033139181323349476,eInterpolationCubic
Y,41*,0.0003316700167488307,eInterpolationCubic
Y,42,0.0003317634982522577,eInterpolationCubic
Y,42*,0.0003317634982522577,eInterpolationConstant
Z,0,0.0,eInterpolationCubic
Z,0*,0.0,eInterpolationCubic
Z,1,0.0,eInterpolationCubic
Z,1*,0.0,eInterpolationCubic
Z,2,0.0,eInterpolationCubic
Z,2*,0.0,eInterpolationCubic
Z,3,0.0,eInterpolationCubic
Z,3*,0.0,eInterpolationCubic
Z,4,0.0,eInterpolationCubic
Z,4*,0.0,eInterpolationCubic
Z,5,0.0,eInterpolationCubic
Z,5*,0.0,eInterpolationCubic
Z,6,0.0,eInterpolationCubic
Z,6*,0.0,eInterpolationCubic
Z,7,0.0,eInterpolationCubic
Z,7*,0.0,eInterpolationCubic
Z,8,0.0,eInterpolationCubic
Z,8*,0.0,eInterpolationCubic
Z,9,0.0,eInterpolationCubic
Z,9*,0.0,eInterpolationCubic
Z,10,0.0,eInterpolationCubic
Z,10*,0.0,eInterpolationCubic
Z,11,0.0,eInterpolationCubic
Z,11*,0.0,eInterpolationCubic
Z,12,0.0,eInterpolationCubic
Z,12*,0.0,eInterpolationCubic
Z,13,0.0,eInterpolationCubic
Z,13*,0.0,eInterpolationCubic
Z,14,0.0,eInterpolationCubic
Z,14*,0.0,eInterpolationCubic
Z,15,0.0,eInterpolationCubic
Z,15*,0.0,eInterpolationCubic
Z,16,0.0,eInterpolationCubic
Z,16*,0.0,eInterpolationCubic
Z,17,0.0,eInterpolationCubic
Z,17*,0.0,eInterpolationCubic
Z,18,0.0,eInterpolationCubic
Z,18*,0.0,eInterpolationCubic
Z,19,0.0,eInterpolationCubic
Z,19*,0.0,eInterpolationCubic
Z,20,0.0,eInterpolationCubic
Z,20*,0.0,eInterpolationCubic
Z,21,0.0,eInterpolationCubic
Z,21*,0.0,eInterpolationCubic
Z,22,0.0,eInterpolationCubic
Z,22*,0.0,eInterpolationCubic
Z,23,0.0,eInterpolationCubic
Z,23*,0.0,eInterpolationCubic
Z,24,0.0,eInterpolationCubic
Z,24*,0.0,eInterpolationCubic
Z,25,0.0,eInterpolationCubic
Z,25*,0.0,eInterpolationCubic
Z,26,0.0,eInterpolationCubic
Z,26*,0.0,eInterpolationCubic
Z,27,0.0,eInterpolationCubic
Z,27*,0.0,eInterpolationCubic
Z,28,0.0,eInterpolationCubic
Z,28*,0.0,eInterpolationCubic
Z,29,0.0,eInterpolationCubic
Z,29*,0.0,eInterpolationCubic
Z,30,0.0,eInterpolationCubic
Z,30*,0.0,eInterpolationCubic
Z,31,0.0,eInterpolationCubic
Z,31*,0.0,eInterpolationCubic
Z,32,0.0,eInterpolationCubic
Z,32*,0.0,eInterpolationCubic
Z,33,0.0,eInterpolationCubic
Z,33*,0.0,eInterpolationCubic
Z,34,0.0,eInterpolationCubic
Z,34*,0.0,eInterpolationCubic
Z,35,0.0,eInterpolationCubic
Z,35*,0.0,eInterpolationCubic
Z,36,0.0,eInterpolationCubic
Z,36*,0.0,eInterpolationCubic
Z,37,0.0,eInterpolationCubic
Z,37*,0.0,eInterpolationCubic
Z,38,0.0,eInterpolationCubic
Z,38*,0.0,eInterpolationCubic
Z,39,0.0,eInterpolationCubic
Z,39*,0.0,eInterpolationCubic
Z,40,0.0,eInterpolationCubic
Z,40*,0.0,eInterpolationCubic
Z,41,0.0,eInterpolationCubic
Z,41*,0.0,eInterpolationCubic
Z,42,0.0,eInterpolationCubic
Z,42*,0.0,eInterpolationConstant
