Axis,KeyFrame,Value,InterpolationType
X,0,0.0,eInterpolationCubic
X,0*,0.0,eInterpolationCubic
X,1,0.0,eInterpolationCubic
X,1*,0.0,eInterpolationCubic
X,2,0.0,eInterpolationCubic
X,2*,0.0,eInterpolationCubic
X,3,0.0,eInterpolationCubic
X,3*,0.0,eInterpolationCubic
X,4,0.0,eInterpolationCubic
X,4*,0.0,eInterpolationCubic
X,5,0.0,eInterpolationCubic
X,5*,0.0,eInterpolationCubic
X,6,0.0,eInterpolationCubic
X,6*,0.0,eInterpolationCubic
X,7,0.0,eInterpolationCubic
X,7*,0.0,eInterpolationCubic
X,8,0.0,eInterpolationCubic
X,8*,0.0,eInterpolationCubic
X,9,0.0,eInterpolationCubic
X,9*,0.0,eInterpolationCubic
X,10,0.0,eInterpolationCubic
X,10*,0.0,eInterpolationCubic
X,11,0.0,eInterpolationCubic
X,11*,0.0,eInterpolationCubic
X,12,0.0,eInterpolationCubic
X,12*,0.0,eInterpolationCubic
X,13,0.0,eInterpolationCubic
X,13*,0.0,eInterpolationCubic
X,14,0.0,eInterpolationCubic
X,14*,0.0,eInterpolationCubic
X,15,0.0,eInterpolationCubic
X,15*,0.0,eInterpolationCubic
X,16,0.0,eInterpolationCubic
X,16*,0.0,eInterpolationCubic
X,17,0.0,eInterpolationCubic
X,17*,0.0,eInterpolationCubic
X,18,0.0,eInterpolationCubic
X,18*,0.0,eInterpolationCubic
X,19,0.0,eInterpolationCubic
X,19*,0.0,eInterpolationCubic
X,20,0.0,eInterpolationCubic
X,20*,0.0,eInterpolationCubic
X,21,0.0,eInterpolationCubic
X,21*,0.0,eInterpolationCubic
X,22,0.0,eInterpolationCubic
X,22*,0.0,eInterpolationCubic
X,23,0.0,eInterpolationCubic
X,23*,0.0,eInterpolationCubic
X,24,0.0,eInterpolationCubic
X,24*,0.0,eInterpolationCubic
X,25,0.0,eInterpolationCubic
X,25*,0.0,eInterpolationCubic
X,26,0.0,eInterpolationCubic
X,26*,0.0,eInterpolationCubic
X,27,0.0,eInterpolationCubic
X,27*,0.0,eInterpolationCubic
X,28,0.0,eInterpolationCubic
X,28*,0.0,eInterpolationCubic
X,29,0.0,eInterpolationCubic
X,29*,0.0,eInterpolationCubic
X,30,0.0,eInterpolationCubic
X,30*,0.0,eInterpolationCubic
X,31,0.0,eInterpolationCubic
X,31*,0.0,eInterpolationCubic
X,32,0.0,eInterpolationCubic
X,32*,0.0,eInterpolationCubic
X,33,0.0,eInterpolationCubic
X,33*,0.0,eInterpolationCubic
X,34,0.0,eInterpolationCubic
X,34*,0.0,eInterpolationCubic
X,35,0.0,eInterpolationCubic
X,35*,0.0,eInterpolationCubic
X,36,0.0,eInterpolationCubic
X,36*,0.0,eInterpolationCubic
X,37,0.0,eInterpolationCubic
X,37*,0.0,eInterpolationCubic
X,38,0.0,eInterpolationCubic
X,38*,0.0,eInterpolationCubic
X,39,0.0,eInterpolationCubic
X,39*,0.0,eInterpolationCubic
X,40,0.0,eInterpolationCubic
X,40*,0.0,eInterpolationCubic
X,41,0.0,eInterpolationCubic
X,41*,0.0,eInterpolationCubic
X,42,0.0,eInterpolationCubic
X,42*,0.0,eInterpolationCubic
X,43,0.0,eInterpolationCubic
X,43*,0.0,eInterpolationCubic
X,44,0.0,eInterpolationCubic
X,44*,0.0,eInterpolationCubic
X,45,0.0,eInterpolationCubic
X,45*,0.0,eInterpolationCubic
X,46,0.0,eInterpolationCubic
X,46*,0.0,eInterpolationCubic
X,47,0.0,eInterpolationCubic
X,47*,0.0,eInterpolationCubic
X,48,0.0,eInterpolationCubic
X,48*,0.0,eInterpolationCubic
X,49,0.0,eInterpolationCubic
X,49*,0.0,eInterpolationCubic
X,50,0.0,eInterpolationCubic
X,50*,0.0,eInterpolationCubic
X,51,0.0,eInterpolationCubic
X,51*,0.0,eInterpolationCubic
X,52,0.0,eInterpolationCubic
X,52*,0.0,eInterpolationCubic
X,53,0.0,eInterpolationCubic
X,53*,0.0,eInterpolationCubic
X,54,0.0,eInterpolationCubic
X,54*,0.0,eInterpolationCubic
X,55,0.0,eInterpolationCubic
X,55*,0.0,eInterpolationCubic
X,56,0.0,eInterpolationCubic
X,56*,0.0,eInterpolationCubic
X,57,0.0,eInterpolationCubic
X,57*,0.0,eInterpolationCubic
X,58,0.0,eInterpolationCubic
X,58*,0.0,eInterpolationCubic
X,59,0.0,eInterpolationCubic
X,59*,0.0,eInterpolationCubic
X,60,0.0,eInterpolationCubic
X,60*,0.0,eInterpolationCubic
X,61,0.0,eInterpolationCubic
X,61*,0.0,eInterpolationCubic
X,62,0.0,eInterpolationCubic
X,62*,0.0,eInterpolationCubic
X,63,0.0,eInterpolationCubic
X,63*,0.0,eInterpolationCubic
X,64,0.0,eInterpolationCubic
X,64*,0.0,eInterpolationCubic
X,65,0.0,eInterpolationCubic
X,65*,0.0,eInterpolationCubic
X,66,0.0,eInterpolationCubic
X,66*,0.0,eInterpolationCubic
X,67,0.0,eInterpolationCubic
X,67*,0.0,eInterpolationCubic
X,68,0.0,eInterpolationCubic
X,68*,0.0,eInterpolationCubic
X,69,0.0,eInterpolationCubic
X,69*,0.0,eInterpolationCubic
X,70,0.0,eInterpolationCubic
X,70*,0.0,eInterpolationCubic
X,71,0.0,eInterpolationCubic
X,71*,0.0,eInterpolationCubic
X,72,0.0,eInterpolationCubic
X,72*,0.0,eInterpolationCubic
X,73,0.0,eInterpolationCubic
X,73*,0.0,eInterpolationCubic
X,74,0.0,eInterpolationCubic
X,74*,0.0,eInterpolationCubic
X,75,0.0,eInterpolationCubic
X,75*,0.0,eInterpolationCubic
X,76,0.0,eInterpolationCubic
X,76*,0.0,eInterpolationCubic
X,77,0.0,eInterpolationCubic
X,77*,0.0,eInterpolationCubic
X,78,0.0,eInterpolationCubic
X,78*,0.0,eInterpolationCubic
X,79,0.0,eInterpolationCubic
X,79*,0.0,eInterpolationCubic
X,80,0.0,eInterpolationCubic
X,80*,0.0,eInterpolationCubic
X,81,0.0,eInterpolationCubic
X,81*,0.0,eInterpolationCubic
X,82,0.0,eInterpolationCubic
X,82*,0.0,eInterpolationCubic
X,83,0.0,eInterpolationCubic
X,83*,0.0,eInterpolationCubic
X,84,0.0,eInterpolationCubic
X,84*,0.0,eInterpolationCubic
X,85,0.0,eInterpolationCubic
X,85*,0.0,eInterpolationCubic
X,86,0.0,eInterpolationCubic
X,86*,0.0,eInterpolationCubic
X,87,0.0,eInterpolationCubic
X,87*,0.0,eInterpolationCubic
X,88,0.0,eInterpolationCubic
X,88*,0.0,eInterpolationCubic
X,89,0.0,eInterpolationCubic
X,89*,0.0,eInterpolationCubic
X,90,0.0,eInterpolationCubic
X,90*,0.0,eInterpolationConstant
Y,0,-0.0,eInterpolationCubic
Y,0*,-0.7861089110374451,eInterpolationCubic
Y,1,-2.9949235916137695,eInterpolationCubic
Y,1*,-6.4019455909729,eInterpolationCubic
Y,2,-10.78271770477295,eInterpolationCubic
Y,2*,-15.912784576416016,eInterpolationCubic
Y,3,-21.567691802978516,eInterpolationCubic
Y,3*,-27.52297592163086,eInterpolationCubic
Y,4,-33.5541877746582,eInterpolationCubic
Y,4*,-39.436866760253906,eInterpolationCubic
Y,5,-44.94655990600586,eInterpolationCubic
Y,5*,-49.85881042480469,eInterpolationCubic
Y,6,-53.949153900146484,eInterpolationCubic
Y,6*,-57.258544921875,eInterpolationCubic
Y,7,-60.466060638427734,eInterpolationCubic
Y,7*,-63.561126708984375,eInterpolationCubic
Y,8,-66.53316497802734,eInterpolationCubic
Y,8*,-69.3716049194336,eInterpolationCubic
Y,9,-72.06586456298828,eInterpolationCubic
Y,9*,-74.60535430908203,eInterpolationCubic
Y,10,-76.9795150756836,eInterpolationCubic
Y,10*,-79.17777252197266,eInterpolationCubic
Y,11,-81.18952941894531,eInterpolationCubic
Y,11*,-83.00422668457031,eInterpolationCubic
Y,12,-84.61127471923828,eInterpolationCubic
Y,12*,-86.00011444091797,eInterpolationCubic
Y,13,-87.16014862060547,eInterpolationCubic
Y,13*,-88.080810546875,eInterpolationCubic
Y,14,-88.75152587890625,eInterpolationCubic
Y,14*,-89.16170501708984,eInterpolationCubic
Y,15,-89.30078887939453,eInterpolationCubic
Y,15*,-88.79054260253906,eInterpolationCubic
Y,16,-87.37589263916016,eInterpolationCubic
Y,16*,-85.23096466064453,eInterpolationCubic
Y,17,-82.52987670898438,eInterpolationCubic
Y,17*,-79.4467544555664,eInterpolationCubic
Y,18,-76.15571594238281,eInterpolationCubic
Y,18*,-72.83088684082031,eInterpolationCubic
Y,19,-69.6463851928711,eInterpolationCubic
Y,19*,-66.77635192871094,eInterpolationCubic
Y,20,-64.39488220214844,eInterpolationCubic
Y,20*,-62.42201232910156,eInterpolationCubic
Y,21,-60.65168380737305,eInterpolationCubic
Y,21*,-59.06889343261719,eInterpolationCubic
Y,22,-57.65864944458008,eInterpolationCubic
Y,22*,-56.40595245361328,eInterpolationCubic
Y,23,-55.29581069946289,eInterpolationCubic
Y,23*,-54.31322479248047,eInterpolationCubic
Y,24,-53.44319534301758,eInterpolationCubic
Y,24*,-52.67073059082031,eInterpolationCubic
Y,25,-51.9808349609375,eInterpolationCubic
Y,25*,-51.35850524902344,eInterpolationCubic
Y,26,-50.78874969482422,eInterpolationCubic
Y,26*,-50.25657272338867,eInterpolationCubic
Y,27,-49.746978759765625,eInterpolationCubic
Y,27*,-49.244964599609375,eInterpolationCubic
Y,28,-48.73554229736328,eInterpolationCubic
Y,28*,-48.20371627807617,eInterpolationCubic
Y,29,-47.63447570800781,eInterpolationCubic
Y,29*,-47.012840270996094,eInterpolationCubic
Y,30,-46.32381057739258,eInterpolationCubic
Y,30*,-45.57603454589844,eInterpolationCubic
Y,31,-44.795616149902344,eInterpolationCubic
Y,31*,-43.99371337890625,eInterpolationCubic
Y,32,-43.18149185180664,eInterpolationCubic
Y,32*,-42.37010955810547,eInterpolationCubic
Y,33,-41.57072830200195,eInterpolationCubic
Y,33*,-40.79450988769531,eInterpolationCubic
Y,34,-40.052608489990234,eInterpolationCubic
Y,34*,-39.35619354248047,eInterpolationCubic
Y,35,-38.7164192199707,eInterpolationCubic
Y,35*,-38.14445495605469,eInterpolationCubic
Y,36,-37.65145492553711,eInterpolationCubic
Y,36*,-37.24858093261719,eInterpolationCubic
Y,37,-36.94699478149414,eInterpolationCubic
Y,37*,-36.75786209106445,eInterpolationCubic
Y,38,-36.69233322143555,eInterpolationCubic
Y,38*,-36.69233322143555,eInterpolationCubic
Y,39,-36.69233322143555,eInterpolationCubic
Y,39*,-36.69233322143555,eInterpolationCubic
Y,40,-36.69233322143555,eInterpolationCubic
Y,40*,-36.69233322143555,eInterpolationCubic
Y,41,-36.69233322143555,eInterpolationCubic
Y,41*,-36.69233322143555,eInterpolationCubic
Y,42,-36.69233322143555,eInterpolationCubic
Y,42*,-36.69233322143555,eInterpolationCubic
Y,43,-36.69233322143555,eInterpolationCubic
Y,43*,-36.69233322143555,eInterpolationCubic
Y,44,-36.69233322143555,eInterpolationCubic
Y,44*,-36.69233322143555,eInterpolationCubic
Y,45,-36.69233322143555,eInterpolationCubic
Y,45*,-36.69233322143555,eInterpolationCubic
Y,46,-36.69233322143555,eInterpolationCubic
Y,46*,-36.69233322143555,eInterpolationCubic
Y,47,-36.69233322143555,eInterpolationCubic
Y,47*,-36.69233322143555,eInterpolationCubic
Y,48,-36.69233322143555,eInterpolationCubic
Y,48*,-36.69233322143555,eInterpolationCubic
Y,49,-36.69233322143555,eInterpolationCubic
Y,49*,-36.69233322143555,eInterpolationCubic
Y,50,-36.69233322143555,eInterpolationCubic
Y,50*,-36.69233322143555,eInterpolationCubic
Y,51,-36.69233322143555,eInterpolationCubic
Y,51*,-36.69233322143555,eInterpolationCubic
Y,52,-36.69233322143555,eInterpolationCubic
Y,52*,-36.69233322143555,eInterpolationCubic
Y,53,-36.69233322143555,eInterpolationCubic
Y,53*,-36.69233322143555,eInterpolationCubic
Y,54,-36.69233322143555,eInterpolationCubic
Y,54*,-36.69233322143555,eInterpolationCubic
Y,55,-36.69233322143555,eInterpolationCubic
Y,55*,-36.69233322143555,eInterpolationCubic
Y,56,-36.69233322143555,eInterpolationCubic
Y,56*,-36.69233322143555,eInterpolationCubic
Y,57,-36.69233322143555,eInterpolationCubic
Y,57*,-36.69233322143555,eInterpolationCubic
Y,58,-36.69233322143555,eInterpolationCubic
Y,58*,-36.69233322143555,eInterpolationCubic
Y,59,-36.69233322143555,eInterpolationCubic
Y,59*,-36.69233322143555,eInterpolationCubic
Y,60,-36.69233322143555,eInterpolationCubic
Y,60*,-36.69233322143555,eInterpolationCubic
Y,61,-36.69233322143555,eInterpolationCubic
Y,61*,-36.69233322143555,eInterpolationCubic
Y,62,-36.69233322143555,eInterpolationCubic
Y,62*,-36.69233322143555,eInterpolationCubic
Y,63,-36.69233322143555,eInterpolationCubic
Y,63*,-36.69233322143555,eInterpolationCubic
Y,64,-36.69233322143555,eInterpolationCubic
Y,64*,-36.69233322143555,eInterpolationCubic
Y,65,-36.69233322143555,eInterpolationCubic
Y,65*,-36.69233322143555,eInterpolationCubic
Y,66,-36.69233322143555,eInterpolationCubic
Y,66*,-36.69233322143555,eInterpolationCubic
Y,67,-36.69233322143555,eInterpolationCubic
Y,67*,-36.69233322143555,eInterpolationCubic
Y,68,-36.69233322143555,eInterpolationCubic
Y,68*,-36.69233322143555,eInterpolationCubic
Y,69,-36.69233322143555,eInterpolationCubic
Y,69*,-36.69233322143555,eInterpolationCubic
Y,70,-36.69233322143555,eInterpolationCubic
Y,70*,-36.69233322143555,eInterpolationCubic
Y,71,-36.69233322143555,eInterpolationCubic
Y,71*,-36.69233322143555,eInterpolationCubic
Y,72,-36.69233322143555,eInterpolationCubic
Y,72*,-36.69233322143555,eInterpolationCubic
Y,73,-36.69233322143555,eInterpolationCubic
Y,73*,-36.69233322143555,eInterpolationCubic
Y,74,-36.69233322143555,eInterpolationCubic
Y,74*,-36.69233322143555,eInterpolationCubic
Y,75,-36.69233322143555,eInterpolationCubic
Y,75*,-36.69233322143555,eInterpolationCubic
Y,76,-36.69233322143555,eInterpolationCubic
Y,76*,-36.69233322143555,eInterpolationCubic
Y,77,-36.69233322143555,eInterpolationCubic
Y,77*,-36.69233322143555,eInterpolationCubic
Y,78,-36.69233322143555,eInterpolationCubic
Y,78*,-36.69233322143555,eInterpolationCubic
Y,79,-36.69233322143555,eInterpolationCubic
Y,79*,-36.69233322143555,eInterpolationCubic
Y,80,-36.69233322143555,eInterpolationCubic
Y,80*,-36.69233322143555,eInterpolationCubic
Y,81,-36.69233322143555,eInterpolationCubic
Y,81*,-36.69233322143555,eInterpolationCubic
Y,82,-36.69233322143555,eInterpolationCubic
Y,82*,-36.69233322143555,eInterpolationCubic
Y,83,-36.69233322143555,eInterpolationCubic
Y,83*,-36.69233322143555,eInterpolationCubic
Y,84,-36.69233322143555,eInterpolationCubic
Y,84*,-36.69233322143555,eInterpolationCubic
Y,85,-36.69233322143555,eInterpolationCubic
Y,85*,-36.69233322143555,eInterpolationCubic
Y,86,-36.69233322143555,eInterpolationCubic
Y,86*,-36.69233322143555,eInterpolationCubic
Y,87,-36.69233322143555,eInterpolationCubic
Y,87*,-36.69233322143555,eInterpolationCubic
Y,88,-36.69233322143555,eInterpolationCubic
Y,88*,-36.69233322143555,eInterpolationCubic
Y,89,-36.69233322143555,eInterpolationCubic
Y,89*,-36.69233322143555,eInterpolationCubic
Y,90,-36.69233322143555,eInterpolationCubic
Y,90*,-36.69233322143555,eInterpolationConstant
Z,0,0.0,eInterpolationCubic
Z,0*,0.0,eInterpolationCubic
Z,1,0.0,eInterpolationCubic
Z,1*,0.0,eInterpolationCubic
Z,2,0.0,eInterpolationCubic
Z,2*,0.0,eInterpolationCubic
Z,3,0.0,eInterpolationCubic
Z,3*,0.0,eInterpolationCubic
Z,4,0.0,eInterpolationCubic
Z,4*,0.0,eInterpolationCubic
Z,5,0.0,eInterpolationCubic
Z,5*,0.0,eInterpolationCubic
Z,6,0.0,eInterpolationCubic
Z,6*,0.0,eInterpolationCubic
Z,7,0.0,eInterpolationCubic
Z,7*,0.0,eInterpolationCubic
Z,8,0.0,eInterpolationCubic
Z,8*,0.0,eInterpolationCubic
Z,9,0.0,eInterpolationCubic
Z,9*,0.0,eInterpolationCubic
Z,10,0.0,eInterpolationCubic
Z,10*,0.0,eInterpolationCubic
Z,11,0.0,eInterpolationCubic
Z,11*,0.0,eInterpolationCubic
Z,12,0.0,eInterpolationCubic
Z,12*,0.0,eInterpolationCubic
Z,13,0.0,eInterpolationCubic
Z,13*,0.0,eInterpolationCubic
Z,14,0.0,eInterpolationCubic
Z,14*,0.0,eInterpolationCubic
Z,15,0.0,eInterpolationCubic
Z,15*,0.0,eInterpolationCubic
Z,16,0.0,eInterpolationCubic
Z,16*,0.0,eInterpolationCubic
Z,17,0.0,eInterpolationCubic
Z,17*,0.0,eInterpolationCubic
Z,18,0.0,eInterpolationCubic
Z,18*,0.0,eInterpolationCubic
Z,19,0.0,eInterpolationCubic
Z,19*,0.0,eInterpolationCubic
Z,20,0.0,eInterpolationCubic
Z,20*,0.0,eInterpolationCubic
Z,21,0.0,eInterpolationCubic
Z,21*,0.0,eInterpolationCubic
Z,22,0.0,eInterpolationCubic
Z,22*,0.0,eInterpolationCubic
Z,23,0.0,eInterpolationCubic
Z,23*,0.0,eInterpolationCubic
Z,24,0.0,eInterpolationCubic
Z,24*,0.0,eInterpolationCubic
Z,25,0.0,eInterpolationCubic
Z,25*,0.0,eInterpolationCubic
Z,26,0.0,eInterpolationCubic
Z,26*,0.0,eInterpolationCubic
Z,27,0.0,eInterpolationCubic
Z,27*,0.0,eInterpolationCubic
Z,28,0.0,eInterpolationCubic
Z,28*,0.0,eInterpolationCubic
Z,29,0.0,eInterpolationCubic
Z,29*,0.0,eInterpolationCubic
Z,30,0.0,eInterpolationCubic
Z,30*,0.0,eInterpolationCubic
Z,31,0.0,eInterpolationCubic
Z,31*,0.0,eInterpolationCubic
Z,32,0.0,eInterpolationCubic
Z,32*,0.0,eInterpolationCubic
Z,33,0.0,eInterpolationCubic
Z,33*,0.0,eInterpolationCubic
Z,34,0.0,eInterpolationCubic
Z,34*,0.0,eInterpolationCubic
Z,35,0.0,eInterpolationCubic
Z,35*,0.0,eInterpolationCubic
Z,36,0.0,eInterpolationCubic
Z,36*,0.0,eInterpolationCubic
Z,37,0.0,eInterpolationCubic
Z,37*,0.0,eInterpolationCubic
Z,38,0.0,eInterpolationCubic
Z,38*,0.0,eInterpolationCubic
Z,39,0.0,eInterpolationCubic
Z,39*,0.0,eInterpolationCubic
Z,40,0.0,eInterpolationCubic
Z,40*,0.0,eInterpolationCubic
Z,41,0.0,eInterpolationCubic
Z,41*,0.0,eInterpolationCubic
Z,42,0.0,eInterpolationCubic
Z,42*,0.0,eInterpolationCubic
Z,43,0.0,eInterpolationCubic
Z,43*,0.0,eInterpolationCubic
Z,44,0.0,eInterpolationCubic
Z,44*,0.0,eInterpolationCubic
Z,45,0.0,eInterpolationCubic
Z,45*,0.0,eInterpolationCubic
Z,46,0.0,eInterpolationCubic
Z,46*,0.0,eInterpolationCubic
Z,47,0.0,eInterpolationCubic
Z,47*,0.0,eInterpolationCubic
Z,48,0.0,eInterpolationCubic
Z,48*,0.0,eInterpolationCubic
Z,49,0.0,eInterpolationCubic
Z,49*,0.0,eInterpolationCubic
Z,50,0.0,eInterpolationCubic
Z,50*,0.0,eInterpolationCubic
Z,51,0.0,eInterpolationCubic
Z,51*,0.0,eInterpolationCubic
Z,52,0.0,eInterpolationCubic
Z,52*,0.0,eInterpolationCubic
Z,53,0.0,eInterpolationCubic
Z,53*,0.0,eInterpolationCubic
Z,54,0.0,eInterpolationCubic
Z,54*,0.0,eInterpolationCubic
Z,55,0.0,eInterpolationCubic
Z,55*,0.0,eInterpolationCubic
Z,56,0.0,eInterpolationCubic
Z,56*,0.0,eInterpolationCubic
Z,57,0.0,eInterpolationCubic
Z,57*,0.0,eInterpolationCubic
Z,58,0.0,eInterpolationCubic
Z,58*,0.0,eInterpolationCubic
Z,59,0.0,eInterpolationCubic
Z,59*,0.0,eInterpolationCubic
Z,60,0.0,eInterpolationCubic
Z,60*,0.0,eInterpolationCubic
Z,61,0.0,eInterpolationCubic
Z,61*,0.0,eInterpolationCubic
Z,62,0.0,eInterpolationCubic
Z,62*,0.0,eInterpolationCubic
Z,63,0.0,eInterpolationCubic
Z,63*,0.0,eInterpolationCubic
Z,64,0.0,eInterpolationCubic
Z,64*,0.0,eInterpolationCubic
Z,65,0.0,eInterpolationCubic
Z,65*,0.0,eInterpolationCubic
Z,66,0.0,eInterpolationCubic
Z,66*,0.0,eInterpolationCubic
Z,67,0.0,eInterpolationCubic
Z,67*,0.0,eInterpolationCubic
Z,68,0.0,eInterpolationCubic
Z,68*,0.0,eInterpolationCubic
Z,69,0.0,eInterpolationCubic
Z,69*,0.0,eInterpolationCubic
Z,70,0.0,eInterpolationCubic
Z,70*,0.0,eInterpolationCubic
Z,71,0.0,eInterpolationCubic
Z,71*,0.0,eInterpolationCubic
Z,72,0.0,eInterpolationCubic
Z,72*,0.0,eInterpolationCubic
Z,73,0.0,eInterpolationCubic
Z,73*,0.0,eInterpolationCubic
Z,74,0.0,eInterpolationCubic
Z,74*,0.0,eInterpolationCubic
Z,75,0.0,eInterpolationCubic
Z,75*,0.0,eInterpolationCubic
Z,76,0.0,eInterpolationCubic
Z,76*,0.0,eInterpolationCubic
Z,77,0.0,eInterpolationCubic
Z,77*,0.0,eInterpolationCubic
Z,78,0.0,eInterpolationCubic
Z,78*,0.0,eInterpolationCubic
Z,79,0.0,eInterpolationCubic
Z,79*,0.0,eInterpolationCubic
Z,80,0.0,eInterpolationCubic
Z,80*,0.0,eInterpolationCubic
Z,81,0.0,eInterpolationCubic
Z,81*,0.0,eInterpolationCubic
Z,82,0.0,eInterpolationCubic
Z,82*,0.0,eInterpolationCubic
Z,83,0.0,eInterpolationCubic
Z,83*,0.0,eInterpolationCubic
Z,84,0.0,eInterpolationCubic
Z,84*,0.0,eInterpolationCubic
Z,85,0.0,eInterpolationCubic
Z,85*,0.0,eInterpolationCubic
Z,86,0.0,eInterpolationCubic
Z,86*,0.0,eInterpolationCubic
Z,87,0.0,eInterpolationCubic
Z,87*,0.0,eInterpolationCubic
Z,88,0.0,eInterpolationCubic
Z,88*,0.0,eInterpolationCubic
Z,89,0.0,eInterpolationCubic
Z,89*,0.0,eInterpolationCubic
Z,90,0.0,eInterpolationCubic
Z,90*,0.0,eInterpolationConstant
