Axis,KeyFrame,Value,InterpolationType
X,0,0.0,eInterpolationCubic
X,0*,-4.329818248748779,eInterpolationCubic
X,1,-9.215760231018066,eInterpolationCubic
X,1*,-14.419487953186035,eInterpolationCubic
X,2,-19.702659606933594,eInterpolationCubic
X,2*,-24.826940536499023,eInterpolationCubic
X,3,-29.553991317749023,eInterpolationCubic
X,3*,-33.645469665527344,eInterpolationCubic
X,4,-36.863040924072266,eInterpolationCubic
X,4*,-38.96836853027344,eInterpolationCubic
X,5,-39.723106384277344,eInterpolationCubic
X,5*,-39.723106384277344,eInterpolationCubic
X,6,-39.72275161743164,eInterpolationCubic
X,6*,-39.72231674194336,eInterpolationCubic
X,7,-39.72172546386719,eInterpolationCubic
X,7*,-39.720977783203125,eInterpolationCubic
X,8,-39.72008514404297,eInterpolationCubic
X,8*,-39.71905517578125,eInterpolationCubic
X,9,-39.717891693115234,eInterpolationCubic
X,9*,-39.71660614013672,eInterpolationCubic
X,10,-39.71520233154297,eInterpolationCubic
X,10*,-39.713687896728516,eInterpolationCubic
X,11,-39.712074279785156,eInterpolationCubic
X,11*,-39.710365295410156,eInterpolationCubic
X,12,-39.70856857299805,eInterpolationCubic
X,12*,-39.70669174194336,eInterpolationCubic
X,13,-39.70473861694336,eInterpolationCubic
X,13*,-39.70272445678711,eInterpolationCubic
X,14,-39.70064926147461,eInterpolationCubic
X,14*,-39.698524475097656,eInterpolationCubic
X,15,-39.696353912353516,eInterpolationCubic
X,15*,-39.694149017333984,eInterpolationCubic
X,16,-39.69191360473633,eInterpolationCubic
X,16*,-39.68965530395508,eInterpolationCubic
X,17,-39.68738555908203,eInterpolationCubic
X,17*,-39.68510818481445,eInterpolationCubic
X,18,-39.68282699584961,eInterpolationCubic
X,18*,-39.68055725097656,eInterpolationCubic
X,19,-39.67829895019531,eInterpolationCubic
X,19*,-39.676063537597656,eInterpolationCubic
X,20,-39.673858642578125,eInterpolationCubic
X,20*,-39.671688079833984,eInterpolationCubic
X,21,-39.66956329345703,eInterpolationCubic
X,21*,-39.66748809814453,eInterpolationCubic
X,22,-39.66547393798828,eInterpolationCubic
X,22*,-39.66352081298828,eInterpolationCubic
X,23,-39.66164779663086,eInterpolationCubic
X,23*,-39.659847259521484,eInterpolationCubic
X,24,-39.658138275146484,eInterpolationCubic
X,24*,-39.656524658203125,eInterpolationCubic
X,25,-39.65501022338867,eInterpolationCubic
X,25*,-39.65361022949219,eInterpolationCubic
X,26,-39.65232467651367,eInterpolationCubic
X,26*,-39.65115737915039,eInterpolationCubic
X,27,-39.65013122558594,eInterpolationCubic
X,27*,-39.649234771728516,eInterpolationCubic
X,28,-39.64848709106445,eInterpolationCubic
X,28*,-39.64789581298828,eInterpolationCubic
X,29,-39.647464752197266,eInterpolationCubic
X,29*,-39.64719772338867,eInterpolationCubic
X,30,-39.64719772338867,eInterpolationCubic
X,30*,-39.64719772338867,eInterpolationConstant
Y,0,-0.0,eInterpolationCubic
Y,0*,-0.0,eInterpolationCubic
Y,1,-0.0,eInterpolationCubic
Y,1*,-0.0,eInterpolationCubic
Y,2,-0.0,eInterpolationCubic
Y,2*,-0.0,eInterpolationCubic
Y,3,-0.0,eInterpolationCubic
Y,3*,-0.0,eInterpolationCubic
Y,4,-0.0,eInterpolationCubic
Y,4*,-0.0,eInterpolationCubic
Y,5,-0.0,eInterpolationCubic
Y,5*,-0.0,eInterpolationCubic
Y,6,-0.0,eInterpolationCubic
Y,6*,-0.0,eInterpolationCubic
Y,7,-0.0,eInterpolationCubic
Y,7*,-0.0,eInterpolationCubic
Y,8,-0.0,eInterpolationCubic
Y,8*,-0.0,eInterpolationCubic
Y,9,-0.0,eInterpolationCubic
Y,9*,-0.0,eInterpolationCubic
Y,10,-0.0,eInterpolationCubic
Y,10*,-0.0,eInterpolationCubic
Y,11,-0.0,eInterpolationCubic
Y,11*,-0.0,eInterpolationCubic
Y,12,-0.0,eInterpolationCubic
Y,12*,-0.0,eInterpolationCubic
Y,13,-0.0,eInterpolationCubic
Y,13*,-0.0,eInterpolationCubic
Y,14,-0.0,eInterpolationCubic
Y,14*,-0.0,eInterpolationCubic
Y,15,-0.0,eInterpolationCubic
Y,15*,-0.0,eInterpolationCubic
Y,16,-0.0,eInterpolationCubic
Y,16*,-0.0,eInterpolationCubic
Y,17,-0.0,eInterpolationCubic
Y,17*,-0.0,eInterpolationCubic
Y,18,-0.0,eInterpolationCubic
Y,18*,-0.0,eInterpolationCubic
Y,19,-0.0,eInterpolationCubic
Y,19*,-0.0,eInterpolationCubic
Y,20,-0.0,eInterpolationCubic
Y,20*,-0.0,eInterpolationCubic
Y,21,-0.0,eInterpolationCubic
Y,21*,-0.0,eInterpolationCubic
Y,22,-0.0,eInterpolationCubic
Y,22*,-0.0,eInterpolationCubic
Y,23,-0.0,eInterpolationCubic
Y,23*,-0.0,eInterpolationCubic
Y,24,-0.0,eInterpolationCubic
Y,24*,-0.0,eInterpolationCubic
Y,25,-0.0,eInterpolationCubic
Y,25*,-0.0,eInterpolationCubic
Y,26,-0.0,eInterpolationCubic
Y,26*,-0.0,eInterpolationCubic
Y,27,-0.0,eInterpolationCubic
Y,27*,-0.0,eInterpolationCubic
Y,28,-0.0,eInterpolationCubic
Y,28*,-0.0,eInterpolationCubic
Y,29,-0.0,eInterpolationCubic
Y,29*,-0.0,eInterpolationCubic
Y,30,-0.0,eInterpolationCubic
Y,30*,-0.0,eInterpolationConstant
Z,0,0.0,eInterpolationCubic
Z,0*,0.0,eInterpolationCubic
Z,1,0.0,eInterpolationCubic
Z,1*,0.0,eInterpolationCubic
Z,2,0.0,eInterpolationCubic
Z,2*,0.0,eInterpolationCubic
Z,3,0.0,eInterpolationCubic
Z,3*,0.0,eInterpolationCubic
Z,4,0.0,eInterpolationCubic
Z,4*,0.0,eInterpolationCubic
Z,5,0.0,eInterpolationCubic
Z,5*,0.0,eInterpolationCubic
Z,6,0.0,eInterpolationCubic
Z,6*,0.0,eInterpolationCubic
Z,7,0.0,eInterpolationCubic
Z,7*,0.0,eInterpolationCubic
Z,8,0.0,eInterpolationCubic
Z,8*,0.0,eInterpolationCubic
Z,9,0.0,eInterpolationCubic
Z,9*,0.0,eInterpolationCubic
Z,10,0.0,eInterpolationCubic
Z,10*,0.0,eInterpolationCubic
Z,11,0.0,eInterpolationCubic
Z,11*,0.0,eInterpolationCubic
Z,12,0.0,eInterpolationCubic
Z,12*,0.0,eInterpolationCubic
Z,13,0.0,eInterpolationCubic
Z,13*,0.0,eInterpolationCubic
Z,14,0.0,eInterpolationCubic
Z,14*,0.0,eInterpolationCubic
Z,15,0.0,eInterpolationCubic
Z,15*,0.0,eInterpolationCubic
Z,16,0.0,eInterpolationCubic
Z,16*,0.0,eInterpolationCubic
Z,17,0.0,eInterpolationCubic
Z,17*,0.0,eInterpolationCubic
Z,18,0.0,eInterpolationCubic
Z,18*,0.0,eInterpolationCubic
Z,19,0.0,eInterpolationCubic
Z,19*,0.0,eInterpolationCubic
Z,20,0.0,eInterpolationCubic
Z,20*,0.0,eInterpolationCubic
Z,21,0.0,eInterpolationCubic
Z,21*,0.0,eInterpolationCubic
Z,22,0.0,eInterpolationCubic
Z,22*,0.0,eInterpolationCubic
Z,23,0.0,eInterpolationCubic
Z,23*,0.0,eInterpolationCubic
Z,24,0.0,eInterpolationCubic
Z,24*,0.0,eInterpolationCubic
Z,25,0.0,eInterpolationCubic
Z,25*,0.0,eInterpolationCubic
Z,26,0.0,eInterpolationCubic
Z,26*,0.0,eInterpolationCubic
Z,27,0.0,eInterpolationCubic
Z,27*,0.0,eInterpolationCubic
Z,28,0.0,eInterpolationCubic
Z,28*,0.0,eInterpolationCubic
Z,29,0.0,eInterpolationCubic
Z,29*,0.0,eInterpolationCubic
Z,30,0.0,eInterpolationCubic
Z,30*,0.0,eInterpolationConstant
