Axis,KeyFrame,Value,InterpolationType
X,0,0.0,eInterpolationCubic
X,0*,0.0,eInterpolationCubic
X,1,0.0,eInterpolationCubic
X,1*,0.0,eInterpolationCubic
X,2,0.0,eInterpolationCubic
X,2*,0.0,eInterpolationCubic
X,3,0.0,eInterpolationCubic
X,3*,0.0,eInterpolationCubic
X,4,0.0,eInterpolationCubic
X,4*,0.0,eInterpolationCubic
X,5,0.0,eInterpolationCubic
X,5*,0.0,eInterpolationCubic
X,6,0.0,eInterpolationCubic
X,6*,0.0,eInterpolationCubic
X,7,0.0,eInterpolationCubic
X,7*,0.0,eInterpolationCubic
X,8,0.0,eInterpolationCubic
X,8*,0.0,eInterpolationCubic
X,9,0.0,eInterpolationCubic
X,9*,0.0,eInterpolationCubic
X,10,0.0,eInterpolationCubic
X,10*,0.0,eInterpolationCubic
X,11,0.0,eInterpolationCubic
X,11*,0.0,eInterpolationCubic
X,12,0.0,eInterpolationCubic
X,12*,0.0,eInterpolationCubic
X,13,0.0,eInterpolationCubic
X,13*,0.0,eInterpolationCubic
X,14,0.0,eInterpolationCubic
X,14*,0.0,eInterpolationCubic
X,15,0.0,eInterpolationCubic
X,15*,0.0,eInterpolationCubic
X,16,0.0,eInterpolationCubic
X,16*,0.0,eInterpolationCubic
X,17,0.0,eInterpolationCubic
X,17*,0.0,eInterpolationCubic
X,18,0.0,eInterpolationCubic
X,18*,0.0,eInterpolationCubic
X,19,0.0,eInterpolationCubic
X,19*,0.0,eInterpolationCubic
X,20,0.0,eInterpolationCubic
X,20*,0.0,eInterpolationCubic
X,21,0.0,eInterpolationCubic
X,21*,0.0,eInterpolationCubic
X,22,0.0,eInterpolationCubic
X,22*,0.0,eInterpolationCubic
X,23,0.0,eInterpolationCubic
X,23*,0.0,eInterpolationCubic
X,24,0.0,eInterpolationCubic
X,24*,0.0,eInterpolationCubic
X,25,0.0,eInterpolationCubic
X,25*,0.0,eInterpolationCubic
X,26,0.0,eInterpolationCubic
X,26*,0.0,eInterpolationCubic
X,27,0.0,eInterpolationCubic
X,27*,0.0,eInterpolationCubic
X,28,0.0,eInterpolationCubic
X,28*,0.0,eInterpolationCubic
X,29,0.0,eInterpolationCubic
X,29*,0.0,eInterpolationCubic
X,30,0.0,eInterpolationCubic
X,30*,0.0,eInterpolationCubic
X,31,0.0,eInterpolationCubic
X,31*,0.0,eInterpolationCubic
X,32,0.0,eInterpolationCubic
X,32*,0.0,eInterpolationCubic
X,33,0.0,eInterpolationCubic
X,33*,0.0,eInterpolationCubic
X,34,0.0,eInterpolationCubic
X,34*,0.0,eInterpolationCubic
X,35,0.0,eInterpolationCubic
X,35*,0.0,eInterpolationCubic
X,36,0.0,eInterpolationCubic
X,36*,0.0,eInterpolationCubic
X,37,0.0,eInterpolationCubic
X,37*,0.0,eInterpolationCubic
X,38,0.0,eInterpolationCubic
X,38*,0.0,eInterpolationCubic
X,39,0.0,eInterpolationCubic
X,39*,0.0,eInterpolationCubic
X,40,0.0,eInterpolationCubic
X,40*,0.0,eInterpolationCubic
X,41,0.0,eInterpolationCubic
X,41*,0.0,eInterpolationCubic
X,42,0.0,eInterpolationCubic
X,42*,0.0,eInterpolationCubic
X,43,0.0,eInterpolationCubic
X,43*,0.0,eInterpolationCubic
X,44,0.0,eInterpolationCubic
X,44*,0.0,eInterpolationCubic
X,45,0.0,eInterpolationCubic
X,45*,0.0,eInterpolationCubic
X,46,0.0,eInterpolationCubic
X,46*,0.0,eInterpolationCubic
X,47,0.0,eInterpolationCubic
X,47*,0.0,eInterpolationCubic
X,48,0.0,eInterpolationCubic
X,48*,0.0,eInterpolationCubic
X,49,0.0,eInterpolationCubic
X,49*,0.0,eInterpolationCubic
X,50,0.0,eInterpolationCubic
X,50*,0.0,eInterpolationCubic
X,51,0.0,eInterpolationCubic
X,51*,0.0,eInterpolationCubic
X,52,0.0,eInterpolationCubic
X,52*,0.0,eInterpolationCubic
X,53,0.0,eInterpolationCubic
X,53*,0.0,eInterpolationCubic
X,54,0.0,eInterpolationCubic
X,54*,0.0,eInterpolationCubic
X,55,0.0,eInterpolationCubic
X,55*,0.0,eInterpolationCubic
X,56,0.0,eInterpolationCubic
X,56*,0.0,eInterpolationCubic
X,57,0.0,eInterpolationCubic
X,57*,0.0,eInterpolationCubic
X,58,0.0,eInterpolationCubic
X,58*,0.0,eInterpolationCubic
X,59,0.0,eInterpolationCubic
X,59*,0.0,eInterpolationCubic
X,60,0.0,eInterpolationCubic
X,60*,0.0,eInterpolationCubic
X,61,0.0,eInterpolationCubic
X,61*,0.0,eInterpolationCubic
X,62,0.0,eInterpolationCubic
X,62*,0.0,eInterpolationCubic
X,63,0.0,eInterpolationCubic
X,63*,0.0,eInterpolationCubic
X,64,0.0,eInterpolationCubic
X,64*,0.0,eInterpolationCubic
X,65,0.0,eInterpolationCubic
X,65*,0.0,eInterpolationCubic
X,66,0.0,eInterpolationCubic
X,66*,0.0,eInterpolationCubic
X,67,0.0,eInterpolationCubic
X,67*,0.0,eInterpolationCubic
X,68,0.0,eInterpolationCubic
X,68*,0.0,eInterpolationCubic
X,69,0.0,eInterpolationCubic
X,69*,0.0,eInterpolationCubic
X,70,0.0,eInterpolationCubic
X,70*,0.0,eInterpolationCubic
X,71,0.0,eInterpolationCubic
X,71*,0.0,eInterpolationCubic
X,72,0.0,eInterpolationCubic
X,72*,0.0,eInterpolationCubic
X,73,0.0,eInterpolationCubic
X,73*,0.0,eInterpolationCubic
X,74,0.0,eInterpolationCubic
X,74*,0.0,eInterpolationCubic
X,75,0.0,eInterpolationCubic
X,75*,0.0,eInterpolationCubic
X,76,0.0,eInterpolationCubic
X,76*,0.0,eInterpolationCubic
X,77,0.0,eInterpolationCubic
X,77*,0.0,eInterpolationCubic
X,78,0.0,eInterpolationCubic
X,78*,0.0,eInterpolationCubic
X,79,0.0,eInterpolationCubic
X,79*,0.0,eInterpolationCubic
X,80,0.0,eInterpolationCubic
X,80*,0.0,eInterpolationConstant
Y,0,-0.0,eInterpolationCubic
Y,0*,-0.07809115201234818,eInterpolationCubic
Y,1,-0.3028486371040344,eInterpolationCubic
Y,1*,-0.65999835729599,eInterpolationCubic
Y,2,-1.1352664232254028,eInterpolationCubic
Y,2*,-1.7143784761428833,eInterpolationCubic
Y,3,-2.383060932159424,eInterpolationCubic
Y,3*,-3.1270394325256348,eInterpolationCubic
Y,4,-3.932040214538574,eInterpolationCubic
Y,4*,-4.783788681030273,eInterpolationCubic
Y,5,-5.668011665344238,eInterpolationCubic
Y,5*,-6.570435047149658,eInterpolationCubic
Y,6,-7.4767842292785645,eInterpolationCubic
Y,6*,-8.372784614562988,eInterpolationCubic
Y,7,-9.24416446685791,eInterpolationCubic
Y,7*,-10.07664680480957,eInterpolationCubic
Y,8,-10.85595989227295,eInterpolationCubic
Y,8*,-11.567828178405762,eInterpolationCubic
Y,9,-12.214716911315918,eInterpolationCubic
Y,9*,-12.817198753356934,eInterpolationCubic
Y,10,-13.38817024230957,eInterpolationCubic
Y,10*,-13.940526008605957,eInterpolationCubic
Y,11,-14.487160682678223,eInterpolationCubic
Y,11*,-15.040969848632812,eInterpolationCubic
Y,12,-15.614847183227539,eInterpolationCubic
Y,12*,-16.22168731689453,eInterpolationCubic
Y,13,-16.874385833740234,eInterpolationCubic
Y,13*,-17.585838317871094,eInterpolationCubic
Y,14,-18.368938446044922,eInterpolationCubic
Y,14*,-19.236581802368164,eInterpolationCubic
Y,15,-20.201663970947266,eInterpolationCubic
Y,15*,-21.346282958984375,eInterpolationCubic
Y,16,-22.708171844482422,eInterpolationCubic
Y,16*,-24.233652114868164,eInterpolationCubic
Y,17,-25.869050979614258,eInterpolationCubic
Y,17*,-27.560697555541992,eInterpolationCubic
Y,18,-29.25491714477539,eInterpolationCubic
Y,18*,-30.898038864135742,eInterpolationCubic
Y,19,-32.43638610839844,eInterpolationCubic
Y,19*,-33.81629180908203,eInterpolationCubic
Y,20,-34.98407745361328,eInterpolationCubic
Y,20*,-36.028873443603516,eInterpolationCubic
Y,21,-37.06670379638672,eInterpolationCubic
Y,21*,-38.084228515625,eInterpolationCubic
Y,22,-39.068119049072266,eInterpolationCubic
Y,22*,-40.00504684448242,eInterpolationCubic
Y,23,-40.88167953491211,eInterpolationCubic
Y,23*,-41.68468475341797,eInterpolationCubic
Y,24,-42.400726318359375,eInterpolationCubic
Y,24*,-43.01647186279297,eInterpolationCubic
Y,25,-43.51859664916992,eInterpolationCubic
Y,25*,-43.89376449584961,eInterpolationCubic
Y,26,-44.12863540649414,eInterpolationCubic
Y,26*,-44.20989227294922,eInterpolationCubic
Y,27,-44.204368591308594,eInterpolationCubic
Y,27*,-44.18819046020508,eInterpolationCubic
Y,28,-44.1619758605957,eInterpolationCubic
Y,28*,-44.12632751464844,eInterpolationCubic
Y,29,-44.08185958862305,eInterpolationCubic
Y,29*,-44.0291748046875,eInterpolationCubic
Y,30,-43.96887969970703,eInterpolationCubic
Y,30*,-43.90159225463867,eInterpolationCubic
Y,31,-43.827911376953125,eInterpolationCubic
Y,31*,-43.74845504760742,eInterpolationCubic
Y,32,-43.663822174072266,eInterpolationCubic
Y,32*,-43.57462692260742,eInterpolationCubic
Y,33,-43.48147964477539,eInterpolationCubic
Y,33*,-43.38498306274414,eInterpolationCubic
Y,34,-43.28575134277344,eInterpolationCubic
Y,34*,-43.184383392333984,eInterpolationCubic
Y,35,-43.081504821777344,eInterpolationCubic
Y,35*,-42.97770309448242,eInterpolationCubic
Y,36,-42.87360382080078,eInterpolationCubic
Y,36*,-42.76980209350586,eInterpolationCubic
Y,37,-42.66691589355469,eInterpolationCubic
Y,37*,-42.565555572509766,eInterpolationCubic
Y,38,-42.46631622314453,eInterpolationCubic
Y,38*,-42.36982345581055,eInterpolationCubic
Y,39,-42.27667236328125,eInterpolationCubic
Y,39*,-42.187477111816406,eInterpolationCubic
Y,40,-42.102848052978516,eInterpolationCubic
Y,40*,-42.02338790893555,eInterpolationCubic
Y,41,-41.949710845947266,eInterpolationCubic
Y,41*,-41.882423400878906,eInterpolationCubic
Y,42,-41.8221321105957,eInterpolationCubic
Y,42*,-41.769447326660156,eInterpolationCubic
Y,43,-41.724979400634766,eInterpolationCubic
Y,43*,-41.6893310546875,eInterpolationCubic
Y,44,-41.66311264038086,eInterpolationCubic
Y,44*,-41.64693832397461,eInterpolationCubic
Y,45,-41.64141082763672,eInterpolationCubic
Y,45*,-41.991451263427734,eInterpolationCubic
Y,46,-42.95123291015625,eInterpolationCubic
Y,46*,-44.38525390625,eInterpolationCubic
Y,47,-46.15803146362305,eInterpolationCubic
Y,47*,-48.13404846191406,eInterpolationCubic
Y,48,-50.17782211303711,eInterpolationCubic
Y,48*,-52.15384292602539,eInterpolationCubic
Y,49,-53.926612854003906,eInterpolationCubic
Y,49*,-55.36064147949219,eInterpolationCubic
Y,50,-56.3204231262207,eInterpolationCubic
Y,50*,-56.67045974731445,eInterpolationCubic
Y,51,-56.67045974731445,eInterpolationCubic
Y,51*,-56.67045974731445,eInterpolationCubic
Y,52,-56.67045974731445,eInterpolationCubic
Y,52*,-56.67045974731445,eInterpolationCubic
Y,53,-56.67045974731445,eInterpolationCubic
Y,53*,-56.67045974731445,eInterpolationCubic
Y,54,-56.67045974731445,eInterpolationCubic
Y,54*,-56.67045974731445,eInterpolationCubic
Y,55,-56.67045974731445,eInterpolationCubic
Y,55*,-56.67045974731445,eInterpolationCubic
Y,56,-56.67045974731445,eInterpolationCubic
Y,56*,-56.67045974731445,eInterpolationCubic
Y,57,-56.67045974731445,eInterpolationCubic
Y,57*,-56.67045974731445,eInterpolationCubic
Y,58,-56.67045974731445,eInterpolationCubic
Y,58*,-56.67045974731445,eInterpolationCubic
Y,59,-56.67045974731445,eInterpolationCubic
Y,59*,-56.67045974731445,eInterpolationCubic
Y,60,-56.67045974731445,eInterpolationCubic
Y,60*,-56.67045974731445,eInterpolationCubic
Y,61,-56.67045974731445,eInterpolationCubic
Y,61*,-56.67045974731445,eInterpolationCubic
Y,62,-56.67045974731445,eInterpolationCubic
Y,62*,-56.67045974731445,eInterpolationCubic
Y,63,-56.67045974731445,eInterpolationCubic
Y,63*,-56.67045974731445,eInterpolationCubic
Y,64,-56.67045974731445,eInterpolationCubic
Y,64*,-56.67045974731445,eInterpolationCubic
Y,65,-56.67045974731445,eInterpolationCubic
Y,65*,-56.67045974731445,eInterpolationCubic
Y,66,-56.67045974731445,eInterpolationCubic
Y,66*,-56.67045974731445,eInterpolationCubic
Y,67,-56.67045974731445,eInterpolationCubic
Y,67*,-56.67045974731445,eInterpolationCubic
Y,68,-56.67045974731445,eInterpolationCubic
Y,68*,-56.67045974731445,eInterpolationCubic
Y,69,-56.67045974731445,eInterpolationCubic
Y,69*,-56.67045974731445,eInterpolationCubic
Y,70,-56.67045974731445,eInterpolationCubic
Y,70*,-56.67045974731445,eInterpolationCubic
Y,71,-56.67045974731445,eInterpolationCubic
Y,71*,-56.67045974731445,eInterpolationCubic
Y,72,-56.67045974731445,eInterpolationCubic
Y,72*,-56.67045974731445,eInterpolationCubic
Y,73,-56.67045974731445,eInterpolationCubic
Y,73*,-56.67045974731445,eInterpolationCubic
Y,74,-56.67045974731445,eInterpolationCubic
Y,74*,-56.67045974731445,eInterpolationCubic
Y,75,-56.67045974731445,eInterpolationCubic
Y,75*,-56.67045974731445,eInterpolationCubic
Y,76,-56.67045974731445,eInterpolationCubic
Y,76*,-56.67045974731445,eInterpolationCubic
Y,77,-56.67045974731445,eInterpolationCubic
Y,77*,-56.67045974731445,eInterpolationCubic
Y,78,-56.67045974731445,eInterpolationCubic
Y,78*,-56.67045974731445,eInterpolationCubic
Y,79,-56.67045974731445,eInterpolationCubic
Y,79*,-56.67045974731445,eInterpolationCubic
Y,80,-56.67045974731445,eInterpolationCubic
Y,80*,-56.67045974731445,eInterpolationConstant
Z,0,0.0,eInterpolationCubic
Z,0*,0.0,eInterpolationCubic
Z,1,0.0,eInterpolationCubic
Z,1*,0.0,eInterpolationCubic
Z,2,0.0,eInterpolationCubic
Z,2*,0.0,eInterpolationCubic
Z,3,0.0,eInterpolationCubic
Z,3*,0.0,eInterpolationCubic
Z,4,0.0,eInterpolationCubic
Z,4*,0.0,eInterpolationCubic
Z,5,0.0,eInterpolationCubic
Z,5*,0.0,eInterpolationCubic
Z,6,0.0,eInterpolationCubic
Z,6*,0.0,eInterpolationCubic
Z,7,0.0,eInterpolationCubic
Z,7*,0.0,eInterpolationCubic
Z,8,0.0,eInterpolationCubic
Z,8*,0.0,eInterpolationCubic
Z,9,0.0,eInterpolationCubic
Z,9*,0.0,eInterpolationCubic
Z,10,0.0,eInterpolationCubic
Z,10*,0.0,eInterpolationCubic
Z,11,0.0,eInterpolationCubic
Z,11*,0.0,eInterpolationCubic
Z,12,0.0,eInterpolationCubic
Z,12*,0.0,eInterpolationCubic
Z,13,0.0,eInterpolationCubic
Z,13*,0.0,eInterpolationCubic
Z,14,0.0,eInterpolationCubic
Z,14*,0.0,eInterpolationCubic
Z,15,0.0,eInterpolationCubic
Z,15*,0.0,eInterpolationCubic
Z,16,0.0,eInterpolationCubic
Z,16*,0.0,eInterpolationCubic
Z,17,0.0,eInterpolationCubic
Z,17*,0.0,eInterpolationCubic
Z,18,0.0,eInterpolationCubic
Z,18*,0.0,eInterpolationCubic
Z,19,0.0,eInterpolationCubic
Z,19*,0.0,eInterpolationCubic
Z,20,0.0,eInterpolationCubic
Z,20*,0.0,eInterpolationCubic
Z,21,0.0,eInterpolationCubic
Z,21*,0.0,eInterpolationCubic
Z,22,0.0,eInterpolationCubic
Z,22*,0.0,eInterpolationCubic
Z,23,0.0,eInterpolationCubic
Z,23*,0.0,eInterpolationCubic
Z,24,0.0,eInterpolationCubic
Z,24*,0.0,eInterpolationCubic
Z,25,0.0,eInterpolationCubic
Z,25*,0.0,eInterpolationCubic
Z,26,0.0,eInterpolationCubic
Z,26*,0.0,eInterpolationCubic
Z,27,0.0,eInterpolationCubic
Z,27*,0.0,eInterpolationCubic
Z,28,0.0,eInterpolationCubic
Z,28*,0.0,eInterpolationCubic
Z,29,0.0,eInterpolationCubic
Z,29*,0.0,eInterpolationCubic
Z,30,0.0,eInterpolationCubic
Z,30*,0.0,eInterpolationCubic
Z,31,0.0,eInterpolationCubic
Z,31*,0.0,eInterpolationCubic
Z,32,0.0,eInterpolationCubic
Z,32*,0.0,eInterpolationCubic
Z,33,0.0,eInterpolationCubic
Z,33*,0.0,eInterpolationCubic
Z,34,0.0,eInterpolationCubic
Z,34*,0.0,eInterpolationCubic
Z,35,0.0,eInterpolationCubic
Z,35*,0.0,eInterpolationCubic
Z,36,0.0,eInterpolationCubic
Z,36*,0.0,eInterpolationCubic
Z,37,0.0,eInterpolationCubic
Z,37*,0.0,eInterpolationCubic
Z,38,0.0,eInterpolationCubic
Z,38*,0.0,eInterpolationCubic
Z,39,0.0,eInterpolationCubic
Z,39*,0.0,eInterpolationCubic
Z,40,0.0,eInterpolationCubic
Z,40*,0.0,eInterpolationCubic
Z,41,0.0,eInterpolationCubic
Z,41*,0.0,eInterpolationCubic
Z,42,0.0,eInterpolationCubic
Z,42*,0.0,eInterpolationCubic
Z,43,0.0,eInterpolationCubic
Z,43*,0.0,eInterpolationCubic
Z,44,0.0,eInterpolationCubic
Z,44*,0.0,eInterpolationCubic
Z,45,0.0,eInterpolationCubic
Z,45*,0.0,eInterpolationCubic
Z,46,0.0,eInterpolationCubic
Z,46*,0.0,eInterpolationCubic
Z,47,0.0,eInterpolationCubic
Z,47*,0.0,eInterpolationCubic
Z,48,0.0,eInterpolationCubic
Z,48*,0.0,eInterpolationCubic
Z,49,0.0,eInterpolationCubic
Z,49*,0.0,eInterpolationCubic
Z,50,0.0,eInterpolationCubic
Z,50*,0.0,eInterpolationCubic
Z,51,0.0,eInterpolationCubic
Z,51*,0.0,eInterpolationCubic
Z,52,0.0,eInterpolationCubic
Z,52*,0.0,eInterpolationCubic
Z,53,0.0,eInterpolationCubic
Z,53*,0.0,eInterpolationCubic
Z,54,0.0,eInterpolationCubic
Z,54*,0.0,eInterpolationCubic
Z,55,0.0,eInterpolationCubic
Z,55*,0.0,eInterpolationCubic
Z,56,0.0,eInterpolationCubic
Z,56*,0.0,eInterpolationCubic
Z,57,0.0,eInterpolationCubic
Z,57*,0.0,eInterpolationCubic
Z,58,0.0,eInterpolationCubic
Z,58*,0.0,eInterpolationCubic
Z,59,0.0,eInterpolationCubic
Z,59*,0.0,eInterpolationCubic
Z,60,0.0,eInterpolationCubic
Z,60*,0.0,eInterpolationCubic
Z,61,0.0,eInterpolationCubic
Z,61*,0.0,eInterpolationCubic
Z,62,0.0,eInterpolationCubic
Z,62*,0.0,eInterpolationCubic
Z,63,0.0,eInterpolationCubic
Z,63*,0.0,eInterpolationCubic
Z,64,0.0,eInterpolationCubic
Z,64*,0.0,eInterpolationCubic
Z,65,0.0,eInterpolationCubic
Z,65*,0.0,eInterpolationCubic
Z,66,0.0,eInterpolationCubic
Z,66*,0.0,eInterpolationCubic
Z,67,0.0,eInterpolationCubic
Z,67*,0.0,eInterpolationCubic
Z,68,0.0,eInterpolationCubic
Z,68*,0.0,eInterpolationCubic
Z,69,0.0,eInterpolationCubic
Z,69*,0.0,eInterpolationCubic
Z,70,0.0,eInterpolationCubic
Z,70*,0.0,eInterpolationCubic
Z,71,0.0,eInterpolationCubic
Z,71*,0.0,eInterpolationCubic
Z,72,0.0,eInterpolationCubic
Z,72*,0.0,eInterpolationCubic
Z,73,0.0,eInterpolationCubic
Z,73*,0.0,eInterpolationCubic
Z,74,0.0,eInterpolationCubic
Z,74*,0.0,eInterpolationCubic
Z,75,0.0,eInterpolationCubic
Z,75*,0.0,eInterpolationCubic
Z,76,0.0,eInterpolationCubic
Z,76*,0.0,eInterpolationCubic
Z,77,0.0,eInterpolationCubic
Z,77*,0.0,eInterpolationCubic
Z,78,0.0,eInterpolationCubic
Z,78*,0.0,eInterpolationCubic
Z,79,0.0,eInterpolationCubic
Z,79*,0.0,eInterpolationCubic
Z,80,0.0,eInterpolationCubic
Z,80*,0.0,eInterpolationConstant
