Axis,KeyFrame,Value,InterpolationType
X,0,0.0,eInterpolationCubic
X,0*,-12.090145111083984,eInterpolationCubic
X,1,-39.6741943359375,eInterpolationCubic
X,1*,-69.72257995605469,eInterpolationCubic
X,2,-89.20571899414062,eInterpolationCubic
X,2*,-99.04643249511719,eInterpolationCubic
X,3,-108.80647277832031,eInterpolationCubic
X,3*,-118.41472625732422,eInterpolationCubic
X,4,-127.8000717163086,eInterpolationCubic
X,4*,-136.891357421875,eInterpolationCubic
X,5,-145.61749267578125,eInterpolationCubic
X,5*,-153.90731811523438,eInterpolationCubic
X,6,-161.68972778320312,eInterpolationCubic
X,6*,-168.89358520507812,eInterpolationCubic
X,7,-175.44776916503906,eInterpolationCubic
X,7*,-181.28115844726562,eInterpolationCubic
X,8,-186.32260131835938,eInterpolationCubic
X,8*,-190.50100708007812,eInterpolationCubic
X,9,-193.7452392578125,eInterpolationCubic
X,9*,-195.98414611816406,eInterpolationCubic
X,10,-197.14662170410156,eInterpolationCubic
X,10*,-197.73526000976562,eInterpolationCubic
X,11,-198.3003387451172,eInterpolationCubic
X,11*,-198.8423614501953,eInterpolationCubic
X,12,-199.36180114746094,eInterpolationCubic
X,12*,-199.859130859375,eInterpolationCubic
X,13,-200.33486938476562,eInterpolationCubic
X,13*,-200.78944396972656,eInterpolationCubic
X,14,-201.22335815429688,eInterpolationCubic
X,14*,-201.63711547851562,eInterpolationCubic
X,15,-202.03115844726562,eInterpolationCubic
X,15*,-202.40597534179688,eInterpolationCubic
X,16,-202.76206970214844,eInterpolationCubic
X,16*,-203.0998992919922,eInterpolationCubic
X,17,-203.41995239257812,eInterpolationCubic
X,17*,-203.72271728515625,eInterpolationCubic
X,18,-204.0086669921875,eInterpolationCubic
X,18*,-204.2782745361328,eInterpolationCubic
X,19,-204.53201293945312,eInterpolationCubic
X,19*,-204.77040100097656,eInterpolationCubic
X,20,-204.993896484375,eInterpolationCubic
X,20*,-205.20297241210938,eInterpolationCubic
X,21,-205.39810180664062,eInterpolationCubic
X,21*,-205.57980346679688,eInterpolationCubic
X,22,-205.74851989746094,eInterpolationCubic
X,22*,-205.90472412109375,eInterpolationCubic
X,23,-206.0489501953125,eInterpolationCubic
X,23*,-206.181640625,eInterpolationCubic
X,24,-206.3032684326172,eInterpolationCubic
X,24*,-206.41432189941406,eInterpolationCubic
X,25,-206.5153045654297,eInterpolationCubic
X,25*,-206.60667419433594,eInterpolationCubic
X,26,-206.68890380859375,eInterpolationCubic
X,26*,-206.7624969482422,eInterpolationCubic
X,27,-206.82791137695312,eInterpolationCubic
X,27*,-206.88565063476562,eInterpolationCubic
X,28,-206.93617248535156,eInterpolationCubic
X,28*,-206.97998046875,eInterpolationCubic
X,29,-207.0175323486328,eInterpolationCubic
X,29*,-207.04933166503906,eInterpolationCubic
X,30,-207.07582092285156,eInterpolationCubic
X,30*,-207.09751892089844,eInterpolationCubic
X,31,-207.11489868164062,eInterpolationCubic
X,31*,-207.12841796875,eInterpolationCubic
X,32,-207.1385955810547,eInterpolationCubic
X,32*,-207.14588928222656,eInterpolationCubic
X,33,-207.15077209472656,eInterpolationCubic
X,33*,-207.15374755859375,eInterpolationCubic
X,34,-207.15525817871094,eInterpolationCubic
X,34*,-207.1558074951172,eInterpolationCubic
X,35,-207.1558074951172,eInterpolationCubic
X,35*,-207.1558074951172,eInterpolationConstant
Y,0,-0.0,eInterpolationCubic
Y,0*,-0.0,eInterpolationCubic
Y,1,-0.0,eInterpolationCubic
Y,1*,-0.0,eInterpolationCubic
Y,2,-0.0,eInterpolationCubic
Y,2*,-0.0,eInterpolationCubic
Y,3,-0.0,eInterpolationCubic
Y,3*,-0.0,eInterpolationCubic
Y,4,-0.0,eInterpolationCubic
Y,4*,-0.0,eInterpolationCubic
Y,5,-0.0,eInterpolationCubic
Y,5*,-0.0,eInterpolationCubic
Y,6,-0.0,eInterpolationCubic
Y,6*,-0.0,eInterpolationCubic
Y,7,-0.0,eInterpolationCubic
Y,7*,-0.0,eInterpolationCubic
Y,8,-0.0,eInterpolationCubic
Y,8*,-0.0,eInterpolationCubic
Y,9,-0.0,eInterpolationCubic
Y,9*,-0.0,eInterpolationCubic
Y,10,-0.0,eInterpolationCubic
Y,10*,-0.0,eInterpolationCubic
Y,11,-0.0,eInterpolationCubic
Y,11*,-0.0,eInterpolationCubic
Y,12,-0.0,eInterpolationCubic
Y,12*,-0.0,eInterpolationCubic
Y,13,-0.0,eInterpolationCubic
Y,13*,-0.0,eInterpolationCubic
Y,14,-0.0,eInterpolationCubic
Y,14*,-0.0,eInterpolationCubic
Y,15,-0.0,eInterpolationCubic
Y,15*,-0.0,eInterpolationCubic
Y,16,-0.0,eInterpolationCubic
Y,16*,-0.0,eInterpolationCubic
Y,17,-0.0,eInterpolationCubic
Y,17*,-0.0,eInterpolationCubic
Y,18,-0.0,eInterpolationCubic
Y,18*,-0.0,eInterpolationCubic
Y,19,-0.0,eInterpolationCubic
Y,19*,-0.0,eInterpolationCubic
Y,20,-0.0,eInterpolationCubic
Y,20*,-0.0,eInterpolationCubic
Y,21,-0.0,eInterpolationCubic
Y,21*,-0.0,eInterpolationCubic
Y,22,-0.0,eInterpolationCubic
Y,22*,-0.0,eInterpolationCubic
Y,23,-0.0,eInterpolationCubic
Y,23*,-0.0,eInterpolationCubic
Y,24,-0.0,eInterpolationCubic
Y,24*,-0.0,eInterpolationCubic
Y,25,-0.0,eInterpolationCubic
Y,25*,-0.0,eInterpolationCubic
Y,26,-0.0,eInterpolationCubic
Y,26*,-0.0,eInterpolationCubic
Y,27,-0.0,eInterpolationCubic
Y,27*,-0.0,eInterpolationCubic
Y,28,-0.0,eInterpolationCubic
Y,28*,-0.0,eInterpolationCubic
Y,29,-0.0,eInterpolationCubic
Y,29*,-0.0,eInterpolationCubic
Y,30,-0.0,eInterpolationCubic
Y,30*,-0.0,eInterpolationCubic
Y,31,-0.0,eInterpolationCubic
Y,31*,-0.0,eInterpolationCubic
Y,32,-0.0,eInterpolationCubic
Y,32*,-0.0,eInterpolationCubic
Y,33,-0.0,eInterpolationCubic
Y,33*,-0.0,eInterpolationCubic
Y,34,-0.0,eInterpolationCubic
Y,34*,-0.0,eInterpolationCubic
Y,35,-0.0,eInterpolationCubic
Y,35*,-0.0,eInterpolationConstant
Z,0,0.0,eInterpolationCubic
Z,0*,0.0,eInterpolationCubic
Z,1,0.0,eInterpolationCubic
Z,1*,0.0,eInterpolationCubic
Z,2,0.0,eInterpolationCubic
Z,2*,0.0,eInterpolationCubic
Z,3,0.0,eInterpolationCubic
Z,3*,0.0,eInterpolationCubic
Z,4,0.0,eInterpolationCubic
Z,4*,0.0,eInterpolationCubic
Z,5,0.0,eInterpolationCubic
Z,5*,0.0,eInterpolationCubic
Z,6,0.0,eInterpolationCubic
Z,6*,0.0,eInterpolationCubic
Z,7,0.0,eInterpolationCubic
Z,7*,0.0,eInterpolationCubic
Z,8,0.0,eInterpolationCubic
Z,8*,0.0,eInterpolationCubic
Z,9,0.0,eInterpolationCubic
Z,9*,0.0,eInterpolationCubic
Z,10,0.0,eInterpolationCubic
Z,10*,0.0,eInterpolationCubic
Z,11,0.0,eInterpolationCubic
Z,11*,0.0,eInterpolationCubic
Z,12,0.0,eInterpolationCubic
Z,12*,0.0,eInterpolationCubic
Z,13,0.0,eInterpolationCubic
Z,13*,0.0,eInterpolationCubic
Z,14,0.0,eInterpolationCubic
Z,14*,0.0,eInterpolationCubic
Z,15,0.0,eInterpolationCubic
Z,15*,0.0,eInterpolationCubic
Z,16,0.0,eInterpolationCubic
Z,16*,0.0,eInterpolationCubic
Z,17,0.0,eInterpolationCubic
Z,17*,0.0,eInterpolationCubic
Z,18,0.0,eInterpolationCubic
Z,18*,0.0,eInterpolationCubic
Z,19,0.0,eInterpolationCubic
Z,19*,0.0,eInterpolationCubic
Z,20,0.0,eInterpolationCubic
Z,20*,0.0,eInterpolationCubic
Z,21,0.0,eInterpolationCubic
Z,21*,0.0,eInterpolationCubic
Z,22,0.0,eInterpolationCubic
Z,22*,0.0,eInterpolationCubic
Z,23,0.0,eInterpolationCubic
Z,23*,0.0,eInterpolationCubic
Z,24,0.0,eInterpolationCubic
Z,24*,0.0,eInterpolationCubic
Z,25,0.0,eInterpolationCubic
Z,25*,0.0,eInterpolationCubic
Z,26,0.0,eInterpolationCubic
Z,26*,0.0,eInterpolationCubic
Z,27,0.0,eInterpolationCubic
Z,27*,0.0,eInterpolationCubic
Z,28,0.0,eInterpolationCubic
Z,28*,0.0,eInterpolationCubic
Z,29,0.0,eInterpolationCubic
Z,29*,0.0,eInterpolationCubic
Z,30,0.0,eInterpolationCubic
Z,30*,0.0,eInterpolationCubic
Z,31,0.0,eInterpolationCubic
Z,31*,0.0,eInterpolationCubic
Z,32,0.0,eInterpolationCubic
Z,32*,0.0,eInterpolationCubic
Z,33,0.0,eInterpolationCubic
Z,33*,0.0,eInterpolationCubic
Z,34,0.0,eInterpolationCubic
Z,34*,0.0,eInterpolationCubic
Z,35,0.0,eInterpolationCubic
Z,35*,0.0,eInterpolationConstant
