Axis,KeyFrame,Value,InterpolationType
X,0,0.0,eInterpolationCubic
X,0*,0.0,eInterpolationCubic
X,1,0.0,eInterpolationCubic
X,1*,0.0,eInterpolationCubic
X,2,0.0,eInterpolationCubic
X,2*,0.0,eInterpolationCubic
X,3,0.0,eInterpolationCubic
X,3*,0.0,eInterpolationCubic
X,4,0.0,eInterpolationCubic
X,4*,0.0,eInterpolationCubic
X,5,0.0,eInterpolationCubic
X,5*,0.0,eInterpolationCubic
X,6,0.0,eInterpolationCubic
X,6*,0.0,eInterpolationCubic
X,7,0.0,eInterpolationCubic
X,7*,0.0,eInterpolationCubic
X,8,0.0,eInterpolationCubic
X,8*,0.0,eInterpolationCubic
X,9,0.0,eInterpolationCubic
X,9*,0.0,eInterpolationCubic
X,10,0.0,eInterpolationCubic
X,10*,0.0,eInterpolationCubic
X,11,0.0,eInterpolationCubic
X,11*,0.0,eInterpolationCubic
X,12,0.0,eInterpolationCubic
X,12*,0.0,eInterpolationCubic
X,13,0.0,eInterpolationCubic
X,13*,0.0,eInterpolationCubic
X,14,0.0,eInterpolationCubic
X,14*,0.0,eInterpolationCubic
X,15,0.0,eInterpolationCubic
X,15*,0.0,eInterpolationCubic
X,16,0.0,eInterpolationCubic
X,16*,0.0,eInterpolationCubic
X,17,0.0,eInterpolationCubic
X,17*,0.0,eInterpolationCubic
X,18,0.0,eInterpolationCubic
X,18*,0.0,eInterpolationCubic
X,19,0.0,eInterpolationCubic
X,19*,0.0,eInterpolationCubic
X,20,0.0,eInterpolationCubic
X,20*,0.0,eInterpolationCubic
X,21,0.0,eInterpolationCubic
X,21*,0.0,eInterpolationCubic
X,22,0.0,eInterpolationCubic
X,22*,0.0,eInterpolationCubic
X,23,0.0,eInterpolationCubic
X,23*,0.0,eInterpolationCubic
X,24,0.0,eInterpolationCubic
X,24*,0.0,eInterpolationCubic
X,25,0.0,eInterpolationCubic
X,25*,0.0,eInterpolationCubic
X,26,0.0,eInterpolationCubic
X,26*,0.0,eInterpolationCubic
X,27,0.0,eInterpolationCubic
X,27*,0.0,eInterpolationCubic
X,28,0.0,eInterpolationCubic
X,28*,0.0,eInterpolationCubic
X,29,0.0,eInterpolationCubic
X,29*,0.0,eInterpolationCubic
X,30,0.0,eInterpolationCubic
X,30*,0.0,eInterpolationCubic
X,31,0.0,eInterpolationCubic
X,31*,0.0,eInterpolationCubic
X,32,0.0,eInterpolationCubic
X,32*,0.0,eInterpolationCubic
X,33,0.0,eInterpolationCubic
X,33*,0.0,eInterpolationCubic
X,34,0.0,eInterpolationCubic
X,34*,0.0,eInterpolationCubic
X,35,0.0,eInterpolationCubic
X,35*,0.0,eInterpolationCubic
X,36,0.0,eInterpolationCubic
X,36*,0.0,eInterpolationCubic
X,37,0.0,eInterpolationCubic
X,37*,0.0,eInterpolationCubic
X,38,0.0,eInterpolationCubic
X,38*,0.0,eInterpolationCubic
X,39,0.0,eInterpolationCubic
X,39*,0.0,eInterpolationCubic
X,40,0.0,eInterpolationCubic
X,40*,0.0,eInterpolationCubic
X,41,0.0,eInterpolationCubic
X,41*,0.0,eInterpolationCubic
X,42,0.0,eInterpolationCubic
X,42*,0.0,eInterpolationCubic
X,43,0.0,eInterpolationCubic
X,43*,0.0,eInterpolationCubic
X,44,0.0,eInterpolationCubic
X,44*,0.0,eInterpolationCubic
X,45,0.0,eInterpolationCubic
X,45*,0.0,eInterpolationCubic
X,46,0.0,eInterpolationCubic
X,46*,0.0,eInterpolationCubic
X,47,0.0,eInterpolationCubic
X,47*,0.0,eInterpolationCubic
X,48,0.0,eInterpolationCubic
X,48*,0.0,eInterpolationCubic
X,49,0.0,eInterpolationCubic
X,49*,0.0,eInterpolationCubic
X,50,0.0,eInterpolationCubic
X,50*,0.0,eInterpolationCubic
X,51,0.0,eInterpolationCubic
X,51*,0.0,eInterpolationCubic
X,52,0.0,eInterpolationCubic
X,52*,0.0,eInterpolationCubic
X,53,0.0,eInterpolationCubic
X,53*,0.0,eInterpolationCubic
X,54,0.0,eInterpolationCubic
X,54*,0.0,eInterpolationCubic
X,55,0.0,eInterpolationCubic
X,55*,0.0,eInterpolationCubic
X,56,0.0,eInterpolationCubic
X,56*,0.0,eInterpolationCubic
X,57,0.0,eInterpolationCubic
X,57*,0.0,eInterpolationCubic
X,58,0.0,eInterpolationCubic
X,58*,0.0,eInterpolationCubic
X,59,0.0,eInterpolationCubic
X,59*,0.0,eInterpolationCubic
X,60,0.0,eInterpolationCubic
X,60*,0.0,eInterpolationCubic
X,61,0.0,eInterpolationCubic
X,61*,0.0,eInterpolationCubic
X,62,0.0,eInterpolationCubic
X,62*,0.0,eInterpolationCubic
X,63,0.0,eInterpolationCubic
X,63*,0.0,eInterpolationCubic
X,64,0.0,eInterpolationCubic
X,64*,0.0,eInterpolationCubic
X,65,0.0,eInterpolationCubic
X,65*,0.0,eInterpolationCubic
X,66,0.0,eInterpolationCubic
X,66*,0.0,eInterpolationCubic
X,67,0.0,eInterpolationCubic
X,67*,0.0,eInterpolationCubic
X,68,0.0,eInterpolationCubic
X,68*,0.0,eInterpolationCubic
X,69,0.0,eInterpolationCubic
X,69*,0.0,eInterpolationCubic
X,70,0.0,eInterpolationCubic
X,70*,0.0,eInterpolationConstant
Y,0,-0.0,eInterpolationCubic
Y,0*,-0.0006264408584684134,eInterpolationCubic
Y,1,-0.005011526867747307,eInterpolationCubic
Y,1*,-0.01691390387713909,eInterpolationCubic
Y,2,-0.040092214941978455,eInterpolationCubic
Y,2*,-0.07830510288476944,eInterpolationCubic
Y,3,-0.13531123101711273,eInterpolationCubic
Y,3*,-0.2148692011833191,eInterpolationCubic
Y,4,-0.32073771953582764,eInterpolationCubic
Y,4*,-0.45667538046836853,eInterpolationCubic
Y,5,-0.6264408230781555,eInterpolationCubic
Y,5*,-1.3255313634872437,eInterpolationCubic
Y,6,-2.9518349170684814,eInterpolationCubic
Y,6*,-5.362696170806885,eInterpolationCubic
Y,7,-8.415460586547852,eInterpolationCubic
Y,7*,-11.967473030090332,eInterpolationCubic
Y,8,-15.876078605651855,eInterpolationCubic
Y,8*,-19.998619079589844,eInterpolationCubic
Y,9,-24.19244384765625,eInterpolationCubic
Y,9*,-28.31489372253418,eInterpolationCubic
Y,10,-32.22332000732422,eInterpolationCubic
Y,10*,-35.775054931640625,eInterpolationCubic
Y,11,-38.827457427978516,eInterpolationCubic
Y,11*,-41.45270538330078,eInterpolationCubic
Y,12,-43.74246597290039,eInterpolationCubic
Y,12*,-45.58330154418945,eInterpolationCubic
Y,13,-46.861793518066406,eInterpolationCubic
Y,13*,-47.464508056640625,eInterpolationCubic
Y,14,-47.68781280517578,eInterpolationCubic
Y,14*,-47.903778076171875,eInterpolationCubic
Y,15,-48.112525939941406,eInterpolationCubic
Y,15*,-48.31417465209961,eInterpolationCubic
Y,16,-48.50885009765625,eInterpolationCubic
Y,16*,-48.696659088134766,eInterpolationCubic
Y,17,-48.87773513793945,eInterpolationCubic
Y,17*,-49.052188873291016,eInterpolationCubic
Y,18,-49.22014236450195,eInterpolationCubic
Y,18*,-49.38172149658203,eInterpolationCubic
Y,19,-49.53703689575195,eInterpolationCubic
Y,19*,-49.68621063232422,eInterpolationCubic
Y,20,-49.829368591308594,eInterpolationCubic
Y,20*,-49.96662521362305,eInterpolationCubic
Y,21,-50.09809875488281,eInterpolationCubic
Y,21*,-50.223915100097656,eInterpolationCubic
Y,22,-50.34418869018555,eInterpolationCubic
Y,22*,-50.459041595458984,eInterpolationCubic
Y,23,-50.5685920715332,eInterpolationCubic
Y,23*,-50.67295837402344,eInterpolationCubic
Y,24,-50.77226638793945,eInterpolationCubic
Y,24*,-50.86663055419922,eInterpolationCubic
Y,25,-50.956172943115234,eInterpolationCubic
Y,25*,-51.041011810302734,eInterpolationCubic
Y,26,-51.121273040771484,eInterpolationCubic
Y,26*,-51.19706726074219,eInterpolationCubic
Y,27,-51.268516540527344,eInterpolationCubic
Y,27*,-51.33574295043945,eInterpolationCubic
Y,28,-51.398868560791016,eInterpolationCubic
Y,28*,-51.4580078125,eInterpolationCubic
Y,29,-51.51328659057617,eInterpolationCubic
Y,29*,-51.5648193359375,eInterpolationCubic
Y,30,-51.61272430419922,eInterpolationCubic
Y,30*,-51.657127380371094,eInterpolationCubic
Y,31,-51.69814682006836,eInterpolationCubic
Y,31*,-51.735897064208984,eInterpolationCubic
Y,32,-51.7705078125,eInterpolationCubic
Y,32*,-51.80208969116211,eInterpolationCubic
Y,33,-51.83076858520508,eInterpolationCubic
Y,33*,-51.85665512084961,eInterpolationCubic
Y,34,-51.8798828125,eInterpolationCubic
Y,34*,-51.90056228637695,eInterpolationCubic
Y,35,-51.9188117980957,eInterpolationCubic
Y,35*,-51.934757232666016,eInterpolationCubic
Y,36,-51.948516845703125,eInterpolationCubic
Y,36*,-51.960205078125,eInterpolationCubic
Y,37,-51.969947814941406,eInterpolationCubic
Y,37*,-51.977867126464844,eInterpolationCubic
Y,38,-51.984073638916016,eInterpolationCubic
Y,38*,-51.98869323730469,eInterpolationCubic
Y,39,-51.991844177246094,eInterpolationCubic
Y,39*,-51.993648529052734,eInterpolationCubic
Y,40,-51.99422073364258,eInterpolationCubic
Y,40*,-51.84328842163086,eInterpolationCubic
Y,41,-51.413700103759766,eInterpolationCubic
Y,41*,-50.74029541015625,eInterpolationCubic
Y,42,-49.85790252685547,eInterpolationCubic
Y,42*,-48.801353454589844,eInterpolationCubic
Y,43,-47.6054801940918,eInterpolationCubic
Y,43*,-46.305110931396484,eInterpolationCubic
Y,44,-44.935081481933594,eInterpolationCubic
Y,44*,-43.53022003173828,eInterpolationCubic
Y,45,-42.1253547668457,eInterpolationCubic
Y,45*,-40.75532531738281,eInterpolationCubic
Y,46,-39.454959869384766,eInterpolationCubic
Y,46*,-38.25908660888672,eInterpolationCubic
Y,47,-37.202537536621094,eInterpolationCubic
Y,47*,-36.32014083862305,eInterpolationCubic
Y,48,-35.6467399597168,eInterpolationCubic
Y,48*,-35.21715545654297,eInterpolationCubic
Y,49,-35.06621551513672,eInterpolationCubic
Y,49*,-35.10004806518555,eInterpolationCubic
Y,50,-35.19935607910156,eInterpolationCubic
Y,50*,-35.360870361328125,eInterpolationCubic
Y,51,-35.58131790161133,eInterpolationCubic
Y,51*,-35.857418060302734,eInterpolationCubic
Y,52,-36.18590545654297,eInterpolationCubic
Y,52*,-36.56349563598633,eInterpolationCubic
Y,53,-36.9869270324707,eInterpolationCubic
Y,53*,-37.45291519165039,eInterpolationCubic
Y,54,-37.958194732666016,eInterpolationCubic
Y,54*,-38.49948501586914,eInterpolationCubic
Y,55,-39.073516845703125,eInterpolationCubic
Y,55*,-39.67700958251953,eInterpolationCubic
Y,56,-40.306697845458984,eInterpolationCubic
Y,56*,-40.95930480957031,eInterpolationCubic
Y,57,-41.631553649902344,eInterpolationCubic
Y,57*,-42.32017135620117,eInterpolationCubic
Y,58,-43.02188491821289,eInterpolationCubic
Y,58*,-43.73341751098633,eInterpolationCubic
Y,59,-44.45150375366211,eInterpolationCubic
Y,59*,-45.17285919189453,eInterpolationCubic
Y,60,-45.89421463012695,eInterpolationCubic
Y,60*,-46.612300872802734,eInterpolationCubic
Y,61,-47.32383346557617,eInterpolationCubic
Y,61*,-48.025550842285156,eInterpolationCubic
Y,62,-48.71416473388672,eInterpolationCubic
Y,62*,-49.38641357421875,eInterpolationCubic
Y,63,-50.03902053833008,eInterpolationCubic
Y,63*,-50.668704986572266,eInterpolationCubic
Y,64,-51.2722053527832,eInterpolationCubic
Y,64*,-51.84623336791992,eInterpolationCubic
Y,65,-52.38752365112305,eInterpolationCubic
Y,65*,-52.89280319213867,eInterpolationCubic
Y,66,-53.35879135131836,eInterpolationCubic
Y,66*,-53.782222747802734,eInterpolationCubic
Y,67,-54.15981674194336,eInterpolationCubic
Y,67*,-54.48830032348633,eInterpolationCubic
Y,68,-54.764400482177734,eInterpolationCubic
Y,68*,-54.98484802246094,eInterpolationCubic
Y,69,-55.1463623046875,eInterpolationCubic
Y,69*,-55.245670318603516,eInterpolationCubic
Y,70,-55.279502868652344,eInterpolationCubic
Y,70*,-55.279502868652344,eInterpolationConstant
Z,0,0.0,eInterpolationCubic
Z,0*,0.0,eInterpolationCubic
Z,1,0.0,eInterpolationCubic
Z,1*,0.0,eInterpolationCubic
Z,2,0.0,eInterpolationCubic
Z,2*,0.0,eInterpolationCubic
Z,3,0.0,eInterpolationCubic
Z,3*,0.0,eInterpolationCubic
Z,4,0.0,eInterpolationCubic
Z,4*,0.0,eInterpolationCubic
Z,5,0.0,eInterpolationCubic
Z,5*,0.0,eInterpolationCubic
Z,6,0.0,eInterpolationCubic
Z,6*,0.0,eInterpolationCubic
Z,7,0.0,eInterpolationCubic
Z,7*,0.0,eInterpolationCubic
Z,8,0.0,eInterpolationCubic
Z,8*,0.0,eInterpolationCubic
Z,9,0.0,eInterpolationCubic
Z,9*,0.0,eInterpolationCubic
Z,10,0.0,eInterpolationCubic
Z,10*,0.0,eInterpolationCubic
Z,11,0.0,eInterpolationCubic
Z,11*,0.0,eInterpolationCubic
Z,12,0.0,eInterpolationCubic
Z,12*,0.0,eInterpolationCubic
Z,13,0.0,eInterpolationCubic
Z,13*,0.0,eInterpolationCubic
Z,14,0.0,eInterpolationCubic
Z,14*,0.0,eInterpolationCubic
Z,15,0.0,eInterpolationCubic
Z,15*,0.0,eInterpolationCubic
Z,16,0.0,eInterpolationCubic
Z,16*,0.0,eInterpolationCubic
Z,17,0.0,eInterpolationCubic
Z,17*,0.0,eInterpolationCubic
Z,18,0.0,eInterpolationCubic
Z,18*,0.0,eInterpolationCubic
Z,19,0.0,eInterpolationCubic
Z,19*,0.0,eInterpolationCubic
Z,20,0.0,eInterpolationCubic
Z,20*,0.0,eInterpolationCubic
Z,21,0.0,eInterpolationCubic
Z,21*,0.0,eInterpolationCubic
Z,22,0.0,eInterpolationCubic
Z,22*,0.0,eInterpolationCubic
Z,23,0.0,eInterpolationCubic
Z,23*,0.0,eInterpolationCubic
Z,24,0.0,eInterpolationCubic
Z,24*,0.0,eInterpolationCubic
Z,25,0.0,eInterpolationCubic
Z,25*,0.0,eInterpolationCubic
Z,26,0.0,eInterpolationCubic
Z,26*,0.0,eInterpolationCubic
Z,27,0.0,eInterpolationCubic
Z,27*,0.0,eInterpolationCubic
Z,28,0.0,eInterpolationCubic
Z,28*,0.0,eInterpolationCubic
Z,29,0.0,eInterpolationCubic
Z,29*,0.0,eInterpolationCubic
Z,30,0.0,eInterpolationCubic
Z,30*,0.0,eInterpolationCubic
Z,31,0.0,eInterpolationCubic
Z,31*,0.0,eInterpolationCubic
Z,32,0.0,eInterpolationCubic
Z,32*,0.0,eInterpolationCubic
Z,33,0.0,eInterpolationCubic
Z,33*,0.0,eInterpolationCubic
Z,34,0.0,eInterpolationCubic
Z,34*,0.0,eInterpolationCubic
Z,35,0.0,eInterpolationCubic
Z,35*,0.0,eInterpolationCubic
Z,36,0.0,eInterpolationCubic
Z,36*,0.0,eInterpolationCubic
Z,37,0.0,eInterpolationCubic
Z,37*,0.0,eInterpolationCubic
Z,38,0.0,eInterpolationCubic
Z,38*,0.0,eInterpolationCubic
Z,39,0.0,eInterpolationCubic
Z,39*,0.0,eInterpolationCubic
Z,40,0.0,eInterpolationCubic
Z,40*,0.0,eInterpolationCubic
Z,41,0.0,eInterpolationCubic
Z,41*,0.0,eInterpolationCubic
Z,42,0.0,eInterpolationCubic
Z,42*,0.0,eInterpolationCubic
Z,43,0.0,eInterpolationCubic
Z,43*,0.0,eInterpolationCubic
Z,44,0.0,eInterpolationCubic
Z,44*,0.0,eInterpolationCubic
Z,45,0.0,eInterpolationCubic
Z,45*,0.0,eInterpolationCubic
Z,46,0.0,eInterpolationCubic
Z,46*,0.0,eInterpolationCubic
Z,47,0.0,eInterpolationCubic
Z,47*,0.0,eInterpolationCubic
Z,48,0.0,eInterpolationCubic
Z,48*,0.0,eInterpolationCubic
Z,49,0.0,eInterpolationCubic
Z,49*,0.0,eInterpolationCubic
Z,50,0.0,eInterpolationCubic
Z,50*,0.0,eInterpolationCubic
Z,51,0.0,eInterpolationCubic
Z,51*,0.0,eInterpolationCubic
Z,52,0.0,eInterpolationCubic
Z,52*,0.0,eInterpolationCubic
Z,53,0.0,eInterpolationCubic
Z,53*,0.0,eInterpolationCubic
Z,54,0.0,eInterpolationCubic
Z,54*,0.0,eInterpolationCubic
Z,55,0.0,eInterpolationCubic
Z,55*,0.0,eInterpolationCubic
Z,56,0.0,eInterpolationCubic
Z,56*,0.0,eInterpolationCubic
Z,57,0.0,eInterpolationCubic
Z,57*,0.0,eInterpolationCubic
Z,58,0.0,eInterpolationCubic
Z,58*,0.0,eInterpolationCubic
Z,59,0.0,eInterpolationCubic
Z,59*,0.0,eInterpolationCubic
Z,60,0.0,eInterpolationCubic
Z,60*,0.0,eInterpolationCubic
Z,61,0.0,eInterpolationCubic
Z,61*,0.0,eInterpolationCubic
Z,62,0.0,eInterpolationCubic
Z,62*,0.0,eInterpolationCubic
Z,63,0.0,eInterpolationCubic
Z,63*,0.0,eInterpolationCubic
Z,64,0.0,eInterpolationCubic
Z,64*,0.0,eInterpolationCubic
Z,65,0.0,eInterpolationCubic
Z,65*,0.0,eInterpolationCubic
Z,66,0.0,eInterpolationCubic
Z,66*,0.0,eInterpolationCubic
Z,67,0.0,eInterpolationCubic
Z,67*,0.0,eInterpolationCubic
Z,68,0.0,eInterpolationCubic
Z,68*,0.0,eInterpolationCubic
Z,69,0.0,eInterpolationCubic
Z,69*,0.0,eInterpolationCubic
Z,70,0.0,eInterpolationCubic
Z,70*,0.0,eInterpolationConstant
