Axis,KeyFrame,Value,InterpolationType
X,0,0.0,eInterpolationCubic
X,0*,5.824743747711182,eInterpolationCubic
X,1,19.998950958251953,eInterpolationCubic
X,1*,37.57258987426758,eInterpolationCubic
X,2,57.4902458190918,eInterpolationCubic
X,2*,80.21222686767578,eInterpolationCubic
X,3,103.06209564208984,eInterpolationCubic
X,3*,123.36339569091797,eInterpolationCubic
X,4,141.47531127929688,eInterpolationCubic
X,4*,159.5161895751953,eInterpolationCubic
X,5,177.4483642578125,eInterpolationCubic
X,5*,195.23419189453125,eInterpolationCubic
X,6,212.83595275878906,eInterpolationCubic
X,6*,230.21600341796875,eInterpolationCubic
X,7,247.33665466308594,eInterpolationCubic
X,7*,264.1602478027344,eInterpolationCubic
X,8,280.6490783691406,eInterpolationCubic
X,8*,296.7655029296875,eInterpolationCubic
X,9,312.4718017578125,eInterpolationCubic
X,9*,327.73040771484375,eInterpolationCubic
X,10,342.1888732910156,eInterpolationCubic
X,10*,355.43536376953125,eInterpolationCubic
X,11,367.3429260253906,eInterpolationCubic
X,11*,377.78448486328125,eInterpolationCubic
X,12,386.633056640625,eInterpolationCubic
X,12*,393.7615966796875,eInterpolationCubic
X,13,399.947021484375,eInterpolationCubic
X,13*,406.00787353515625,eInterpolationCubic
X,14,411.8797302246094,eInterpolationCubic
X,14*,417.4981689453125,eInterpolationCubic
X,15,422.7987060546875,eInterpolationCubic
X,15*,427.71697998046875,eInterpolationCubic
X,16,432.1885681152344,eInterpolationCubic
X,16*,436.1489562988281,eInterpolationCubic
X,17,439.5337829589844,eInterpolationCubic
X,17*,442.2785949707031,eInterpolationCubic
X,18,444.3189392089844,eInterpolationCubic
X,18*,445.5904235839844,eInterpolationCubic
X,19,446.02862548828125,eInterpolationCubic
X,19*,446.02862548828125,eInterpolationCubic
X,20,446.02862548828125,eInterpolationCubic
X,20*,446.0287780761719,eInterpolationCubic
X,21,446.0287780761719,eInterpolationCubic
X,21*,446.0287780761719,eInterpolationCubic
X,22,446.0289001464844,eInterpolationCubic
X,22*,446.0289001464844,eInterpolationCubic
X,23,446.0289001464844,eInterpolationCubic
X,23*,446.0289001464844,eInterpolationCubic
X,24,446.0289001464844,eInterpolationCubic
X,24*,446.0290222167969,eInterpolationCubic
X,25,446.0290222167969,eInterpolationCubic
X,25*,446.0290222167969,eInterpolationCubic
X,26,446.0290222167969,eInterpolationCubic
X,26*,446.0290222167969,eInterpolationCubic
X,27,446.0290222167969,eInterpolationCubic
X,27*,446.0290222167969,eInterpolationCubic
X,28,446.0290222167969,eInterpolationCubic
X,28*,446.0290222167969,eInterpolationCubic
X,29,446.0290222167969,eInterpolationCubic
X,29*,446.0290222167969,eInterpolationCubic
X,30,446.0290222167969,eInterpolationCubic
X,30*,446.0290222167969,eInterpolationCubic
X,31,446.0290222167969,eInterpolationCubic
X,31*,446.0290222167969,eInterpolationCubic
X,32,446.0290222167969,eInterpolationCubic
X,32*,446.0290222167969,eInterpolationCubic
X,33,446.0290222167969,eInterpolationConstant
Y,0,-0.0,eInterpolationCubic
Y,0*,-0.0,eInterpolationCubic
Y,1,-0.0,eInterpolationCubic
Y,1*,-0.0,eInterpolationCubic
Y,2,-0.0,eInterpolationCubic
Y,2*,-0.0,eInterpolationCubic
Y,3,-0.0,eInterpolationCubic
Y,3*,-0.0,eInterpolationCubic
Y,4,-0.0,eInterpolationCubic
Y,4*,-0.0,eInterpolationCubic
Y,5,-0.0,eInterpolationCubic
Y,5*,-0.0,eInterpolationCubic
Y,6,-0.0,eInterpolationCubic
Y,6*,-0.0,eInterpolationCubic
Y,7,-0.0,eInterpolationCubic
Y,7*,-0.0,eInterpolationCubic
Y,8,-0.0,eInterpolationCubic
Y,8*,-0.0,eInterpolationCubic
Y,9,-0.0,eInterpolationCubic
Y,9*,-0.0,eInterpolationCubic
Y,10,-0.0,eInterpolationCubic
Y,10*,-0.0,eInterpolationCubic
Y,11,-0.0,eInterpolationCubic
Y,11*,-0.0,eInterpolationCubic
Y,12,-0.0,eInterpolationCubic
Y,12*,-0.0,eInterpolationCubic
Y,13,-0.0,eInterpolationCubic
Y,13*,-0.0,eInterpolationCubic
Y,14,-0.0,eInterpolationCubic
Y,14*,-0.0,eInterpolationCubic
Y,15,-0.0,eInterpolationCubic
Y,15*,-0.0,eInterpolationCubic
Y,16,-0.0,eInterpolationCubic
Y,16*,-0.0,eInterpolationCubic
Y,17,-0.0,eInterpolationCubic
Y,17*,-0.0,eInterpolationCubic
Y,18,-0.0,eInterpolationCubic
Y,18*,-0.0,eInterpolationCubic
Y,19,-0.0,eInterpolationCubic
Y,19*,-0.0,eInterpolationCubic
Y,20,-0.0,eInterpolationCubic
Y,20*,-0.0,eInterpolationCubic
Y,21,-0.0,eInterpolationCubic
Y,21*,-0.0,eInterpolationCubic
Y,22,-0.0,eInterpolationCubic
Y,22*,-0.0,eInterpolationCubic
Y,23,-0.0,eInterpolationCubic
Y,23*,-0.0,eInterpolationCubic
Y,24,-0.0,eInterpolationCubic
Y,24*,-0.0,eInterpolationCubic
Y,25,-0.0,eInterpolationCubic
Y,25*,-0.0,eInterpolationCubic
Y,26,-0.0,eInterpolationCubic
Y,26*,-0.0,eInterpolationCubic
Y,27,-0.0,eInterpolationCubic
Y,27*,-0.0,eInterpolationCubic
Y,28,-0.0,eInterpolationCubic
Y,28*,-0.0,eInterpolationCubic
Y,29,-0.0,eInterpolationCubic
Y,29*,-0.0,eInterpolationCubic
Y,30,-0.0,eInterpolationCubic
Y,30*,-0.0,eInterpolationCubic
Y,31,-0.0,eInterpolationCubic
Y,31*,-0.0,eInterpolationCubic
Y,32,-0.0,eInterpolationCubic
Y,32*,-0.0,eInterpolationCubic
Y,33,-0.0,eInterpolationConstant
Z,0,0.0,eInterpolationCubic
Z,0*,0.0,eInterpolationCubic
Z,1,0.0,eInterpolationCubic
Z,1*,0.0,eInterpolationCubic
Z,2,0.0,eInterpolationCubic
Z,2*,0.0,eInterpolationCubic
Z,3,0.0,eInterpolationCubic
Z,3*,0.0,eInterpolationCubic
Z,4,0.0,eInterpolationCubic
Z,4*,0.0,eInterpolationCubic
Z,5,0.0,eInterpolationCubic
Z,5*,0.0,eInterpolationCubic
Z,6,0.0,eInterpolationCubic
Z,6*,0.0,eInterpolationCubic
Z,7,0.0,eInterpolationCubic
Z,7*,0.0,eInterpolationCubic
Z,8,0.0,eInterpolationCubic
Z,8*,0.0,eInterpolationCubic
Z,9,0.0,eInterpolationCubic
Z,9*,0.0,eInterpolationCubic
Z,10,0.0,eInterpolationCubic
Z,10*,0.0,eInterpolationCubic
Z,11,0.0,eInterpolationCubic
Z,11*,0.0,eInterpolationCubic
Z,12,0.0,eInterpolationCubic
Z,12*,0.0,eInterpolationCubic
Z,13,0.0,eInterpolationCubic
Z,13*,0.0,eInterpolationCubic
Z,14,0.0,eInterpolationCubic
Z,14*,0.0,eInterpolationCubic
Z,15,0.0,eInterpolationCubic
Z,15*,0.0,eInterpolationCubic
Z,16,0.0,eInterpolationCubic
Z,16*,0.0,eInterpolationCubic
Z,17,0.0,eInterpolationCubic
Z,17*,0.0,eInterpolationCubic
Z,18,0.0,eInterpolationCubic
Z,18*,0.0,eInterpolationCubic
Z,19,0.0,eInterpolationCubic
Z,19*,0.0,eInterpolationCubic
Z,20,0.0,eInterpolationCubic
Z,20*,0.0,eInterpolationCubic
Z,21,0.0,eInterpolationCubic
Z,21*,0.0,eInterpolationCubic
Z,22,0.0,eInterpolationCubic
Z,22*,0.0,eInterpolationCubic
Z,23,0.0,eInterpolationCubic
Z,23*,0.0,eInterpolationCubic
Z,24,0.0,eInterpolationCubic
Z,24*,0.0,eInterpolationCubic
Z,25,0.0,eInterpolationCubic
Z,25*,0.0,eInterpolationCubic
Z,26,0.0,eInterpolationCubic
Z,26*,0.0,eInterpolationCubic
Z,27,0.0,eInterpolationCubic
Z,27*,0.0,eInterpolationCubic
Z,28,0.0,eInterpolationCubic
Z,28*,0.0,eInterpolationCubic
Z,29,0.0,eInterpolationCubic
Z,29*,0.0,eInterpolationCubic
Z,30,0.0,eInterpolationCubic
Z,30*,0.0,eInterpolationCubic
Z,31,0.0,eInterpolationCubic
Z,31*,0.0,eInterpolationCubic
Z,32,0.0,eInterpolationCubic
Z,32*,0.0,eInterpolationCubic
Z,33,0.0,eInterpolationConstant
