Axis,KeyFrame,Value,InterpolationType
X,0,0.0,eInterpolationCubic
X,0*,0.0,eInterpolationCubic
X,1,0.0,eInterpolationCubic
X,1*,0.0,eInterpolationCubic
X,2,0.0,eInterpolationCubic
X,2*,0.0,eInterpolationCubic
X,3,0.0,eInterpolationCubic
X,3*,0.0,eInterpolationCubic
X,4,0.0,eInterpolationCubic
X,4*,0.0,eInterpolationCubic
X,5,0.0,eInterpolationCubic
X,5*,0.0,eInterpolationCubic
X,6,0.0,eInterpolationCubic
X,6*,0.0,eInterpolationCubic
X,7,0.0,eInterpolationCubic
X,7*,0.0,eInterpolationCubic
X,8,0.0,eInterpolationCubic
X,8*,0.0,eInterpolationCubic
X,9,0.0,eInterpolationCubic
X,9*,0.0,eInterpolationCubic
X,10,0.0,eInterpolationCubic
X,10*,0.0,eInterpolationCubic
X,11,0.0,eInterpolationCubic
X,11*,0.0,eInterpolationCubic
X,12,0.0,eInterpolationCubic
X,12*,0.0,eInterpolationCubic
X,13,0.0,eInterpolationCubic
X,13*,0.0,eInterpolationCubic
X,14,0.0,eInterpolationCubic
X,14*,0.0,eInterpolationCubic
X,15,0.0,eInterpolationCubic
X,15*,0.0,eInterpolationCubic
X,16,0.0,eInterpolationCubic
X,16*,0.0,eInterpolationCubic
X,17,0.0,eInterpolationCubic
X,17*,0.0,eInterpolationCubic
X,18,0.0,eInterpolationCubic
X,18*,0.0,eInterpolationCubic
X,19,0.0,eInterpolationCubic
X,19*,0.0,eInterpolationCubic
X,20,0.0,eInterpolationCubic
X,20*,0.0,eInterpolationCubic
X,21,0.0,eInterpolationCubic
X,21*,0.0,eInterpolationCubic
X,22,0.0,eInterpolationCubic
X,22*,0.0,eInterpolationCubic
X,23,0.0,eInterpolationCubic
X,23*,0.0,eInterpolationCubic
X,24,0.0,eInterpolationCubic
X,24*,0.0,eInterpolationCubic
X,25,0.0,eInterpolationCubic
X,25*,0.0,eInterpolationCubic
X,26,0.0,eInterpolationCubic
X,26*,0.0,eInterpolationCubic
X,27,0.0,eInterpolationCubic
X,27*,0.0,eInterpolationCubic
X,28,0.0,eInterpolationCubic
X,28*,0.0,eInterpolationCubic
X,29,0.0,eInterpolationCubic
X,29*,0.0,eInterpolationCubic
X,30,0.0,eInterpolationCubic
X,30*,0.0,eInterpolationCubic
X,31,0.0,eInterpolationCubic
X,31*,0.0,eInterpolationCubic
X,32,0.0,eInterpolationCubic
X,32*,0.0,eInterpolationCubic
X,33,0.0,eInterpolationCubic
X,33*,0.0,eInterpolationCubic
X,34,0.0,eInterpolationCubic
X,34*,0.0,eInterpolationCubic
X,35,0.0,eInterpolationCubic
X,35*,0.0,eInterpolationConstant
Y,0,-0.0,eInterpolationCubic
Y,0*,3.8478691577911377,eInterpolationCubic
Y,1,7.443032741546631,eInterpolationCubic
Y,1*,11.543606758117676,eInterpolationCubic
Y,2,16.9077091217041,eInterpolationCubic
Y,2*,23.340869903564453,eInterpolationCubic
Y,3,30.102399826049805,eInterpolationCubic
Y,3*,37.131099700927734,eInterpolationCubic
Y,4,44.365779876708984,eInterpolationCubic
Y,4*,51.74523162841797,eInterpolationCubic
Y,5,59.208255767822266,eInterpolationCubic
Y,5*,66.69366455078125,eInterpolationCubic
Y,6,74.14025115966797,eInterpolationCubic
Y,6*,81.48680877685547,eInterpolationCubic
Y,7,88.67214965820312,eInterpolationCubic
Y,7*,95.63507843017578,eInterpolationCubic
Y,8,102.31438446044922,eInterpolationCubic
Y,8*,108.64887237548828,eInterpolationCubic
Y,9,114.57735443115234,eInterpolationCubic
Y,9*,120.03861999511719,eInterpolationCubic
Y,10,124.97146606445312,eInterpolationCubic
Y,10*,129.5078125,eInterpolationCubic
Y,11,133.82615661621094,eInterpolationCubic
Y,11*,137.9352569580078,eInterpolationCubic
Y,12,141.84385681152344,eInterpolationCubic
Y,12*,145.56069946289062,eInterpolationCubic
Y,13,149.09449768066406,eInterpolationCubic
Y,13*,152.45401000976562,eInterpolationCubic
Y,14,155.6479949951172,eInterpolationCubic
Y,14*,158.68515014648438,eInterpolationCubic
Y,15,161.57424926757812,eInterpolationCubic
Y,15*,164.32403564453125,eInterpolationCubic
Y,16,166.94320678710938,eInterpolationCubic
Y,16*,169.44056701660156,eInterpolationCubic
Y,17,171.82481384277344,eInterpolationCubic
Y,17*,174.10470581054688,eInterpolationCubic
Y,18,176.28895568847656,eInterpolationCubic
Y,18*,178.38632202148438,eInterpolationCubic
Y,19,180.40554809570312,eInterpolationCubic
Y,19*,182.35537719726562,eInterpolationCubic
Y,20,184.2445526123047,eInterpolationCubic
Y,20*,186.09445190429688,eInterpolationCubic
Y,21,187.9189453125,eInterpolationCubic
Y,21*,189.71539306640625,eInterpolationCubic
Y,22,191.48118591308594,eInterpolationCubic
Y,22*,193.21371459960938,eInterpolationCubic
Y,23,194.9103546142578,eInterpolationCubic
Y,23*,196.56846618652344,eInterpolationCubic
Y,24,198.18548583984375,eInterpolationCubic
Y,24*,199.75875854492188,eInterpolationCubic
Y,25,201.28565979003906,eInterpolationCubic
Y,25*,202.7635955810547,eInterpolationCubic
Y,26,204.18994140625,eInterpolationCubic
Y,26*,205.56207275390625,eInterpolationCubic
Y,27,206.8773956298828,eInterpolationCubic
Y,27*,208.13327026367188,eInterpolationCubic
Y,28,209.3270721435547,eInterpolationCubic
Y,28*,210.4562225341797,eInterpolationCubic
Y,29,211.51806640625,eInterpolationCubic
Y,29*,212.510009765625,eInterpolationCubic
Y,30,213.42942810058594,eInterpolationCubic
Y,30*,214.273681640625,eInterpolationCubic
Y,31,215.0402069091797,eInterpolationCubic
Y,31*,215.726318359375,eInterpolationCubic
Y,32,216.32945251464844,eInterpolationCubic
Y,32*,216.84698486328125,eInterpolationCubic
Y,33,217.2762908935547,eInterpolationCubic
Y,33*,217.61474609375,eInterpolationCubic
Y,34,217.8597412109375,eInterpolationCubic
Y,34*,218.0086669921875,eInterpolationCubic
Y,35,218.05886840820312,eInterpolationCubic
Y,35*,218.05886840820312,eInterpolationConstant
Z,0,0.0,eInterpolationCubic
Z,0*,0.0,eInterpolationCubic
Z,1,0.0,eInterpolationCubic
Z,1*,0.0,eInterpolationCubic
Z,2,0.0,eInterpolationCubic
Z,2*,0.0,eInterpolationCubic
Z,3,0.0,eInterpolationCubic
Z,3*,0.0,eInterpolationCubic
Z,4,0.0,eInterpolationCubic
Z,4*,0.0,eInterpolationCubic
Z,5,0.0,eInterpolationCubic
Z,5*,0.0,eInterpolationCubic
Z,6,0.0,eInterpolationCubic
Z,6*,0.0,eInterpolationCubic
Z,7,0.0,eInterpolationCubic
Z,7*,0.0,eInterpolationCubic
Z,8,0.0,eInterpolationCubic
Z,8*,0.0,eInterpolationCubic
Z,9,0.0,eInterpolationCubic
Z,9*,0.0,eInterpolationCubic
Z,10,0.0,eInterpolationCubic
Z,10*,0.0,eInterpolationCubic
Z,11,0.0,eInterpolationCubic
Z,11*,0.0,eInterpolationCubic
Z,12,0.0,eInterpolationCubic
Z,12*,0.0,eInterpolationCubic
Z,13,0.0,eInterpolationCubic
Z,13*,0.0,eInterpolationCubic
Z,14,0.0,eInterpolationCubic
Z,14*,0.0,eInterpolationCubic
Z,15,0.0,eInterpolationCubic
Z,15*,0.0,eInterpolationCubic
Z,16,0.0,eInterpolationCubic
Z,16*,0.0,eInterpolationCubic
Z,17,0.0,eInterpolationCubic
Z,17*,0.0,eInterpolationCubic
Z,18,0.0,eInterpolationCubic
Z,18*,0.0,eInterpolationCubic
Z,19,0.0,eInterpolationCubic
Z,19*,0.0,eInterpolationCubic
Z,20,0.0,eInterpolationCubic
Z,20*,0.0,eInterpolationCubic
Z,21,0.0,eInterpolationCubic
Z,21*,0.0,eInterpolationCubic
Z,22,0.0,eInterpolationCubic
Z,22*,0.0,eInterpolationCubic
Z,23,0.0,eInterpolationCubic
Z,23*,0.0,eInterpolationCubic
Z,24,0.0,eInterpolationCubic
Z,24*,0.0,eInterpolationCubic
Z,25,0.0,eInterpolationCubic
Z,25*,0.0,eInterpolationCubic
Z,26,0.0,eInterpolationCubic
Z,26*,0.0,eInterpolationCubic
Z,27,0.0,eInterpolationCubic
Z,27*,0.0,eInterpolationCubic
Z,28,0.0,eInterpolationCubic
Z,28*,0.0,eInterpolationCubic
Z,29,0.0,eInterpolationCubic
Z,29*,0.0,eInterpolationCubic
Z,30,0.0,eInterpolationCubic
Z,30*,0.0,eInterpolationCubic
Z,31,0.0,eInterpolationCubic
Z,31*,0.0,eInterpolationCubic
Z,32,0.0,eInterpolationCubic
Z,32*,0.0,eInterpolationCubic
Z,33,0.0,eInterpolationCubic
Z,33*,0.0,eInterpolationCubic
Z,34,0.0,eInterpolationCubic
Z,34*,0.0,eInterpolationCubic
Z,35,0.0,eInterpolationCubic
Z,35*,0.0,eInterpolationConstant
