Id,Hand,Name,BaseArmor,WeightKg,Price,MeshAsset
0x2001,1,"Small Shield",7,1.5,1,"/Script/Engine.StaticMesh'/Game/Art/Polygon/PolygonVikings/Meshes/Props/SM_Prop_Shield_Decor_01.SM_Prop_Shield_Decor_01'"
0x2002,1,"Heater Shield",10,2,1.5,"/Script/Engine.StaticMesh'/Game/Art/Polygon/PolygonKnights/Meshes/Weapons/SM_Wep_Shield_02.SM_Wep_Shield_02'"
