Axis,KeyFrame,Value,InterpolationType
X,0,0.0,eInterpolationCubic
X,0*,0.0,eInterpolationCubic
X,1,0.0,eInterpolationCubic
X,1*,0.0,eInterpolationCubic
X,2,0.0,eInterpolationCubic
X,2*,0.0,eInterpolationCubic
X,3,0.0,eInterpolationCubic
X,3*,0.0,eInterpolationCubic
X,4,0.0,eInterpolationCubic
X,4*,0.0,eInterpolationCubic
X,5,0.0,eInterpolationCubic
X,5*,0.0,eInterpolationCubic
X,6,0.0,eInterpolationCubic
X,6*,0.0,eInterpolationCubic
X,7,0.0,eInterpolationCubic
X,7*,0.0,eInterpolationCubic
X,8,0.0,eInterpolationCubic
X,8*,0.0,eInterpolationCubic
X,9,0.0,eInterpolationCubic
X,9*,0.0,eInterpolationCubic
X,10,0.0,eInterpolationCubic
X,10*,0.0,eInterpolationCubic
X,11,0.0,eInterpolationCubic
X,11*,0.0,eInterpolationCubic
X,12,0.0,eInterpolationCubic
X,12*,0.0,eInterpolationCubic
X,13,0.0,eInterpolationCubic
X,13*,0.0,eInterpolationCubic
X,14,0.0,eInterpolationCubic
X,14*,0.0,eInterpolationCubic
X,15,0.0,eInterpolationCubic
X,15*,0.0,eInterpolationCubic
X,16,0.0,eInterpolationCubic
X,16*,0.0,eInterpolationCubic
X,17,0.0,eInterpolationCubic
X,17*,0.0,eInterpolationCubic
X,18,0.0,eInterpolationCubic
X,18*,0.0,eInterpolationCubic
X,19,0.0,eInterpolationCubic
X,19*,0.0,eInterpolationCubic
X,20,0.0,eInterpolationCubic
X,20*,0.0,eInterpolationCubic
X,21,0.0,eInterpolationCubic
X,21*,0.0,eInterpolationCubic
X,22,0.0,eInterpolationCubic
X,22*,0.0,eInterpolationCubic
X,23,0.0,eInterpolationCubic
X,23*,0.0,eInterpolationCubic
X,24,0.0,eInterpolationCubic
X,24*,0.0,eInterpolationCubic
X,25,0.0,eInterpolationCubic
X,25*,0.0,eInterpolationCubic
X,26,0.0,eInterpolationCubic
X,26*,0.0,eInterpolationCubic
X,27,0.0,eInterpolationCubic
X,27*,0.0,eInterpolationCubic
X,28,0.0,eInterpolationCubic
X,28*,0.0,eInterpolationCubic
X,29,0.0,eInterpolationCubic
X,29*,0.0,eInterpolationCubic
X,30,0.0,eInterpolationCubic
X,30*,0.0,eInterpolationCubic
X,31,0.0,eInterpolationCubic
X,31*,0.0,eInterpolationCubic
X,32,0.0,eInterpolationCubic
X,32*,0.0,eInterpolationCubic
X,33,0.0,eInterpolationCubic
X,33*,0.0,eInterpolationCubic
X,34,0.0,eInterpolationCubic
X,34*,0.0,eInterpolationCubic
X,35,0.0,eInterpolationCubic
X,35*,0.0,eInterpolationCubic
X,36,0.0,eInterpolationCubic
X,36*,0.0,eInterpolationCubic
X,37,0.0,eInterpolationCubic
X,37*,0.0,eInterpolationCubic
X,38,0.0,eInterpolationCubic
X,38*,0.0,eInterpolationCubic
X,39,0.0,eInterpolationCubic
X,39*,0.0,eInterpolationCubic
X,40,0.0,eInterpolationCubic
X,40*,0.0,eInterpolationCubic
X,41,0.0,eInterpolationCubic
X,41*,0.0,eInterpolationCubic
X,42,0.0,eInterpolationCubic
X,42*,0.0,eInterpolationCubic
X,43,0.0,eInterpolationCubic
X,43*,0.0,eInterpolationCubic
X,44,0.0,eInterpolationCubic
X,44*,0.0,eInterpolationCubic
X,45,0.0,eInterpolationCubic
X,45*,0.0,eInterpolationCubic
X,46,0.0,eInterpolationCubic
X,46*,0.0,eInterpolationCubic
X,47,0.0,eInterpolationCubic
X,47*,0.0,eInterpolationCubic
X,48,0.0,eInterpolationCubic
X,48*,0.0,eInterpolationCubic
X,49,0.0,eInterpolationCubic
X,49*,0.0,eInterpolationCubic
X,50,0.0,eInterpolationCubic
X,50*,0.0,eInterpolationConstant
Y,0,-0.010029022581875324,eInterpolationCubic
Y,0*,-0.39471444487571716,eInterpolationCubic
Y,1,-1.5133593082427979,eInterpolationCubic
Y,1*,-3.3128466606140137,eInterpolationCubic
Y,2,-5.740058898925781,eInterpolationCubic
Y,2*,-8.7418794631958,eInterpolationCubic
Y,3,-12.265190124511719,eInterpolationCubic
Y,3*,-16.25687599182129,eInterpolationCubic
Y,4,-20.663818359375,eInterpolationCubic
Y,4*,-25.432899475097656,eInterpolationCubic
Y,5,-30.511003494262695,eInterpolationCubic
Y,5*,-35.84501266479492,eInterpolationCubic
Y,6,-41.38180923461914,eInterpolationCubic
Y,6*,-47.06827926635742,eInterpolationCubic
Y,7,-52.85130310058594,eInterpolationCubic
Y,7*,-58.67776107788086,eInterpolationCubic
Y,8,-64.49454498291016,eInterpolationCubic
Y,8*,-70.24851989746094,eInterpolationCubic
Y,9,-75.88658905029297,eInterpolationCubic
Y,9*,-81.35562133789062,eInterpolationCubic
Y,10,-86.6025161743164,eInterpolationCubic
Y,10*,-95.14427185058594,eInterpolationCubic
Y,11,-107.28260040283203,eInterpolationCubic
Y,11*,-118.14140319824219,eInterpolationCubic
Y,12,-122.8445816040039,eInterpolationCubic
Y,12*,-122.8445816040039,eInterpolationCubic
Y,13,-122.8445816040039,eInterpolationCubic
Y,13*,-122.8445816040039,eInterpolationCubic
Y,14,-122.8445816040039,eInterpolationCubic
Y,14*,-122.8445816040039,eInterpolationCubic
Y,15,-122.8445816040039,eInterpolationCubic
Y,15*,-122.8445816040039,eInterpolationCubic
Y,16,-122.8445816040039,eInterpolationCubic
Y,16*,-122.8445816040039,eInterpolationCubic
Y,17,-122.8445816040039,eInterpolationCubic
Y,17*,-122.8445816040039,eInterpolationCubic
Y,18,-122.8445816040039,eInterpolationCubic
Y,18*,-122.8445816040039,eInterpolationCubic
Y,19,-122.8445816040039,eInterpolationCubic
Y,19*,-122.8445816040039,eInterpolationCubic
Y,20,-122.8445816040039,eInterpolationCubic
Y,20*,-122.8445816040039,eInterpolationCubic
Y,21,-122.8445816040039,eInterpolationCubic
Y,21*,-122.8445816040039,eInterpolationCubic
Y,22,-122.8445816040039,eInterpolationCubic
Y,22*,-122.8445816040039,eInterpolationCubic
Y,23,-122.8445816040039,eInterpolationCubic
Y,23*,-122.8445816040039,eInterpolationCubic
Y,24,-122.8445816040039,eInterpolationCubic
Y,24*,-122.8445816040039,eInterpolationCubic
Y,25,-122.8445816040039,eInterpolationCubic
Y,25*,-122.8445816040039,eInterpolationCubic
Y,26,-122.8445816040039,eInterpolationCubic
Y,26*,-122.8445816040039,eInterpolationCubic
Y,27,-122.8445816040039,eInterpolationCubic
Y,27*,-122.8445816040039,eInterpolationCubic
Y,28,-122.8445816040039,eInterpolationCubic
Y,28*,-122.8445816040039,eInterpolationCubic
Y,29,-122.8445816040039,eInterpolationCubic
Y,29*,-122.8445816040039,eInterpolationCubic
Y,30,-122.8445816040039,eInterpolationCubic
Y,30*,-122.8445816040039,eInterpolationCubic
Y,31,-122.8445816040039,eInterpolationCubic
Y,31*,-122.8445816040039,eInterpolationCubic
Y,32,-122.8445816040039,eInterpolationCubic
Y,32*,-122.8445816040039,eInterpolationCubic
Y,33,-122.8445816040039,eInterpolationCubic
Y,33*,-122.8445816040039,eInterpolationCubic
Y,34,-122.8445816040039,eInterpolationCubic
Y,34*,-122.8445816040039,eInterpolationCubic
Y,35,-122.8445816040039,eInterpolationCubic
Y,35*,-122.8445816040039,eInterpolationCubic
Y,36,-122.8445816040039,eInterpolationCubic
Y,36*,-122.8445816040039,eInterpolationCubic
Y,37,-122.8445816040039,eInterpolationCubic
Y,37*,-122.8445816040039,eInterpolationCubic
Y,38,-122.8445816040039,eInterpolationCubic
Y,38*,-122.8445816040039,eInterpolationCubic
Y,39,-122.8445816040039,eInterpolationCubic
Y,39*,-122.8445816040039,eInterpolationCubic
Y,40,-122.8445816040039,eInterpolationCubic
Y,40*,-122.8445816040039,eInterpolationCubic
Y,41,-122.8445816040039,eInterpolationCubic
Y,41*,-122.8445816040039,eInterpolationCubic
Y,42,-122.8445816040039,eInterpolationCubic
Y,42*,-122.8445816040039,eInterpolationCubic
Y,43,-122.8445816040039,eInterpolationCubic
Y,43*,-122.8445816040039,eInterpolationCubic
Y,44,-122.8445816040039,eInterpolationCubic
Y,44*,-122.8445816040039,eInterpolationCubic
Y,45,-122.8445816040039,eInterpolationCubic
Y,45*,-122.8445816040039,eInterpolationCubic
Y,46,-122.8445816040039,eInterpolationCubic
Y,46*,-122.8445816040039,eInterpolationCubic
Y,47,-122.8445816040039,eInterpolationCubic
Y,47*,-122.8445816040039,eInterpolationCubic
Y,48,-122.8445816040039,eInterpolationCubic
Y,48*,-122.8445816040039,eInterpolationCubic
Y,49,-122.8445816040039,eInterpolationCubic
Y,49*,-122.8445816040039,eInterpolationCubic
Y,50,-122.8445816040039,eInterpolationCubic
Y,50*,-122.8445816040039,eInterpolationConstant
Z,0,-2.226890356976724e-18,eInterpolationCubic
Z,0*,-2.226890356976724e-18,eInterpolationCubic
Z,1,-2.226890356976724e-18,eInterpolationCubic
Z,1*,-2.226890356976724e-18,eInterpolationCubic
Z,2,-2.226890356976724e-18,eInterpolationCubic
Z,2*,-2.226890356976724e-18,eInterpolationCubic
Z,3,-2.226890356976724e-18,eInterpolationCubic
Z,3*,-2.226890356976724e-18,eInterpolationCubic
Z,4,-2.226890356976724e-18,eInterpolationCubic
Z,4*,-2.226890356976724e-18,eInterpolationCubic
Z,5,-2.226890356976724e-18,eInterpolationCubic
Z,5*,-2.226890356976724e-18,eInterpolationCubic
Z,6,-2.226890356976724e-18,eInterpolationCubic
Z,6*,-2.226890356976724e-18,eInterpolationCubic
Z,7,-2.226890356976724e-18,eInterpolationCubic
Z,7*,-2.226890356976724e-18,eInterpolationCubic
Z,8,-2.226890356976724e-18,eInterpolationCubic
Z,8*,-2.226890356976724e-18,eInterpolationCubic
Z,9,-2.226890356976724e-18,eInterpolationCubic
Z,9*,-2.226890356976724e-18,eInterpolationCubic
Z,10,-2.226890356976724e-18,eInterpolationCubic
Z,10*,-2.226890356976724e-18,eInterpolationCubic
Z,11,-2.226890356976724e-18,eInterpolationCubic
Z,11*,-2.226890356976724e-18,eInterpolationCubic
Z,12,-2.226890356976724e-18,eInterpolationCubic
Z,12*,-2.226890356976724e-18,eInterpolationCubic
Z,13,-2.226890356976724e-18,eInterpolationCubic
Z,13*,-2.226890356976724e-18,eInterpolationCubic
Z,14,-2.226890356976724e-18,eInterpolationCubic
Z,14*,-2.226890356976724e-18,eInterpolationCubic
Z,15,-2.226890356976724e-18,eInterpolationCubic
Z,15*,-2.226890356976724e-18,eInterpolationCubic
Z,16,-2.226890356976724e-18,eInterpolationCubic
Z,16*,-2.226890356976724e-18,eInterpolationCubic
Z,17,-2.226890356976724e-18,eInterpolationCubic
Z,17*,-2.226890356976724e-18,eInterpolationCubic
Z,18,-2.226890356976724e-18,eInterpolationCubic
Z,18*,-2.226890356976724e-18,eInterpolationCubic
Z,19,-2.226890356976724e-18,eInterpolationCubic
Z,19*,-2.226890356976724e-18,eInterpolationCubic
Z,20,-2.226890356976724e-18,eInterpolationCubic
Z,20*,-2.226890356976724e-18,eInterpolationCubic
Z,21,-2.226890356976724e-18,eInterpolationCubic
Z,21*,-2.226890356976724e-18,eInterpolationCubic
Z,22,-2.226890356976724e-18,eInterpolationCubic
Z,22*,-2.226890356976724e-18,eInterpolationCubic
Z,23,-2.226890356976724e-18,eInterpolationCubic
Z,23*,-2.226890356976724e-18,eInterpolationCubic
Z,24,-2.226890356976724e-18,eInterpolationCubic
Z,24*,-2.226890356976724e-18,eInterpolationCubic
Z,25,-2.226890356976724e-18,eInterpolationCubic
Z,25*,-2.226890356976724e-18,eInterpolationCubic
Z,26,-2.226890356976724e-18,eInterpolationCubic
Z,26*,-2.226890356976724e-18,eInterpolationCubic
Z,27,-2.226890356976724e-18,eInterpolationCubic
Z,27*,-2.226890356976724e-18,eInterpolationCubic
Z,28,-2.226890356976724e-18,eInterpolationCubic
Z,28*,-2.226890356976724e-18,eInterpolationCubic
Z,29,-2.226890356976724e-18,eInterpolationCubic
Z,29*,-2.226890356976724e-18,eInterpolationCubic
Z,30,-2.226890356976724e-18,eInterpolationCubic
Z,30*,-2.226890356976724e-18,eInterpolationCubic
Z,31,-2.226890356976724e-18,eInterpolationCubic
Z,31*,-2.226890356976724e-18,eInterpolationCubic
Z,32,-2.226890356976724e-18,eInterpolationCubic
Z,32*,-2.226890356976724e-18,eInterpolationCubic
Z,33,-2.226890356976724e-18,eInterpolationCubic
Z,33*,-2.226890356976724e-18,eInterpolationCubic
Z,34,-2.226890356976724e-18,eInterpolationCubic
Z,34*,-2.226890356976724e-18,eInterpolationCubic
Z,35,-2.226890356976724e-18,eInterpolationCubic
Z,35*,-2.226890356976724e-18,eInterpolationCubic
Z,36,-2.226890356976724e-18,eInterpolationCubic
Z,36*,-2.226890356976724e-18,eInterpolationCubic
Z,37,-2.226890356976724e-18,eInterpolationCubic
Z,37*,-2.226890356976724e-18,eInterpolationCubic
Z,38,-2.226890356976724e-18,eInterpolationCubic
Z,38*,-2.226890356976724e-18,eInterpolationCubic
Z,39,-2.226890356976724e-18,eInterpolationCubic
Z,39*,-2.226890356976724e-18,eInterpolationCubic
Z,40,-2.226890356976724e-18,eInterpolationCubic
Z,40*,-2.226890356976724e-18,eInterpolationCubic
Z,41,-2.226890356976724e-18,eInterpolationCubic
Z,41*,-2.226890356976724e-18,eInterpolationCubic
Z,42,-2.226890356976724e-18,eInterpolationCubic
Z,42*,-2.226890356976724e-18,eInterpolationCubic
Z,43,-2.226890356976724e-18,eInterpolationCubic
Z,43*,-2.226890356976724e-18,eInterpolationCubic
Z,44,-2.226890356976724e-18,eInterpolationCubic
Z,44*,-2.226890356976724e-18,eInterpolationCubic
Z,45,-2.226890356976724e-18,eInterpolationCubic
Z,45*,-2.226890356976724e-18,eInterpolationCubic
Z,46,-2.226890356976724e-18,eInterpolationCubic
Z,46*,-2.226890356976724e-18,eInterpolationCubic
Z,47,-2.226890356976724e-18,eInterpolationCubic
Z,47*,-2.226890356976724e-18,eInterpolationCubic
Z,48,-2.226890356976724e-18,eInterpolationCubic
Z,48*,-2.226890356976724e-18,eInterpolationCubic
Z,49,-2.226890356976724e-18,eInterpolationCubic
Z,49*,-2.226890356976724e-18,eInterpolationCubic
Z,50,-2.226890356976724e-18,eInterpolationCubic
Z,50*,-2.226890356976724e-18,eInterpolationConstant
