Axis,KeyFrame,Value,InterpolationType
X,0,0.0,eInterpolationCubic
X,0*,0.0,eInterpolationCubic
X,1,0.0,eInterpolationCubic
X,1*,0.0,eInterpolationCubic
X,2,0.0,eInterpolationCubic
X,2*,0.0,eInterpolationCubic
X,3,0.0,eInterpolationCubic
X,3*,0.0,eInterpolationCubic
X,4,0.0,eInterpolationCubic
X,4*,0.0,eInterpolationCubic
X,5,0.0,eInterpolationCubic
X,5*,0.0,eInterpolationCubic
X,6,0.0,eInterpolationCubic
X,6*,0.0,eInterpolationCubic
X,7,0.0,eInterpolationCubic
X,7*,0.0,eInterpolationCubic
X,8,0.0,eInterpolationCubic
X,8*,0.0,eInterpolationCubic
X,9,0.0,eInterpolationCubic
X,9*,0.0,eInterpolationCubic
X,10,0.0,eInterpolationCubic
X,10*,0.0,eInterpolationCubic
X,11,0.0,eInterpolationCubic
X,11*,0.0,eInterpolationCubic
X,12,0.0,eInterpolationCubic
X,12*,0.0,eInterpolationCubic
X,13,0.0,eInterpolationCubic
X,13*,0.0,eInterpolationCubic
X,14,0.0,eInterpolationCubic
X,14*,0.0,eInterpolationCubic
X,15,0.0,eInterpolationCubic
X,15*,0.0,eInterpolationCubic
X,16,0.0,eInterpolationCubic
X,16*,0.0,eInterpolationCubic
X,17,0.0,eInterpolationCubic
X,17*,0.0,eInterpolationCubic
X,18,0.0,eInterpolationCubic
X,18*,0.0,eInterpolationCubic
X,19,0.0,eInterpolationCubic
X,19*,0.0,eInterpolationCubic
X,20,0.0,eInterpolationCubic
X,20*,0.0,eInterpolationCubic
X,21,0.0,eInterpolationCubic
X,21*,0.0,eInterpolationCubic
X,22,0.0,eInterpolationCubic
X,22*,0.0,eInterpolationCubic
X,23,0.0,eInterpolationCubic
X,23*,0.0,eInterpolationCubic
X,24,0.0,eInterpolationCubic
X,24*,0.0,eInterpolationCubic
X,25,0.0,eInterpolationCubic
X,25*,0.0,eInterpolationCubic
X,26,0.0,eInterpolationCubic
X,26*,0.0,eInterpolationCubic
X,27,0.0,eInterpolationCubic
X,27*,0.0,eInterpolationCubic
X,28,0.0,eInterpolationCubic
X,28*,0.0,eInterpolationCubic
X,29,0.0,eInterpolationCubic
X,29*,0.0,eInterpolationCubic
X,30,0.0,eInterpolationCubic
X,30*,0.0,eInterpolationCubic
X,31,0.0,eInterpolationCubic
X,31*,0.0,eInterpolationCubic
X,32,0.0,eInterpolationCubic
X,32*,0.0,eInterpolationCubic
X,33,0.0,eInterpolationCubic
X,33*,0.0,eInterpolationCubic
X,34,0.0,eInterpolationCubic
X,34*,0.0,eInterpolationCubic
X,35,0.0,eInterpolationCubic
X,35*,0.0,eInterpolationCubic
X,36,0.0,eInterpolationCubic
X,36*,0.0,eInterpolationCubic
X,37,0.0,eInterpolationCubic
X,37*,0.0,eInterpolationCubic
X,38,0.0,eInterpolationCubic
X,38*,0.0,eInterpolationCubic
X,39,0.0,eInterpolationCubic
X,39*,0.0,eInterpolationCubic
X,40,0.0,eInterpolationCubic
X,40*,0.0,eInterpolationCubic
X,41,0.0,eInterpolationCubic
X,41*,0.0,eInterpolationCubic
X,42,0.0,eInterpolationCubic
X,42*,0.0,eInterpolationCubic
X,43,0.0,eInterpolationCubic
X,43*,0.0,eInterpolationCubic
X,44,0.0,eInterpolationCubic
X,44*,0.0,eInterpolationCubic
X,45,0.0,eInterpolationCubic
X,45*,0.0,eInterpolationCubic
X,46,0.0,eInterpolationCubic
X,46*,0.0,eInterpolationCubic
X,47,0.0,eInterpolationCubic
X,47*,0.0,eInterpolationCubic
X,48,0.0,eInterpolationCubic
X,48*,0.0,eInterpolationCubic
X,49,0.0,eInterpolationCubic
X,49*,0.0,eInterpolationCubic
X,50,0.0,eInterpolationCubic
X,50*,0.0,eInterpolationConstant
Y,0,0.004328601993620396,eInterpolationCubic
Y,0*,-0.7431207895278931,eInterpolationCubic
Y,1,-2.8823723793029785,eInterpolationCubic
Y,1*,-6.258781909942627,eInterpolationCubic
Y,2,-10.717703819274902,eInterpolationCubic
Y,2*,-16.104494094848633,eInterpolationCubic
Y,3,-22.264509201049805,eInterpolationCubic
Y,3*,-29.043100357055664,eInterpolationCubic
Y,4,-36.28562927246094,eInterpolationCubic
Y,4*,-43.83744430541992,eInterpolationCubic
Y,5,-51.54390335083008,eInterpolationCubic
Y,5*,-59.2503662109375,eInterpolationCubic
Y,6,-66.80218505859375,eInterpolationCubic
Y,6*,-74.04470825195312,eInterpolationCubic
Y,7,-80.82330322265625,eInterpolationCubic
Y,7*,-86.98331451416016,eInterpolationCubic
Y,8,-92.37010955810547,eInterpolationCubic
Y,8*,-96.82903289794922,eInterpolationCubic
Y,9,-100.20543670654297,eInterpolationCubic
Y,9*,-102.34468841552734,eInterpolationCubic
Y,10,-103.09213256835938,eInterpolationCubic
Y,10*,-103.09129333496094,eInterpolationCubic
Y,11,-103.08879852294922,eInterpolationCubic
Y,11*,-103.08468627929688,eInterpolationCubic
Y,12,-103.07901000976562,eInterpolationCubic
Y,12*,-103.0718002319336,eInterpolationCubic
Y,13,-103.06310272216797,eInterpolationCubic
Y,13*,-103.05297088623047,eInterpolationCubic
Y,14,-103.04143524169922,eInterpolationCubic
Y,14*,-103.0285415649414,eInterpolationCubic
Y,15,-103.01432800292969,eInterpolationCubic
Y,15*,-102.99884033203125,eInterpolationCubic
Y,16,-102.98213195800781,eInterpolationCubic
Y,16*,-102.96422576904297,eInterpolationCubic
Y,17,-102.94517517089844,eInterpolationCubic
Y,17*,-102.92501831054688,eInterpolationCubic
Y,18,-102.90380859375,eInterpolationCubic
Y,18*,-102.88157653808594,eInterpolationCubic
Y,19,-102.85836791992188,eInterpolationCubic
Y,19*,-102.83422088623047,eInterpolationCubic
Y,20,-102.80919647216797,eInterpolationCubic
Y,20*,-102.78330993652344,eInterpolationCubic
Y,21,-102.75662231445312,eInterpolationCubic
Y,21*,-102.72916412353516,eInterpolationCubic
Y,22,-102.70099639892578,eInterpolationCubic
Y,22*,-102.6721420288086,eInterpolationCubic
Y,23,-102.64264678955078,eInterpolationCubic
Y,23*,-102.61256408691406,eInterpolationCubic
Y,24,-102.5819320678711,eInterpolationCubic
Y,24*,-102.55078125,eInterpolationCubic
Y,25,-102.51917266845703,eInterpolationCubic
Y,25*,-102.48712921142578,eInterpolationCubic
Y,26,-102.4547119140625,eInterpolationCubic
Y,26*,-102.42195892333984,eInterpolationCubic
Y,27,-102.38890075683594,eInterpolationCubic
Y,27*,-102.3555908203125,eInterpolationCubic
Y,28,-102.32207489013672,eInterpolationCubic
Y,28*,-102.28837585449219,eInterpolationCubic
Y,29,-102.25456237792969,eInterpolationCubic
Y,29*,-102.22065734863281,eInterpolationCubic
Y,30,-102.18670654296875,eInterpolationCubic
Y,30*,-102.15276336669922,eInterpolationCubic
Y,31,-102.11885833740234,eInterpolationCubic
Y,31*,-102.08504486083984,eInterpolationCubic
Y,32,-102.05134582519531,eInterpolationCubic
Y,32*,-102.017822265625,eInterpolationCubic
Y,33,-101.9845199584961,eInterpolationCubic
Y,33*,-101.95146179199219,eInterpolationCubic
Y,34,-101.91870880126953,eInterpolationCubic
Y,34*,-101.88629150390625,eInterpolationCubic
Y,35,-101.854248046875,eInterpolationCubic
Y,35*,-101.82263946533203,eInterpolationCubic
Y,36,-101.79148864746094,eInterpolationCubic
Y,36*,-101.76085662841797,eInterpolationCubic
Y,37,-101.73076629638672,eInterpolationCubic
Y,37*,-101.70128631591797,eInterpolationCubic
Y,38,-101.67242431640625,eInterpolationCubic
Y,38*,-101.64424896240234,eInterpolationCubic
Y,39,-101.6167984008789,eInterpolationCubic
Y,39*,-101.5901107788086,eInterpolationCubic
Y,40,-101.5642318725586,eInterpolationCubic
Y,40*,-101.53919982910156,eInterpolationCubic
Y,41,-101.51505279541016,eInterpolationCubic
Y,41*,-101.4918441772461,eInterpolationCubic
Y,42,-101.46961212158203,eInterpolationCubic
Y,42*,-101.44840240478516,eInterpolationCubic
Y,43,-101.4282455444336,eInterpolationCubic
Y,43*,-101.40919494628906,eInterpolationCubic
Y,44,-101.39128875732422,eInterpolationCubic
Y,44*,-101.37458038330078,eInterpolationCubic
Y,45,-101.35909271240234,eInterpolationCubic
Y,45*,-101.34487915039062,eInterpolationCubic
Y,46,-101.33199310302734,eInterpolationCubic
Y,46*,-101.32044982910156,eInterpolationCubic
Y,47,-101.31031799316406,eInterpolationCubic
Y,47*,-101.30162048339844,eInterpolationCubic
Y,48,-101.2944107055664,eInterpolationCubic
Y,48*,-101.28873443603516,eInterpolationCubic
Y,49,-101.28462219238281,eInterpolationCubic
Y,49*,-101.2821273803711,eInterpolationCubic
Y,50,-101.28128814697266,eInterpolationCubic
Y,50*,-101.28128814697266,eInterpolationConstant
Z,0,9.611427195511436e-19,eInterpolationCubic
Z,0*,9.611427195511436e-19,eInterpolationCubic
Z,1,9.611427195511436e-19,eInterpolationCubic
Z,1*,9.611427195511436e-19,eInterpolationCubic
Z,2,9.611427195511436e-19,eInterpolationCubic
Z,2*,9.611427195511436e-19,eInterpolationCubic
Z,3,9.611427195511436e-19,eInterpolationCubic
Z,3*,9.611427195511436e-19,eInterpolationCubic
Z,4,9.611427195511436e-19,eInterpolationCubic
Z,4*,9.611427195511436e-19,eInterpolationCubic
Z,5,9.611427195511436e-19,eInterpolationCubic
Z,5*,9.611427195511436e-19,eInterpolationCubic
Z,6,9.611427195511436e-19,eInterpolationCubic
Z,6*,9.611427195511436e-19,eInterpolationCubic
Z,7,9.611427195511436e-19,eInterpolationCubic
Z,7*,9.611427195511436e-19,eInterpolationCubic
Z,8,9.611427195511436e-19,eInterpolationCubic
Z,8*,9.611427195511436e-19,eInterpolationCubic
Z,9,9.611427195511436e-19,eInterpolationCubic
Z,9*,9.611427195511436e-19,eInterpolationCubic
Z,10,9.611427195511436e-19,eInterpolationCubic
Z,10*,9.611427195511436e-19,eInterpolationCubic
Z,11,9.611427195511436e-19,eInterpolationCubic
Z,11*,9.611427195511436e-19,eInterpolationCubic
Z,12,9.611427195511436e-19,eInterpolationCubic
Z,12*,9.611427195511436e-19,eInterpolationCubic
Z,13,9.611427195511436e-19,eInterpolationCubic
Z,13*,9.611427195511436e-19,eInterpolationCubic
Z,14,9.611427195511436e-19,eInterpolationCubic
Z,14*,9.611427195511436e-19,eInterpolationCubic
Z,15,9.611427195511436e-19,eInterpolationCubic
Z,15*,9.611427195511436e-19,eInterpolationCubic
Z,16,9.611427195511436e-19,eInterpolationCubic
Z,16*,9.611427195511436e-19,eInterpolationCubic
Z,17,9.611427195511436e-19,eInterpolationCubic
Z,17*,9.611427195511436e-19,eInterpolationCubic
Z,18,9.611427195511436e-19,eInterpolationCubic
Z,18*,9.611427195511436e-19,eInterpolationCubic
Z,19,9.611427195511436e-19,eInterpolationCubic
Z,19*,9.611427195511436e-19,eInterpolationCubic
Z,20,9.611427195511436e-19,eInterpolationCubic
Z,20*,9.611427195511436e-19,eInterpolationCubic
Z,21,9.611427195511436e-19,eInterpolationCubic
Z,21*,9.611427195511436e-19,eInterpolationCubic
Z,22,9.611427195511436e-19,eInterpolationCubic
Z,22*,9.611427195511436e-19,eInterpolationCubic
Z,23,9.611427195511436e-19,eInterpolationCubic
Z,23*,9.611427195511436e-19,eInterpolationCubic
Z,24,9.611427195511436e-19,eInterpolationCubic
Z,24*,9.611427195511436e-19,eInterpolationCubic
Z,25,9.611427195511436e-19,eInterpolationCubic
Z,25*,9.611427195511436e-19,eInterpolationCubic
Z,26,9.611427195511436e-19,eInterpolationCubic
Z,26*,9.611427195511436e-19,eInterpolationCubic
Z,27,9.611427195511436e-19,eInterpolationCubic
Z,27*,9.611427195511436e-19,eInterpolationCubic
Z,28,9.611427195511436e-19,eInterpolationCubic
Z,28*,9.611427195511436e-19,eInterpolationCubic
Z,29,9.611427195511436e-19,eInterpolationCubic
Z,29*,9.611427195511436e-19,eInterpolationCubic
Z,30,9.611427195511436e-19,eInterpolationCubic
Z,30*,9.611427195511436e-19,eInterpolationCubic
Z,31,9.611427195511436e-19,eInterpolationCubic
Z,31*,9.611427195511436e-19,eInterpolationCubic
Z,32,9.611427195511436e-19,eInterpolationCubic
Z,32*,9.611427195511436e-19,eInterpolationCubic
Z,33,9.611427195511436e-19,eInterpolationCubic
Z,33*,9.611427195511436e-19,eInterpolationCubic
Z,34,9.611427195511436e-19,eInterpolationCubic
Z,34*,9.611427195511436e-19,eInterpolationCubic
Z,35,9.611427195511436e-19,eInterpolationCubic
Z,35*,9.611427195511436e-19,eInterpolationCubic
Z,36,9.611427195511436e-19,eInterpolationCubic
Z,36*,9.611427195511436e-19,eInterpolationCubic
Z,37,9.611427195511436e-19,eInterpolationCubic
Z,37*,9.611427195511436e-19,eInterpolationCubic
Z,38,9.611427195511436e-19,eInterpolationCubic
Z,38*,9.611427195511436e-19,eInterpolationCubic
Z,39,9.611427195511436e-19,eInterpolationCubic
Z,39*,9.611427195511436e-19,eInterpolationCubic
Z,40,9.611427195511436e-19,eInterpolationCubic
Z,40*,9.611427195511436e-19,eInterpolationCubic
Z,41,9.611427195511436e-19,eInterpolationCubic
Z,41*,9.611427195511436e-19,eInterpolationCubic
Z,42,9.611427195511436e-19,eInterpolationCubic
Z,42*,9.611427195511436e-19,eInterpolationCubic
Z,43,9.611427195511436e-19,eInterpolationCubic
Z,43*,9.611427195511436e-19,eInterpolationCubic
Z,44,9.611427195511436e-19,eInterpolationCubic
Z,44*,9.611427195511436e-19,eInterpolationCubic
Z,45,9.611427195511436e-19,eInterpolationCubic
Z,45*,9.611427195511436e-19,eInterpolationCubic
Z,46,9.611427195511436e-19,eInterpolationCubic
Z,46*,9.611427195511436e-19,eInterpolationCubic
Z,47,9.611427195511436e-19,eInterpolationCubic
Z,47*,9.611427195511436e-19,eInterpolationCubic
Z,48,9.611427195511436e-19,eInterpolationCubic
Z,48*,9.611427195511436e-19,eInterpolationCubic
Z,49,9.611427195511436e-19,eInterpolationCubic
Z,49*,9.611427195511436e-19,eInterpolationCubic
Z,50,9.611427195511436e-19,eInterpolationCubic
Z,50*,9.611427195511436e-19,eInterpolationConstant
