Axis,KeyFrame,Value,InterpolationType
X,0,0.0,eInterpolationCubic
X,0*,0.0,eInterpolationCubic
X,1,0.0,eInterpolationCubic
X,1*,0.0,eInterpolationCubic
X,2,0.0,eInterpolationCubic
X,2*,0.0,eInterpolationCubic
X,3,0.0,eInterpolationCubic
X,3*,0.0,eInterpolationCubic
X,4,0.0,eInterpolationCubic
X,4*,0.0,eInterpolationCubic
X,5,0.0,eInterpolationCubic
X,5*,0.0,eInterpolationCubic
X,6,0.0,eInterpolationCubic
X,6*,0.0,eInterpolationCubic
X,7,0.0,eInterpolationCubic
X,7*,0.0,eInterpolationCubic
X,8,0.0,eInterpolationCubic
X,8*,0.0,eInterpolationCubic
X,9,0.0,eInterpolationCubic
X,9*,0.0,eInterpolationConstant
Y,0,-0.0,eInterpolationCubic
Y,0*,10.615676879882812,eInterpolationCubic
Y,1,21.231353759765625,eInterpolationCubic
Y,1*,30.888452529907227,eInterpolationCubic
Y,2,39.83837127685547,eInterpolationCubic
Y,2*,48.85179138183594,eInterpolationCubic
Y,3,57.74903106689453,eInterpolationCubic
Y,3*,66.35043334960938,eInterpolationCubic
Y,4,74.47630310058594,eInterpolationCubic
Y,4*,81.94700622558594,eInterpolationCubic
Y,5,88.58283233642578,eInterpolationCubic
Y,5*,94.3140640258789,eInterpolationCubic
Y,6,99.3046646118164,eInterpolationCubic
Y,6*,103.72553253173828,eInterpolationCubic
Y,7,107.74761199951172,eInterpolationCubic
Y,7*,111.54179382324219,eInterpolationCubic
Y,8,115.27901458740234,eInterpolationCubic
Y,8*,119.13017272949219,eInterpolationCubic
Y,9,123.26618957519531,eInterpolationCubic
Y,9*,123.26618957519531,eInterpolationConstant
Z,0,0.0,eInterpolationCubic
Z,0*,0.0,eInterpolationCubic
Z,1,0.0,eInterpolationCubic
Z,1*,0.0,eInterpolationCubic
Z,2,0.0,eInterpolationCubic
Z,2*,0.0,eInterpolationCubic
Z,3,0.0,eInterpolationCubic
Z,3*,0.0,eInterpolationCubic
Z,4,0.0,eInterpolationCubic
Z,4*,0.0,eInterpolationCubic
Z,5,0.0,eInterpolationCubic
Z,5*,0.0,eInterpolationCubic
Z,6,0.0,eInterpolationCubic
Z,6*,0.0,eInterpolationCubic
Z,7,0.0,eInterpolationCubic
Z,7*,0.0,eInterpolationCubic
Z,8,0.0,eInterpolationCubic
Z,8*,0.0,eInterpolationCubic
Z,9,0.0,eInterpolationCubic
Z,9*,0.0,eInterpolationConstant
