Axis,KeyFrame,Value,InterpolationType
X,0,0.0,eInterpolationCubic
X,0*,0.0,eInterpolationCubic
X,1,0.0,eInterpolationCubic
X,1*,0.0,eInterpolationCubic
X,2,0.0,eInterpolationCubic
X,2*,0.0,eInterpolationCubic
X,3,0.0,eInterpolationCubic
X,3*,0.0,eInterpolationCubic
X,4,0.0,eInterpolationCubic
X,4*,0.0,eInterpolationCubic
X,5,0.0,eInterpolationCubic
X,5*,0.0,eInterpolationCubic
X,6,0.0,eInterpolationCubic
X,6*,0.0,eInterpolationCubic
X,7,0.0,eInterpolationCubic
X,7*,0.0,eInterpolationCubic
X,8,0.0,eInterpolationCubic
X,8*,0.0,eInterpolationCubic
X,9,0.0,eInterpolationCubic
X,9*,0.0,eInterpolationCubic
X,10,0.0,eInterpolationCubic
X,10*,0.0,eInterpolationCubic
X,11,0.0,eInterpolationCubic
X,11*,0.0,eInterpolationCubic
X,12,0.0,eInterpolationCubic
X,12*,0.0,eInterpolationCubic
X,13,0.0,eInterpolationCubic
X,13*,0.0,eInterpolationCubic
X,14,0.0,eInterpolationCubic
X,14*,0.0,eInterpolationCubic
X,15,0.0,eInterpolationCubic
X,15*,0.0,eInterpolationCubic
X,16,0.0,eInterpolationCubic
X,16*,0.0,eInterpolationCubic
X,17,0.0,eInterpolationCubic
X,17*,0.0,eInterpolationCubic
X,18,0.0,eInterpolationCubic
X,18*,0.0,eInterpolationCubic
X,19,0.0,eInterpolationCubic
X,19*,0.0,eInterpolationCubic
X,20,0.0,eInterpolationCubic
X,20*,0.0,eInterpolationCubic
X,21,0.0,eInterpolationCubic
X,21*,0.0,eInterpolationCubic
X,22,0.0,eInterpolationCubic
X,22*,0.0,eInterpolationCubic
X,23,0.0,eInterpolationCubic
X,23*,0.0,eInterpolationCubic
X,24,0.0,eInterpolationCubic
X,24*,0.0,eInterpolationCubic
X,25,0.0,eInterpolationCubic
X,25*,0.0,eInterpolationCubic
X,26,0.0,eInterpolationCubic
X,26*,0.0,eInterpolationCubic
X,27,0.0,eInterpolationCubic
X,27*,0.0,eInterpolationCubic
X,28,0.0,eInterpolationCubic
X,28*,0.0,eInterpolationCubic
X,29,0.0,eInterpolationCubic
X,29*,0.0,eInterpolationCubic
X,30,0.0,eInterpolationCubic
X,30*,0.0,eInterpolationCubic
X,31,0.0,eInterpolationCubic
X,31*,0.0,eInterpolationCubic
X,32,0.0,eInterpolationCubic
X,32*,0.0,eInterpolationCubic
X,33,0.0,eInterpolationCubic
X,33*,0.0,eInterpolationCubic
X,34,0.0,eInterpolationCubic
X,34*,0.0,eInterpolationCubic
X,35,0.0,eInterpolationCubic
X,35*,0.0,eInterpolationConstant
Y,0,-0.0,eInterpolationCubic
Y,0*,0.5001218318939209,eInterpolationCubic
Y,1,0.8001949191093445,eInterpolationCubic
Y,1*,1.5003654956817627,eInterpolationCubic
Y,2,3.200779676437378,eInterpolationCubic
Y,2*,6.066482067108154,eInterpolationCubic
Y,3,9.79800033569336,eInterpolationCubic
Y,3*,14.298705101013184,eInterpolationCubic
Y,4,19.471965789794922,eInterpolationCubic
Y,4*,25.221153259277344,eInterpolationCubic
Y,5,31.449636459350586,eInterpolationCubic
Y,5*,38.060787200927734,eInterpolationCubic
Y,6,44.95798110961914,eInterpolationCubic
Y,6*,52.044578552246094,eInterpolationCubic
Y,7,59.22394943237305,eInterpolationCubic
Y,7*,66.39948272705078,eInterpolationCubic
Y,8,73.47452545166016,eInterpolationCubic
Y,8*,80.35245513916016,eInterpolationCubic
Y,9,86.93665313720703,eInterpolationCubic
Y,9*,93.1304702758789,eInterpolationCubic
Y,10,98.83729553222656,eInterpolationCubic
Y,10*,104.37118530273438,eInterpolationCubic
Y,11,110.0843734741211,eInterpolationCubic
Y,11*,115.93750762939453,eInterpolationCubic
Y,12,121.89125061035156,eInterpolationCubic
Y,12*,127.90624237060547,eInterpolationCubic
Y,13,133.94313049316406,eInterpolationCubic
Y,13*,139.96253967285156,eInterpolationCubic
Y,14,145.92515563964844,eInterpolationCubic
Y,14*,151.79161071777344,eInterpolationCubic
Y,15,157.5225372314453,eInterpolationCubic
Y,15*,163.07861328125,eInterpolationCubic
Y,16,168.42044067382812,eInterpolationCubic
Y,16*,173.5087127685547,eInterpolationCubic
Y,17,178.30404663085938,eInterpolationCubic
Y,17*,182.76712036132812,eInterpolationCubic
Y,18,186.85855102539062,eInterpolationCubic
Y,18*,190.53900146484375,eInterpolationCubic
Y,19,193.76910400390625,eInterpolationCubic
Y,19*,196.50953674316406,eInterpolationCubic
Y,20,198.7209014892578,eInterpolationCubic
Y,20*,200.59091186523438,eInterpolationCubic
Y,21,202.33628845214844,eInterpolationCubic
Y,21*,203.9613494873047,eInterpolationCubic
Y,22,205.4703826904297,eInterpolationCubic
Y,22*,206.86769104003906,eInterpolationCubic
Y,23,208.15756225585938,eInterpolationCubic
Y,23*,209.34429931640625,eInterpolationCubic
Y,24,210.43222045898438,eInterpolationCubic
Y,24*,211.4255828857422,eInterpolationCubic
Y,25,212.32872009277344,eInterpolationCubic
Y,25*,213.14590454101562,eInterpolationCubic
Y,26,213.88143920898438,eInterpolationCubic
Y,26*,214.5396270751953,eInterpolationCubic
Y,27,215.124755859375,eInterpolationCubic
Y,27*,215.64114379882812,eInterpolationCubic
Y,28,216.0930633544922,eInterpolationCubic
Y,28*,216.48483276367188,eInterpolationCubic
Y,29,216.8207244873047,eInterpolationCubic
Y,29*,217.1050567626953,eInterpolationCubic
Y,30,217.3421173095703,eInterpolationCubic
Y,30*,217.5362091064453,eInterpolationCubic
Y,31,217.69163513183594,eInterpolationCubic
Y,31*,217.8126678466797,eInterpolationCubic
Y,32,217.90362548828125,eInterpolationCubic
Y,32*,217.9687957763672,eInterpolationCubic
Y,33,218.01248168945312,eInterpolationCubic
Y,33*,218.0389862060547,eInterpolationCubic
Y,34,218.05259704589844,eInterpolationCubic
Y,34*,218.05760192871094,eInterpolationCubic
Y,35,218.05833435058594,eInterpolationCubic
Y,35*,218.05833435058594,eInterpolationConstant
Z,0,0.0,eInterpolationCubic
Z,0*,0.0,eInterpolationCubic
Z,1,0.0,eInterpolationCubic
Z,1*,0.0,eInterpolationCubic
Z,2,0.0,eInterpolationCubic
Z,2*,0.0,eInterpolationCubic
Z,3,0.0,eInterpolationCubic
Z,3*,0.0,eInterpolationCubic
Z,4,0.0,eInterpolationCubic
Z,4*,0.0,eInterpolationCubic
Z,5,0.0,eInterpolationCubic
Z,5*,0.0,eInterpolationCubic
Z,6,0.0,eInterpolationCubic
Z,6*,0.0,eInterpolationCubic
Z,7,0.0,eInterpolationCubic
Z,7*,0.0,eInterpolationCubic
Z,8,0.0,eInterpolationCubic
Z,8*,0.0,eInterpolationCubic
Z,9,0.0,eInterpolationCubic
Z,9*,0.0,eInterpolationCubic
Z,10,0.0,eInterpolationCubic
Z,10*,0.0,eInterpolationCubic
Z,11,0.0,eInterpolationCubic
Z,11*,0.0,eInterpolationCubic
Z,12,0.0,eInterpolationCubic
Z,12*,0.0,eInterpolationCubic
Z,13,0.0,eInterpolationCubic
Z,13*,0.0,eInterpolationCubic
Z,14,0.0,eInterpolationCubic
Z,14*,0.0,eInterpolationCubic
Z,15,0.0,eInterpolationCubic
Z,15*,0.0,eInterpolationCubic
Z,16,0.0,eInterpolationCubic
Z,16*,0.0,eInterpolationCubic
Z,17,0.0,eInterpolationCubic
Z,17*,0.0,eInterpolationCubic
Z,18,0.0,eInterpolationCubic
Z,18*,0.0,eInterpolationCubic
Z,19,0.0,eInterpolationCubic
Z,19*,0.0,eInterpolationCubic
Z,20,0.0,eInterpolationCubic
Z,20*,0.0,eInterpolationCubic
Z,21,0.0,eInterpolationCubic
Z,21*,0.0,eInterpolationCubic
Z,22,0.0,eInterpolationCubic
Z,22*,0.0,eInterpolationCubic
Z,23,0.0,eInterpolationCubic
Z,23*,0.0,eInterpolationCubic
Z,24,0.0,eInterpolationCubic
Z,24*,0.0,eInterpolationCubic
Z,25,0.0,eInterpolationCubic
Z,25*,0.0,eInterpolationCubic
Z,26,0.0,eInterpolationCubic
Z,26*,0.0,eInterpolationCubic
Z,27,0.0,eInterpolationCubic
Z,27*,0.0,eInterpolationCubic
Z,28,0.0,eInterpolationCubic
Z,28*,0.0,eInterpolationCubic
Z,29,0.0,eInterpolationCubic
Z,29*,0.0,eInterpolationCubic
Z,30,0.0,eInterpolationCubic
Z,30*,0.0,eInterpolationCubic
Z,31,0.0,eInterpolationCubic
Z,31*,0.0,eInterpolationCubic
Z,32,0.0,eInterpolationCubic
Z,32*,0.0,eInterpolationCubic
Z,33,0.0,eInterpolationCubic
Z,33*,0.0,eInterpolationCubic
Z,34,0.0,eInterpolationCubic
Z,34*,0.0,eInterpolationCubic
Z,35,0.0,eInterpolationCubic
Z,35*,0.0,eInterpolationConstant
