Axis,KeyFrame,Value,InterpolationType
X,0,0.0,eInterpolationCubic
X,0*,0.0,eInterpolationCubic
X,1,0.0,eInterpolationCubic
X,1*,0.0,eInterpolationCubic
X,2,0.0,eInterpolationCubic
X,2*,0.0,eInterpolationCubic
X,3,0.0,eInterpolationCubic
X,3*,0.0,eInterpolationCubic
X,4,0.0,eInterpolationCubic
X,4*,0.0,eInterpolationCubic
X,5,0.0,eInterpolationCubic
X,5*,0.0,eInterpolationCubic
X,6,0.0,eInterpolationCubic
X,6*,0.0,eInterpolationCubic
X,7,0.0,eInterpolationCubic
X,7*,0.0,eInterpolationCubic
X,8,0.0,eInterpolationCubic
X,8*,0.0,eInterpolationCubic
X,9,0.0,eInterpolationCubic
X,9*,0.0,eInterpolationCubic
X,10,0.0,eInterpolationCubic
X,10*,0.0,eInterpolationCubic
X,11,0.0,eInterpolationCubic
X,11*,0.0,eInterpolationCubic
X,12,0.0,eInterpolationCubic
X,12*,0.0,eInterpolationCubic
X,13,0.0,eInterpolationCubic
X,13*,0.0,eInterpolationCubic
X,14,0.0,eInterpolationCubic
X,14*,0.0,eInterpolationCubic
X,15,0.0,eInterpolationCubic
X,15*,0.0,eInterpolationCubic
X,16,0.0,eInterpolationCubic
X,16*,0.0,eInterpolationCubic
X,17,0.0,eInterpolationCubic
X,17*,0.0,eInterpolationCubic
X,18,0.0,eInterpolationCubic
X,18*,0.0,eInterpolationCubic
X,19,0.0,eInterpolationCubic
X,19*,0.0,eInterpolationCubic
X,20,0.0,eInterpolationCubic
X,20*,0.0,eInterpolationCubic
X,21,0.0,eInterpolationCubic
X,21*,0.0,eInterpolationCubic
X,22,0.0,eInterpolationCubic
X,22*,0.0,eInterpolationCubic
X,23,0.0,eInterpolationCubic
X,23*,0.0,eInterpolationCubic
X,24,0.0,eInterpolationCubic
X,24*,0.0,eInterpolationCubic
X,25,0.0,eInterpolationCubic
X,25*,0.0,eInterpolationCubic
X,26,0.0,eInterpolationCubic
X,26*,0.0,eInterpolationCubic
X,27,0.0,eInterpolationCubic
X,27*,0.0,eInterpolationCubic
X,28,0.0,eInterpolationCubic
X,28*,0.0,eInterpolationCubic
X,29,0.0,eInterpolationCubic
X,29*,0.0,eInterpolationCubic
X,30,0.0,eInterpolationCubic
X,30*,0.0,eInterpolationCubic
X,31,0.0,eInterpolationCubic
X,31*,0.0,eInterpolationCubic
X,32,0.0,eInterpolationCubic
X,32*,0.0,eInterpolationCubic
X,33,0.0,eInterpolationCubic
X,33*,0.0,eInterpolationCubic
X,34,0.0,eInterpolationCubic
X,34*,0.0,eInterpolationCubic
X,35,0.0,eInterpolationCubic
X,35*,0.0,eInterpolationCubic
X,36,0.0,eInterpolationCubic
X,36*,0.0,eInterpolationCubic
X,37,0.0,eInterpolationCubic
X,37*,0.0,eInterpolationCubic
X,38,0.0,eInterpolationCubic
X,38*,0.0,eInterpolationCubic
X,39,0.0,eInterpolationCubic
X,39*,0.0,eInterpolationCubic
X,40,0.0,eInterpolationCubic
X,40*,0.0,eInterpolationCubic
X,41,0.0,eInterpolationCubic
X,41*,0.0,eInterpolationCubic
X,42,0.0,eInterpolationCubic
X,42*,0.0,eInterpolationCubic
X,43,0.0,eInterpolationCubic
X,43*,0.0,eInterpolationCubic
X,44,0.0,eInterpolationCubic
X,44*,0.0,eInterpolationCubic
X,45,0.0,eInterpolationCubic
X,45*,0.0,eInterpolationCubic
X,46,0.0,eInterpolationCubic
X,46*,0.0,eInterpolationCubic
X,47,0.0,eInterpolationCubic
X,47*,0.0,eInterpolationCubic
X,48,0.0,eInterpolationCubic
X,48*,0.0,eInterpolationCubic
X,49,0.0,eInterpolationCubic
X,49*,0.0,eInterpolationCubic
X,50,0.0,eInterpolationCubic
X,50*,0.0,eInterpolationCubic
X,51,0.0,eInterpolationCubic
X,51*,0.0,eInterpolationCubic
X,52,0.0,eInterpolationCubic
X,52*,0.0,eInterpolationCubic
X,53,0.0,eInterpolationCubic
X,53*,0.0,eInterpolationCubic
X,54,0.0,eInterpolationCubic
X,54*,0.0,eInterpolationCubic
X,55,0.0,eInterpolationCubic
X,55*,0.0,eInterpolationCubic
X,56,0.0,eInterpolationCubic
X,56*,0.0,eInterpolationCubic
X,57,0.0,eInterpolationCubic
X,57*,0.0,eInterpolationCubic
X,58,0.0,eInterpolationCubic
X,58*,0.0,eInterpolationCubic
X,59,0.0,eInterpolationCubic
X,59*,0.0,eInterpolationCubic
X,60,0.0,eInterpolationCubic
X,60*,0.0,eInterpolationCubic
X,61,0.0,eInterpolationCubic
X,61*,0.0,eInterpolationCubic
X,62,0.0,eInterpolationCubic
X,62*,0.0,eInterpolationCubic
X,63,0.0,eInterpolationCubic
X,63*,0.0,eInterpolationCubic
X,64,0.0,eInterpolationCubic
X,64*,0.0,eInterpolationCubic
X,65,0.0,eInterpolationCubic
X,65*,0.0,eInterpolationCubic
X,66,0.0,eInterpolationCubic
X,66*,0.0,eInterpolationCubic
X,67,0.0,eInterpolationCubic
X,67*,0.0,eInterpolationCubic
X,68,0.0,eInterpolationCubic
X,68*,0.0,eInterpolationCubic
X,69,0.0,eInterpolationCubic
X,69*,0.0,eInterpolationCubic
X,70,0.0,eInterpolationCubic
X,70*,0.0,eInterpolationConstant
Y,0,0.0003495522541925311,eInterpolationCubic
Y,0*,-0.7390189170837402,eInterpolationCubic
Y,1,-2.848489999771118,eInterpolationCubic
Y,1*,-6.16511344909668,eInterpolationCubic
Y,2,-10.525938034057617,eInterpolationCubic
Y,2*,-15.768013000488281,eInterpolationCubic
Y,3,-21.72838592529297,eInterpolationCubic
Y,3*,-28.244108200073242,eInterpolationCubic
Y,4,-35.152225494384766,eInterpolationCubic
Y,4*,-42.289791107177734,eInterpolationCubic
Y,5,-49.49385070800781,eInterpolationCubic
Y,5*,-56.60145950317383,eInterpolationCubic
Y,6,-63.44965362548828,eInterpolationCubic
Y,6*,-69.87550354003906,eInterpolationCubic
Y,7,-75.71603393554688,eInterpolationCubic
Y,7*,-80.80831146240234,eInterpolationCubic
Y,8,-85.0898208618164,eInterpolationCubic
Y,8*,-88.55496215820312,eInterpolationCubic
Y,9,-91.12613677978516,eInterpolationCubic
Y,9*,-92.72575378417969,eInterpolationCubic
Y,10,-93.27620697021484,eInterpolationCubic
Y,10*,-93.25308227539062,eInterpolationCubic
Y,11,-93.18802642822266,eInterpolationCubic
Y,11*,-93.08747100830078,eInterpolationCubic
Y,12,-92.95790100097656,eInterpolationCubic
Y,12*,-92.80572509765625,eInterpolationCubic
Y,13,-92.63743591308594,eInterpolationCubic
Y,13*,-92.45945739746094,eInterpolationCubic
Y,14,-92.27825927734375,eInterpolationCubic
Y,14*,-92.10028076171875,eInterpolationCubic
Y,15,-91.9319839477539,eInterpolationCubic
Y,15*,-91.77981567382812,eInterpolationCubic
Y,16,-91.65023803710938,eInterpolationCubic
Y,16*,-91.54969024658203,eInterpolationCubic
Y,17,-91.48463439941406,eInterpolationCubic
Y,17*,-91.46150970458984,eInterpolationCubic
Y,18,-91.46879577636719,eInterpolationCubic
Y,18*,-91.4898681640625,eInterpolationCubic
Y,19,-91.52352142333984,eInterpolationCubic
Y,19*,-91.56855773925781,eInterpolationCubic
Y,20,-91.623779296875,eInterpolationCubic
Y,20*,-91.68798065185547,eInterpolationCubic
Y,21,-91.75997924804688,eInterpolationCubic
Y,21*,-91.83856201171875,eInterpolationCubic
Y,22,-91.92253875732422,eInterpolationCubic
Y,22*,-92.01071166992188,eInterpolationCubic
Y,23,-92.10188293457031,eInterpolationCubic
Y,23*,-92.1948471069336,eInterpolationCubic
Y,24,-92.28841400146484,eInterpolationCubic
Y,24*,-92.3813705444336,eInterpolationCubic
Y,25,-92.47254180908203,eInterpolationCubic
Y,25*,-92.56071472167969,eInterpolationCubic
Y,26,-92.64469146728516,eInterpolationCubic
Y,26*,-92.72327423095703,eInterpolationCubic
Y,27,-92.79527282714844,eInterpolationCubic
Y,27*,-92.8594741821289,eInterpolationCubic
Y,28,-92.91470336914062,eInterpolationCubic
Y,28*,-92.95973205566406,eInterpolationCubic
Y,29,-92.9933853149414,eInterpolationCubic
Y,29*,-93.01445770263672,eInterpolationCubic
Y,30,-93.02174377441406,eInterpolationCubic
Y,30*,-93.02174377441406,eInterpolationCubic
Y,31,-93.02174377441406,eInterpolationCubic
Y,31*,-93.02174377441406,eInterpolationCubic
Y,32,-93.02174377441406,eInterpolationCubic
Y,32*,-93.02174377441406,eInterpolationCubic
Y,33,-93.02174377441406,eInterpolationCubic
Y,33*,-93.02174377441406,eInterpolationCubic
Y,34,-93.02174377441406,eInterpolationCubic
Y,34*,-93.02174377441406,eInterpolationCubic
Y,35,-93.02174377441406,eInterpolationCubic
Y,35*,-93.02174377441406,eInterpolationCubic
Y,36,-93.02174377441406,eInterpolationCubic
Y,36*,-93.02174377441406,eInterpolationCubic
Y,37,-93.02174377441406,eInterpolationCubic
Y,37*,-93.02174377441406,eInterpolationCubic
Y,38,-93.02174377441406,eInterpolationCubic
Y,38*,-93.02174377441406,eInterpolationCubic
Y,39,-93.02174377441406,eInterpolationCubic
Y,39*,-93.02174377441406,eInterpolationCubic
Y,40,-93.02174377441406,eInterpolationCubic
Y,40*,-93.02174377441406,eInterpolationCubic
Y,41,-93.02174377441406,eInterpolationCubic
Y,41*,-93.02174377441406,eInterpolationCubic
Y,42,-93.02174377441406,eInterpolationCubic
Y,42*,-93.02174377441406,eInterpolationCubic
Y,43,-93.02174377441406,eInterpolationCubic
Y,43*,-93.02174377441406,eInterpolationCubic
Y,44,-93.02174377441406,eInterpolationCubic
Y,44*,-93.02174377441406,eInterpolationCubic
Y,45,-93.02174377441406,eInterpolationCubic
Y,45*,-93.02174377441406,eInterpolationCubic
Y,46,-93.02174377441406,eInterpolationCubic
Y,46*,-93.02174377441406,eInterpolationCubic
Y,47,-93.02174377441406,eInterpolationCubic
Y,47*,-93.02174377441406,eInterpolationCubic
Y,48,-93.02174377441406,eInterpolationCubic
Y,48*,-93.02174377441406,eInterpolationCubic
Y,49,-93.02174377441406,eInterpolationCubic
Y,49*,-93.02174377441406,eInterpolationCubic
Y,50,-93.02174377441406,eInterpolationCubic
Y,50*,-93.02174377441406,eInterpolationCubic
Y,51,-93.02174377441406,eInterpolationCubic
Y,51*,-93.02174377441406,eInterpolationCubic
Y,52,-93.02174377441406,eInterpolationCubic
Y,52*,-93.02174377441406,eInterpolationCubic
Y,53,-93.02174377441406,eInterpolationCubic
Y,53*,-93.02174377441406,eInterpolationCubic
Y,54,-93.02174377441406,eInterpolationCubic
Y,54*,-93.02174377441406,eInterpolationCubic
Y,55,-93.02174377441406,eInterpolationCubic
Y,55*,-93.02174377441406,eInterpolationCubic
Y,56,-93.02174377441406,eInterpolationCubic
Y,56*,-93.02174377441406,eInterpolationCubic
Y,57,-93.02174377441406,eInterpolationCubic
Y,57*,-93.02174377441406,eInterpolationCubic
Y,58,-93.02174377441406,eInterpolationCubic
Y,58*,-93.02174377441406,eInterpolationCubic
Y,59,-93.0216293334961,eInterpolationCubic
Y,59*,-93.0216293334961,eInterpolationCubic
Y,60,-93.0216293334961,eInterpolationCubic
Y,60*,-93.0216293334961,eInterpolationCubic
Y,61,-93.0216293334961,eInterpolationCubic
Y,61*,-93.02152252197266,eInterpolationCubic
Y,62,-93.02152252197266,eInterpolationCubic
Y,62*,-93.02152252197266,eInterpolationCubic
Y,63,-93.02152252197266,eInterpolationCubic
Y,63*,-93.02152252197266,eInterpolationCubic
Y,64,-93.02140808105469,eInterpolationCubic
Y,64*,-93.02140808105469,eInterpolationCubic
Y,65,-93.02140808105469,eInterpolationCubic
Y,65*,-93.02140808105469,eInterpolationCubic
Y,66,-93.02140808105469,eInterpolationCubic
Y,66*,-93.02140808105469,eInterpolationCubic
Y,67,-93.02130889892578,eInterpolationCubic
Y,67*,-93.02130889892578,eInterpolationCubic
Y,68,-93.02130889892578,eInterpolationCubic
Y,68*,-93.02130889892578,eInterpolationCubic
Y,69,-93.02130889892578,eInterpolationCubic
Y,69*,-93.02130889892578,eInterpolationCubic
Y,70,-93.02130889892578,eInterpolationCubic
Y,70*,-93.02130889892578,eInterpolationConstant
Z,0,7.761619218283469e-20,eInterpolationCubic
Z,0*,7.761619218283469e-20,eInterpolationCubic
Z,1,7.761619218283469e-20,eInterpolationCubic
Z,1*,7.761619218283469e-20,eInterpolationCubic
Z,2,7.761619218283469e-20,eInterpolationCubic
Z,2*,7.761619218283469e-20,eInterpolationCubic
Z,3,7.761619218283469e-20,eInterpolationCubic
Z,3*,7.761619218283469e-20,eInterpolationCubic
Z,4,7.761619218283469e-20,eInterpolationCubic
Z,4*,7.761619218283469e-20,eInterpolationCubic
Z,5,7.761619218283469e-20,eInterpolationCubic
Z,5*,7.761619218283469e-20,eInterpolationCubic
Z,6,7.761619218283469e-20,eInterpolationCubic
Z,6*,7.761619218283469e-20,eInterpolationCubic
Z,7,7.761619218283469e-20,eInterpolationCubic
Z,7*,7.761619218283469e-20,eInterpolationCubic
Z,8,7.761619218283469e-20,eInterpolationCubic
Z,8*,7.761619218283469e-20,eInterpolationCubic
Z,9,7.761619218283469e-20,eInterpolationCubic
Z,9*,7.761619218283469e-20,eInterpolationCubic
Z,10,7.761619218283469e-20,eInterpolationCubic
Z,10*,7.761619218283469e-20,eInterpolationCubic
Z,11,7.761619218283469e-20,eInterpolationCubic
Z,11*,7.761619218283469e-20,eInterpolationCubic
Z,12,7.761619218283469e-20,eInterpolationCubic
Z,12*,7.761619218283469e-20,eInterpolationCubic
Z,13,7.761619218283469e-20,eInterpolationCubic
Z,13*,7.761619218283469e-20,eInterpolationCubic
Z,14,7.761619218283469e-20,eInterpolationCubic
Z,14*,7.761619218283469e-20,eInterpolationCubic
Z,15,7.761619218283469e-20,eInterpolationCubic
Z,15*,7.761619218283469e-20,eInterpolationCubic
Z,16,7.761619218283469e-20,eInterpolationCubic
Z,16*,7.761619218283469e-20,eInterpolationCubic
Z,17,7.761619218283469e-20,eInterpolationCubic
Z,17*,7.761619218283469e-20,eInterpolationCubic
Z,18,7.761619218283469e-20,eInterpolationCubic
Z,18*,7.761619218283469e-20,eInterpolationCubic
Z,19,7.761619218283469e-20,eInterpolationCubic
Z,19*,7.761619218283469e-20,eInterpolationCubic
Z,20,7.761619218283469e-20,eInterpolationCubic
Z,20*,7.761619218283469e-20,eInterpolationCubic
Z,21,7.761619218283469e-20,eInterpolationCubic
Z,21*,7.761619218283469e-20,eInterpolationCubic
Z,22,7.761619218283469e-20,eInterpolationCubic
Z,22*,7.761619218283469e-20,eInterpolationCubic
Z,23,7.761619218283469e-20,eInterpolationCubic
Z,23*,7.761619218283469e-20,eInterpolationCubic
Z,24,7.761619218283469e-20,eInterpolationCubic
Z,24*,7.761619218283469e-20,eInterpolationCubic
Z,25,7.761619218283469e-20,eInterpolationCubic
Z,25*,7.761619218283469e-20,eInterpolationCubic
Z,26,7.761619218283469e-20,eInterpolationCubic
Z,26*,7.761619218283469e-20,eInterpolationCubic
Z,27,7.761619218283469e-20,eInterpolationCubic
Z,27*,7.761619218283469e-20,eInterpolationCubic
Z,28,7.761619218283469e-20,eInterpolationCubic
Z,28*,7.761619218283469e-20,eInterpolationCubic
Z,29,7.761619218283469e-20,eInterpolationCubic
Z,29*,7.761619218283469e-20,eInterpolationCubic
Z,30,7.761619218283469e-20,eInterpolationCubic
Z,30*,7.761619218283469e-20,eInterpolationCubic
Z,31,7.761619218283469e-20,eInterpolationCubic
Z,31*,7.761619218283469e-20,eInterpolationCubic
Z,32,7.761619218283469e-20,eInterpolationCubic
Z,32*,7.761619218283469e-20,eInterpolationCubic
Z,33,7.761619218283469e-20,eInterpolationCubic
Z,33*,7.761619218283469e-20,eInterpolationCubic
Z,34,7.761619218283469e-20,eInterpolationCubic
Z,34*,7.761619218283469e-20,eInterpolationCubic
Z,35,7.761619218283469e-20,eInterpolationCubic
Z,35*,7.761619218283469e-20,eInterpolationCubic
Z,36,7.761619218283469e-20,eInterpolationCubic
Z,36*,7.761619218283469e-20,eInterpolationCubic
Z,37,7.761619218283469e-20,eInterpolationCubic
Z,37*,7.761619218283469e-20,eInterpolationCubic
Z,38,7.761619218283469e-20,eInterpolationCubic
Z,38*,7.761619218283469e-20,eInterpolationCubic
Z,39,7.761619218283469e-20,eInterpolationCubic
Z,39*,7.761619218283469e-20,eInterpolationCubic
Z,40,7.761619218283469e-20,eInterpolationCubic
Z,40*,7.761619218283469e-20,eInterpolationCubic
Z,41,7.761619218283469e-20,eInterpolationCubic
Z,41*,7.761619218283469e-20,eInterpolationCubic
Z,42,7.761619218283469e-20,eInterpolationCubic
Z,42*,7.761619218283469e-20,eInterpolationCubic
Z,43,7.761619218283469e-20,eInterpolationCubic
Z,43*,7.761619218283469e-20,eInterpolationCubic
Z,44,7.761619218283469e-20,eInterpolationCubic
Z,44*,7.761619218283469e-20,eInterpolationCubic
Z,45,7.761619218283469e-20,eInterpolationCubic
Z,45*,7.761619218283469e-20,eInterpolationCubic
Z,46,7.761619218283469e-20,eInterpolationCubic
Z,46*,7.761619218283469e-20,eInterpolationCubic
Z,47,7.761619218283469e-20,eInterpolationCubic
Z,47*,7.761619218283469e-20,eInterpolationCubic
Z,48,7.761619218283469e-20,eInterpolationCubic
Z,48*,7.761619218283469e-20,eInterpolationCubic
Z,49,7.761619218283469e-20,eInterpolationCubic
Z,49*,7.761619218283469e-20,eInterpolationCubic
Z,50,7.761619218283469e-20,eInterpolationCubic
Z,50*,7.761619218283469e-20,eInterpolationCubic
Z,51,7.761619218283469e-20,eInterpolationCubic
Z,51*,7.761619218283469e-20,eInterpolationCubic
Z,52,7.761619218283469e-20,eInterpolationCubic
Z,52*,7.761619218283469e-20,eInterpolationCubic
Z,53,7.761619218283469e-20,eInterpolationCubic
Z,53*,7.761619218283469e-20,eInterpolationCubic
Z,54,7.761619218283469e-20,eInterpolationCubic
Z,54*,7.761619218283469e-20,eInterpolationCubic
Z,55,7.761619218283469e-20,eInterpolationCubic
Z,55*,7.761619218283469e-20,eInterpolationCubic
Z,56,7.761619218283469e-20,eInterpolationCubic
Z,56*,7.761619218283469e-20,eInterpolationCubic
Z,57,7.761619218283469e-20,eInterpolationCubic
Z,57*,7.761619218283469e-20,eInterpolationCubic
Z,58,7.761619218283469e-20,eInterpolationCubic
Z,58*,7.761619218283469e-20,eInterpolationCubic
Z,59,7.761619218283469e-20,eInterpolationCubic
Z,59*,7.761619218283469e-20,eInterpolationCubic
Z,60,7.761619218283469e-20,eInterpolationCubic
Z,60*,7.761619218283469e-20,eInterpolationCubic
Z,61,7.761619218283469e-20,eInterpolationCubic
Z,61*,7.761619218283469e-20,eInterpolationCubic
Z,62,7.761619218283469e-20,eInterpolationCubic
Z,62*,7.761619218283469e-20,eInterpolationCubic
Z,63,7.761619218283469e-20,eInterpolationCubic
Z,63*,7.761619218283469e-20,eInterpolationCubic
Z,64,7.761619218283469e-20,eInterpolationCubic
Z,64*,7.761619218283469e-20,eInterpolationCubic
Z,65,7.761619218283469e-20,eInterpolationCubic
Z,65*,7.761619218283469e-20,eInterpolationCubic
Z,66,7.761619218283469e-20,eInterpolationCubic
Z,66*,7.761619218283469e-20,eInterpolationCubic
Z,67,7.761619218283469e-20,eInterpolationCubic
Z,67*,7.761619218283469e-20,eInterpolationCubic
Z,68,7.761619218283469e-20,eInterpolationCubic
Z,68*,7.761619218283469e-20,eInterpolationCubic
Z,69,7.761619218283469e-20,eInterpolationCubic
Z,69*,7.761619218283469e-20,eInterpolationCubic
Z,70,7.761619218283469e-20,eInterpolationCubic
Z,70*,7.761619218283469e-20,eInterpolationConstant
