Axis,KeyFrame,Value,InterpolationType
X,0,0.0,eInterpolationCubic
X,0*,0.0,eInterpolationCubic
X,1,0.0,eInterpolationCubic
X,1*,0.0,eInterpolationCubic
X,2,0.0,eInterpolationCubic
X,2*,0.0,eInterpolationCubic
X,3,0.0,eInterpolationCubic
X,3*,0.0,eInterpolationCubic
X,4,0.0,eInterpolationCubic
X,4*,0.0,eInterpolationCubic
X,5,0.0,eInterpolationCubic
X,5*,0.0,eInterpolationCubic
X,6,0.0,eInterpolationCubic
X,6*,0.0,eInterpolationCubic
X,7,0.0,eInterpolationCubic
X,7*,0.0,eInterpolationCubic
X,8,0.0,eInterpolationCubic
X,8*,0.0,eInterpolationCubic
X,9,0.0,eInterpolationCubic
X,9*,0.0,eInterpolationCubic
X,10,0.0,eInterpolationCubic
X,10*,0.0,eInterpolationCubic
X,11,0.0,eInterpolationCubic
X,11*,0.0,eInterpolationCubic
X,12,0.0,eInterpolationCubic
X,12*,0.0,eInterpolationCubic
X,13,0.0,eInterpolationCubic
X,13*,0.0,eInterpolationCubic
X,14,0.0,eInterpolationCubic
X,14*,0.0,eInterpolationCubic
X,15,0.0,eInterpolationCubic
X,15*,0.0,eInterpolationCubic
X,16,0.0,eInterpolationCubic
X,16*,0.0,eInterpolationCubic
X,17,0.0,eInterpolationCubic
X,17*,0.0,eInterpolationCubic
X,18,0.0,eInterpolationCubic
X,18*,0.0,eInterpolationCubic
X,19,0.0,eInterpolationCubic
X,19*,0.0,eInterpolationCubic
X,20,0.0,eInterpolationCubic
X,20*,0.0,eInterpolationCubic
X,21,0.0,eInterpolationCubic
X,21*,0.0,eInterpolationCubic
X,22,0.0,eInterpolationCubic
X,22*,0.0,eInterpolationCubic
X,23,0.0,eInterpolationCubic
X,23*,0.0,eInterpolationCubic
X,24,0.0,eInterpolationCubic
X,24*,0.0,eInterpolationCubic
X,25,0.0,eInterpolationCubic
X,25*,0.0,eInterpolationCubic
X,26,0.0,eInterpolationCubic
X,26*,0.0,eInterpolationCubic
X,27,0.0,eInterpolationCubic
X,27*,0.0,eInterpolationCubic
X,28,0.0,eInterpolationCubic
X,28*,0.0,eInterpolationCubic
X,29,0.0,eInterpolationCubic
X,29*,0.0,eInterpolationCubic
X,30,0.0,eInterpolationCubic
X,30*,0.0,eInterpolationCubic
X,31,0.0,eInterpolationCubic
X,31*,0.0,eInterpolationCubic
X,32,0.0,eInterpolationCubic
X,32*,0.0,eInterpolationCubic
X,33,0.0,eInterpolationCubic
X,33*,0.0,eInterpolationCubic
X,34,0.0,eInterpolationCubic
X,34*,0.0,eInterpolationCubic
X,35,0.0,eInterpolationCubic
X,35*,0.0,eInterpolationCubic
X,36,0.0,eInterpolationCubic
X,36*,0.0,eInterpolationCubic
X,37,0.0,eInterpolationCubic
X,37*,0.0,eInterpolationCubic
X,38,0.0,eInterpolationCubic
X,38*,0.0,eInterpolationCubic
X,39,0.0,eInterpolationCubic
X,39*,0.0,eInterpolationCubic
X,40,0.0,eInterpolationCubic
X,40*,0.0,eInterpolationCubic
X,41,0.0,eInterpolationCubic
X,41*,0.0,eInterpolationCubic
X,42,0.0,eInterpolationCubic
X,42*,0.0,eInterpolationCubic
X,43,0.0,eInterpolationCubic
X,43*,0.0,eInterpolationCubic
X,44,0.0,eInterpolationCubic
X,44*,0.0,eInterpolationCubic
X,45,0.0,eInterpolationCubic
X,45*,0.0,eInterpolationCubic
X,46,0.0,eInterpolationCubic
X,46*,0.0,eInterpolationCubic
X,47,0.0,eInterpolationCubic
X,47*,0.0,eInterpolationCubic
X,48,0.0,eInterpolationCubic
X,48*,0.0,eInterpolationCubic
X,49,0.0,eInterpolationCubic
X,49*,0.0,eInterpolationCubic
X,50,0.0,eInterpolationCubic
X,50*,0.0,eInterpolationCubic
X,51,0.0,eInterpolationCubic
X,51*,0.0,eInterpolationCubic
X,52,0.0,eInterpolationCubic
X,52*,0.0,eInterpolationCubic
X,53,0.0,eInterpolationCubic
X,53*,0.0,eInterpolationCubic
X,54,0.0,eInterpolationCubic
X,54*,0.0,eInterpolationCubic
X,55,0.0,eInterpolationCubic
X,55*,0.0,eInterpolationCubic
X,56,0.0,eInterpolationCubic
X,56*,0.0,eInterpolationCubic
X,57,0.0,eInterpolationCubic
X,57*,0.0,eInterpolationCubic
X,58,0.0,eInterpolationCubic
X,58*,0.0,eInterpolationCubic
X,59,0.0,eInterpolationCubic
X,59*,0.0,eInterpolationCubic
X,60,0.0,eInterpolationCubic
X,60*,0.0,eInterpolationCubic
X,61,0.0,eInterpolationCubic
X,61*,0.0,eInterpolationCubic
X,62,0.0,eInterpolationCubic
X,62*,0.0,eInterpolationCubic
X,63,0.0,eInterpolationCubic
X,63*,0.0,eInterpolationCubic
X,64,0.0,eInterpolationCubic
X,64*,0.0,eInterpolationCubic
X,65,0.0,eInterpolationCubic
X,65*,0.0,eInterpolationCubic
X,66,0.0,eInterpolationCubic
X,66*,0.0,eInterpolationCubic
X,67,0.0,eInterpolationCubic
X,67*,0.0,eInterpolationCubic
X,68,0.0,eInterpolationCubic
X,68*,0.0,eInterpolationCubic
X,69,0.0,eInterpolationCubic
X,69*,0.0,eInterpolationCubic
X,70,0.0,eInterpolationCubic
X,70*,0.0,eInterpolationConstant
Y,0,0.0004347148642409593,eInterpolationCubic
Y,0*,-0.4181749224662781,eInterpolationCubic
Y,1,-1.6230778694152832,eInterpolationCubic
Y,1*,-3.5378851890563965,eInterpolationCubic
Y,2,-6.086207866668701,eInterpolationCubic
Y,2*,-9.191657066345215,eInterpolationCubic
Y,3,-12.777844429016113,eInterpolationCubic
Y,3*,-16.76837921142578,eInterpolationCubic
Y,4,-21.08687400817871,eInterpolationCubic
Y,4*,-25.656940460205078,eInterpolationCubic
Y,5,-30.402189254760742,eInterpolationCubic
Y,5*,-35.2462272644043,eInterpolationCubic
Y,6,-40.1126708984375,eInterpolationCubic
Y,6*,-44.92512893676758,eInterpolationCubic
Y,7,-49.607215881347656,eInterpolationCubic
Y,7*,-54.08253860473633,eInterpolationCubic
Y,8,-60.15694808959961,eInterpolationCubic
Y,8*,-68.40385437011719,eInterpolationCubic
Y,9,-76.8982162475586,eInterpolationCubic
Y,9*,-83.71498107910156,eInterpolationCubic
Y,10,-86.92911529541016,eInterpolationCubic
Y,10*,-87.6446533203125,eInterpolationCubic
Y,11,-88.25508117675781,eInterpolationCubic
Y,11*,-88.76954650878906,eInterpolationCubic
Y,12,-89.19718170166016,eInterpolationCubic
Y,12*,-89.54713439941406,eInterpolationCubic
Y,13,-89.82854461669922,eInterpolationCubic
Y,13*,-90.05054473876953,eInterpolationCubic
Y,14,-90.22227478027344,eInterpolationCubic
Y,14*,-90.35289001464844,eInterpolationCubic
Y,15,-90.4515151977539,eInterpolationCubic
Y,15*,-90.52729797363281,eInterpolationCubic
Y,16,-90.5893783569336,eInterpolationCubic
Y,16*,-90.64689636230469,eInterpolationCubic
Y,17,-90.708984375,eInterpolationCubic
Y,17*,-90.7847900390625,eInterpolationCubic
Y,18,-90.86807250976562,eInterpolationCubic
Y,18*,-90.94660186767578,eInterpolationCubic
Y,19,-91.02051544189453,eInterpolationCubic
Y,19*,-91.08995056152344,eInterpolationCubic
Y,20,-91.15504455566406,eInterpolationCubic
Y,20*,-91.21593475341797,eInterpolationCubic
Y,21,-91.27277374267578,eInterpolationCubic
Y,21*,-91.32569122314453,eInterpolationCubic
Y,22,-91.37483215332031,eInterpolationCubic
Y,22*,-91.42034149169922,eInterpolationCubic
Y,23,-91.46234130859375,eInterpolationCubic
Y,23*,-91.50099182128906,eInterpolationCubic
Y,24,-91.53641510009766,eInterpolationCubic
Y,24*,-91.56877136230469,eInterpolationCubic
Y,25,-91.59817504882812,eInterpolationCubic
Y,25*,-91.62478637695312,eInterpolationCubic
Y,26,-91.64873504638672,eInterpolationCubic
Y,26*,-91.67017364501953,eInterpolationCubic
Y,27,-91.68922424316406,eInterpolationCubic
Y,27*,-91.70604705810547,eInterpolationCubic
Y,28,-91.72075653076172,eInterpolationCubic
Y,28*,-91.73351287841797,eInterpolationCubic
Y,29,-91.74446105957031,eInterpolationCubic
Y,29*,-91.75371551513672,eInterpolationCubic
Y,30,-91.76143646240234,eInterpolationCubic
Y,30*,-91.76775360107422,eInterpolationCubic
Y,31,-91.77281951904297,eInterpolationCubic
Y,31*,-91.7767562866211,eInterpolationCubic
Y,32,-91.77972412109375,eInterpolationCubic
Y,32*,-91.78184509277344,eInterpolationCubic
Y,33,-91.78326416015625,eInterpolationCubic
Y,33*,-91.78412628173828,eInterpolationCubic
Y,34,-91.78457641601562,eInterpolationCubic
Y,34*,-91.78473663330078,eInterpolationCubic
Y,35,-91.78473663330078,eInterpolationCubic
Y,35*,-91.78473663330078,eInterpolationCubic
Y,36,-91.78473663330078,eInterpolationCubic
Y,36*,-91.78473663330078,eInterpolationCubic
Y,37,-91.78473663330078,eInterpolationCubic
Y,37*,-91.78473663330078,eInterpolationCubic
Y,38,-91.78473663330078,eInterpolationCubic
Y,38*,-91.78473663330078,eInterpolationCubic
Y,39,-91.78473663330078,eInterpolationCubic
Y,39*,-91.78473663330078,eInterpolationCubic
Y,40,-91.78473663330078,eInterpolationCubic
Y,40*,-91.78473663330078,eInterpolationCubic
Y,41,-91.78473663330078,eInterpolationCubic
Y,41*,-91.78473663330078,eInterpolationCubic
Y,42,-91.78473663330078,eInterpolationCubic
Y,42*,-91.78473663330078,eInterpolationCubic
Y,43,-91.78473663330078,eInterpolationCubic
Y,43*,-91.78473663330078,eInterpolationCubic
Y,44,-91.78473663330078,eInterpolationCubic
Y,44*,-91.78473663330078,eInterpolationCubic
Y,45,-91.78473663330078,eInterpolationCubic
Y,45*,-91.78473663330078,eInterpolationCubic
Y,46,-91.78473663330078,eInterpolationCubic
Y,46*,-91.78473663330078,eInterpolationCubic
Y,47,-91.78473663330078,eInterpolationCubic
Y,47*,-91.78473663330078,eInterpolationCubic
Y,48,-91.78473663330078,eInterpolationCubic
Y,48*,-91.78473663330078,eInterpolationCubic
Y,49,-91.78473663330078,eInterpolationCubic
Y,49*,-91.78473663330078,eInterpolationCubic
Y,50,-91.78473663330078,eInterpolationCubic
Y,50*,-91.78473663330078,eInterpolationCubic
Y,51,-91.78473663330078,eInterpolationCubic
Y,51*,-91.78473663330078,eInterpolationCubic
Y,52,-91.78473663330078,eInterpolationCubic
Y,52*,-91.78473663330078,eInterpolationCubic
Y,53,-91.78473663330078,eInterpolationCubic
Y,53*,-91.78473663330078,eInterpolationCubic
Y,54,-91.78473663330078,eInterpolationCubic
Y,54*,-91.78473663330078,eInterpolationCubic
Y,55,-91.78473663330078,eInterpolationCubic
Y,55*,-91.78473663330078,eInterpolationCubic
Y,56,-91.78473663330078,eInterpolationCubic
Y,56*,-91.78473663330078,eInterpolationCubic
Y,57,-91.78473663330078,eInterpolationCubic
Y,57*,-91.78473663330078,eInterpolationCubic
Y,58,-91.78473663330078,eInterpolationCubic
Y,58*,-91.78473663330078,eInterpolationCubic
Y,59,-91.78473663330078,eInterpolationCubic
Y,59*,-91.78473663330078,eInterpolationCubic
Y,60,-91.78473663330078,eInterpolationCubic
Y,60*,-91.78473663330078,eInterpolationCubic
Y,61,-91.78473663330078,eInterpolationCubic
Y,61*,-91.78473663330078,eInterpolationCubic
Y,62,-91.78473663330078,eInterpolationCubic
Y,62*,-91.78473663330078,eInterpolationCubic
Y,63,-91.78473663330078,eInterpolationCubic
Y,63*,-91.78485107421875,eInterpolationCubic
Y,64,-91.78485107421875,eInterpolationCubic
Y,64*,-91.78485107421875,eInterpolationCubic
Y,65,-91.78485107421875,eInterpolationCubic
Y,65*,-91.78485107421875,eInterpolationCubic
Y,66,-91.78496551513672,eInterpolationCubic
Y,66*,-91.78496551513672,eInterpolationCubic
Y,67,-91.78496551513672,eInterpolationCubic
Y,67*,-91.78496551513672,eInterpolationCubic
Y,68,-91.78496551513672,eInterpolationCubic
Y,68*,-91.78496551513672,eInterpolationCubic
Y,69,-91.78507232666016,eInterpolationCubic
Y,69*,-91.78507232666016,eInterpolationCubic
Y,70,-91.78507232666016,eInterpolationCubic
Y,70*,-91.78507232666016,eInterpolationConstant
Z,0,9.652609028542242e-20,eInterpolationCubic
Z,0*,9.652609028542242e-20,eInterpolationCubic
Z,1,9.652609028542242e-20,eInterpolationCubic
Z,1*,9.652609028542242e-20,eInterpolationCubic
Z,2,9.652609028542242e-20,eInterpolationCubic
Z,2*,9.652609028542242e-20,eInterpolationCubic
Z,3,9.652609028542242e-20,eInterpolationCubic
Z,3*,9.652609028542242e-20,eInterpolationCubic
Z,4,9.652609028542242e-20,eInterpolationCubic
Z,4*,9.652609028542242e-20,eInterpolationCubic
Z,5,9.652609028542242e-20,eInterpolationCubic
Z,5*,9.652609028542242e-20,eInterpolationCubic
Z,6,9.652609028542242e-20,eInterpolationCubic
Z,6*,9.652609028542242e-20,eInterpolationCubic
Z,7,9.652609028542242e-20,eInterpolationCubic
Z,7*,9.652609028542242e-20,eInterpolationCubic
Z,8,9.652609028542242e-20,eInterpolationCubic
Z,8*,9.652609028542242e-20,eInterpolationCubic
Z,9,9.652609028542242e-20,eInterpolationCubic
Z,9*,9.652609028542242e-20,eInterpolationCubic
Z,10,9.652609028542242e-20,eInterpolationCubic
Z,10*,9.652609028542242e-20,eInterpolationCubic
Z,11,9.652609028542242e-20,eInterpolationCubic
Z,11*,9.652609028542242e-20,eInterpolationCubic
Z,12,9.652609028542242e-20,eInterpolationCubic
Z,12*,9.652609028542242e-20,eInterpolationCubic
Z,13,9.652609028542242e-20,eInterpolationCubic
Z,13*,9.652609028542242e-20,eInterpolationCubic
Z,14,9.652609028542242e-20,eInterpolationCubic
Z,14*,9.652609028542242e-20,eInterpolationCubic
Z,15,9.652609028542242e-20,eInterpolationCubic
Z,15*,9.652609028542242e-20,eInterpolationCubic
Z,16,9.652609028542242e-20,eInterpolationCubic
Z,16*,9.652609028542242e-20,eInterpolationCubic
Z,17,9.652609028542242e-20,eInterpolationCubic
Z,17*,9.652609028542242e-20,eInterpolationCubic
Z,18,9.652609028542242e-20,eInterpolationCubic
Z,18*,9.652609028542242e-20,eInterpolationCubic
Z,19,9.652609028542242e-20,eInterpolationCubic
Z,19*,9.652609028542242e-20,eInterpolationCubic
Z,20,9.652609028542242e-20,eInterpolationCubic
Z,20*,9.652609028542242e-20,eInterpolationCubic
Z,21,9.652609028542242e-20,eInterpolationCubic
Z,21*,9.652609028542242e-20,eInterpolationCubic
Z,22,9.652609028542242e-20,eInterpolationCubic
Z,22*,9.652609028542242e-20,eInterpolationCubic
Z,23,9.652609028542242e-20,eInterpolationCubic
Z,23*,9.652609028542242e-20,eInterpolationCubic
Z,24,9.652609028542242e-20,eInterpolationCubic
Z,24*,9.652609028542242e-20,eInterpolationCubic
Z,25,9.652609028542242e-20,eInterpolationCubic
Z,25*,9.652609028542242e-20,eInterpolationCubic
Z,26,9.652609028542242e-20,eInterpolationCubic
Z,26*,9.652609028542242e-20,eInterpolationCubic
Z,27,9.652609028542242e-20,eInterpolationCubic
Z,27*,9.652609028542242e-20,eInterpolationCubic
Z,28,9.652609028542242e-20,eInterpolationCubic
Z,28*,9.652609028542242e-20,eInterpolationCubic
Z,29,9.652609028542242e-20,eInterpolationCubic
Z,29*,9.652609028542242e-20,eInterpolationCubic
Z,30,9.652609028542242e-20,eInterpolationCubic
Z,30*,9.652609028542242e-20,eInterpolationCubic
Z,31,9.652609028542242e-20,eInterpolationCubic
Z,31*,9.652609028542242e-20,eInterpolationCubic
Z,32,9.652609028542242e-20,eInterpolationCubic
Z,32*,9.652609028542242e-20,eInterpolationCubic
Z,33,9.652609028542242e-20,eInterpolationCubic
Z,33*,9.652609028542242e-20,eInterpolationCubic
Z,34,9.652609028542242e-20,eInterpolationCubic
Z,34*,9.652609028542242e-20,eInterpolationCubic
Z,35,9.652609028542242e-20,eInterpolationCubic
Z,35*,9.652609028542242e-20,eInterpolationCubic
Z,36,9.652609028542242e-20,eInterpolationCubic
Z,36*,9.652609028542242e-20,eInterpolationCubic
Z,37,9.652609028542242e-20,eInterpolationCubic
Z,37*,9.652609028542242e-20,eInterpolationCubic
Z,38,9.652609028542242e-20,eInterpolationCubic
Z,38*,9.652609028542242e-20,eInterpolationCubic
Z,39,9.652609028542242e-20,eInterpolationCubic
Z,39*,9.652609028542242e-20,eInterpolationCubic
Z,40,9.652609028542242e-20,eInterpolationCubic
Z,40*,9.652609028542242e-20,eInterpolationCubic
Z,41,9.652609028542242e-20,eInterpolationCubic
Z,41*,9.652609028542242e-20,eInterpolationCubic
Z,42,9.652609028542242e-20,eInterpolationCubic
Z,42*,9.652609028542242e-20,eInterpolationCubic
Z,43,9.652609028542242e-20,eInterpolationCubic
Z,43*,9.652609028542242e-20,eInterpolationCubic
Z,44,9.652609028542242e-20,eInterpolationCubic
Z,44*,9.652609028542242e-20,eInterpolationCubic
Z,45,9.652609028542242e-20,eInterpolationCubic
Z,45*,9.652609028542242e-20,eInterpolationCubic
Z,46,9.652609028542242e-20,eInterpolationCubic
Z,46*,9.652609028542242e-20,eInterpolationCubic
Z,47,9.652609028542242e-20,eInterpolationCubic
Z,47*,9.652609028542242e-20,eInterpolationCubic
Z,48,9.652609028542242e-20,eInterpolationCubic
Z,48*,9.652609028542242e-20,eInterpolationCubic
Z,49,9.652609028542242e-20,eInterpolationCubic
Z,49*,9.652609028542242e-20,eInterpolationCubic
Z,50,9.652609028542242e-20,eInterpolationCubic
Z,50*,9.652609028542242e-20,eInterpolationCubic
Z,51,9.652609028542242e-20,eInterpolationCubic
Z,51*,9.652609028542242e-20,eInterpolationCubic
Z,52,9.652609028542242e-20,eInterpolationCubic
Z,52*,9.652609028542242e-20,eInterpolationCubic
Z,53,9.652609028542242e-20,eInterpolationCubic
Z,53*,9.652609028542242e-20,eInterpolationCubic
Z,54,9.652609028542242e-20,eInterpolationCubic
Z,54*,9.652609028542242e-20,eInterpolationCubic
Z,55,9.652609028542242e-20,eInterpolationCubic
Z,55*,9.652609028542242e-20,eInterpolationCubic
Z,56,9.652609028542242e-20,eInterpolationCubic
Z,56*,9.652609028542242e-20,eInterpolationCubic
Z,57,9.652609028542242e-20,eInterpolationCubic
Z,57*,9.652609028542242e-20,eInterpolationCubic
Z,58,9.652609028542242e-20,eInterpolationCubic
Z,58*,9.652609028542242e-20,eInterpolationCubic
Z,59,9.652609028542242e-20,eInterpolationCubic
Z,59*,9.652609028542242e-20,eInterpolationCubic
Z,60,9.652609028542242e-20,eInterpolationCubic
Z,60*,9.652609028542242e-20,eInterpolationCubic
Z,61,9.652609028542242e-20,eInterpolationCubic
Z,61*,9.652609028542242e-20,eInterpolationCubic
Z,62,9.652609028542242e-20,eInterpolationCubic
Z,62*,9.652609028542242e-20,eInterpolationCubic
Z,63,9.652609028542242e-20,eInterpolationCubic
Z,63*,9.652609028542242e-20,eInterpolationCubic
Z,64,9.652609028542242e-20,eInterpolationCubic
Z,64*,9.652609028542242e-20,eInterpolationCubic
Z,65,9.652609028542242e-20,eInterpolationCubic
Z,65*,9.652609028542242e-20,eInterpolationCubic
Z,66,9.652609028542242e-20,eInterpolationCubic
Z,66*,9.652609028542242e-20,eInterpolationCubic
Z,67,9.652609028542242e-20,eInterpolationCubic
Z,67*,9.652609028542242e-20,eInterpolationCubic
Z,68,9.652609028542242e-20,eInterpolationCubic
Z,68*,9.652609028542242e-20,eInterpolationCubic
Z,69,9.652609028542242e-20,eInterpolationCubic
Z,69*,9.652609028542242e-20,eInterpolationCubic
Z,70,9.652609028542242e-20,eInterpolationCubic
Z,70*,9.652609028542242e-20,eInterpolationConstant
