Axis,KeyFrame,Value,InterpolationType
X,0,0.0,eInterpolationCubic
X,0*,0.0,eInterpolationCubic
X,1,0.0,eInterpolationCubic
X,1*,0.0,eInterpolationCubic
X,2,0.0,eInterpolationCubic
X,2*,0.0,eInterpolationCubic
X,3,0.0,eInterpolationCubic
X,3*,0.0,eInterpolationCubic
X,4,0.0,eInterpolationCubic
X,4*,0.0,eInterpolationCubic
X,5,0.0,eInterpolationCubic
X,5*,0.0,eInterpolationCubic
X,6,0.0,eInterpolationCubic
X,6*,0.0,eInterpolationCubic
X,7,0.0,eInterpolationCubic
X,7*,0.0,eInterpolationCubic
X,8,0.0,eInterpolationCubic
X,8*,0.0,eInterpolationCubic
X,9,0.0,eInterpolationCubic
X,9*,0.0,eInterpolationCubic
X,10,0.0,eInterpolationCubic
X,10*,0.0,eInterpolationCubic
X,11,0.0,eInterpolationCubic
X,11*,0.0,eInterpolationCubic
X,12,0.0,eInterpolationCubic
X,12*,0.0,eInterpolationCubic
X,13,0.0,eInterpolationCubic
X,13*,0.0,eInterpolationCubic
X,14,0.0,eInterpolationCubic
X,14*,0.0,eInterpolationCubic
X,15,0.0,eInterpolationCubic
X,15*,0.0,eInterpolationCubic
X,16,0.0,eInterpolationCubic
X,16*,0.0,eInterpolationCubic
X,17,0.0,eInterpolationCubic
X,17*,0.0,eInterpolationCubic
X,18,0.0,eInterpolationCubic
X,18*,0.0,eInterpolationCubic
X,19,0.0,eInterpolationCubic
X,19*,0.0,eInterpolationCubic
X,20,0.0,eInterpolationCubic
X,20*,0.0,eInterpolationCubic
X,21,0.0,eInterpolationCubic
X,21*,0.0,eInterpolationCubic
X,22,0.0,eInterpolationCubic
X,22*,0.0,eInterpolationCubic
X,23,0.0,eInterpolationCubic
X,23*,0.0,eInterpolationCubic
X,24,0.0,eInterpolationCubic
X,24*,0.0,eInterpolationCubic
X,25,0.0,eInterpolationCubic
X,25*,0.0,eInterpolationCubic
X,26,0.0,eInterpolationCubic
X,26*,0.0,eInterpolationCubic
X,27,0.0,eInterpolationCubic
X,27*,0.0,eInterpolationCubic
X,28,0.0,eInterpolationCubic
X,28*,0.0,eInterpolationCubic
X,29,0.0,eInterpolationCubic
X,29*,0.0,eInterpolationCubic
X,30,0.0,eInterpolationCubic
X,30*,0.0,eInterpolationCubic
X,31,0.0,eInterpolationCubic
X,31*,0.0,eInterpolationCubic
X,32,0.0,eInterpolationCubic
X,32*,0.0,eInterpolationCubic
X,33,0.0,eInterpolationCubic
X,33*,0.0,eInterpolationCubic
X,34,0.0,eInterpolationCubic
X,34*,0.0,eInterpolationCubic
X,35,0.0,eInterpolationCubic
X,35*,0.0,eInterpolationCubic
X,36,0.0,eInterpolationCubic
X,36*,0.0,eInterpolationCubic
X,37,0.0,eInterpolationCubic
X,37*,0.0,eInterpolationCubic
X,38,0.0,eInterpolationCubic
X,38*,0.0,eInterpolationCubic
X,39,0.0,eInterpolationCubic
X,39*,0.0,eInterpolationCubic
X,40,0.0,eInterpolationCubic
X,40*,0.0,eInterpolationCubic
X,41,0.0,eInterpolationCubic
X,41*,0.0,eInterpolationCubic
X,42,0.0,eInterpolationCubic
X,42*,0.0,eInterpolationCubic
X,43,0.0,eInterpolationCubic
X,43*,0.0,eInterpolationCubic
X,44,0.0,eInterpolationCubic
X,44*,0.0,eInterpolationCubic
X,45,0.0,eInterpolationCubic
X,45*,0.0,eInterpolationCubic
X,46,0.0,eInterpolationCubic
X,46*,0.0,eInterpolationCubic
X,47,0.0,eInterpolationCubic
X,47*,0.0,eInterpolationCubic
X,48,0.0,eInterpolationCubic
X,48*,0.0,eInterpolationCubic
X,49,0.0,eInterpolationCubic
X,49*,0.0,eInterpolationCubic
X,50,0.0,eInterpolationCubic
X,50*,0.0,eInterpolationCubic
X,51,0.0,eInterpolationCubic
X,51*,0.0,eInterpolationCubic
X,52,0.0,eInterpolationCubic
X,52*,0.0,eInterpolationCubic
X,53,0.0,eInterpolationCubic
X,53*,0.0,eInterpolationCubic
X,54,0.0,eInterpolationCubic
X,54*,0.0,eInterpolationCubic
X,55,0.0,eInterpolationCubic
X,55*,0.0,eInterpolationCubic
X,56,0.0,eInterpolationCubic
X,56*,0.0,eInterpolationCubic
X,57,0.0,eInterpolationCubic
X,57*,0.0,eInterpolationCubic
X,58,0.0,eInterpolationCubic
X,58*,0.0,eInterpolationCubic
X,59,0.0,eInterpolationCubic
X,59*,0.0,eInterpolationCubic
X,60,0.0,eInterpolationCubic
X,60*,0.0,eInterpolationCubic
X,61,0.0,eInterpolationCubic
X,61*,0.0,eInterpolationCubic
X,62,0.0,eInterpolationCubic
X,62*,0.0,eInterpolationCubic
X,63,0.0,eInterpolationCubic
X,63*,0.0,eInterpolationCubic
X,64,0.0,eInterpolationCubic
X,64*,0.0,eInterpolationCubic
X,65,0.0,eInterpolationCubic
X,65*,0.0,eInterpolationCubic
X,66,0.0,eInterpolationCubic
X,66*,0.0,eInterpolationCubic
X,67,0.0,eInterpolationCubic
X,67*,0.0,eInterpolationCubic
X,68,0.0,eInterpolationCubic
X,68*,0.0,eInterpolationCubic
X,69,0.0,eInterpolationCubic
X,69*,0.0,eInterpolationCubic
X,70,0.0,eInterpolationCubic
X,70*,0.0,eInterpolationCubic
X,71,0.0,eInterpolationCubic
X,71*,0.0,eInterpolationCubic
X,72,0.0,eInterpolationCubic
X,72*,0.0,eInterpolationCubic
X,73,0.0,eInterpolationCubic
X,73*,0.0,eInterpolationCubic
X,74,0.0,eInterpolationCubic
X,74*,0.0,eInterpolationCubic
X,75,0.0,eInterpolationCubic
X,75*,0.0,eInterpolationCubic
X,76,0.0,eInterpolationCubic
X,76*,0.0,eInterpolationCubic
X,77,0.0,eInterpolationCubic
X,77*,0.0,eInterpolationCubic
X,78,0.0,eInterpolationCubic
X,78*,0.0,eInterpolationCubic
X,79,0.0,eInterpolationCubic
X,79*,0.0,eInterpolationCubic
X,80,0.0,eInterpolationCubic
X,80*,0.0,eInterpolationCubic
X,81,0.0,eInterpolationCubic
X,81*,0.0,eInterpolationCubic
X,82,0.0,eInterpolationCubic
X,82*,0.0,eInterpolationCubic
X,83,0.0,eInterpolationCubic
X,83*,0.0,eInterpolationCubic
X,84,0.0,eInterpolationCubic
X,84*,0.0,eInterpolationCubic
X,85,0.0,eInterpolationCubic
X,85*,0.0,eInterpolationConstant
Y,0,-0.0,eInterpolationCubic
Y,0*,-1.117772102355957,eInterpolationCubic
Y,1,-4.051642894744873,eInterpolationCubic
Y,1*,-8.172443389892578,eInterpolationCubic
Y,2,-12.851003646850586,eInterpolationCubic
Y,2*,-17.45815658569336,eInterpolationCubic
Y,3,-23.36543846130371,eInterpolationCubic
Y,3*,-30.239490509033203,eInterpolationCubic
Y,4,-34.89380645751953,eInterpolationCubic
Y,4*,-37.30849838256836,eInterpolationCubic
Y,5,-39.59696578979492,eInterpolationCubic
Y,5*,-41.77261734008789,eInterpolationCubic
Y,6,-43.8488655090332,eInterpolationCubic
Y,6*,-45.83912658691406,eInterpolationCubic
Y,7,-47.75681686401367,eInterpolationCubic
Y,7*,-49.61534118652344,eInterpolationCubic
Y,8,-51.428123474121094,eInterpolationCubic
Y,8*,-53.20856857299805,eInterpolationCubic
Y,9,-54.9700927734375,eInterpolationCubic
Y,9*,-56.726112365722656,eInterpolationCubic
Y,10,-58.49003601074219,eInterpolationCubic
Y,10*,-60.27528762817383,eInterpolationCubic
Y,11,-62.09526443481445,eInterpolationCubic
Y,11*,-63.9633903503418,eInterpolationCubic
Y,12,-65.89308166503906,eInterpolationCubic
Y,12*,-67.89774322509766,eInterpolationCubic
Y,13,-69.99079132080078,eInterpolationCubic
Y,13*,-72.1856460571289,eInterpolationCubic
Y,14,-74.49571228027344,eInterpolationCubic
Y,14*,-76.93440246582031,eInterpolationCubic
Y,15,-79.51514434814453,eInterpolationCubic
Y,15*,-82.6878662109375,eInterpolationCubic
Y,16,-86.73722076416016,eInterpolationCubic
Y,16*,-91.42866516113281,eInterpolationCubic
Y,17,-96.52764892578125,eInterpolationCubic
Y,17*,-101.79963684082031,eInterpolationCubic
Y,18,-107.01008605957031,eInterpolationCubic
Y,18*,-111.9244384765625,eInterpolationCubic
Y,19,-117.18494415283203,eInterpolationCubic
Y,19*,-123.21416473388672,eInterpolationCubic
Y,20,-129.4480438232422,eInterpolationCubic
Y,20*,-135.32252502441406,eInterpolationCubic
Y,21,-140.27354431152344,eInterpolationCubic
Y,21*,-143.73704528808594,eInterpolationCubic
Y,22,-145.1489715576172,eInterpolationCubic
Y,22*,-145.34332275390625,eInterpolationCubic
Y,23,-145.5301971435547,eInterpolationCubic
Y,23*,-145.70973205566406,eInterpolationCubic
Y,24,-145.882080078125,eInterpolationCubic
Y,24*,-146.04742431640625,eInterpolationCubic
Y,25,-146.20584106445312,eInterpolationCubic
Y,25*,-146.35755920410156,eInterpolationCubic
Y,26,-146.50265502929688,eInterpolationCubic
Y,26*,-146.6413116455078,eInterpolationCubic
Y,27,-146.77366638183594,eInterpolationCubic
Y,27*,-146.8998565673828,eInterpolationCubic
Y,28,-147.02005004882812,eInterpolationCubic
Y,28*,-147.13436889648438,eInterpolationCubic
Y,29,-147.2429962158203,eInterpolationCubic
Y,29*,-147.34603881835938,eInterpolationCubic
Y,30,-147.44366455078125,eInterpolationCubic
Y,30*,-147.5360107421875,eInterpolationCubic
Y,31,-147.6232147216797,eInterpolationCubic
Y,31*,-147.70545959472656,eInterpolationCubic
Y,32,-147.78285217285156,eInterpolationCubic
Y,32*,-147.85557556152344,eInterpolationCubic
Y,33,-147.92373657226562,eInterpolationCubic
Y,33*,-147.98751831054688,eInterpolationCubic
Y,34,-148.04702758789062,eInterpolationCubic
Y,34*,-148.10244750976562,eInterpolationCubic
Y,35,-148.15391540527344,eInterpolationCubic
Y,35*,-148.20156860351562,eInterpolationCubic
Y,36,-148.24554443359375,eInterpolationCubic
Y,36*,-148.2860107421875,eInterpolationCubic
Y,37,-148.3231201171875,eInterpolationCubic
Y,37*,-148.35699462890625,eInterpolationCubic
Y,38,-148.38778686523438,eInterpolationCubic
Y,38*,-148.41566467285156,eInterpolationCubic
Y,39,-148.44073486328125,eInterpolationCubic
Y,39*,-148.46319580078125,eInterpolationCubic
Y,40,-148.48313903808594,eInterpolationCubic
Y,40*,-148.50074768066406,eInterpolationCubic
Y,41,-148.5161590576172,eInterpolationCubic
Y,41*,-148.52952575683594,eInterpolationCubic
Y,42,-148.54098510742188,eInterpolationCubic
Y,42*,-148.55067443847656,eInterpolationCubic
Y,43,-148.5587615966797,eInterpolationCubic
Y,43*,-148.56536865234375,eInterpolationCubic
Y,44,-148.5706787109375,eInterpolationCubic
Y,44*,-148.57481384277344,eInterpolationCubic
Y,45,-148.57791137695312,eInterpolationCubic
Y,45*,-148.58013916015625,eInterpolationCubic
Y,46,-148.5816192626953,eInterpolationCubic
Y,46*,-148.58251953125,eInterpolationCubic
Y,47,-148.58299255371094,eInterpolationCubic
Y,47*,-148.58316040039062,eInterpolationCubic
Y,48,-148.58316040039062,eInterpolationCubic
Y,48*,-148.58316040039062,eInterpolationCubic
Y,49,-148.58316040039062,eInterpolationCubic
Y,49*,-148.58316040039062,eInterpolationCubic
Y,50,-148.58316040039062,eInterpolationCubic
Y,50*,-148.58316040039062,eInterpolationCubic
Y,51,-148.58316040039062,eInterpolationCubic
Y,51*,-148.58316040039062,eInterpolationCubic
Y,52,-148.58316040039062,eInterpolationCubic
Y,52*,-148.58316040039062,eInterpolationCubic
Y,53,-148.58316040039062,eInterpolationCubic
Y,53*,-148.58316040039062,eInterpolationCubic
Y,54,-148.67430114746094,eInterpolationCubic
Y,54*,-148.93963623046875,eInterpolationCubic
Y,55,-149.36717224121094,eInterpolationCubic
Y,55*,-149.94488525390625,eInterpolationCubic
Y,56,-150.66078186035156,eInterpolationCubic
Y,56*,-151.50282287597656,eInterpolationCubic
Y,57,-152.45901489257812,eInterpolationCubic
Y,57*,-153.51734924316406,eInterpolationCubic
Y,58,-154.66578674316406,eInterpolationCubic
Y,58*,-155.89231872558594,eInterpolationCubic
Y,59,-157.1849365234375,eInterpolationCubic
Y,59*,-158.5316162109375,eInterpolationCubic
Y,60,-159.92034912109375,eInterpolationCubic
Y,60*,-161.33912658691406,eInterpolationCubic
Y,61,-162.77590942382812,eInterpolationCubic
Y,61*,-164.2187042236328,eInterpolationCubic
Y,62,-165.655517578125,eInterpolationCubic
Y,62*,-167.07427978515625,eInterpolationCubic
Y,63,-168.46302795410156,eInterpolationCubic
Y,63*,-169.80970764160156,eInterpolationCubic
Y,64,-171.10232543945312,eInterpolationCubic
Y,64*,-172.32884216308594,eInterpolationCubic
Y,65,-173.47727966308594,eInterpolationCubic
Y,65*,-174.5355987548828,eInterpolationCubic
Y,66,-175.49179077148438,eInterpolationCubic
Y,66*,-176.33384704589844,eInterpolationCubic
Y,67,-177.04974365234375,eInterpolationCubic
Y,67*,-177.62747192382812,eInterpolationCubic
Y,68,-178.05499267578125,eInterpolationCubic
Y,68*,-178.32034301757812,eInterpolationCubic
Y,69,-178.41143798828125,eInterpolationCubic
Y,69*,-178.41143798828125,eInterpolationCubic
Y,70,-178.41143798828125,eInterpolationCubic
Y,70*,-178.41143798828125,eInterpolationCubic
Y,71,-178.41143798828125,eInterpolationCubic
Y,71*,-178.41143798828125,eInterpolationCubic
Y,72,-178.41143798828125,eInterpolationCubic
Y,72*,-178.41143798828125,eInterpolationCubic
Y,73,-178.41143798828125,eInterpolationCubic
Y,73*,-178.41143798828125,eInterpolationCubic
Y,74,-178.41143798828125,eInterpolationCubic
Y,74*,-178.41143798828125,eInterpolationCubic
Y,75,-178.41143798828125,eInterpolationCubic
Y,75*,-178.41143798828125,eInterpolationCubic
Y,76,-178.41143798828125,eInterpolationCubic
Y,76*,-178.41143798828125,eInterpolationCubic
Y,77,-178.41143798828125,eInterpolationCubic
Y,77*,-178.41143798828125,eInterpolationCubic
Y,78,-178.41143798828125,eInterpolationCubic
Y,78*,-178.41143798828125,eInterpolationCubic
Y,79,-178.41143798828125,eInterpolationCubic
Y,79*,-178.41143798828125,eInterpolationCubic
Y,80,-178.41156005859375,eInterpolationCubic
Y,80*,-178.41156005859375,eInterpolationCubic
Y,81,-178.41156005859375,eInterpolationCubic
Y,81*,-178.4116668701172,eInterpolationCubic
Y,82,-178.4116668701172,eInterpolationCubic
Y,82*,-178.4116668701172,eInterpolationCubic
Y,83,-178.41177368164062,eInterpolationCubic
Y,83*,-178.41177368164062,eInterpolationCubic
Y,84,-178.41177368164062,eInterpolationCubic
Y,84*,-178.41177368164062,eInterpolationCubic
Y,85,-178.41177368164062,eInterpolationCubic
Y,85*,-178.41177368164062,eInterpolationConstant
Z,0,0.0,eInterpolationCubic
Z,0*,0.0,eInterpolationCubic
Z,1,0.0,eInterpolationCubic
Z,1*,0.0,eInterpolationCubic
Z,2,0.0,eInterpolationCubic
Z,2*,0.0,eInterpolationCubic
Z,3,0.0,eInterpolationCubic
Z,3*,0.0,eInterpolationCubic
Z,4,0.0,eInterpolationCubic
Z,4*,0.0,eInterpolationCubic
Z,5,0.0,eInterpolationCubic
Z,5*,0.0,eInterpolationCubic
Z,6,0.0,eInterpolationCubic
Z,6*,0.0,eInterpolationCubic
Z,7,0.0,eInterpolationCubic
Z,7*,0.0,eInterpolationCubic
Z,8,0.0,eInterpolationCubic
Z,8*,0.0,eInterpolationCubic
Z,9,0.0,eInterpolationCubic
Z,9*,0.0,eInterpolationCubic
Z,10,0.0,eInterpolationCubic
Z,10*,0.0,eInterpolationCubic
Z,11,0.0,eInterpolationCubic
Z,11*,0.0,eInterpolationCubic
Z,12,0.0,eInterpolationCubic
Z,12*,0.0,eInterpolationCubic
Z,13,0.0,eInterpolationCubic
Z,13*,0.0,eInterpolationCubic
Z,14,0.0,eInterpolationCubic
Z,14*,0.0,eInterpolationCubic
Z,15,0.0,eInterpolationCubic
Z,15*,0.0,eInterpolationCubic
Z,16,0.0,eInterpolationCubic
Z,16*,0.0,eInterpolationCubic
Z,17,0.0,eInterpolationCubic
Z,17*,0.0,eInterpolationCubic
Z,18,0.0,eInterpolationCubic
Z,18*,0.0,eInterpolationCubic
Z,19,0.0,eInterpolationCubic
Z,19*,0.0,eInterpolationCubic
Z,20,0.0,eInterpolationCubic
Z,20*,0.0,eInterpolationCubic
Z,21,0.0,eInterpolationCubic
Z,21*,0.0,eInterpolationCubic
Z,22,0.0,eInterpolationCubic
Z,22*,0.0,eInterpolationCubic
Z,23,0.0,eInterpolationCubic
Z,23*,0.0,eInterpolationCubic
Z,24,0.0,eInterpolationCubic
Z,24*,0.0,eInterpolationCubic
Z,25,0.0,eInterpolationCubic
Z,25*,0.0,eInterpolationCubic
Z,26,0.0,eInterpolationCubic
Z,26*,0.0,eInterpolationCubic
Z,27,0.0,eInterpolationCubic
Z,27*,0.0,eInterpolationCubic
Z,28,0.0,eInterpolationCubic
Z,28*,0.0,eInterpolationCubic
Z,29,0.0,eInterpolationCubic
Z,29*,0.0,eInterpolationCubic
Z,30,0.0,eInterpolationCubic
Z,30*,0.0,eInterpolationCubic
Z,31,0.0,eInterpolationCubic
Z,31*,0.0,eInterpolationCubic
Z,32,0.0,eInterpolationCubic
Z,32*,0.0,eInterpolationCubic
Z,33,0.0,eInterpolationCubic
Z,33*,0.0,eInterpolationCubic
Z,34,0.0,eInterpolationCubic
Z,34*,0.0,eInterpolationCubic
Z,35,0.0,eInterpolationCubic
Z,35*,0.0,eInterpolationCubic
Z,36,0.0,eInterpolationCubic
Z,36*,0.0,eInterpolationCubic
Z,37,0.0,eInterpolationCubic
Z,37*,0.0,eInterpolationCubic
Z,38,0.0,eInterpolationCubic
Z,38*,0.0,eInterpolationCubic
Z,39,0.0,eInterpolationCubic
Z,39*,0.0,eInterpolationCubic
Z,40,0.0,eInterpolationCubic
Z,40*,0.0,eInterpolationCubic
Z,41,0.0,eInterpolationCubic
Z,41*,0.0,eInterpolationCubic
Z,42,0.0,eInterpolationCubic
Z,42*,0.0,eInterpolationCubic
Z,43,0.0,eInterpolationCubic
Z,43*,0.0,eInterpolationCubic
Z,44,0.0,eInterpolationCubic
Z,44*,0.0,eInterpolationCubic
Z,45,0.0,eInterpolationCubic
Z,45*,0.0,eInterpolationCubic
Z,46,0.0,eInterpolationCubic
Z,46*,0.0,eInterpolationCubic
Z,47,0.0,eInterpolationCubic
Z,47*,0.0,eInterpolationCubic
Z,48,0.0,eInterpolationCubic
Z,48*,0.0,eInterpolationCubic
Z,49,0.0,eInterpolationCubic
Z,49*,0.0,eInterpolationCubic
Z,50,0.0,eInterpolationCubic
Z,50*,0.0,eInterpolationCubic
Z,51,0.0,eInterpolationCubic
Z,51*,0.0,eInterpolationCubic
Z,52,0.0,eInterpolationCubic
Z,52*,0.0,eInterpolationCubic
Z,53,0.0,eInterpolationCubic
Z,53*,0.0,eInterpolationCubic
Z,54,0.0,eInterpolationCubic
Z,54*,0.0,eInterpolationCubic
Z,55,0.0,eInterpolationCubic
Z,55*,0.0,eInterpolationCubic
Z,56,0.0,eInterpolationCubic
Z,56*,0.0,eInterpolationCubic
Z,57,0.0,eInterpolationCubic
Z,57*,0.0,eInterpolationCubic
Z,58,0.0,eInterpolationCubic
Z,58*,0.0,eInterpolationCubic
Z,59,0.0,eInterpolationCubic
Z,59*,0.0,eInterpolationCubic
Z,60,0.0,eInterpolationCubic
Z,60*,0.0,eInterpolationCubic
Z,61,0.0,eInterpolationCubic
Z,61*,0.0,eInterpolationCubic
Z,62,0.0,eInterpolationCubic
Z,62*,0.0,eInterpolationCubic
Z,63,0.0,eInterpolationCubic
Z,63*,0.0,eInterpolationCubic
Z,64,0.0,eInterpolationCubic
Z,64*,0.0,eInterpolationCubic
Z,65,0.0,eInterpolationCubic
Z,65*,0.0,eInterpolationCubic
Z,66,0.0,eInterpolationCubic
Z,66*,0.0,eInterpolationCubic
Z,67,0.0,eInterpolationCubic
Z,67*,0.0,eInterpolationCubic
Z,68,0.0,eInterpolationCubic
Z,68*,0.0,eInterpolationCubic
Z,69,0.0,eInterpolationCubic
Z,69*,0.0,eInterpolationCubic
Z,70,0.0,eInterpolationCubic
Z,70*,0.0,eInterpolationCubic
Z,71,0.0,eInterpolationCubic
Z,71*,0.0,eInterpolationCubic
Z,72,0.0,eInterpolationCubic
Z,72*,0.0,eInterpolationCubic
Z,73,0.0,eInterpolationCubic
Z,73*,0.0,eInterpolationCubic
Z,74,0.0,eInterpolationCubic
Z,74*,0.0,eInterpolationCubic
Z,75,0.0,eInterpolationCubic
Z,75*,0.0,eInterpolationCubic
Z,76,0.0,eInterpolationCubic
Z,76*,0.0,eInterpolationCubic
Z,77,0.0,eInterpolationCubic
Z,77*,0.0,eInterpolationCubic
Z,78,0.0,eInterpolationCubic
Z,78*,0.0,eInterpolationCubic
Z,79,0.0,eInterpolationCubic
Z,79*,0.0,eInterpolationCubic
Z,80,0.0,eInterpolationCubic
Z,80*,0.0,eInterpolationCubic
Z,81,0.0,eInterpolationCubic
Z,81*,0.0,eInterpolationCubic
Z,82,0.0,eInterpolationCubic
Z,82*,0.0,eInterpolationCubic
Z,83,0.0,eInterpolationCubic
Z,83*,0.0,eInterpolationCubic
Z,84,0.0,eInterpolationCubic
Z,84*,0.0,eInterpolationCubic
Z,85,0.0,eInterpolationCubic
Z,85*,0.0,eInterpolationConstant
