Axis,KeyFrame,Value,InterpolationType
X,0,0.0,eInterpolationCubic
X,0*,-7.624609470367432,eInterpolationCubic
X,1,-16.69743537902832,eInterpolationCubic
X,1*,-27.02135467529297,eInterpolationCubic
X,2,-38.39924240112305,eInterpolationCubic
X,2*,-50.633975982666016,eInterpolationCubic
X,3,-63.52842712402344,eInterpolationCubic
X,3*,-76.8854751586914,eInterpolationCubic
X,4,-90.50799560546875,eInterpolationCubic
X,4*,-104.19886016845703,eInterpolationCubic
X,5,-117.76094818115234,eInterpolationCubic
X,5*,-130.99713134765625,eInterpolationCubic
X,6,-143.7102813720703,eInterpolationCubic
X,6*,-155.7032928466797,eInterpolationCubic
X,7,-166.77902221679688,eInterpolationCubic
X,7*,-176.74037170410156,eInterpolationCubic
X,8,-185.39016723632812,eInterpolationCubic
X,8*,-192.53134155273438,eInterpolationCubic
X,9,-197.96673583984375,eInterpolationCubic
X,9*,-201.4992218017578,eInterpolationCubic
X,10,-202.9316864013672,eInterpolationCubic
X,10*,-203.2406005859375,eInterpolationCubic
X,11,-203.5340576171875,eInterpolationCubic
X,11*,-203.8124542236328,eInterpolationCubic
X,12,-204.0762176513672,eInterpolationCubic
X,12*,-204.32574462890625,eInterpolationCubic
X,13,-204.56138610839844,eInterpolationCubic
X,13*,-204.78358459472656,eInterpolationCubic
X,14,-204.99270629882812,eInterpolationCubic
X,14*,-205.18914794921875,eInterpolationCubic
X,15,-205.3733367919922,eInterpolationCubic
X,15*,-205.54563903808594,eInterpolationCubic
X,16,-205.70645141601562,eInterpolationCubic
X,16*,-205.85618591308594,eInterpolationCubic
X,17,-205.99522399902344,eInterpolationCubic
X,17*,-206.1239776611328,eInterpolationCubic
X,18,-206.24281311035156,eInterpolationCubic
X,18*,-206.35215759277344,eInterpolationCubic
X,19,-206.45240783691406,eInterpolationCubic
X,19*,-206.54393005371094,eInterpolationCubic
X,20,-206.6271514892578,eInterpolationCubic
X,20*,-206.7024383544922,eInterpolationCubic
X,21,-206.77020263671875,eInterpolationCubic
X,21*,-206.8308563232422,eInterpolationCubic
X,22,-206.88478088378906,eInterpolationCubic
X,22*,-206.93235778808594,eInterpolationCubic
X,23,-206.9739990234375,eInterpolationCubic
X,23*,-207.0100860595703,eInterpolationCubic
X,24,-207.04103088378906,eInterpolationCubic
X,24*,-207.06723022460938,eInterpolationCubic
X,25,-207.0890655517578,eInterpolationCubic
X,25*,-207.10696411132812,eInterpolationCubic
X,26,-207.1212921142578,eInterpolationCubic
X,26*,-207.13243103027344,eInterpolationCubic
X,27,-207.14080810546875,eInterpolationCubic
X,27*,-207.14682006835938,eInterpolationCubic
X,28,-207.1508331298828,eInterpolationCubic
X,28*,-207.15328979492188,eInterpolationCubic
X,29,-207.154541015625,eInterpolationCubic
X,29*,-207.15499877929688,eInterpolationCubic
X,30,-207.15499877929688,eInterpolationCubic
X,30*,-207.15499877929688,eInterpolationConstant
Y,0,-0.0,eInterpolationCubic
Y,0*,-0.0,eInterpolationCubic
Y,1,-0.0,eInterpolationCubic
Y,1*,-0.0,eInterpolationCubic
Y,2,-0.0,eInterpolationCubic
Y,2*,-0.0,eInterpolationCubic
Y,3,-0.0,eInterpolationCubic
Y,3*,-0.0,eInterpolationCubic
Y,4,-0.0,eInterpolationCubic
Y,4*,-0.0,eInterpolationCubic
Y,5,-0.0,eInterpolationCubic
Y,5*,-0.0,eInterpolationCubic
Y,6,-0.0,eInterpolationCubic
Y,6*,-0.0,eInterpolationCubic
Y,7,-0.0,eInterpolationCubic
Y,7*,-0.0,eInterpolationCubic
Y,8,-0.0,eInterpolationCubic
Y,8*,-0.0,eInterpolationCubic
Y,9,-0.0,eInterpolationCubic
Y,9*,-0.0,eInterpolationCubic
Y,10,-0.0,eInterpolationCubic
Y,10*,-0.0,eInterpolationCubic
Y,11,-0.0,eInterpolationCubic
Y,11*,-0.0,eInterpolationCubic
Y,12,-0.0,eInterpolationCubic
Y,12*,-0.0,eInterpolationCubic
Y,13,-0.0,eInterpolationCubic
Y,13*,-0.0,eInterpolationCubic
Y,14,-0.0,eInterpolationCubic
Y,14*,-0.0,eInterpolationCubic
Y,15,-0.0,eInterpolationCubic
Y,15*,-0.0,eInterpolationCubic
Y,16,-0.0,eInterpolationCubic
Y,16*,-0.0,eInterpolationCubic
Y,17,-0.0,eInterpolationCubic
Y,17*,-0.0,eInterpolationCubic
Y,18,-0.0,eInterpolationCubic
Y,18*,-0.0,eInterpolationCubic
Y,19,-0.0,eInterpolationCubic
Y,19*,-0.0,eInterpolationCubic
Y,20,-0.0,eInterpolationCubic
Y,20*,-0.0,eInterpolationCubic
Y,21,-0.0,eInterpolationCubic
Y,21*,-0.0,eInterpolationCubic
Y,22,-0.0,eInterpolationCubic
Y,22*,-0.0,eInterpolationCubic
Y,23,-0.0,eInterpolationCubic
Y,23*,-0.0,eInterpolationCubic
Y,24,-0.0,eInterpolationCubic
Y,24*,-0.0,eInterpolationCubic
Y,25,-0.0,eInterpolationCubic
Y,25*,-0.0,eInterpolationCubic
Y,26,-0.0,eInterpolationCubic
Y,26*,-0.0,eInterpolationCubic
Y,27,-0.0,eInterpolationCubic
Y,27*,-0.0,eInterpolationCubic
Y,28,-0.0,eInterpolationCubic
Y,28*,-0.0,eInterpolationCubic
Y,29,-0.0,eInterpolationCubic
Y,29*,-0.0,eInterpolationCubic
Y,30,-0.0,eInterpolationCubic
Y,30*,-0.0,eInterpolationConstant
Z,0,0.0,eInterpolationCubic
Z,0*,0.0,eInterpolationCubic
Z,1,0.0,eInterpolationCubic
Z,1*,0.0,eInterpolationCubic
Z,2,0.0,eInterpolationCubic
Z,2*,0.0,eInterpolationCubic
Z,3,0.0,eInterpolationCubic
Z,3*,0.0,eInterpolationCubic
Z,4,0.0,eInterpolationCubic
Z,4*,0.0,eInterpolationCubic
Z,5,0.0,eInterpolationCubic
Z,5*,0.0,eInterpolationCubic
Z,6,0.0,eInterpolationCubic
Z,6*,0.0,eInterpolationCubic
Z,7,0.0,eInterpolationCubic
Z,7*,0.0,eInterpolationCubic
Z,8,0.0,eInterpolationCubic
Z,8*,0.0,eInterpolationCubic
Z,9,0.0,eInterpolationCubic
Z,9*,0.0,eInterpolationCubic
Z,10,0.0,eInterpolationCubic
Z,10*,0.0,eInterpolationCubic
Z,11,0.0,eInterpolationCubic
Z,11*,0.0,eInterpolationCubic
Z,12,0.0,eInterpolationCubic
Z,12*,0.0,eInterpolationCubic
Z,13,0.0,eInterpolationCubic
Z,13*,0.0,eInterpolationCubic
Z,14,0.0,eInterpolationCubic
Z,14*,0.0,eInterpolationCubic
Z,15,0.0,eInterpolationCubic
Z,15*,0.0,eInterpolationCubic
Z,16,0.0,eInterpolationCubic
Z,16*,0.0,eInterpolationCubic
Z,17,0.0,eInterpolationCubic
Z,17*,0.0,eInterpolationCubic
Z,18,0.0,eInterpolationCubic
Z,18*,0.0,eInterpolationCubic
Z,19,0.0,eInterpolationCubic
Z,19*,0.0,eInterpolationCubic
Z,20,0.0,eInterpolationCubic
Z,20*,0.0,eInterpolationCubic
Z,21,0.0,eInterpolationCubic
Z,21*,0.0,eInterpolationCubic
Z,22,0.0,eInterpolationCubic
Z,22*,0.0,eInterpolationCubic
Z,23,0.0,eInterpolationCubic
Z,23*,0.0,eInterpolationCubic
Z,24,0.0,eInterpolationCubic
Z,24*,0.0,eInterpolationCubic
Z,25,0.0,eInterpolationCubic
Z,25*,0.0,eInterpolationCubic
Z,26,0.0,eInterpolationCubic
Z,26*,0.0,eInterpolationCubic
Z,27,0.0,eInterpolationCubic
Z,27*,0.0,eInterpolationCubic
Z,28,0.0,eInterpolationCubic
Z,28*,0.0,eInterpolationCubic
Z,29,0.0,eInterpolationCubic
Z,29*,0.0,eInterpolationCubic
Z,30,0.0,eInterpolationCubic
Z,30*,0.0,eInterpolationConstant
