Axis,KeyFrame,Value,InterpolationType
X,0,0.0,eInterpolationCubic
X,0*,0.0,eInterpolationCubic
X,1,0.0,eInterpolationCubic
X,1*,0.0,eInterpolationCubic
X,2,0.0,eInterpolationCubic
X,2*,0.0,eInterpolationCubic
X,3,0.0,eInterpolationCubic
X,3*,0.0,eInterpolationCubic
X,4,0.0,eInterpolationCubic
X,4*,0.0,eInterpolationCubic
X,5,0.0,eInterpolationCubic
X,5*,0.0,eInterpolationCubic
X,6,0.0,eInterpolationCubic
X,6*,0.0,eInterpolationCubic
X,7,0.0,eInterpolationCubic
X,7*,0.0,eInterpolationCubic
X,8,0.0,eInterpolationCubic
X,8*,0.0,eInterpolationCubic
X,9,0.0,eInterpolationCubic
X,9*,0.0,eInterpolationCubic
X,10,0.0,eInterpolationCubic
X,10*,0.0,eInterpolationCubic
X,11,0.0,eInterpolationCubic
X,11*,0.0,eInterpolationCubic
X,12,0.0,eInterpolationCubic
X,12*,0.0,eInterpolationCubic
X,13,0.0,eInterpolationCubic
X,13*,0.0,eInterpolationCubic
X,14,0.0,eInterpolationCubic
X,14*,0.0,eInterpolationCubic
X,15,0.0,eInterpolationCubic
X,15*,0.0,eInterpolationCubic
X,16,0.0,eInterpolationCubic
X,16*,0.0,eInterpolationCubic
X,17,0.0,eInterpolationCubic
X,17*,0.0,eInterpolationCubic
X,18,0.0,eInterpolationCubic
X,18*,0.0,eInterpolationCubic
X,19,0.0,eInterpolationCubic
X,19*,0.0,eInterpolationCubic
X,20,0.0,eInterpolationCubic
X,20*,0.0,eInterpolationCubic
X,21,0.0,eInterpolationCubic
X,21*,0.0,eInterpolationCubic
X,22,0.0,eInterpolationCubic
X,22*,0.0,eInterpolationCubic
X,23,0.0,eInterpolationCubic
X,23*,0.0,eInterpolationCubic
X,24,0.0,eInterpolationCubic
X,24*,0.0,eInterpolationCubic
X,25,0.0,eInterpolationCubic
X,25*,0.0,eInterpolationCubic
X,26,0.0,eInterpolationCubic
X,26*,0.0,eInterpolationCubic
X,27,0.0,eInterpolationCubic
X,27*,0.0,eInterpolationCubic
X,28,0.0,eInterpolationCubic
X,28*,0.0,eInterpolationCubic
X,29,0.0,eInterpolationCubic
X,29*,0.0,eInterpolationCubic
X,30,0.0,eInterpolationCubic
X,30*,0.0,eInterpolationCubic
X,31,0.0,eInterpolationCubic
X,31*,0.0,eInterpolationCubic
X,32,0.0,eInterpolationCubic
X,32*,0.0,eInterpolationCubic
X,33,0.0,eInterpolationCubic
X,33*,0.0,eInterpolationCubic
X,34,0.0,eInterpolationCubic
X,34*,0.0,eInterpolationCubic
X,35,0.0,eInterpolationCubic
X,35*,0.0,eInterpolationCubic
X,36,0.0,eInterpolationCubic
X,36*,0.0,eInterpolationCubic
X,37,0.0,eInterpolationCubic
X,37*,0.0,eInterpolationCubic
X,38,0.0,eInterpolationCubic
X,38*,0.0,eInterpolationCubic
X,39,0.0,eInterpolationCubic
X,39*,0.0,eInterpolationCubic
X,40,0.0,eInterpolationCubic
X,40*,0.0,eInterpolationCubic
X,41,0.0,eInterpolationCubic
X,41*,0.0,eInterpolationCubic
X,42,0.0,eInterpolationCubic
X,42*,0.0,eInterpolationCubic
X,43,0.0,eInterpolationCubic
X,43*,0.0,eInterpolationCubic
X,44,0.0,eInterpolationCubic
X,44*,0.0,eInterpolationCubic
X,45,0.0,eInterpolationCubic
X,45*,0.0,eInterpolationCubic
X,46,0.0,eInterpolationCubic
X,46*,0.0,eInterpolationCubic
X,47,0.0,eInterpolationCubic
X,47*,0.0,eInterpolationCubic
X,48,0.0,eInterpolationCubic
X,48*,0.0,eInterpolationCubic
X,49,0.0,eInterpolationCubic
X,49*,0.0,eInterpolationCubic
X,50,0.0,eInterpolationCubic
X,50*,0.0,eInterpolationConstant
Y,0,-0.0,eInterpolationCubic
Y,0*,-0.0,eInterpolationCubic
Y,1,-0.0,eInterpolationCubic
Y,1*,-0.0,eInterpolationCubic
Y,2,-0.0,eInterpolationCubic
Y,2*,-0.0,eInterpolationCubic
Y,3,-0.0,eInterpolationCubic
Y,3*,-0.0,eInterpolationCubic
Y,4,-0.0,eInterpolationCubic
Y,4*,-0.0,eInterpolationCubic
Y,5,-0.0,eInterpolationCubic
Y,5*,-0.0,eInterpolationCubic
Y,6,-0.0,eInterpolationCubic
Y,6*,-0.0,eInterpolationCubic
Y,7,-0.0,eInterpolationCubic
Y,7*,-0.0,eInterpolationCubic
Y,8,-0.0,eInterpolationCubic
Y,8*,-0.0,eInterpolationCubic
Y,9,-0.0,eInterpolationCubic
Y,9*,-0.0,eInterpolationCubic
Y,10,-0.0,eInterpolationCubic
Y,10*,-0.0,eInterpolationCubic
Y,11,-5.149744987487793,eInterpolationCubic
Y,11*,-18.748655319213867,eInterpolationCubic
Y,12,-38.021240234375,eInterpolationCubic
Y,12*,-60.192012786865234,eInterpolationCubic
Y,13,-82.48548126220703,eInterpolationCubic
Y,13*,-102.12616729736328,eInterpolationCubic
Y,14,-116.33856964111328,eInterpolationCubic
Y,14*,-122.34720611572266,eInterpolationCubic
Y,15,-123.31503295898438,eInterpolationCubic
Y,15*,-124.25560760498047,eInterpolationCubic
Y,16,-125.16930389404297,eInterpolationCubic
Y,16*,-126.05652618408203,eInterpolationCubic
Y,17,-126.91764068603516,eInterpolationCubic
Y,17*,-127.75306701660156,eInterpolationCubic
Y,18,-128.56317138671875,eInterpolationCubic
Y,18*,-129.34835815429688,eInterpolationCubic
Y,19,-130.10899353027344,eInterpolationCubic
Y,19*,-130.8455047607422,eInterpolationCubic
Y,20,-131.55825805664062,eInterpolationCubic
Y,20*,-132.2476348876953,eInterpolationCubic
Y,21,-132.91403198242188,eInterpolationCubic
Y,21*,-133.55784606933594,eInterpolationCubic
Y,22,-134.17945861816406,eInterpolationCubic
Y,22*,-134.77926635742188,eInterpolationCubic
Y,23,-135.35765075683594,eInterpolationCubic
Y,23*,-135.91500854492188,eInterpolationCubic
Y,24,-136.4517364501953,eInterpolationCubic
Y,24*,-136.96820068359375,eInterpolationCubic
Y,25,-137.46481323242188,eInterpolationCubic
Y,25*,-137.94192504882812,eInterpolationCubic
Y,26,-138.39999389648438,eInterpolationCubic
Y,26*,-138.83935546875,eInterpolationCubic
Y,27,-139.26039123535156,eInterpolationCubic
Y,27*,-139.66354370117188,eInterpolationCubic
Y,28,-140.0491485595703,eInterpolationCubic
Y,28*,-140.41763305664062,eInterpolationCubic
Y,29,-140.7693634033203,eInterpolationCubic
Y,29*,-141.104736328125,eInterpolationCubic
Y,30,-141.4241485595703,eInterpolationCubic
Y,30*,-141.72796630859375,eInterpolationCubic
Y,31,-142.01661682128906,eInterpolationCubic
Y,31*,-142.29046630859375,eInterpolationCubic
Y,32,-142.54989624023438,eInterpolationCubic
Y,32*,-142.79530334472656,eInterpolationCubic
Y,33,-143.02708435058594,eInterpolationCubic
Y,33*,-143.24563598632812,eInterpolationCubic
Y,34,-143.4513397216797,eInterpolationCubic
Y,34*,-143.64456176757812,eInterpolationCubic
Y,35,-143.82571411132812,eInterpolationCubic
Y,35*,-143.99517822265625,eInterpolationCubic
Y,36,-144.1533660888672,eInterpolationCubic
Y,36*,-144.30064392089844,eInterpolationCubic
Y,37,-144.43739318847656,eInterpolationCubic
Y,37*,-144.56402587890625,eInterpolationCubic
Y,38,-144.68092346191406,eInterpolationCubic
Y,38*,-144.78848266601562,eInterpolationCubic
Y,39,-144.8870849609375,eInterpolationCubic
Y,39*,-144.9770965576172,eInterpolationCubic
Y,40,-145.0589599609375,eInterpolationCubic
Y,40*,-145.1330108642578,eInterpolationCubic
Y,41,-145.1996612548828,eInterpolationCubic
Y,41*,-145.2593231201172,eInterpolationCubic
Y,42,-145.31234741210938,eInterpolationCubic
Y,42*,-145.35914611816406,eInterpolationCubic
Y,43,-145.4001007080078,eInterpolationCubic
Y,43*,-145.43560791015625,eInterpolationCubic
Y,44,-145.46604919433594,eInterpolationCubic
Y,44*,-145.4918212890625,eInterpolationCubic
Y,45,-145.51329040527344,eInterpolationCubic
Y,45*,-145.5308837890625,eInterpolationCubic
Y,46,-145.54498291015625,eInterpolationCubic
Y,46*,-145.55593872070312,eInterpolationCubic
Y,47,-145.56419372558594,eInterpolationCubic
Y,47*,-145.57008361816406,eInterpolationCubic
Y,48,-145.5740509033203,eInterpolationCubic
Y,48*,-145.5764617919922,eInterpolationCubic
Y,49,-145.5776824951172,eInterpolationCubic
Y,49*,-145.57815551757812,eInterpolationCubic
Y,50,-145.57815551757812,eInterpolationCubic
Y,50*,-145.57815551757812,eInterpolationConstant
Z,0,0.0,eInterpolationCubic
Z,0*,0.0,eInterpolationCubic
Z,1,0.0,eInterpolationCubic
Z,1*,0.0,eInterpolationCubic
Z,2,0.0,eInterpolationCubic
Z,2*,0.0,eInterpolationCubic
Z,3,0.0,eInterpolationCubic
Z,3*,0.0,eInterpolationCubic
Z,4,0.0,eInterpolationCubic
Z,4*,0.0,eInterpolationCubic
Z,5,0.0,eInterpolationCubic
Z,5*,0.0,eInterpolationCubic
Z,6,0.0,eInterpolationCubic
Z,6*,0.0,eInterpolationCubic
Z,7,0.0,eInterpolationCubic
Z,7*,0.0,eInterpolationCubic
Z,8,0.0,eInterpolationCubic
Z,8*,0.0,eInterpolationCubic
Z,9,0.0,eInterpolationCubic
Z,9*,0.0,eInterpolationCubic
Z,10,0.0,eInterpolationCubic
Z,10*,0.0,eInterpolationCubic
Z,11,0.0,eInterpolationCubic
Z,11*,0.0,eInterpolationCubic
Z,12,0.0,eInterpolationCubic
Z,12*,0.0,eInterpolationCubic
Z,13,0.0,eInterpolationCubic
Z,13*,0.0,eInterpolationCubic
Z,14,0.0,eInterpolationCubic
Z,14*,0.0,eInterpolationCubic
Z,15,0.0,eInterpolationCubic
Z,15*,0.0,eInterpolationCubic
Z,16,0.0,eInterpolationCubic
Z,16*,0.0,eInterpolationCubic
Z,17,0.0,eInterpolationCubic
Z,17*,0.0,eInterpolationCubic
Z,18,0.0,eInterpolationCubic
Z,18*,0.0,eInterpolationCubic
Z,19,0.0,eInterpolationCubic
Z,19*,0.0,eInterpolationCubic
Z,20,0.0,eInterpolationCubic
Z,20*,0.0,eInterpolationCubic
Z,21,0.0,eInterpolationCubic
Z,21*,0.0,eInterpolationCubic
Z,22,0.0,eInterpolationCubic
Z,22*,0.0,eInterpolationCubic
Z,23,0.0,eInterpolationCubic
Z,23*,0.0,eInterpolationCubic
Z,24,0.0,eInterpolationCubic
Z,24*,0.0,eInterpolationCubic
Z,25,0.0,eInterpolationCubic
Z,25*,0.0,eInterpolationCubic
Z,26,0.0,eInterpolationCubic
Z,26*,0.0,eInterpolationCubic
Z,27,0.0,eInterpolationCubic
Z,27*,0.0,eInterpolationCubic
Z,28,0.0,eInterpolationCubic
Z,28*,0.0,eInterpolationCubic
Z,29,0.0,eInterpolationCubic
Z,29*,0.0,eInterpolationCubic
Z,30,0.0,eInterpolationCubic
Z,30*,0.0,eInterpolationCubic
Z,31,0.0,eInterpolationCubic
Z,31*,0.0,eInterpolationCubic
Z,32,0.0,eInterpolationCubic
Z,32*,0.0,eInterpolationCubic
Z,33,0.0,eInterpolationCubic
Z,33*,0.0,eInterpolationCubic
Z,34,0.0,eInterpolationCubic
Z,34*,0.0,eInterpolationCubic
Z,35,0.0,eInterpolationCubic
Z,35*,0.0,eInterpolationCubic
Z,36,0.0,eInterpolationCubic
Z,36*,0.0,eInterpolationCubic
Z,37,0.0,eInterpolationCubic
Z,37*,0.0,eInterpolationCubic
Z,38,0.0,eInterpolationCubic
Z,38*,0.0,eInterpolationCubic
Z,39,0.0,eInterpolationCubic
Z,39*,0.0,eInterpolationCubic
Z,40,0.0,eInterpolationCubic
Z,40*,0.0,eInterpolationCubic
Z,41,0.0,eInterpolationCubic
Z,41*,0.0,eInterpolationCubic
Z,42,0.0,eInterpolationCubic
Z,42*,0.0,eInterpolationCubic
Z,43,0.0,eInterpolationCubic
Z,43*,0.0,eInterpolationCubic
Z,44,0.0,eInterpolationCubic
Z,44*,0.0,eInterpolationCubic
Z,45,0.0,eInterpolationCubic
Z,45*,0.0,eInterpolationCubic
Z,46,0.0,eInterpolationCubic
Z,46*,0.0,eInterpolationCubic
Z,47,0.0,eInterpolationCubic
Z,47*,0.0,eInterpolationCubic
Z,48,0.0,eInterpolationCubic
Z,48*,0.0,eInterpolationCubic
Z,49,0.0,eInterpolationCubic
Z,49*,0.0,eInterpolationCubic
Z,50,0.0,eInterpolationCubic
Z,50*,0.0,eInterpolationConstant
