Axis,KeyFrame,Value,InterpolationType
X,0,0.0,eInterpolationCubic
X,0*,0.0,eInterpolationCubic
X,1,0.0,eInterpolationCubic
X,1*,0.0,eInterpolationCubic
X,2,0.0,eInterpolationCubic
X,2*,0.0,eInterpolationCubic
X,3,0.0,eInterpolationCubic
X,3*,0.0,eInterpolationCubic
X,4,0.0,eInterpolationCubic
X,4*,0.0,eInterpolationCubic
X,5,0.0,eInterpolationCubic
X,5*,0.0,eInterpolationCubic
X,6,0.0,eInterpolationCubic
X,6*,0.0,eInterpolationCubic
X,7,0.0,eInterpolationCubic
X,7*,0.0,eInterpolationCubic
X,8,0.0,eInterpolationCubic
X,8*,0.0,eInterpolationCubic
X,9,0.0,eInterpolationCubic
X,9*,0.0,eInterpolationCubic
X,10,0.0,eInterpolationCubic
X,10*,0.0,eInterpolationCubic
X,11,0.0,eInterpolationCubic
X,11*,0.0,eInterpolationCubic
X,12,0.0,eInterpolationCubic
X,12*,0.0,eInterpolationCubic
X,13,0.0,eInterpolationCubic
X,13*,0.0,eInterpolationCubic
X,14,0.0,eInterpolationCubic
X,14*,0.0,eInterpolationCubic
X,15,0.0,eInterpolationCubic
X,15*,0.0,eInterpolationCubic
X,16,0.0,eInterpolationCubic
X,16*,0.0,eInterpolationCubic
X,17,0.0,eInterpolationCubic
X,17*,0.0,eInterpolationCubic
X,18,0.0,eInterpolationCubic
X,18*,0.0,eInterpolationCubic
X,19,0.0,eInterpolationCubic
X,19*,0.0,eInterpolationCubic
X,20,0.0,eInterpolationCubic
X,20*,0.0,eInterpolationCubic
X,21,0.0,eInterpolationCubic
X,21*,0.0,eInterpolationCubic
X,22,0.0,eInterpolationCubic
X,22*,0.0,eInterpolationCubic
X,23,0.0,eInterpolationCubic
X,23*,0.0,eInterpolationCubic
X,24,0.0,eInterpolationCubic
X,24*,0.0,eInterpolationCubic
X,25,0.0,eInterpolationCubic
X,25*,0.0,eInterpolationCubic
X,26,0.0,eInterpolationCubic
X,26*,0.0,eInterpolationCubic
X,27,0.0,eInterpolationCubic
X,27*,0.0,eInterpolationCubic
X,28,0.0,eInterpolationCubic
X,28*,0.0,eInterpolationCubic
X,29,0.0,eInterpolationCubic
X,29*,0.0,eInterpolationCubic
X,30,0.0,eInterpolationCubic
X,30*,0.0,eInterpolationConstant
Y,0,-0.0,eInterpolationCubic
Y,0*,-4.325239181518555,eInterpolationCubic
Y,1,-9.205766677856445,eInterpolationCubic
Y,1*,-14.403603553771973,eInterpolationCubic
Y,2,-19.680767059326172,eInterpolationCubic
Y,2*,-24.79927635192871,eInterpolationCubic
Y,3,-29.521150588989258,eInterpolationCubic
Y,3*,-33.6084098815918,eInterpolationCubic
Y,4,-36.82306671142578,eInterpolationCubic
Y,4*,-38.92715072631836,eInterpolationCubic
Y,5,-39.68267059326172,eInterpolationCubic
Y,5*,-39.68454360961914,eInterpolationCubic
Y,6,-39.686344146728516,eInterpolationCubic
Y,6*,-39.688072204589844,eInterpolationCubic
Y,7,-39.689727783203125,eInterpolationCubic
Y,7*,-39.691314697265625,eInterpolationCubic
Y,8,-39.69282913208008,eInterpolationCubic
Y,8*,-39.694278717041016,eInterpolationCubic
Y,9,-39.695655822753906,eInterpolationCubic
Y,9*,-39.69697570800781,eInterpolationCubic
Y,10,-39.6982307434082,eInterpolationCubic
Y,10*,-39.69942855834961,eInterpolationCubic
Y,11,-39.7005615234375,eInterpolationCubic
Y,11*,-39.70163345336914,eInterpolationCubic
Y,12,-39.70265579223633,eInterpolationCubic
Y,12*,-39.70362091064453,eInterpolationCubic
Y,13,-39.704532623291016,eInterpolationCubic
Y,13*,-39.70539093017578,eInterpolationCubic
Y,14,-39.706199645996094,eInterpolationCubic
Y,14*,-39.70695877075195,eInterpolationCubic
Y,15,-39.70766830444336,eInterpolationCubic
Y,15*,-39.708335876464844,eInterpolationCubic
Y,16,-39.70895767211914,eInterpolationCubic
Y,16*,-39.709537506103516,eInterpolationCubic
Y,17,-39.71007537841797,eInterpolationCubic
Y,17*,-39.710575103759766,eInterpolationCubic
Y,18,-39.71103286743164,eInterpolationCubic
Y,18*,-39.711456298828125,eInterpolationCubic
Y,19,-39.71184539794922,eInterpolationCubic
Y,19*,-39.712196350097656,eInterpolationCubic
Y,20,-39.71251678466797,eInterpolationCubic
Y,20*,-39.712806701660156,eInterpolationCubic
Y,21,-39.713069915771484,eInterpolationCubic
Y,21*,-39.71330642700195,eInterpolationCubic
Y,22,-39.71351623535156,eInterpolationCubic
Y,22*,-39.71369552612305,eInterpolationCubic
Y,23,-39.71385955810547,eInterpolationCubic
Y,23*,-39.7140007019043,eInterpolationCubic
Y,24,-39.714115142822266,eInterpolationCubic
Y,24*,-39.71421813964844,eInterpolationCubic
Y,25,-39.71421813964844,eInterpolationCubic
Y,25*,-39.71437454223633,eInterpolationCubic
Y,26,-39.71437454223633,eInterpolationCubic
Y,26*,-39.71437454223633,eInterpolationCubic
Y,27,-39.714500427246094,eInterpolationCubic
Y,27*,-39.714500427246094,eInterpolationCubic
Y,28,-39.714500427246094,eInterpolationCubic
Y,28*,-39.714500427246094,eInterpolationCubic
Y,29,-39.714500427246094,eInterpolationCubic
Y,29*,-39.714500427246094,eInterpolationCubic
Y,30,-39.714500427246094,eInterpolationCubic
Y,30*,-39.714500427246094,eInterpolationConstant
Z,0,0.0,eInterpolationCubic
Z,0*,0.0,eInterpolationCubic
Z,1,0.0,eInterpolationCubic
Z,1*,0.0,eInterpolationCubic
Z,2,0.0,eInterpolationCubic
Z,2*,0.0,eInterpolationCubic
Z,3,0.0,eInterpolationCubic
Z,3*,0.0,eInterpolationCubic
Z,4,0.0,eInterpolationCubic
Z,4*,0.0,eInterpolationCubic
Z,5,0.0,eInterpolationCubic
Z,5*,0.0,eInterpolationCubic
Z,6,0.0,eInterpolationCubic
Z,6*,0.0,eInterpolationCubic
Z,7,0.0,eInterpolationCubic
Z,7*,0.0,eInterpolationCubic
Z,8,0.0,eInterpolationCubic
Z,8*,0.0,eInterpolationCubic
Z,9,0.0,eInterpolationCubic
Z,9*,0.0,eInterpolationCubic
Z,10,0.0,eInterpolationCubic
Z,10*,0.0,eInterpolationCubic
Z,11,0.0,eInterpolationCubic
Z,11*,0.0,eInterpolationCubic
Z,12,0.0,eInterpolationCubic
Z,12*,0.0,eInterpolationCubic
Z,13,0.0,eInterpolationCubic
Z,13*,0.0,eInterpolationCubic
Z,14,0.0,eInterpolationCubic
Z,14*,0.0,eInterpolationCubic
Z,15,0.0,eInterpolationCubic
Z,15*,0.0,eInterpolationCubic
Z,16,0.0,eInterpolationCubic
Z,16*,0.0,eInterpolationCubic
Z,17,0.0,eInterpolationCubic
Z,17*,0.0,eInterpolationCubic
Z,18,0.0,eInterpolationCubic
Z,18*,0.0,eInterpolationCubic
Z,19,0.0,eInterpolationCubic
Z,19*,0.0,eInterpolationCubic
Z,20,0.0,eInterpolationCubic
Z,20*,0.0,eInterpolationCubic
Z,21,0.0,eInterpolationCubic
Z,21*,0.0,eInterpolationCubic
Z,22,0.0,eInterpolationCubic
Z,22*,0.0,eInterpolationCubic
Z,23,0.0,eInterpolationCubic
Z,23*,0.0,eInterpolationCubic
Z,24,0.0,eInterpolationCubic
Z,24*,0.0,eInterpolationCubic
Z,25,0.0,eInterpolationCubic
Z,25*,0.0,eInterpolationCubic
Z,26,0.0,eInterpolationCubic
Z,26*,0.0,eInterpolationCubic
Z,27,0.0,eInterpolationCubic
Z,27*,0.0,eInterpolationCubic
Z,28,0.0,eInterpolationCubic
Z,28*,0.0,eInterpolationCubic
Z,29,0.0,eInterpolationCubic
Z,29*,0.0,eInterpolationCubic
Z,30,0.0,eInterpolationCubic
Z,30*,0.0,eInterpolationConstant
