Axis,KeyFrame,Value,InterpolationType
X,0,0.0,eInterpolationCubic
X,0*,0.0,eInterpolationCubic
X,1,0.0,eInterpolationCubic
X,1*,0.0,eInterpolationCubic
X,2,0.0,eInterpolationCubic
X,2*,0.0,eInterpolationCubic
X,3,0.0,eInterpolationCubic
X,3*,0.0,eInterpolationCubic
X,4,0.0,eInterpolationCubic
X,4*,0.0,eInterpolationCubic
X,5,0.0,eInterpolationCubic
X,5*,0.0,eInterpolationCubic
X,6,0.0,eInterpolationCubic
X,6*,0.0,eInterpolationCubic
X,7,0.0,eInterpolationCubic
X,7*,0.0,eInterpolationCubic
X,8,0.0,eInterpolationCubic
X,8*,0.0,eInterpolationCubic
X,9,0.0,eInterpolationCubic
X,9*,0.0,eInterpolationCubic
X,10,0.0,eInterpolationCubic
X,10*,0.0,eInterpolationCubic
X,11,0.0,eInterpolationCubic
X,11*,0.0,eInterpolationCubic
X,12,0.0,eInterpolationCubic
X,12*,0.0,eInterpolationCubic
X,13,0.0,eInterpolationCubic
X,13*,0.0,eInterpolationCubic
X,14,0.0,eInterpolationCubic
X,14*,0.0,eInterpolationCubic
X,15,0.0,eInterpolationCubic
X,15*,0.0,eInterpolationCubic
X,16,0.0,eInterpolationCubic
X,16*,0.0,eInterpolationCubic
X,17,0.0,eInterpolationCubic
X,17*,0.0,eInterpolationCubic
X,18,0.0,eInterpolationCubic
X,18*,0.0,eInterpolationCubic
X,19,0.0,eInterpolationCubic
X,19*,0.0,eInterpolationCubic
X,20,0.0,eInterpolationCubic
X,20*,0.0,eInterpolationCubic
X,21,0.0,eInterpolationCubic
X,21*,0.0,eInterpolationCubic
X,22,0.0,eInterpolationCubic
X,22*,0.0,eInterpolationCubic
X,23,0.0,eInterpolationCubic
X,23*,0.0,eInterpolationCubic
X,24,0.0,eInterpolationCubic
X,24*,0.0,eInterpolationCubic
X,25,0.0,eInterpolationCubic
X,25*,0.0,eInterpolationCubic
X,26,0.0,eInterpolationCubic
X,26*,0.0,eInterpolationCubic
X,27,0.0,eInterpolationCubic
X,27*,0.0,eInterpolationCubic
X,28,0.0,eInterpolationCubic
X,28*,0.0,eInterpolationCubic
X,29,0.0,eInterpolationCubic
X,29*,0.0,eInterpolationCubic
X,30,0.0,eInterpolationCubic
X,30*,0.0,eInterpolationConstant
Y,0,-0.0,eInterpolationCubic
Y,0*,10.615676879882812,eInterpolationCubic
Y,1,21.231353759765625,eInterpolationCubic
Y,1*,30.888452529907227,eInterpolationCubic
Y,2,39.784507751464844,eInterpolationCubic
Y,2*,48.6722412109375,eInterpolationCubic
Y,3,57.42584228515625,eInterpolationCubic
Y,3*,65.91951751708984,eInterpolationCubic
Y,4,74.02743530273438,eInterpolationCubic
Y,4*,81.62381744384766,eInterpolationCubic
Y,5,88.58283233642578,eInterpolationCubic
Y,5*,94.93419647216797,eInterpolationCubic
Y,6,100.79962158203125,eInterpolationCubic
Y,6*,106.19135284423828,eInterpolationCubic
Y,7,111.12163543701172,eInterpolationCubic
Y,7*,115.60270690917969,eInterpolationCubic
Y,8,119.64681243896484,eInterpolationCubic
Y,8*,123.26618957519531,eInterpolationCubic
Y,9,126.06832122802734,eInterpolationCubic
Y,9*,127.9114761352539,eInterpolationCubic
Y,10,129.18409729003906,eInterpolationCubic
Y,10*,130.27464294433594,eInterpolationCubic
Y,11,131.57154846191406,eInterpolationCubic
Y,11*,133.46327209472656,eInterpolationCubic
Y,12,136.3382568359375,eInterpolationCubic
Y,12*,141.67227172851562,eInterpolationCubic
Y,13,149.1815948486328,eInterpolationCubic
Y,13*,156.6155242919922,eInterpolationCubic
Y,14,161.72332763671875,eInterpolationCubic
Y,14*,164.913818359375,eInterpolationCubic
Y,15,168.0658416748047,eInterpolationCubic
Y,15*,171.13389587402344,eInterpolationCubic
Y,16,174.07240295410156,eInterpolationCubic
Y,16*,176.83583068847656,eInterpolationCubic
Y,17,179.3785858154297,eInterpolationCubic
Y,17*,181.65513610839844,eInterpolationCubic
Y,18,183.6199188232422,eInterpolationCubic
Y,18*,185.22738647460938,eInterpolationCubic
Y,19,186.43197631835938,eInterpolationCubic
Y,19*,187.18814086914062,eInterpolationCubic
Y,20,187.4503173828125,eInterpolationCubic
Y,20*,187.44204711914062,eInterpolationCubic
Y,21,187.4223175048828,eInterpolationCubic
Y,21*,187.39877319335938,eInterpolationCubic
Y,22,187.37904357910156,eInterpolationCubic
Y,22*,187.3707733154297,eInterpolationCubic
Y,23,187.3707733154297,eInterpolationCubic
Y,23*,187.3707733154297,eInterpolationCubic
Y,24,187.3707733154297,eInterpolationCubic
Y,24*,187.3707733154297,eInterpolationCubic
Y,25,187.3707733154297,eInterpolationCubic
Y,25*,187.3707733154297,eInterpolationCubic
Y,26,187.3707733154297,eInterpolationCubic
Y,26*,187.3707733154297,eInterpolationCubic
Y,27,187.3707733154297,eInterpolationCubic
Y,27*,187.3707733154297,eInterpolationCubic
Y,28,187.3707733154297,eInterpolationCubic
Y,28*,187.3707733154297,eInterpolationCubic
Y,29,187.3707733154297,eInterpolationCubic
Y,29*,187.3707733154297,eInterpolationCubic
Y,30,187.3707733154297,eInterpolationCubic
Y,30*,187.3707733154297,eInterpolationConstant
Z,0,0.0,eInterpolationCubic
Z,0*,0.0,eInterpolationCubic
Z,1,0.0,eInterpolationCubic
Z,1*,0.0,eInterpolationCubic
Z,2,0.0,eInterpolationCubic
Z,2*,0.0,eInterpolationCubic
Z,3,0.0,eInterpolationCubic
Z,3*,0.0,eInterpolationCubic
Z,4,0.0,eInterpolationCubic
Z,4*,0.0,eInterpolationCubic
Z,5,0.0,eInterpolationCubic
Z,5*,0.0,eInterpolationCubic
Z,6,0.0,eInterpolationCubic
Z,6*,0.0,eInterpolationCubic
Z,7,0.0,eInterpolationCubic
Z,7*,0.0,eInterpolationCubic
Z,8,0.0,eInterpolationCubic
Z,8*,0.0,eInterpolationCubic
Z,9,0.0,eInterpolationCubic
Z,9*,0.0,eInterpolationCubic
Z,10,0.0,eInterpolationCubic
Z,10*,0.0,eInterpolationCubic
Z,11,0.0,eInterpolationCubic
Z,11*,0.0,eInterpolationCubic
Z,12,0.0,eInterpolationCubic
Z,12*,0.0,eInterpolationCubic
Z,13,0.0,eInterpolationCubic
Z,13*,0.0,eInterpolationCubic
Z,14,0.0,eInterpolationCubic
Z,14*,0.0,eInterpolationCubic
Z,15,0.0,eInterpolationCubic
Z,15*,0.0,eInterpolationCubic
Z,16,0.0,eInterpolationCubic
Z,16*,0.0,eInterpolationCubic
Z,17,0.0,eInterpolationCubic
Z,17*,0.0,eInterpolationCubic
Z,18,0.0,eInterpolationCubic
Z,18*,0.0,eInterpolationCubic
Z,19,0.0,eInterpolationCubic
Z,19*,0.0,eInterpolationCubic
Z,20,0.0,eInterpolationCubic
Z,20*,0.0,eInterpolationCubic
Z,21,0.0,eInterpolationCubic
Z,21*,0.0,eInterpolationCubic
Z,22,0.0,eInterpolationCubic
Z,22*,0.0,eInterpolationCubic
Z,23,0.0,eInterpolationCubic
Z,23*,0.0,eInterpolationCubic
Z,24,0.0,eInterpolationCubic
Z,24*,0.0,eInterpolationCubic
Z,25,0.0,eInterpolationCubic
Z,25*,0.0,eInterpolationCubic
Z,26,0.0,eInterpolationCubic
Z,26*,0.0,eInterpolationCubic
Z,27,0.0,eInterpolationCubic
Z,27*,0.0,eInterpolationCubic
Z,28,0.0,eInterpolationCubic
Z,28*,0.0,eInterpolationCubic
Z,29,0.0,eInterpolationCubic
Z,29*,0.0,eInterpolationCubic
Z,30,0.0,eInterpolationCubic
Z,30*,0.0,eInterpolationConstant
